1000_500_250_44_6
600
Set parameter Username
Academic license - for non-commercial use only - expires 2025-02-19
Set parameter Threads to value 1
Set parameter TimeLimit to value 600
Gurobi Optimizer version 11.0.0 build v11.0.0rc2 (linux64 - "Ubuntu 18.04.6 LTS")

CPU model: Intel(R) Xeon(R) CPU E5-2420 0 @ 1.90GHz, instruction set [SSE2|AVX]
Thread count: 6 physical cores, 12 logical processors, using up to 1 threads

Optimize a model with 4500 rows, 501000 columns and 1133292 nonzeros
Model fingerprint: 0x67b858a9
Variable types: 0 continuous, 501000 integer (501000 binary)
Coefficient statistics:
  Matrix range     [1e+00, 2e+02]
  Objective range  [8e+01, 2e+02]
  Bounds range     [1e+00, 1e+00]
  RHS range        [2e+02, 2e+02]
Found heuristic solution: objective -0.0000000
Presolve removed 2354 rows and 370502 columns (presolve time = 5s) ...
Presolve removed 2354 rows and 370502 columns
Presolve time: 5.16s
Presolved: 2146 rows, 130498 columns, 391936 nonzeros
Variable types: 0 continuous, 130498 integer (130498 binary)
Found heuristic solution: objective 53809.000000

Root simplex log...

Iteration    Objective       Primal Inf.    Dual Inf.      Time
       0    1.2890526e+07   8.314251e+05   0.000000e+00      8s
    2355    1.2449400e+05   0.000000e+00   0.000000e+00      8s
    2355    1.2449400e+05   0.000000e+00   0.000000e+00      8s

Root relaxation: objective 1.244940e+05, 2355 iterations, 1.06 seconds (0.36 work units)
Total elapsed time = 10.36s (DegenMoves)

    Nodes    |    Current Node    |     Objective Bounds      |     Work
 Expl Unexpl |  Obj  Depth IntInf | Incumbent    BestBd   Gap | It/Node Time

     0     0 124494.000    0  645 53809.0000 124494.000   131%     -   16s
H    0     0                    80664.000000 124494.000  54.3%     -   18s
H    0     0                    106186.00000 124494.000  17.2%     -   30s
     0     0 124494.000    0  736 106186.000 124494.000  17.2%     -   32s
H    0     0                    113302.00000 124494.000  9.88%     -   35s
H    0     0                    116757.00000 124494.000  6.63%     -   61s
     0     0 124494.000    0  739 116757.000 124494.000  6.63%     -   62s
     0     0 124494.000    0  562 116757.000 124494.000  6.63%     -   68s
H    0     0                    116771.00000 124494.000  6.61%     -   69s
     0     0 124494.000    0  641 116771.000 124494.000  6.61%     -   70s
     0     0 124494.000    0  539 116771.000 124494.000  6.61%     -   75s
     0     0 124494.000    0  586 116771.000 124494.000  6.61%     -   77s
     0     0 124494.000    0  507 116771.000 124494.000  6.61%     -   82s
     0     0 124494.000    0  507 116771.000 124494.000  6.61%     -   84s
H    0     0                    117514.00000 124494.000  5.94%     -   93s
     0     2 124494.000    0  507 117514.000 124494.000  5.94%     -  100s
    66    68 124494.000   63  502 117514.000 124494.000  5.94%  26.6  105s
   208   210 124494.000  199  502 117514.000 124494.000  5.94%  14.0  110s
   365   367 124494.000  353  505 117514.000 124494.000  5.94%   8.8  115s
   521   523 124494.000  507  508 117514.000 124494.000  5.94%   6.7  120s
   700   702 124494.000  684  507 117514.000 124494.000  5.94%   5.6  125s
   879   881 124494.000  862  509 117514.000 124494.000  5.94%   4.7  130s
  1020  1022 124494.000  988  517 117514.000 124494.000  5.94%   5.5  135s
  1185  1187 124494.000 1149  517 117514.000 124494.000  5.94%   5.2  140s
  1338  1340 124494.000 1302  514 117514.000 124494.000  5.94%   4.9  145s
  1496  1498 124494.000 1458  513 117514.000 124494.000  5.94%   4.7  150s
  1661  1663 124494.000 1623  518 117514.000 124494.000  5.94%   4.3  155s
  1821  1823 124494.000 1783  517 117514.000 124494.000  5.94%   4.1  160s
  1976  1978 124494.000 1938  517 117514.000 124494.000  5.94%   3.8  165s
  2125  2127 124494.000 2087  521 117514.000 124494.000  5.94%   3.7  170s
  2279  2281 124494.000 2241  522 117514.000 124494.000  5.94%   3.5  175s
  2433  2435 124494.000 2395  525 117514.000 124494.000  5.94%   3.3  180s
H 2550  2551                    117825.00000 124494.000  5.66%   3.2  185s
  2551  2552 124494.000 2364  507 117825.000 124494.000  5.66%   3.2  195s
H 2552  2425                    117894.00000 124494.000  5.60%   3.2  206s
H 2552  2304                    118141.00000 124494.000  5.38%   3.2  213s
  2553  2304 124494.000 1242  668 118141.000 124494.000  5.38%   3.2  215s
H 2553  2188                    118177.00000 124494.000  5.35%   3.2  224s
H 2553  2079                    118488.00000 124494.000  5.07%   3.2  242s
  2555  2081 124494.000 2253  624 118488.000 124494.000  5.07%   3.2  245s
  2556  2081 124494.000 1524  574 118488.000 124494.000  5.07%   3.2  250s
  2558  2083 124494.000  136  537 118488.000 124494.000  5.07%   3.2  257s
  2560  2084 124494.000  963  525 118488.000 124494.000  5.07%   3.2  266s
  2562  2085 124494.000 2233  478 118488.000 124494.000  5.07%   3.2  273s
  2563  2086 124494.000 1572  550 118488.000 124494.000  5.07%   3.2  275s
  2564  2087 124494.000  751  462 118488.000 124494.000  5.07%   3.2  280s
  2566  2088 124494.000  112  457 118488.000 124494.000  5.07%   3.2  286s
  2568  2089 124494.000 1833  447 118488.000 124494.000  5.07%   3.2  290s
  2570  2091 124494.000 2190  428 118488.000 124494.000  5.07%   3.2  295s
H 2571  1986                    118542.00000 124494.000  5.02%   3.2  305s
  2575  1991 124494.000   15  424 118542.000 124494.000  5.02%  17.5  310s
H 2598  1904                    118704.00000 124494.000  4.88%  17.4  314s
  2602  1909 124494.000   28  415 118704.000 124494.000  4.88%  17.4  315s
  2648  1940 124494.000   51  416 118704.000 124494.000  4.88%  17.3  320s
  2704  1977 124494.000   79  420 118704.000 124494.000  4.88%  17.2  325s
  2758  2013 124494.000  106  415 118704.000 124494.000  4.88%  17.2  330s
  2814  2050 124494.000  134  407 118704.000 124494.000  4.88%  17.4  335s
  2875  2091 124494.000  165  418 118704.000 124494.000  4.88%  17.5  340s
  2931  2128 124494.000  193  423 118704.000 124494.000  4.88%  18.2  345s
H 2973  2059                    118775.00000 124494.000  4.81%  18.3  361s
H 2976  1971                    118853.00000 124494.000  4.75%  18.3  439s
  2977  1974 124493.000  216  420 118853.000 124494.000  4.75%  18.4  440s
  3009  1995 124492.000  232  422 118853.000 124494.000  4.75%  18.7  445s
  3049  2022 124492.000  252  420 118853.000 124494.000  4.75%  19.0  450s
  3086  2047 124494.000  270  408 118853.000 124494.000  4.75%  19.3  455s
  3123  2071 124494.000  289  407 118853.000 124494.000  4.75%  19.4  460s
  3164  2099 124494.000  309  389 118853.000 124494.000  4.75%  19.2  465s
  3203  2125 124493.000  329  399 118853.000 124494.000  4.75%  19.6  470s
  3236  2147 124494.000  345  384 118853.000 124494.000  4.75%  20.4  475s
  3277  2174 124494.000  366  387 118853.000 124494.000  4.75%  20.8  480s
  3320  2203 124494.000  387  387 118853.000 124494.000  4.75%  21.2  485s
  3360  2229 124494.000  407  384 118853.000 124494.000  4.75%  21.3  490s
  3394  2252 124494.000  424  390 118853.000 124494.000  4.75%  21.8  495s
  3424  2272 124494.000  439  380 118853.000 124494.000  4.75%  22.4  500s
  3476  2307 124494.000  465  383 118853.000 124494.000  4.75%  23.0  505s
  3532  2344 124492.000  493  394 118853.000 124494.000  4.75%  23.3  510s
  3584  2379 124494.000  519  383 118853.000 124494.000  4.75%  24.0  515s
  3638  2415 124492.000  546  393 118853.000 124494.000  4.75%  24.5  520s
  3693  2451 124494.000  574  388 118853.000 124494.000  4.75%  25.2  525s
  3748  2488 124487.000  601  389 118853.000 124494.000  4.75%  25.2  530s
  3792  2517 124494.000  623  371 118853.000 124494.000  4.75%  26.7  535s
  3854  2559 124494.000  654  365 118853.000 124494.000  4.75%  26.4  540s
  3914  2599 124494.000  684  355 118853.000 124494.000  4.75%  26.5  545s
  3957  2627 124491.000  706  369 118853.000 124494.000  4.75%  27.9  550s
H 3976  2553                    118866.00000 124494.000  4.73%  28.0  567s
  3977  2556 124494.000  716  352 118866.000 124494.000  4.73%  28.0  578s
  3986  2562 124485.000  720  368 118866.000 124494.000  4.73%  28.2  580s
  4026  2588 124489.000  740  380 118866.000 124494.000  4.73%  29.4  585s
  4066  2615 124490.000  760  368 118866.000 124494.000  4.73%  31.0  590s
  4116  2648 124494.000  785  353 118866.000 124494.000  4.73%  31.3  595s

Cutting planes:
  Cover: 454
  Clique: 221
  MIR: 33
  StrongCG: 39
  Flow cover: 137
  Zero half: 1
  RLT: 1

Explored 4169 nodes (147398 simplex iterations) in 600.07 seconds (212.60 work units)
Thread count was 1 (of 12 available processors)

Solution count 10: 118866 118853 118775 ... 117825

Time limit reached
Best objective 1.188660000000e+05, best bound 1.244940000000e+05, gap 4.7347%
Solution = 118866.000000
