10000_500_200_12_0
600
Set parameter Username
Academic license - for non-commercial use only - expires 2025-02-19
Set parameter Threads to value 1
Set parameter TimeLimit to value 600
Gurobi Optimizer version 11.0.0 build v11.0.0rc2 (linux64 - "Ubuntu 18.04.6 LTS")

CPU model: Intel(R) Xeon(R) CPU E5-2420 0 @ 1.90GHz, instruction set [SSE2|AVX]
Thread count: 6 physical cores, 12 logical processors, using up to 1 threads

Optimize a model with 40500 rows, 5010000 columns and 11274577 nonzeros
Model fingerprint: 0x6a3fb8ee
Variable types: 0 continuous, 5010000 integer (5010000 binary)
Coefficient statistics:
  Matrix range     [1e+00, 1e+02]
  Objective range  [1e+00, 1e+02]
  Bounds range     [1e+00, 1e+00]
  RHS range        [2e+02, 2e+02]
Found heuristic solution: objective -0.0000000
Presolve removed 160 rows and 0 columns (presolve time = 7s) ...
Presolve removed 291 rows and 3745423 columns (presolve time = 10s) ...
Presolve removed 20000 rows and 3745423 columns (presolve time = 16s) ...
Presolve removed 21827 rows and 3745423 columns (presolve time = 20s) ...
Presolve removed 21827 rows and 3745423 columns (presolve time = 25s) ...
Presolve removed 21827 rows and 3745423 columns (presolve time = 30s) ...
Presolve removed 21963 rows and 3745559 columns (presolve time = 35s) ...
Presolve removed 23654 rows and 3764730 columns (presolve time = 40s) ...
Presolve removed 23654 rows and 3764827 columns (presolve time = 45s) ...
Presolve removed 23654 rows and 3764861 columns (presolve time = 50s) ...
Presolve removed 23654 rows and 3764861 columns (presolve time = 55s) ...
Presolve removed 23654 rows and 3764861 columns (presolve time = 60s) ...
Presolve removed 23654 rows and 3764861 columns (presolve time = 65s) ...
Presolve removed 23654 rows and 3764861 columns (presolve time = 70s) ...
Presolve removed 23654 rows and 3764861 columns (presolve time = 75s) ...
Presolve removed 23654 rows and 3764861 columns (presolve time = 80s) ...
Presolve removed 23654 rows and 3764861 columns (presolve time = 86s) ...
Presolve removed 23654 rows and 3764861 columns
Presolve time: 87.93s
Presolved: 16846 rows, 1245139 columns, 3740095 nonzeros
Variable types: 0 continuous, 1245139 integer (1245138 binary)
Found heuristic solution: objective 33989.000000

Root simplex log...

Iteration    Objective       Primal Inf.    Dual Inf.      Time
       0    5.8052194e+07   7.200149e+06   0.000000e+00    106s
    2489    1.4187513e+05   7.857043e+03   0.000000e+00    110s
    3622    1.4168975e+05   0.000000e+00   0.000000e+00    111s
    3622    1.4168975e+05   0.000000e+00   0.000000e+00    112s

Root relaxation: objective 1.416898e+05, 3622 iterations, 13.68 seconds (5.88 work units)
Total elapsed time = 115.62s (DegenMoves)

    Nodes    |    Current Node    |     Objective Bounds      |     Work
 Expl Unexpl |  Obj  Depth IntInf | Incumbent    BestBd   Gap | It/Node Time

     0     0 141689.754    0  513 33989.0000 141689.754   317%     -  123s
H    0     0                    106471.00000 141689.754  33.1%     -  132s
H    0     0                    111684.00000 141689.754  26.9%     -  187s
     0     0 141536.325    0  577 111684.000 141536.325  26.7%     -  199s
H    0     0                    119964.00000 141535.986  18.0%     -  259s
H    0     0                    124167.00000 141535.986  14.0%     -  396s
     0     0 141494.026    0  566 124167.000 141494.026  14.0%     -  399s
     0     0 141430.923    0  575 124167.000 141430.923  13.9%     -  403s
     0     0 141406.636    0  558 124167.000 141406.636  13.9%     -  406s
     0     0 141365.724    0  563 124167.000 141365.724  13.9%     -  409s
     0     0 141288.970    0  576 124167.000 141288.970  13.8%     -  414s
     0     0 141238.309    0  577 124167.000 141238.309  13.7%     -  418s
     0     0 141222.216    0  593 124167.000 141222.216  13.7%     -  422s
     0     0 141140.226    0  599 124167.000 141140.226  13.7%     -  427s
     0     0 140532.501    0  622 124167.000 140532.501  13.2%     -  430s
     0     0 140086.093    0  627 124167.000 140086.093  12.8%     -  435s
     0     0 140074.544    0  643 124167.000 140074.544  12.8%     -  438s
     0     0 140058.108    0  670 124167.000 140058.108  12.8%     -  441s
     0     0 140021.203    0  682 124167.000 140021.203  12.8%     -  443s
     0     0 139921.986    0  679 124167.000 139921.986  12.7%     -  448s
     0     0 139902.487    0  692 124167.000 139902.487  12.7%     -  451s
     0     0 139901.566    0  683 124167.000 139901.566  12.7%     -  454s
     0     0 139889.608    0  681 124167.000 139889.608  12.7%     -  457s
     0     0 139884.149    0  695 124167.000 139884.149  12.7%     -  462s
     0     0 139840.476    0  688 124167.000 139840.476  12.6%     -  465s
     0     0 139824.481    0  690 124167.000 139824.481  12.6%     -  469s
     0     0 139815.929    0  708 124167.000 139815.929  12.6%     -  476s
     0     0 139786.034    0  718 124167.000 139786.034  12.6%     -  481s
     0     0 139753.746    0  722 124167.000 139753.746  12.6%     -  487s
     0     0 139753.746    0  727 124167.000 139753.746  12.6%     -  492s
     0     0 139581.601    0  740 124167.000 139581.601  12.4%     -  507s
     0     0 139564.493    0  742 124167.000 139564.493  12.4%     -  514s
     0     0 139545.573    0  755 124167.000 139545.573  12.4%     -  517s
     0     0 139514.826    0  781 124167.000 139514.826  12.4%     -  524s
     0     0 139434.386    0  783 124167.000 139434.386  12.3%     -  529s
     0     0 139407.010    0  808 124167.000 139407.010  12.3%     -  534s
     0     0 139373.253    0  826 124167.000 139373.253  12.2%     -  538s
     0     0 139354.916    0  815 124167.000 139354.916  12.2%     -  543s
     0     0 139333.923    0  862 124167.000 139333.923  12.2%     -  551s
     0     0 139289.597    0  850 124167.000 139289.597  12.2%     -  560s
     0     0 139268.227    0  867 124167.000 139268.227  12.2%     -  568s
     0     0 139256.715    0  858 124167.000 139256.715  12.2%     -  574s
     0     0 139248.604    0  862 124167.000 139248.604  12.1%     -  578s
     0     0 139241.957    0  876 124167.000 139241.957  12.1%     -  586s
     0     0 139228.654    0  880 124167.000 139228.654  12.1%     -  590s
     0     0 139225.887    0  870 124167.000 139225.887  12.1%     -  594s
     0     0 139224.939    0  873 124167.000 139224.939  12.1%     -  598s

Cutting planes:
  Cover: 507
  Clique: 107
  MIR: 143
  StrongCG: 39
  RLT: 97

Explored 1 nodes (22402 simplex iterations) in 600.74 seconds (258.55 work units)
Thread count was 1 (of 12 available processors)

Solution count 6: 124167 119964 111684 ... -0

Time limit reached
Best objective 1.241670000000e+05, best bound 1.392249393493e+05, gap 12.1272%
Solution = 124167.000000
