10000_500_200_28_6
600
Set parameter Username
Academic license - for non-commercial use only - expires 2025-02-19
Set parameter Threads to value 1
Set parameter TimeLimit to value 600
Gurobi Optimizer version 11.0.0 build v11.0.0rc2 (linux64 - "Ubuntu 18.04.6 LTS")

CPU model: Intel(R) Xeon(R) CPU E5-2420 0 @ 1.90GHz, instruction set [SSE2|AVX]
Thread count: 6 physical cores, 12 logical processors, using up to 1 threads

Optimize a model with 40500 rows, 5010000 columns and 11276808 nonzeros
Model fingerprint: 0xaa245ce0
Variable types: 0 continuous, 5010000 integer (5010000 binary)
Coefficient statistics:
  Matrix range     [1e+00, 1e+02]
  Objective range  [1e+00, 1e+02]
  Bounds range     [1e+00, 1e+00]
  RHS range        [2e+02, 2e+02]
Found heuristic solution: objective -0.0000000
Presolve removed 285 rows and 3743192 columns (presolve time = 7s) ...
Presolve removed 20000 rows and 3743192 columns (presolve time = 10s) ...
Presolve removed 20285 rows and 3743192 columns (presolve time = 15s) ...
Presolve removed 20285 rows and 3743192 columns (presolve time = 21s) ...
Presolve removed 20570 rows and 3743782 columns (presolve time = 25s) ...
Presolve removed 20570 rows and 3743812 columns (presolve time = 30s) ...
Presolve removed 20570 rows and 3743812 columns (presolve time = 35s) ...
Presolve removed 20570 rows and 3743812 columns (presolve time = 40s) ...
Presolve removed 20764 rows and 3743909 columns (presolve time = 48s) ...
Presolve removed 20764 rows and 3743947 columns (presolve time = 50s) ...
Presolve removed 20764 rows and 3743947 columns (presolve time = 55s) ...
Presolve removed 20764 rows and 3743947 columns (presolve time = 60s) ...
Presolve removed 20764 rows and 3743947 columns
Presolve time: 60.46s
Presolved: 19736 rows, 1266053 columns, 3787866 nonzeros
Variable types: 0 continuous, 1266053 integer (1266053 binary)
Found heuristic solution: objective 37996.000000

Root simplex log...

Iteration    Objective       Primal Inf.    Dual Inf.      Time
       0    9.4353460e+06   1.189194e+06   0.000000e+00     76s
    4326    1.3578459e+05   2.886851e+04   0.000000e+00     80s
    9669    1.3511188e+05   0.000000e+00   0.000000e+00     83s
    9669    1.3511188e+05   0.000000e+00   0.000000e+00     84s

Root relaxation: objective 1.351119e+05, 9669 iterations, 15.04 seconds (8.02 work units)
Total elapsed time = 86.49s (DegenMoves)

    Nodes    |    Current Node    |     Objective Bounds      |     Work
 Expl Unexpl |  Obj  Depth IntInf | Incumbent    BestBd   Gap | It/Node Time

     0     0 135111.883    0  603 37996.0000 135111.883   256%     -   94s
H    0     0                    99201.000000 135111.883  36.2%     -  100s
H    0     0                    102506.00000 135111.883  31.8%     -  244s
     0     0 135098.374    0  607 102506.000 135098.374  31.8%     -  258s
H    0     0                    114488.00000 135098.374  18.0%     -  600s

Cutting planes:
  Cover: 18
  MIR: 19
  RLT: 94

Explored 1 nodes (12496 simplex iterations) in 601.13 seconds (214.32 work units)
Thread count was 1 (of 12 available processors)

Solution count 5: 114488 102506 99201 ... -0

Time limit reached
Best objective 1.144880000000e+05, best bound 1.350980000000e+05, gap 18.0019%
Solution = 114488.000000
