1000_500_250_39_2
600
Set parameter Username
Academic license - for non-commercial use only - expires 2025-02-19
Set parameter Threads to value 1
Set parameter TimeLimit to value 600
Gurobi Optimizer version 11.0.0 build v11.0.0rc2 (linux64 - "Ubuntu 18.04.6 LTS")

CPU model: Intel(R) Xeon(R) CPU E5-2420 0 @ 1.90GHz, instruction set [SSE2|AVX]
Thread count: 6 physical cores, 12 logical processors, using up to 1 threads

Optimize a model with 4500 rows, 501000 columns and 1127781 nonzeros
Model fingerprint: 0x6bcb1b47
Variable types: 0 continuous, 501000 integer (501000 binary)
Coefficient statistics:
  Matrix range     [1e+00, 2e+02]
  Objective range  [8e+01, 2e+02]
  Bounds range     [1e+00, 1e+00]
  RHS range        [2e+02, 2e+02]
Found heuristic solution: objective -0.0000000
Presolve removed 2073 rows and 374288 columns (presolve time = 5s) ...
Presolve removed 2073 rows and 374288 columns
Presolve time: 5.48s
Presolved: 2427 rows, 126712 columns, 379104 nonzeros
Variable types: 0 continuous, 126712 integer (126711 binary)
Found heuristic solution: objective 76020.000000

Root simplex log...

Iteration    Objective       Primal Inf.    Dual Inf.      Time
       0    6.9553577e+05   6.538474e+04   0.000000e+00      8s
    1382    1.2467500e+05   0.000000e+00   0.000000e+00      8s
    1382    1.2467500e+05   0.000000e+00   0.000000e+00      8s

Root relaxation: objective 1.246750e+05, 1382 iterations, 0.97 seconds (0.37 work units)
Total elapsed time = 10.67s (DegenMoves)

    Nodes    |    Current Node    |     Objective Bounds      |     Work
 Expl Unexpl |  Obj  Depth IntInf | Incumbent    BestBd   Gap | It/Node Time

     0     0 124675.000    0  512 76020.0000 124675.000  64.0%     -   12s
H    0     0                    119123.00000 124675.000  4.66%     -   13s
H    0     0                    121529.00000 124675.000  2.59%     -   22s
     0     0 124675.000    0  525 121529.000 124675.000  2.59%     -   23s
H    0     0                    123431.00000 124675.000  1.01%     -   30s
     0     0 124675.000    0  515 123431.000 124675.000  1.01%     -   30s
     0     0 124675.000    0  431 123431.000 124675.000  1.01%     -   34s
     0     0 124675.000    0  490 123431.000 124675.000  1.01%     -   34s
     0     0 124675.000    0  419 123431.000 124675.000  1.01%     -   39s
     0     0 124675.000    0  484 123431.000 124675.000  1.01%     -   40s
     0     0 124675.000    0  407 123431.000 124675.000  1.01%     -   43s
     0     0 124675.000    0  406 123431.000 124675.000  1.01%     -   45s
H    0     0                    124215.00000 124675.000  0.37%     -   49s
     0     2 124675.000    0  403 124215.000 124675.000  0.37%     -   53s
    19    21 124675.000   18  403 124215.000 124675.000  0.37%  62.5   55s
H   27    27                    124299.00000 124675.000  0.30%  53.3   60s
   118   120 124675.000  111  398 124299.000 124675.000  0.30%  18.1   65s
   243   245 124675.000  227  408 124299.000 124675.000  0.30%  10.1   70s
   412   414 124675.000  380  416 124299.000 124675.000  0.30%   7.4   75s
   588   590 124675.000  542  420 124299.000 124675.000  0.30%   6.2   80s
   776   778 124675.000  718  421 124299.000 124675.000  0.30%   5.2   85s
H  777   777                    124351.00000 124675.000  0.26%   5.2   89s
   795   797 124675.000  736  423 124351.000 124675.000  0.26%   5.2   90s
   980   982 124675.000  914  424 124351.000 124675.000  0.26%   4.4   95s
  1168  1170 124675.000 1098  425 124351.000 124675.000  0.26%   4.0  100s
  1348  1350 124675.000 1270  422 124351.000 124675.000  0.26%   3.8  105s
H 1367  1367                    124421.00000 124675.000  0.20%   3.8  106s
  1497  1499 124675.000 1414  421 124421.000 124675.000  0.20%   3.7  110s
  1683  1685 124675.000 1598  424 124421.000 124675.000  0.20%   3.5  115s
  1869  1871 124675.000 1781  425 124421.000 124675.000  0.20%   3.2  120s
H 1983  1983                    124492.00000 124675.000  0.15%   3.1  128s
  2036  2038 124675.000 1947  426 124492.000 124675.000  0.15%   3.1  130s
  2212  2214 124675.000 2123  426 124492.000 124675.000  0.15%   2.9  135s
  2379  2381 124675.000 2289  424 124492.000 124675.000  0.15%   2.8  140s
  2539  2541 124675.000 2448  426 124492.000 124675.000  0.15%   2.7  145s
  2551  2552 124675.000  120  406 124492.000 124675.000  0.15%   2.7  156s
H 2552  2425                    124549.00000 124675.000  0.10%   2.7  165s
H 2553  2304                    124567.00000 124675.000  0.09%   2.7  177s
  2556  2306 124675.000  806  440 124567.000 124675.000  0.09%   2.7  183s
  2558  2308 124675.000 2358  421 124567.000 124675.000  0.09%   2.7  189s
  2559  2308 124675.000  806  482 124567.000 124675.000  0.09%   2.7  190s
  2561  2310 124675.000  112  475 124567.000 124675.000  0.09%   2.7  195s
  2563  2311 124675.000 1153  435 124567.000 124675.000  0.09%   2.7  200s
  2565  2312 124675.000 2174  447 124567.000 124675.000  0.09%   2.7  206s
  2567  2314 124675.000 1747  448 124567.000 124675.000  0.09%   2.7  210s
  2569  2315 124675.000 1485  435 124567.000 124675.000  0.09%   2.7  215s
  2571  2316 124675.000 1272  376 124567.000 124675.000  0.09%   2.7  220s
H 2571  2199                    124587.00000 124675.000  0.07%   2.7  229s
  2572  2200 124675.000  296  376 124587.000 124675.000  0.07%   2.7  232s
H 2572  2090                    124597.00000 124675.000  0.06%  22.1  240s
  2598  2109 124675.000   26  375 124597.000 124675.000  0.06%  22.3  245s
H 2624  2020                    124609.00000 124675.000  0.05%  22.2  248s
H 2625  1920                    124610.00000 124675.000  0.05%  22.2  255s
  2677  1957 124675.000   66  372 124610.000 124675.000  0.05%  21.8  260s
H 2710  1883                    124634.00000 124675.000  0.03%  21.6  266s
  2748  1910 124675.000  101  381 124634.000 124675.000  0.03%  21.3  270s
  2809  1951 124675.000  132  384 124634.000 124675.000  0.03%  20.9  275s
  2871  1992 124675.000  163  385 124634.000 124675.000  0.03%  20.5  280s
  2935  2035 124675.000  195  384 124634.000 124675.000  0.03%  20.1  285s
  2995  2075 124675.000  225  391 124634.000 124675.000  0.03%  19.8  290s
  3059  2118 124675.000  257  389 124634.000 124675.000  0.03%  19.4  295s
  3127  2163 124675.000  291  387 124634.000 124675.000  0.03%  19.1  300s
H 3189  2112                    124635.00000 124675.000  0.03%  18.8  313s
  3202  2123 124675.000  328  390 124635.000 124675.000  0.03%  18.7  315s
  3264  2164 124675.000  359  387 124635.000 124675.000  0.03%  18.4  320s
  3325  2205 124663.000  390  385 124635.000 124675.000  0.03%  18.2  325s
  3384  2244 124675.000  419  386 124635.000 124675.000  0.03%  17.9  330s
  3445  2285 124666.000  450  385 124635.000 124675.000  0.03%  17.7  335s
  3508  2327 124675.000  481  386 124635.000 124675.000  0.03%  17.4  340s
  3570  2368 124664.000  512  384 124635.000 124675.000  0.03%  17.2  345s
  3627  2406 124660.000  541  386 124635.000 124675.000  0.03%  16.9  350s
  3696  2452 124675.000  575  380 124635.000 124675.000  0.03%  16.7  355s
  3759  2494 124671.000  607  382 124635.000 124675.000  0.03%  16.4  360s
  3768  2500 124675.000  611  378 124635.000 124675.000  0.03%  16.4  369s
  3778  2507 124675.000  616  378 124635.000 124675.000  0.03%  16.4  370s
  3858  2560 124675.000  656  373 124635.000 124675.000  0.03%  16.1  375s
  3934  2611 124675.000  694  370 124635.000 124675.000  0.03%  15.9  380s
  4006  2659 124675.000  730  372 124635.000 124675.000  0.03%  15.7  385s
  4079  2708 124653.000  767  371 124635.000 124675.000  0.03%  15.5  390s
  4138  2747 124675.000  796  374 124635.000 124675.000  0.03%  15.3  400s
  4200  2788 124641.000  827  369 124635.000 124675.000  0.03%  15.1  405s
  4275  2838 124639.000  865  371 124635.000 124675.000  0.03%  15.0  410s
  4350  2888 124656.000  902  371 124635.000 124675.000  0.03%  14.8  415s
  4423  2937 124675.000  939  369 124635.000 124675.000  0.03%  14.6  420s
  4501  2989 124675.000  978  368 124635.000 124675.000  0.03%  14.4  425s
  4587  3042 124655.000 1021  373 124635.000 124675.000  0.03%  14.2  430s
  4678  3103 124675.000 1066  370 124635.000 124675.000  0.03%  14.0  435s
  4763  3160 124659.000 1109  368 124635.000 124675.000  0.03%  13.9  440s
  4842  3212 124651.000 1148  367 124635.000 124675.000  0.03%  13.7  445s
  4867  3229 124646.000 1161  368 124635.000 124675.000  0.03%  13.7  450s
  4946  3282 124638.000 1200  367 124635.000 124675.000  0.03%  13.5  455s
  5039  3336 124654.000 1246  367 124635.000 124675.000  0.03%  13.3  460s
  5122  3367 124675.000 1287  369 124635.000 124675.000  0.03%  13.2  471s
  5204  3422 124675.000 1328  364 124635.000 124675.000  0.03%  13.1  475s
  5298  3484 124651.000 1375  364 124635.000 124675.000  0.03%  12.9  480s
  5391  3546 124650.000 1422  366 124635.000 124675.000  0.03%  12.7  485s
  5392  3547 124675.000 1422  363 124635.000 124675.000  0.03%  12.7  491s
  5455  3589 124669.000 1454  362 124635.000 124675.000  0.03%  12.6  495s
  5548  3651 124675.000 1500  364 124635.000 124675.000  0.03%  12.5  500s
  5623  3685 124675.000 1538  363 124635.000 124675.000  0.03%  12.4  505s
  5713  3745 124675.000 1583  360 124635.000 124675.000  0.03%  12.3  510s
  5802  3804 124653.000 1627  358 124635.000 124675.000  0.03%  12.1  515s
  5879  3856 124652.000 1666  359 124635.000 124675.000  0.03%  12.1  520s
  5968  3915 124675.000 1710  360 124635.000 124675.000  0.03%  11.9  525s
  6055  3973 124675.000 1754  366 124635.000 124675.000  0.03%  11.8  530s
  6124  4019 124675.000 1788  365 124635.000 124675.000  0.03%  11.7  538s
  6143  4032 124675.000 1798  361 124635.000 124675.000  0.03%  11.7  540s
  6234  4092 124675.000 1843  364 124635.000 124675.000  0.03%  11.6  545s
  6313  4144 124654.000 1883  357 124635.000 124675.000  0.03%  11.5  550s
  6399  4197 124675.000 1925  358 124635.000 124675.000  0.03%  11.4  555s
H 6459  4141                    124636.00000 124675.000  0.03%  11.3  569s
H 6460  4041                    124637.00000 124675.000  0.03%  11.3  574s
  6472  4051 124662.000 1962  360 124637.000 124675.000  0.03%  11.3  575s
  6556  4107 124675.000 2004  359 124637.000 124675.000  0.03%  11.2  580s
  6620  4150 124675.000 2036  360 124637.000 124675.000  0.03%  11.2  585s
  6685  4193 124675.000 2068  359 124637.000 124675.000  0.03%  11.1  590s
  6749  4236 124675.000 2100  350 124637.000 124675.000  0.03%  11.1  595s
  6814  4279 124675.000 2133  349 124637.000 124675.000  0.03%  11.0  600s

Cutting planes:
  Gomory: 2
  Cover: 343
  Clique: 37
  MIR: 26
  StrongCG: 76
  Flow cover: 107
  Zero half: 2
  RLT: 8

Explored 6815 nodes (98590 simplex iterations) in 600.06 seconds (207.14 work units)
Thread count was 1 (of 12 available processors)

Solution count 10: 124637 124636 124635 ... 124549

Time limit reached
Best objective 1.246370000000e+05, best bound 1.246750000000e+05, gap 0.0305%
Solution = 124637.000000
