1000_500_250_4_4
600
Set parameter Username
Academic license - for non-commercial use only - expires 2025-02-19
Set parameter Threads to value 1
Set parameter TimeLimit to value 600
Gurobi Optimizer version 11.0.0 build v11.0.0rc2 (linux64 - "Ubuntu 18.04.6 LTS")

CPU model: Intel(R) Xeon(R) CPU E5-2420 0 @ 1.90GHz, instruction set [SSE2|AVX]
Thread count: 6 physical cores, 12 logical processors, using up to 1 threads

Optimize a model with 4500 rows, 501000 columns and 1126063 nonzeros
Model fingerprint: 0xe5ce5d83
Variable types: 0 continuous, 501000 integer (501000 binary)
Coefficient statistics:
  Matrix range     [1e+00, 2e+02]
  Objective range  [1e+00, 1e+02]
  Bounds range     [1e+00, 1e+00]
  RHS range        [2e+02, 2e+02]
Found heuristic solution: objective -0.0000000
Presolve removed 2067 rows and 375992 columns
Presolve time: 4.41s
Presolved: 2433 rows, 125008 columns, 373984 nonzeros
Variable types: 0 continuous, 125008 integer (125008 binary)
Found heuristic solution: objective 42457.000000

Root simplex log...

Iteration    Objective       Primal Inf.    Dual Inf.      Time
       0    2.0071372e+05   1.789764e+04   0.000000e+00      6s
   11128    1.0478463e+05   0.000000e+00   0.000000e+00      7s
   11128    1.0478463e+05   0.000000e+00   0.000000e+00      7s

Root relaxation: objective 1.047846e+05, 11128 iterations, 1.79 seconds (0.87 work units)

    Nodes    |    Current Node    |     Objective Bounds      |     Work
 Expl Unexpl |  Obj  Depth IntInf | Incumbent    BestBd   Gap | It/Node Time

     0     0 104784.626    0  591 42457.0000 104784.626   147%     -    8s
H    0     0                    88999.000000 104784.626  17.7%     -    9s
H    0     0                    89744.000000 104784.626  16.8%     -   16s
     0     0 104769.156    0  651 89744.0000 104769.156  16.7%     -   18s
H    0     0                    90329.000000 104769.156  16.0%     -   34s
     0     0 104692.014    0  707 90329.0000 104692.014  15.9%     -   34s
     0     0 104591.398    0  728 90329.0000 104591.398  15.8%     -   35s
     0     0 104182.153    0  753 90329.0000 104182.153  15.3%     -   37s
     0     0 103291.671    0  784 90329.0000 103291.671  14.4%     -   38s
     0     0 102059.534    0  840 90329.0000 102059.534  13.0%     -   40s
     0     0 100723.898    0  874 90329.0000 100723.898  11.5%     -   42s
     0     0 99663.3565    0  886 90329.0000 99663.3565  10.3%     -   44s
     0     0 99631.1395    0  904 90329.0000 99631.1395  10.3%     -   44s
     0     0 99498.6969    0  921 90329.0000 99498.6969  10.2%     -   46s
     0     0 99487.9794    0  964 90329.0000 99487.9794  10.1%     -   47s
     0     0 99484.4832    0 1005 90329.0000 99484.4832  10.1%     -   48s
     0     0 99483.7735    0 1010 90329.0000 99483.7735  10.1%     -   49s
     0     0 99483.7735    0 1012 90329.0000 99483.7735  10.1%     -   49s
     0     0 98244.7723    0 1021 90329.0000 98244.7723  8.76%     -   52s
     0     0 97035.4486    0  983 90329.0000 97035.4486  7.42%     -   64s
     0     0 96888.8772    0  953 90329.0000 96888.8772  7.26%     -   66s
     0     0 96816.8323    0  944 90329.0000 96816.8323  7.18%     -   68s
     0     0 96491.5803    0  965 90329.0000 96491.5803  6.82%     -   71s
     0     0 96476.9248    0  985 90329.0000 96476.9248  6.81%     -   74s
     0     0 96459.6069    0 1022 90329.0000 96459.6069  6.79%     -   75s
     0     0 96457.0566    0 1047 90329.0000 96457.0566  6.78%     -   77s
     0     0 95636.9557    0  977 90329.0000 95636.9557  5.88%     -   80s
     0     0 95431.7069    0  922 90329.0000 95431.7069  5.65%     -   91s
     0     0 95368.5846    0  902 90329.0000 95368.5846  5.58%     -   93s
     0     0 95328.4563    0  896 90329.0000 95328.4563  5.53%     -   95s
     0     0 95327.5687    0  909 90329.0000 95327.5687  5.53%     -   97s
     0     0 95156.4260    0  893 90329.0000 95156.4260  5.34%     -  100s
     0     0 95117.6098    0  891 90329.0000 95117.6098  5.30%     -  102s
     0     0 95100.7440    0  898 90329.0000 95100.7440  5.28%     -  104s
     0     0 95096.4298    0  892 90329.0000 95096.4298  5.28%     -  105s
     0     0 95056.0870    0  863 90329.0000 95056.0870  5.23%     -  112s
     0     0 95055.5248    0  729 90329.0000 95055.5248  5.23%     -  118s
H    0     0                    92045.000000 95055.5248  3.27%     -  148s
     0     2 95055.5212    0  700 92045.0000 95055.5212  3.27%     -  151s
     5     7 95055.5212    3  716 92045.0000 95055.5212  3.27%   685  156s
     9    11 95055.5212    6  717 92045.0000 95055.5212  3.27%   454  160s
    14    16 95055.5212    8  714 92045.0000 95055.5212  3.27%   379  165s
    18    20 95055.5212   10  718 92045.0000 95055.5212  3.27%   358  170s
    25    27 95055.5212   15  713 92045.0000 95055.5212  3.27%   293  175s
H   26    26                    92094.000000 95055.5212  3.22%   282  182s
H   27    27                    92363.000000 95055.5212  2.92%   275  190s
    33    35 95055.5212   19  717 92363.0000 95055.5212  2.92%   242  195s
    40    42 95055.5212   24  709 92363.0000 95055.5212  2.92%   214  200s
    46    48 95055.5212   28  704 92363.0000 95055.5212  2.92%   204  205s
    50    52 95055.5212   30  702 92363.0000 95055.5212  2.92%   205  210s
H   52    52                    92364.000000 95055.5212  2.91%   199  216s
H   54    54                    92921.000000 95055.5212  2.30%   195  357s
    57    59 95055.5212   34  709 92921.0000 95055.5212  2.30%   200  361s
    61    63 95055.5212   37  704 92921.0000 95055.5212  2.30%   194  365s
    66    68 95055.5212   40  701 92921.0000 95055.5212  2.30%   191  370s
    71    73 95055.4731   43  706 92921.0000 95055.5212  2.30%   190  375s
    75    77 95055.4731   46  699 92921.0000 95055.5212  2.30%   192  380s
H   78    78                    92938.000000 95055.5212  2.28%   190  388s
    80    82 95054.4611   49  710 92938.0000 95055.5212  2.28%   191  390s
    84    86 95055.4731   51  719 92938.0000 95055.5212  2.28%   192  395s
    90    92 95050.9494   55  723 92938.0000 95055.5212  2.28%   187  400s
    96    98 95055.4731   59  724 92938.0000 95055.5212  2.28%   187  406s
   101   103 95055.4731   62  714 92938.0000 95055.5212  2.28%   183  410s
H  104   104                    92945.000000 95055.5212  2.27%   179  412s
   107   109 95055.4731   66  722 92945.0000 95055.5212  2.27%   178  415s
   112   114 95055.4731   69  714 92945.0000 95055.5212  2.27%   177  420s
   119   121 95055.4731   76  713 92945.0000 95055.5212  2.27%   175  425s
   126   128 95055.4731   82  719 92945.0000 95055.5212  2.27%   174  430s
H  130   130                    92949.000000 95055.5212  2.27%   171  437s
   134   136 95055.4731   88  703 92949.0000 95055.5212  2.27%   169  440s
   140   142 95055.4731   91  714 92949.0000 95055.5212  2.27%   167  445s
   148   150 95055.4731   97  689 92949.0000 95055.5212  2.27%   165  450s
H  156   156                    92953.000000 95055.5212  2.26%   160  460s
   161   163 95055.4731  105  706 92953.0000 95055.5212  2.26%   165  465s
   168   170 95055.4250  110  702 92953.0000 95055.5212  2.26%   163  470s
   175   177 95055.4250  115  699 92953.0000 95055.5212  2.26%   163  476s
   179   181 95055.4250  119  699 92953.0000 95055.5212  2.26%   165  480s
   182   184 95055.4250  121  680 92953.0000 95055.5212  2.26%   166  490s
   189   191 95055.4250  126  683 92953.0000 95055.5212  2.26%   165  495s
   196   198 95055.4250  130  681 92953.0000 95055.5212  2.26%   165  500s
   201   203 95055.4250  134  668 92953.0000 95055.5212  2.26%   166  505s
   207   209 95055.4250  138  674 92953.0000 95055.5212  2.26%   169  511s
   208   210 95055.4250  139  671 92953.0000 95055.5212  2.26%   169  517s
   211   213 95055.4250  141  675 92953.0000 95055.5212  2.26%   171  520s
   216   218 95055.4250  145  663 92953.0000 95055.5212  2.26%   171  525s
   222   224 95055.4250  150  663 92953.0000 95055.5212  2.26%   171  530s
   227   229 95055.4250  153  662 92953.0000 95055.5212  2.26%   172  535s
   232   234 95055.4250  155  666 92953.0000 95055.5212  2.26%   174  541s
   236   238 95055.4250  158  664 92953.0000 95055.5212  2.26%   174  545s
   242   244 95055.4250  163  671 92953.0000 95055.5212  2.26%   173  551s
   246   248 95055.4250  166  670 92953.0000 95055.5212  2.26%   173  555s
   252   254 95055.3810  169  671 92953.0000 95055.5212  2.26%   175  560s
   259   261 95050.9013  175  674 92953.0000 95055.5212  2.26%   176  566s
   260   262 95055.4250  176  663 92953.0000 95055.5212  2.26%   176  572s
   264   266 95055.4250  179  667 92953.0000 95055.5212  2.26%   176  575s
   270   272 95055.4250  184  663 92953.0000 95055.5212  2.26%   178  580s
   279   281 95055.4250  190  655 92953.0000 95055.5212  2.26%   177  585s
   287   289 95055.4250  196  660 92953.0000 95055.5212  2.26%   176  590s
   294   296 95055.3846  201  653 92953.0000 95055.5212  2.26%   176  595s

Cutting planes:
  Cover: 1083
  Clique: 26
  MIR: 112
  StrongCG: 85
  RLT: 2

Explored 301 nodes (142547 simplex iterations) in 600.06 seconds (290.34 work units)
Thread count was 1 (of 12 available processors)

Solution count 10: 92953 92949 92945 ... 90329

Time limit reached
Best objective 9.295300000000e+04, best bound 9.505500000000e+04, gap 2.2614%
Solution = 92953.000000
