10000_500_200_6_9
600
Set parameter Username
Academic license - for non-commercial use only - expires 2025-02-19
Set parameter Threads to value 1
Set parameter TimeLimit to value 600
Gurobi Optimizer version 11.0.0 build v11.0.0rc2 (linux64 - "Ubuntu 18.04.6 LTS")

CPU model: Intel(R) Xeon(R) CPU E5-2420 0 @ 1.90GHz, instruction set [SSE2|AVX]
Thread count: 6 physical cores, 12 logical processors, using up to 1 threads

Optimize a model with 40500 rows, 5010000 columns and 11295681 nonzeros
Model fingerprint: 0xb0a54d10
Variable types: 0 continuous, 5010000 integer (5010000 binary)
Coefficient statistics:
  Matrix range     [1e+00, 1e+02]
  Objective range  [7e+01, 1e+02]
  Bounds range     [1e+00, 1e+00]
  RHS range        [2e+02, 2e+02]
Found heuristic solution: objective -0.0000000
Presolve removed 162 rows and 0 columns (presolve time = 5s) ...
Presolve removed 303 rows and 3724319 columns (presolve time = 11s) ...
Presolve removed 20000 rows and 3724319 columns (presolve time = 16s) ...
Presolve removed 21123 rows and 3724319 columns (presolve time = 20s) ...
Presolve removed 21123 rows and 3724319 columns (presolve time = 25s) ...
Presolve removed 21123 rows and 3724319 columns (presolve time = 31s) ...
Presolve removed 21263 rows and 3724459 columns (presolve time = 35s) ...
Presolve removed 22246 rows and 3731169 columns (presolve time = 40s) ...
Presolve removed 22246 rows and 3731169 columns (presolve time = 45s) ...
Presolve removed 22246 rows and 3731169 columns (presolve time = 50s) ...
Presolve removed 22246 rows and 3731169 columns (presolve time = 55s) ...
Presolve removed 22246 rows and 3731169 columns (presolve time = 61s) ...
Presolve removed 22246 rows and 3731169 columns (presolve time = 69s) ...
Presolve removed 22246 rows and 3731169 columns (presolve time = 70s) ...
Presolve removed 22246 rows and 3731169 columns
Presolve time: 70.91s
Presolved: 18254 rows, 1278831 columns, 3831069 nonzeros
Variable types: 0 continuous, 1278831 integer (1278824 binary)
Found heuristic solution: objective 57584.000000

Root simplex log...

Iteration    Objective       Primal Inf.    Dual Inf.      Time
       0    1.1419076e+08   7.341200e+06   0.000000e+00     90s
    2582    1.0000000e+05   0.000000e+00   0.000000e+00     92s
    2582    1.0000000e+05   0.000000e+00   0.000000e+00     92s

Root relaxation: objective 1.000000e+05, 2582 iterations, 9.70 seconds (3.90 work units)
Total elapsed time = 102.76s (DegenMoves)
Total elapsed time = 112.57s (DegenMoves)
Total elapsed time = 122.24s (DegenMoves)

    Nodes    |    Current Node    |     Objective Bounds      |     Work
 Expl Unexpl |  Obj  Depth IntInf | Incumbent    BestBd   Gap | It/Node Time

     0     0 100000.000    0  617 57584.0000 100000.000  73.7%     -  130s
H    0     0                    94640.000000 100000.000  5.66%     -  158s
H    0     0                    95867.000000 100000.000  4.31%     -  233s
     0     0 100000.000    0  686 95867.0000 100000.000  4.31%     -  253s
H    0     0                    97800.000000 100000.000  2.25%     -  499s
     0     0 100000.000    0  691 97800.0000 100000.000  2.25%     -  504s
     0     0 100000.000    0  492 97800.0000 100000.000  2.25%     -  546s
     0     0 100000.000    0  561 97800.0000 100000.000  2.25%     -  560s
     0     0 100000.000    0  489 97800.0000 100000.000  2.25%     -  601s

Cutting planes:
  Cover: 299
  Clique: 89
  MIR: 186
  StrongCG: 42
  RLT: 1

Explored 1 nodes (18333 simplex iterations) in 601.90 seconds (260.65 work units)
Thread count was 1 (of 12 available processors)

Solution count 5: 97800 95867 94640 ... -0

Time limit reached
Best objective 9.780000000000e+04, best bound 1.000000000000e+05, gap 2.2495%
Solution = 97800.000000
