100_75_50_27_7
600
Set parameter Username
Academic license - for non-commercial use only - expires 2025-02-19
Set parameter Threads to value 1
Set parameter TimeLimit to value 600
Gurobi Optimizer version 11.0.0 build v11.0.0rc2 (linux64 - "Ubuntu 18.04.6 LTS")

CPU model: Intel(R) Xeon(R) CPU E5-2420 0 @ 1.90GHz, instruction set [SSE2|AVX]
Thread count: 6 physical cores, 12 logical processors, using up to 1 threads

Optimize a model with 475 rows, 7600 columns and 22700 nonzeros
Model fingerprint: 0x7128850d
Variable types: 0 continuous, 7600 integer (7600 binary)
Coefficient statistics:
  Matrix range     [1e+00, 3e+01]
  Objective range  [4e+00, 1e+02]
  Bounds range     [1e+00, 1e+00]
  RHS range        [5e+01, 5e+01]
Found heuristic solution: objective -0.0000000
Presolve removed 200 rows and 0 columns
Presolve time: 0.09s
Presolved: 275 rows, 7600 columns, 22700 nonzeros
Variable types: 0 continuous, 7600 integer (7600 binary)
Found heuristic solution: objective 9127.0000000

Root relaxation: objective 1.527903e+04, 636 iterations, 0.03 seconds (0.01 work units)

    Nodes    |    Current Node    |     Objective Bounds      |     Work
 Expl Unexpl |  Obj  Depth IntInf | Incumbent    BestBd   Gap | It/Node Time

     0     0 15279.0323    0   86 9127.00000 15279.0323  67.4%     -    0s
H    0     0                    13388.000000 15279.0323  14.1%     -    0s
H    0     0                    13741.000000 15279.0323  11.2%     -    0s
     0     0 15279.0323    0  150 13741.0000 15279.0323  11.2%     -    0s
H    0     0                    14067.000000 15279.0323  8.62%     -    1s
     0     0 15279.0323    0  176 14067.0000 15279.0323  8.62%     -    1s
     0     0 15279.0323    0  112 14067.0000 15279.0323  8.62%     -    1s
     0     0 15279.0323    0  112 14067.0000 15279.0323  8.62%     -    2s
     0     2 15277.9677    0  106 14067.0000 15277.9677  8.61%     -    2s
H   26    26                    14116.000000 15277.9677  8.23%  60.6    3s
H   83    83                    14134.000000 15277.9677  8.09%  31.3    4s
H   84    84                    14222.000000 15277.9677  7.42%  30.9    7s
   302   304 15059.4633  260   81 14222.0000 15277.9677  7.42%  18.0   10s
H  473   473                    14230.000000 15277.9677  7.36%  15.1   12s
   692   694 14723.1787  635   78 14230.0000 15277.9677  7.36%  11.6   15s
   920   916 14489.8000  854   56 14230.0000 15277.9677  7.36%  10.5   20s
  1039  1004 14494.0938  836  153 14230.0000 15277.9677  7.36%  10.5   25s
H 1065   970                    14243.000000 15277.9677  7.27%  27.1   26s
  1129  1015 15109.0993   54  112 14243.0000 15277.9677  7.27%  27.8   30s
H 1171   993                    14253.000000 15277.9677  7.19%  27.5   31s
  1253  1050 15021.5986  116  103 14253.0000 15277.9677  7.19%  27.7   35s
  1516  1215 14652.5714  248  120 14253.0000 15277.9677  7.19%  28.5   40s
  1717  1345 14345.6374  348  103 14253.0000 15277.9677  7.19%  31.3   45s
  1975  1427 15245.7292   69  123 14253.0000 15277.9677  7.19%  32.9   52s
  2065  1487 15164.8297  114  126 14253.0000 15277.9677  7.19%  34.4   55s
  2437  1731 14331.9604  300   89 14253.0000 15277.9677  7.19%  31.9   60s
  2872  1885 15194.6953   51  119 14253.0000 15277.9677  7.19%  30.9   65s
  3113  2046 15128.4829  172  102 14253.0000 15277.9677  7.19%  33.5   70s
H 3215  2067                    14259.000000 15277.9677  7.15%  36.4   72s
  3341  2153 15037.5687  286  105 14259.0000 15277.9677  7.15%  37.0   75s
  3707  2424 14669.1726  469   67 14259.0000 15277.9677  7.15%  36.0   80s
  3948  2641 15275.8710   49  127 14259.0000 15277.9677  7.15%  35.6   85s
  4153  2846 15179.3335  151  122 14259.0000 15277.9677  7.15%  37.4   90s
H 4202  2880                    14274.000000 15277.9677  7.03%  37.8   91s
  4397  3077 14931.6148  273  109 14274.0000 15277.9677  7.03%  38.3   95s
  4694  3374 14582.0364  422   95 14274.0000 15277.9677  7.03%  37.8  100s
  4924  3568 15256.9032   48  115 14274.0000 15277.9677  7.03%  36.9  105s
  5112  3756 15186.2380  142  110 14274.0000 15277.9677  7.03%  37.6  110s
H 5294  3934                    14276.000000 15277.9677  7.02%  37.5  113s
  5397  4039 14817.2735  285   94 14276.0000 15277.9677  7.02%  37.2  115s
  5705  4345 14352.4913  438   77 14276.0000 15277.9677  7.02%  36.4  120s
H 5907  4488                    14284.000000 15277.9677  6.96%  36.9  126s
  5992  4575 15027.0202  150  105 14284.0000 15277.9677  6.96%  37.5  130s
  6201  4784 14622.2779  254   75 14284.0000 15277.9677  6.96%  37.7  135s
  6478  5053 14573.5524  393   82 14284.0000 15277.9677  6.96%  37.1  140s
  6778  5273 15268.1935   44  125 14284.0000 15277.9677  6.96%  36.7  145s
  6890  5385 15172.0860  100  106 14284.0000 15277.9677  6.96%  36.9  154s
  6913  5408 15193.2181  112  108 14284.0000 15277.9677  6.96%  37.0  155s
  7183  5678 14877.0681  247   91 14284.0000 15277.9677  6.96%  36.4  160s
  7507  6002 14678.4131  409   66 14284.0000 15277.9677  6.96%  35.9  165s
H 7722  6200                    14285.000000 15277.9677  6.95%  35.2  167s
  7851  6303 15215.8065   78  119 14285.0000 15277.9677  6.95%  35.4  170s
  8054  6506 15228.1059  180  116 14285.0000 15277.9677  6.95%  35.7  175s
  8317  6769 15051.6685  311   95 14285.0000 15277.9677  6.95%  35.7  180s
  8567  7019 14881.1723  436   91 14285.0000 15277.9677  6.95%  36.7  185s
  8903  7283 15277.9677   38  123 14285.0000 15277.9677  6.95%  36.1  190s
  9156  7536 14959.4190  212   89 14285.0000 15277.9677  6.95%  36.1  195s
  9256  7632 14753.3829  257   83 14285.0000 15277.9677  6.95%  36.4  200s
  9516  7890 14488.8369  441   63 14285.0000 15277.9677  6.95%  35.9  205s
  9731  8073 14987.5007  108   98 14285.0000 15277.9677  6.95%  36.2  210s
  9981  8323 14490.0760  250   96 14285.0000 15277.9677  6.95%  35.8  215s
 10203  8510 14708.3562  231  112 14285.0000 15277.9677  6.95%  36.0  235s
 10216  8519 14838.0337  202  426 14285.0000 14838.0337  3.87%  35.9  240s
 10233  8530 14488.5558  243  148 14285.0000 14488.5558  1.42%  35.9  245s
 10269  8557 14318.0000  396   42 14285.0000 14318.0000  0.23%  39.0  250s
 10294  8565 14316.5000   52   60 14285.0000 14318.0000  0.23%  40.9  255s
 10451  8587 14318.0000   88   27 14285.0000 14318.0000  0.23%  40.9  260s
 10556  8644 14286.8000  140   56 14285.0000 14318.0000  0.23%  41.4  265s
 10640  8698 14315.6966  183   39 14285.0000 14318.0000  0.23%  42.4  270s
 10745  8748 14293.1818  236   36 14285.0000 14318.0000  0.23%  43.2  275s
 10899  8762 14318.0000   71   21 14285.0000 14318.0000  0.23%  43.5  280s
 11007  8820 14306.3000  125   41 14285.0000 14318.0000  0.23%  43.5  286s
 11148  8873 14318.0000  125   29 14285.0000 14318.0000  0.23%  43.8  290s
 11246  8917 14315.6364  174   55 14285.0000 14318.0000  0.23%  44.5  295s
 11434  9000 14318.0000  155   51 14285.0000 14318.0000  0.23%  45.2  300s
 11585  9060 14317.2793  125   51 14285.0000 14318.0000  0.23%  45.9  305s
 11761  9117 14318.0000   83   68 14285.0000 14318.0000  0.23%  46.8  310s
 11805  9127 14310.2000   64   31 14285.0000 14318.0000  0.23%  47.1  315s
 11910  9167 14302.4000  105   34 14285.0000 14318.0000  0.23%  47.1  322s
 12019  9200 14316.6000   83   44 14285.0000 14318.0000  0.23%  47.1  325s
 12322  9201 14294.0000  184   43 14285.0000 14318.0000  0.23%  47.7  330s
 12560  9308 14286.8000   92   35 14285.0000 14318.0000  0.23%  48.4  335s
 12839  9366 14292.3833  103   66 14285.0000 14318.0000  0.23%  49.4  340s
 13034  9422 14286.8000  158   65 14285.0000 14318.0000  0.23%  50.6  345s
 13278  9478 14302.4000  112   57 14285.0000 14318.0000  0.23%  51.6  350s
 13519  9498 14294.6000   84   55 14285.0000 14318.0000  0.23%  52.7  355s
 13721  9586 14288.7905  151   82 14285.0000 14318.0000  0.23%  53.5  360s
 13771  9589 14310.2000   70   53 14285.0000 14318.0000  0.23%  53.8  365s
 14009  9596 14289.6333  123   45 14285.0000 14318.0000  0.23%  54.7  370s
 14221  9655 14318.0000   97   41 14285.0000 14318.0000  0.23%  55.5  375s
 14447  9737 14310.2000  123   27 14285.0000 14318.0000  0.23%  56.4  380s
 14659  9800     cutoff  116      14285.0000 14318.0000  0.23%  56.9  385s
 14948  9920     cutoff  161      14285.0000 14318.0000  0.23%  57.4  390s
 15191  9978 14318.0000   94   38 14285.0000 14318.0000  0.23%  58.1  395s
 15392 10052 14296.8000  202   43 14285.0000 14318.0000  0.23%  59.1  400s
 15690 10061 14288.1000   74   34 14285.0000 14318.0000  0.23%  59.8  406s
 15962 10096 14309.4791  116   84 14285.0000 14318.0000  0.23%  59.9  410s
 16202 10118 14286.8000  119   46 14285.0000 14318.0000  0.23%  60.6  415s
 16316 10108 14286.8000  106   42 14285.0000 14318.0000  0.23%  61.0  420s
 16499 10123 14310.2000  129   34 14285.0000 14318.0000  0.23%  61.8  425s
 16809 10224 14294.6000  105   64 14285.0000 14318.0000  0.23%  61.6  430s
 17038 10232 14295.6667  118   90 14285.0000 14318.0000  0.23%  62.4  435s
 17288 10318 14310.2000  109   67 14285.0000 14318.0000  0.23%  62.9  440s
 17524 10346 14302.3894  117   48 14285.0000 14318.0000  0.23%  63.3  445s
 17803 10378 14286.8000  119   53 14285.0000 14318.0000  0.23%  64.0  450s
 17932 10373 14299.1802  131   90 14285.0000 14318.0000  0.23%  64.8  455s
 18111 10404     cutoff  168      14285.0000 14318.0000  0.23%  65.3  460s
 18313 10382 14302.0310  109   81 14285.0000 14318.0000  0.23%  65.9  465s
 18547 10454 14295.8000  153   38 14285.0000 14318.0000  0.23%  66.3  470s
 18704 10499 14300.7733  134   66 14285.0000 14318.0000  0.23%  66.5  476s
 18806 10519 14286.8000  102   66 14285.0000 14318.0000  0.23%  66.6  480s
 19018 10516     cutoff  107      14285.0000 14318.0000  0.23%  67.3  485s
 19225 10484 14292.6500  121   65 14285.0000 14318.0000  0.23%  68.1  490s
 19398 10489 14286.2000  121   41 14285.0000 14318.0000  0.23%  68.9  495s
 19543 10525 14311.1750  115   67 14285.0000 14318.0000  0.23%  69.7  500s
 19701 10552 14289.0347   95   96 14285.0000 14318.0000  0.23%  70.3  505s
 19860 10534 14307.6800   99   45 14285.0000 14318.0000  0.23%  71.1  510s
 20081 10546 14308.1000   99   41 14285.0000 14318.0000  0.23%  71.4  516s
 20154 10544 14312.0500   98   90 14285.0000 14318.0000  0.23%  71.9  520s
 20378 10575 14294.6000  114   51 14285.0000 14318.0000  0.23%  72.4  525s
 20659 10606 14311.6640  122   81 14285.0000 14318.0000  0.23%  72.7  530s
 20883 10644 14286.8000  116   46 14285.0000 14318.0000  0.23%  73.1  535s
 21079 10701 14294.6000  114   45 14285.0000 14318.0000  0.23%  73.3  540s
 21367 10704 14300.7994  135   77 14285.0000 14318.0000  0.23%  73.8  545s
 21410 10708 14286.2000  127   37 14285.0000 14318.0000  0.23%  73.9  551s
 21599 10735 14317.9152  112   89 14285.0000 14318.0000  0.23%  74.0  555s
 21830 10738 14318.0000  114   60 14285.0000 14318.0000  0.23%  74.5  560s
 21980 10756     cutoff  127      14285.0000 14318.0000  0.23%  74.8  565s
 22254 10782 14296.0062  150   77 14285.0000 14318.0000  0.23%  75.2  570s
 22481 10766 14302.4000   95   61 14285.0000 14318.0000  0.23%  75.7  575s
 22687 10808 14286.9536  116   79 14285.0000 14318.0000  0.23%  76.5  580s
 22909 10830 14290.7613  126   78 14285.0000 14318.0000  0.23%  76.8  585s
 23140 10851 14310.2000   81   54 14285.0000 14318.0000  0.23%  77.2  590s
 23309 10883 14286.8000  116   75 14285.0000 14318.0000  0.23%  77.8  595s

Cutting planes:
  Gomory: 182
  Lift-and-project: 1
  Cover: 237
  Clique: 1
  MIR: 306
  Mixing: 3
  StrongCG: 202
  Flow cover: 142
  Zero half: 3
  RLT: 3

Explored 23497 nodes (1848119 simplex iterations) in 600.00 seconds (304.29 work units)
Thread count was 1 (of 12 available processors)

Solution count 10: 14285 14284 14276 ... 14134

Time limit reached
Best objective 1.428500000000e+04, best bound 1.431799999988e+04, gap 0.2310%
Solution = 14285.000000
