100_75_50_40_0
600
Set parameter Username
Academic license - for non-commercial use only - expires 2025-02-19
Set parameter Threads to value 1
Set parameter TimeLimit to value 600
Gurobi Optimizer version 11.0.0 build v11.0.0rc2 (linux64 - "Ubuntu 18.04.6 LTS")

CPU model: Intel(R) Xeon(R) CPU E5-2420 0 @ 1.90GHz, instruction set [SSE2|AVX]
Thread count: 6 physical cores, 12 logical processors, using up to 1 threads

Optimize a model with 475 rows, 7600 columns and 16909 nonzeros
Model fingerprint: 0xa042d8fc
Variable types: 0 continuous, 7600 integer (7600 binary)
Coefficient statistics:
  Matrix range     [1e+00, 3e+01]
  Objective range  [2e+01, 3e+01]
  Bounds range     [1e+00, 1e+00]
  RHS range        [5e+01, 5e+01]
Found heuristic solution: objective -0.0000000
Presolve removed 302 rows and 6030 columns
Presolve time: 0.03s
Presolved: 173 rows, 1570 columns, 4748 nonzeros
Variable types: 0 continuous, 1570 integer (1570 binary)
Found heuristic solution: objective 2127.0000000

Root relaxation: objective 3.666926e+03, 245 iterations, 0.00 seconds (0.00 work units)

    Nodes    |    Current Node    |     Objective Bounds      |     Work
 Expl Unexpl |  Obj  Depth IntInf | Incumbent    BestBd   Gap | It/Node Time

     0     0 3666.92593    0   84 2127.00000 3666.92593  72.4%     -    0s
H    0     0                    2838.0000000 3666.92593  29.2%     -    0s
H    0     0                    2873.0000000 3666.92593  27.6%     -    0s
H    0     0                    3137.0000000 3666.92593  16.9%     -    0s
     0     0 3658.00000    0  157 3137.00000 3658.00000  16.6%     -    0s
H    0     0                    3504.0000000 3658.00000  4.39%     -    0s
H    0     0                    3507.0000000 3658.00000  4.31%     -    0s
H    0     0                    3518.0000000 3658.00000  3.98%     -    0s
     0     0 3658.00000    0  134 3518.00000 3658.00000  3.98%     -    0s
     0     0 3658.00000    0  178 3518.00000 3658.00000  3.98%     -    0s
     0     0 3658.00000    0   68 3518.00000 3658.00000  3.98%     -    0s
     0     2 3658.00000    0   67 3518.00000 3658.00000  3.98%     -    0s
H   27    27                    3527.0000000 3658.00000  3.71%  18.4    0s
H   54    54                    3530.0000000 3658.00000  3.63%  16.9    0s
H   81    81                    3533.0000000 3658.00000  3.54%  13.0    0s
H  108   108                    3539.0000000 3658.00000  3.36%  12.0    0s
H  425   379                    3545.0000000 3658.00000  3.19%  28.3    1s
   570   513 3656.82591   34  258 3545.00000 3656.82591  3.15%  32.3    5s
H  593   500                    3623.0000000 3656.70914  0.93%  31.0    9s
   598   504 3656.13454   98  183 3623.00000 3656.70636  0.93%  30.8   10s
H  645   510                    3625.0000000 3656.24161  0.86%   103   14s
   649   512 3656.24135   56  183 3625.00000 3656.24135  0.86%   102   15s
H  651   488                    3626.0000000 3656.24135  0.83%   102   15s
H  662   472                    3629.0000000 3656.24135  0.75%   123   17s
   680   484 3636.94737  111  143 3629.00000 3656.24135  0.75%   120   20s
   904   569 3653.00000   55   90 3629.00000 3656.00000  0.74%   135   25s
  1285   696 3631.56167   84   71 3629.00000 3656.00000  0.74%   123   30s
  1610   746 3635.17576   70  139 3629.00000 3656.00000  0.74%   117   35s
  1964   899 3640.95375  121   38 3629.00000 3656.00000  0.74%   112   40s
  2374  1117 3637.35448  100   50 3629.00000 3656.00000  0.74%   105   45s
  2817  1400 3635.47530  106   92 3629.00000 3656.00000  0.74%   101   50s
  3155  1666 3655.95238   65   66 3629.00000 3656.00000  0.74%   100   55s
H 3195  1608                    3632.0000000 3656.00000  0.66%  99.4   55s
  3554  1846 3655.83402   81  159 3632.00000 3656.00000  0.66%   102   60s
  3918  2074 3655.87712   86   88 3632.00000 3656.00000  0.66%   102   65s
  4352  2368     cutoff   96      3632.00000 3656.00000  0.66%   101   70s
H 4420  2156                    3635.0000000 3656.00000  0.58%   101   70s
H 4501   919                    3647.0000000 3656.00000  0.25%   102   72s
H 4536   667                    3650.0000000 3656.00000  0.16%   102   72s
H 4538     3                    3656.0000000 3656.00000  0.00%   102   72s

Cutting planes:
  Gomory: 75
  Cover: 351
  Clique: 62
  MIR: 179
  StrongCG: 149
  Flow cover: 190
  Zero half: 19
  RLT: 8
  BQP: 2
  PSD: 1

Explored 4539 nodes (463066 simplex iterations) in 72.75 seconds (31.77 work units)
Thread count was 1 (of 12 available processors)

Solution count 10: 3656 3650 3647 ... 3545

Optimal solution found (tolerance 1.00e-04)
Best objective 3.656000000000e+03, best bound 3.656000000000e+03, gap 0.0000%
Solution = 3656.000000
