100_75_50_39_2
600
Set parameter Username
Academic license - for non-commercial use only - expires 2025-02-19
Set parameter Threads to value 1
Set parameter TimeLimit to value 600
Gurobi Optimizer version 11.0.0 build v11.0.0rc2 (linux64 - "Ubuntu 18.04.6 LTS")

CPU model: Intel(R) Xeon(R) CPU E5-2420 0 @ 1.90GHz, instruction set [SSE2|AVX]
Thread count: 6 physical cores, 12 logical processors, using up to 1 threads

Optimize a model with 475 rows, 7600 columns and 17210 nonzeros
Model fingerprint: 0x7636a1eb
Variable types: 0 continuous, 7600 integer (7600 binary)
Coefficient statistics:
  Matrix range     [1e+00, 3e+01]
  Objective range  [2e+01, 3e+01]
  Bounds range     [1e+00, 1e+00]
  RHS range        [5e+01, 5e+01]
Found heuristic solution: objective -0.0000000
Presolve removed 238 rows and 5524 columns
Presolve time: 0.07s
Presolved: 237 rows, 2076 columns, 6102 nonzeros
Variable types: 0 continuous, 2076 integer (2076 binary)
Found heuristic solution: objective 3136.0000000

Root relaxation: objective 3.747000e+03, 286 iterations, 0.01 seconds (0.00 work units)

    Nodes    |    Current Node    |     Objective Bounds      |     Work
 Expl Unexpl |  Obj  Depth IntInf | Incumbent    BestBd   Gap | It/Node Time

     0     0 3747.00000    0   77 3136.00000 3747.00000  19.5%     -    0s
H    0     0                    3642.0000000 3747.00000  2.88%     -    0s
H    0     0                    3663.0000000 3747.00000  2.29%     -    0s
H    0     0                    3685.0000000 3747.00000  1.68%     -    0s
     0     0 3747.00000    0  101 3685.00000 3747.00000  1.68%     -    0s
H    0     0                    3724.0000000 3747.00000  0.62%     -    0s
     0     0 3747.00000    0  101 3724.00000 3747.00000  0.62%     -    0s
     0     0 3747.00000    0   34 3724.00000 3747.00000  0.62%     -    0s
     0     0 3747.00000    0   32 3724.00000 3747.00000  0.62%     -    0s
     0     0 3747.00000    0   41 3724.00000 3747.00000  0.62%     -    0s
     0     0 3747.00000    0   38 3724.00000 3747.00000  0.62%     -    0s
H    0     0                    3730.0000000 3747.00000  0.46%     -    0s
H    0     0                    3733.0000000 3747.00000  0.38%     -    0s
     0     2 3747.00000    0   38 3733.00000 3747.00000  0.38%     -    0s
H   52    52                    3737.0000000 3747.00000  0.27%   2.7    1s
H   54    54                    3738.0000000 3747.00000  0.24%   2.7    1s
H  125   108                    3741.0000000 3747.00000  0.16%   3.7    1s
H  263   221                    3743.0000000 3747.00000  0.11%   3.3    1s
H  575   443                    3745.0000000 3747.00000  0.05%   4.0    3s
H  603   414                    3747.0000000 3747.00000  0.00%  10.8    4s

Cutting planes:
  Gomory: 124
  Cover: 149
  Clique: 18
  MIR: 114
  StrongCG: 107
  Flow cover: 96
  Zero half: 19
  RLT: 10

Explored 604 nodes (8751 simplex iterations) in 4.27 seconds (1.04 work units)
Thread count was 1 (of 12 available processors)

Solution count 10: 3747 3745 3743 ... 3685

Optimal solution found (tolerance 1.00e-04)
Best objective 3.747000000000e+03, best bound 3.747000000000e+03, gap 0.0000%
Solution = 3747.000000
