100_75_50_22_1
600
Set parameter Username
Academic license - for non-commercial use only - expires 2025-02-19
Set parameter Threads to value 1
Set parameter TimeLimit to value 600
Gurobi Optimizer version 11.0.0 build v11.0.0rc2 (linux64 - "Ubuntu 18.04.6 LTS")

CPU model: Intel(R) Xeon(R) CPU E5-2420 0 @ 1.90GHz, instruction set [SSE2|AVX]
Thread count: 6 physical cores, 12 logical processors, using up to 1 threads

Optimize a model with 475 rows, 7600 columns and 16917 nonzeros
Model fingerprint: 0xc63b6e93
Variable types: 0 continuous, 7600 integer (7600 binary)
Coefficient statistics:
  Matrix range     [1e+00, 3e+01]
  Objective range  [2e+01, 3e+01]
  Bounds range     [1e+00, 1e+00]
  RHS range        [5e+01, 5e+01]
Found heuristic solution: objective -0.0000000
Presolve removed 348 rows and 6507 columns
Presolve time: 0.04s
Presolved: 127 rows, 1093 columns, 3756 nonzeros
Variable types: 0 continuous, 1093 integer (1093 binary)
Found heuristic solution: objective 2629.0000000

Root relaxation: objective 3.626000e+03, 305 iterations, 0.01 seconds (0.00 work units)

    Nodes    |    Current Node    |     Objective Bounds      |     Work
 Expl Unexpl |  Obj  Depth IntInf | Incumbent    BestBd   Gap | It/Node Time

     0     0 3626.00000    0   66 2629.00000 3626.00000  37.9%     -    0s
H    0     0                    2755.0000000 3626.00000  31.6%     -    0s
H    0     0                    3230.0000000 3626.00000  12.3%     -    0s
     0     0 3625.86364    0  128 3230.00000 3625.86364  12.3%     -    0s
H    0     0                    3396.0000000 3625.86364  6.77%     -    0s
     0     0 3625.86364    0  119 3396.00000 3625.86364  6.77%     -    0s
     0     0 3624.59166    0  148 3396.00000 3624.59166  6.73%     -    0s
     0     0 3624.59166    0  128 3396.00000 3624.59166  6.73%     -    0s
     0     0 3623.22500    0  116 3396.00000 3623.22500  6.69%     -    0s
H    0     0                    3469.0000000 3623.22500  4.45%     -    0s
     0     0 3623.18148    0  143 3469.00000 3623.18148  4.44%     -    0s
     0     0 3623.18148    0  127 3469.00000 3623.18148  4.44%     -    0s
     0     0 3622.00000    0  151 3469.00000 3622.00000  4.41%     -    0s
     0     0 3622.00000    0  126 3469.00000 3622.00000  4.41%     -    0s
     0     0 3622.00000    0  189 3469.00000 3622.00000  4.41%     -    1s
     0     0 3622.00000    0  108 3469.00000 3622.00000  4.41%     -    1s
     0     2 3622.00000    0  103 3469.00000 3622.00000  4.41%     -    1s
H   27    25                    3475.0000000 3622.00000  4.23%  40.0    1s
H   52    50                    3507.0000000 3622.00000  3.28%  43.2    1s
H  234   139                    3540.0000000 3622.00000  2.32%  41.6    2s
   541   311 3622.00000    1  135 3540.00000 3622.00000  2.32%  42.7    5s
H  542   204                    3577.0000000 3622.00000  1.26%  42.6    5s
H  564    96                    3605.0000000 3622.00000  0.47%  43.8    5s
   675   180 3608.12014   14  322 3605.00000 3621.24145  0.45%  38.3   10s
   719   211 3621.07565   19  332 3605.00000 3621.07565  0.45%  52.1   15s
   756   238 3618.91542   32  258 3605.00000 3620.38237  0.43%  68.4   20s
   899   246 3619.99783   26  181 3605.00000 3620.00000  0.42%  98.3   25s
  1071   259     cutoff   56      3605.00000 3619.00531  0.39%   105   30s
H 1294   170                    3612.0000000 3619.00000  0.19%  95.0   32s
H 1316    91                    3615.0000000 3619.00000  0.11%  95.1   33s
  1344    82 3616.85755   64  152 3615.00000 3619.00000  0.11%  99.3   35s
  1464     4 3616.00000   34   95 3615.00000 3616.00000  0.03%   112   40s

Cutting planes:
  Gomory: 22
  Cover: 285
  Clique: 76
  MIR: 93
  StrongCG: 82
  Flow cover: 93
  Inf proof: 1
  Zero half: 14
  RLT: 6

Explored 1471 nodes (170151 simplex iterations) in 40.35 seconds (13.13 work units)
Thread count was 1 (of 12 available processors)

Solution count 10: 3615 3612 3605 ... 3230

Optimal solution found (tolerance 1.00e-04)
Best objective 3.615000000000e+03, best bound 3.615000000000e+03, gap 0.0000%
Solution = 3615.000000
