100_75_50_23_1
600
Set parameter Username
Academic license - for non-commercial use only - expires 2025-02-19
Set parameter Threads to value 1
Set parameter TimeLimit to value 600
Gurobi Optimizer version 11.0.0 build v11.0.0rc2 (linux64 - "Ubuntu 18.04.6 LTS")

CPU model: Intel(R) Xeon(R) CPU E5-2420 0 @ 1.90GHz, instruction set [SSE2|AVX]
Thread count: 6 physical cores, 12 logical processors, using up to 1 threads

Optimize a model with 475 rows, 7600 columns and 22700 nonzeros
Model fingerprint: 0xdf37194c
Variable types: 0 continuous, 7600 integer (7600 binary)
Coefficient statistics:
  Matrix range     [1e+00, 3e+01]
  Objective range  [2e+00, 1e+02]
  Bounds range     [1e+00, 1e+00]
  RHS range        [5e+01, 5e+01]
Found heuristic solution: objective -0.0000000
Presolve removed 200 rows and 0 columns
Presolve time: 0.05s
Presolved: 275 rows, 7600 columns, 22700 nonzeros
Variable types: 0 continuous, 7600 integer (7600 binary)

Root relaxation: objective 1.665586e+04, 199 iterations, 0.01 seconds (0.00 work units)

    Nodes    |    Current Node    |     Objective Bounds      |     Work
 Expl Unexpl |  Obj  Depth IntInf | Incumbent    BestBd   Gap | It/Node Time

     0     0 16655.8571    0   79   -0.00000 16655.8571      -     -    0s
H    0     0                    13370.000000 16655.8571  24.6%     -    0s
     0     0 16596.7818    0  133 13370.0000 16596.7818  24.1%     -    0s
H    0     0                    13550.000000 16596.7818  22.5%     -    0s
     0     0 15992.5882    0  111 13550.0000 15992.5882  18.0%     -    0s
     0     0 15992.5882    0  116 13550.0000 15992.5882  18.0%     -    0s
     0     0 15992.5882    0  160 13550.0000 15992.5882  18.0%     -    0s
     0     0 15992.5882    0  204 13550.0000 15992.5882  18.0%     -    0s
     0     0 15842.5929    0  227 13550.0000 15842.5929  16.9%     -    0s
     0     0 15647.8879    0  225 13550.0000 15647.8879  15.5%     -    1s
     0     0 15646.6455    0  232 13550.0000 15646.6455  15.5%     -    1s
     0     0 15541.5339    0  226 13550.0000 15541.5339  14.7%     -    1s
     0     0 15528.0360    0  241 13550.0000 15528.0360  14.6%     -    1s
     0     0 15527.8874    0  250 13550.0000 15527.8874  14.6%     -    1s
     0     0 15508.4722    0  309 13550.0000 15508.4722  14.5%     -    1s
     0     0 15508.4722    0  287 13550.0000 15508.4722  14.5%     -    1s
H    0     0                    14985.000000 15508.4722  3.49%     -    1s
     0     0 15508.4722    0   79 14985.0000 15508.4722  3.49%     -    1s
     0     0 15508.4722    0  217 14985.0000 15508.4722  3.49%     -    2s
     0     0 15508.4722    0  198 14985.0000 15508.4722  3.49%     -    2s
     0     0 15468.4391    0  209 14985.0000 15468.4391  3.23%     -    2s
     0     0 15460.1296    0  247 14985.0000 15460.1296  3.17%     -    2s
     0     0 15459.8715    0  246 14985.0000 15459.8715  3.17%     -    2s
     0     0 15433.2679    0  270 14985.0000 15433.2679  2.99%     -    2s
     0     0 15433.2679    0  280 14985.0000 15433.2679  2.99%     -    2s
     0     0 15401.5787    0  312 14985.0000 15401.5787  2.78%     -    2s
     0     0 15400.1845    0  305 14985.0000 15400.1845  2.77%     -    2s
     0     0 15400.1845    0   79 14985.0000 15400.1845  2.77%     -    2s
     0     0 15400.1845    0  119 14985.0000 15400.1845  2.77%     -    2s
     0     0 15400.1845    0  144 14985.0000 15400.1845  2.77%     -    2s
     0     0 15400.1845    0  228 14985.0000 15400.1845  2.77%     -    2s
     0     0 15392.4544    0  283 14985.0000 15392.4544  2.72%     -    2s
     0     0 15384.6062    0  299 14985.0000 15384.6062  2.67%     -    2s
     0     0 15382.1289    0  297 14985.0000 15382.1289  2.65%     -    2s
     0     0 15266.3931    0  259 14985.0000 15266.3931  1.88%     -    2s
     0     0 15263.5595    0  241 14985.0000 15263.5595  1.86%     -    2s
     0     0 15207.2936    0  127 14985.0000 15207.2936  1.48%     -    3s
H    0     0                    15086.000000 15207.2936  0.80%     -    3s
     0     0 15204.4170    0  144 15086.0000 15204.4170  0.78%     -    3s
     0     0 15191.4950    0  113 15086.0000 15191.4950  0.70%     -    3s
     0     0 15191.4950    0   55 15086.0000 15191.4950  0.70%     -    3s
     0     0 15191.4950    0  113 15086.0000 15191.4950  0.70%     -    3s
     0     0 15191.4950    0   56 15086.0000 15191.4950  0.70%     -    3s
     0     0 15185.8773    0   54 15086.0000 15185.8773  0.66%     -    3s
     0     0 15182.5443    0   56 15086.0000 15182.5443  0.64%     -    3s
     0     0 15180.9998    0   66 15086.0000 15180.9998  0.63%     -    3s
     0     0 15161.0686    0   51 15086.0000 15161.0686  0.50%     -    3s
     0     0 15161.0686    0   53 15086.0000 15161.0686  0.50%     -    3s
     0     0 15161.0686    0   99 15086.0000 15161.0686  0.50%     -    3s
     0     0 15161.0686    0   62 15086.0000 15161.0686  0.50%     -    3s
     0     0 15161.0686    0   50 15086.0000 15161.0686  0.50%     -    3s
     0     0 15161.0686    0   48 15086.0000 15161.0686  0.50%     -    3s
     0     0 15161.0686    0   48 15086.0000 15161.0686  0.50%     -    3s
     0     0 15156.0000    0   17 15086.0000 15156.0000  0.46%     -    3s
H    0     0                    15102.000000 15156.0000  0.36%     -    3s
     0     0 15156.0000    0   17 15102.0000 15156.0000  0.36%     -    3s
     0     0 15156.0000    0   29 15102.0000 15156.0000  0.36%     -    3s
     0     0 15156.0000    0   13 15102.0000 15156.0000  0.36%     -    3s
     0     2 15118.0000    0    9 15102.0000 15118.0000  0.11%     -    3s
*   82    12              39    15103.000000 15105.4375  0.02%  15.8    4s

Cutting planes:
  Gomory: 1
  Lift-and-project: 1
  Cover: 141
  Clique: 7
  MIR: 235
  StrongCG: 88
  RLT: 1

Explored 87 nodes (14511 simplex iterations) in 4.11 seconds (1.78 work units)
Thread count was 1 (of 12 available processors)

Solution count 7: 15103 15102 15086 ... -0

Optimal solution found (tolerance 1.00e-04)
Best objective 1.510300000000e+04, best bound 1.510400000000e+04, gap 0.0066%
Solution = 15103.000000
