500_250_100_19_8
600
Set parameter Username
Academic license - for non-commercial use only - expires 2025-02-19
Set parameter Threads to value 1
Set parameter TimeLimit to value 600
Gurobi Optimizer version 11.0.0 build v11.0.0rc2 (linux64 - "Ubuntu 18.04.6 LTS")

CPU model: Intel(R) Xeon(R) CPU E5-2420 0 @ 1.90GHz, instruction set [SSE2|AVX]
Thread count: 6 physical cores, 12 logical processors, using up to 1 threads

Optimize a model with 2250 rows, 125500 columns and 376000 nonzeros
Model fingerprint: 0xfeb04b1b
Variable types: 0 continuous, 125500 integer (125500 binary)
Coefficient statistics:
  Matrix range     [1e+00, 7e+01]
  Objective range  [1e+00, 1e+02]
  Bounds range     [1e+00, 1e+00]
  RHS range        [1e+02, 1e+02]
Found heuristic solution: objective -0.0000000
Presolve removed 1000 rows and 0 columns
Presolve time: 2.16s
Presolved: 1250 rows, 125500 columns, 376000 nonzeros
Variable types: 0 continuous, 125500 integer (125500 binary)

Root simplex log...

Iteration    Objective       Primal Inf.    Dual Inf.      Time
       0    7.3484848e+04   2.317424e+01   0.000000e+00      5s
       1    5.8517465e+04   0.000000e+00   0.000000e+00      5s
     463    5.8517465e+04   0.000000e+00   0.000000e+00      5s
Extra simplex iterations after uncrush: 462

Use crossover to convert LP symmetric solution to basic solution...

Root crossover log...

     144 DPushes remaining with DInf 0.0000000e+00                 5s
       0 DPushes remaining with DInf 0.0000000e+00                 5s

    9214 PPushes remaining with PInf 0.0000000e+00                 5s
       0 PPushes remaining with PInf 0.0000000e+00                 5s

  Push phase complete: Pinf 0.0000000e+00, Dinf 3.1974423e-14      5s


Root simplex log...

Iteration    Objective       Primal Inf.    Dual Inf.      Time
    9717    5.8517465e+04   0.000000e+00   0.000000e+00      5s

Root relaxation: objective 5.851747e+04, 9717 iterations, 0.96 seconds (0.24 work units)

    Nodes    |    Current Node    |     Objective Bounds      |     Work
 Expl Unexpl |  Obj  Depth IntInf | Incumbent    BestBd   Gap | It/Node Time

     0     0 58517.4651    0  270   -0.00000 58517.4651      -     -    5s
H    0     0                    46331.000000 58517.4651  26.3%     -    6s
H    0     0                    47575.000000 58517.4651  23.0%     -   14s
     0     0 58517.4651    0  281 47575.0000 58517.4651  23.0%     -   15s
H    0     0                    49990.000000 58517.4651  17.1%     -   30s
     0     0 58517.4651    0  294 49990.0000 58517.4651  17.1%     -   30s
     0     0 58517.4651    0  279 49990.0000 58517.4651  17.1%     -   32s
     0     0 58517.4651    0  291 49990.0000 58517.4651  17.1%     -   33s
     0     0 58517.4651    0  271 49990.0000 58517.4651  17.1%     -   35s
     0     0 58517.4651    0  271 49990.0000 58517.4651  17.1%     -   38s
     0     2 58468.6047    0  271 49990.0000 58468.6047  17.0%     -   45s
    11     9 58468.6047    6  273 49990.0000 58468.6047  17.0%  96.4   50s
    25    15 58468.6047   14  278 49990.0000 58468.6047  17.0%  71.7   55s
    37    27 58468.6047   21  275 49990.0000 58468.6047  17.0%  90.2   60s
    48    30 58468.6047   26  278 49990.0000 58468.6047  17.0%  92.7   65s
    57    37 58468.6047   32  277 49990.0000 58468.6047  17.0%   105   70s
    69    36 58468.6047   40  278 49990.0000 58468.6047  17.0%   100   75s
    81    38 58142.1395   14  270 49990.0000 58468.6047  17.0%  98.3   80s
    95    50 58114.0000   26  266 49990.0000 58468.6047  17.0%  89.2   89s
    98    53 58139.7895   28  263 49990.0000 58468.6047  17.0%  86.7   90s
H  109    62                    50501.000000 58468.6047  15.8%  82.0  110s
   120    75 58139.7895   49  266 50501.0000 58468.6047  15.8%  75.4  115s
   136    91 58139.1292   65  263 50501.0000 58468.6047  15.8%  68.3  120s
   154   109 58133.2739   83  263 50501.0000 58468.6047  15.8%  60.9  125s
   175   130 58127.5188  104  263 50501.0000 58468.6047  15.8%  54.2  130s
   195   150 58120.9474  124  263 50501.0000 58468.6047  15.8%  49.2  135s
H  201   154                    50557.000000 58468.6047  15.6%  47.8  141s
   215   170 58117.3110  144  263 50557.0000 58468.6047  15.6%  45.1  145s
   233   188 58112.7166  162  263 50557.0000 58468.6047  15.6%  42.0  150s
   250   205 58108.4823  179  263 50557.0000 58468.6047  15.6%  39.4  155s
   266   221 58104.0778  195  263 50557.0000 58468.6047  15.6%  37.4  160s
   282   237 58100.0902  211  263 50557.0000 58468.6047  15.6%  35.5  165s
   297   252 58094.8010  226  263 50557.0000 58468.6047  15.6%  34.0  170s
   317   272 58090.5263  246  263 50557.0000 58468.6047  15.6%  32.1  175s
   336   291 58086.9474  265  263 50557.0000 58468.6047  15.6%  30.6  180s
   353   308 58082.4019  282  263 50557.0000 58468.6047  15.6%  29.3  185s
   373   328 58078.2105  302  263 50557.0000 58468.6047  15.6%  28.0  190s
   383   338 58074.6059  312  264 50557.0000 58468.6047  15.6%  27.4  197s
   392   347 58073.9474  321  266 50557.0000 58468.6047  15.6%  26.9  200s
   408   363 58073.9474  337  264 50557.0000 58468.6047  15.6%  26.0  205s
   428   383 58070.1974  357  265 50557.0000 58468.6047  15.6%  25.1  210s
   445   400 58070.1974  374  265 50557.0000 58468.6047  15.6%  24.4  215s
   458   413 58070.1974  387  267 50557.0000 58468.6047  15.6%  23.9  235s
   475   430 58065.7396  404  265 50557.0000 58468.6047  15.6%  23.3  240s
   489   438 58038.3864  413  258 50557.0000 58468.6047  15.6%  24.6  245s
   499   448 58044.5000  419  256 50557.0000 58468.6047  15.6%  26.5  250s
   517   466 58029.1163  436  257 50557.0000 58468.6047  15.6%  25.8  255s
   528   477 58029.1163  447  258 50557.0000 58468.6047  15.6%  25.4  262s
   535   484 58029.1163  454  260 50557.0000 58468.6047  15.6%  25.1  265s
   543   491 58069.9357  326  271 50557.0000 58468.6047  15.6%  24.8  279s
H  544   467                    50574.000000 58468.6047  15.6%  24.7  283s
   546   468 58074.2187  163  288 50574.0000 58468.6047  15.6%  24.7  294s
   547   469 58136.0643   56  298 50574.0000 58468.6047  15.6%  24.6  296s
   549   470 58052.5512  214  286 50574.0000 58468.6047  15.6%  24.5  300s
   552   472 58093.5779  133  274 50574.0000 58468.6047  15.6%  24.4  305s
   555   474 58132.6974   72  272 50574.0000 58468.6047  15.6%  24.3  310s
   556   475 58139.7895   29  272 50574.0000 58468.6047  15.6%  24.2  320s
   557   477 58468.6047   15  272 50574.0000 58468.6047  15.6%  67.0  325s
   562   481 58468.6047   17  274 50574.0000 58468.6047  15.6%  67.5  330s
   566   483 58468.6047   19  271 50574.0000 58468.6047  15.6%  67.9  336s
   569   485 58468.6047   21  272 50574.0000 58468.6047  15.6%  67.8  340s
   575   489 58468.6047   24  273 50574.0000 58468.6047  15.6%  67.6  345s
   580   493 58468.6047   26  273 50574.0000 58468.6047  15.6%  67.5  350s
   583   495 58468.6047   28  274 50574.0000 58468.6047  15.6%  67.2  375s
   584   495 58468.6047   28  272 50574.0000 58468.6047  15.6%  67.1  380s
   590   499 58467.2432   31  271 50574.0000 58468.6047  15.6%  66.7  385s
   596   503 58461.0000   34  270 50574.0000 58468.6047  15.6%  66.6  390s
   602   505 58468.6047   37  275 50574.0000 58468.6047  15.6%  66.3  395s
   606   508 58468.6047   39  273 50574.0000 58468.6047  15.6%  66.0  400s
   608   508 58468.6047   40  275 50574.0000 58468.6047  15.6%  65.9  410s
   609   509 58468.6047   41  277 50574.0000 58468.6047  15.6%  65.9  415s
   610   510 58468.6047   41  275 50574.0000 58468.6047  15.6%  65.8  438s
   611   510 58468.6047   42  275 50574.0000 58468.6047  15.6%  65.9  448s
   612   511 58468.6047   42  276 50574.0000 58468.6047  15.6%  65.9  453s
   613   512 58468.6047   43  274 50574.0000 58468.6047  15.6%  65.8  455s
   616   514 58467.2432   44  275 50574.0000 58468.6047  15.6%  65.6  463s
   617   514 58468.6047   45  273 50574.0000 58468.6047  15.6%  65.6  465s
   620   516 58458.9189   46  277 50574.0000 58468.6047  15.6%  65.4  472s
   622   518 58468.6047   47  274 50574.0000 58468.6047  15.6%  65.3  476s
   624   519 58461.0000   48  272 50574.0000 58468.6047  15.6%  65.2  482s
   626   520 58454.7568   49  276 50574.0000 58468.6047  15.6%  65.0  487s
   628   522 58456.8378   50  274 50574.0000 58468.6047  15.6%  64.9  491s
   630   523 58468.6047   51  274 50574.0000 58468.6047  15.6%  64.8  496s
   632   524 58468.6047   52  278 50574.0000 58468.6047  15.6%  64.7  501s
   634   526 58454.0890   53  279 50574.0000 58468.6047  15.6%  64.6  514s
   635   526 58468.6047   54  278 50574.0000 58468.6047  15.6%  64.6  520s
H  637   502                    50595.000000 58468.6047  15.6%  64.4  552s
   638   504 58452.6911   55  277 50595.0000 58468.6047  15.6%  64.4  565s
   641   504 58468.6047   57  276 50595.0000 58468.6047  15.6%  64.2  571s
   643   506 58464.8108   58  277 50595.0000 58468.6047  15.6%  64.0  577s
   645   505 58455.7548   59  274 50595.0000 58468.6047  15.6%  63.9  582s
   646   505 58468.6047   60  276 50595.0000 58468.6047  15.6%  63.8  585s
   648   506 58468.6047   62  276 50595.0000 58468.6047  15.6%  63.6  590s
   650   506 58468.6047   63  275 50595.0000 58468.6047  15.6%  63.5  595s

Cutting planes:
  Cover: 71
  Clique: 3
  MIR: 1
  StrongCG: 3
  Flow cover: 16
  RLT: 88

Explored 652 nodes (61988 simplex iterations) in 600.65 seconds (331.91 work units)
Thread count was 1 (of 12 available processors)

Solution count 8: 50595 50574 50557 ... -0

Time limit reached
Best objective 5.059500000000e+04, best bound 5.846800000000e+04, gap 15.5608%
Solution = 50595.000000
