500_250_100_16_4
600
Set parameter Username
Academic license - for non-commercial use only - expires 2025-02-19
Set parameter Threads to value 1
Set parameter TimeLimit to value 600
Gurobi Optimizer version 11.0.0 build v11.0.0rc2 (linux64 - "Ubuntu 18.04.6 LTS")

CPU model: Intel(R) Xeon(R) CPU E5-2420 0 @ 1.90GHz, instruction set [SSE2|AVX]
Thread count: 6 physical cores, 12 logical processors, using up to 1 threads

Optimize a model with 2250 rows, 125500 columns and 281274 nonzeros
Model fingerprint: 0xa0b84092
Variable types: 0 continuous, 125500 integer (125500 binary)
Coefficient statistics:
  Matrix range     [1e+00, 7e+01]
  Objective range  [1e+00, 1e+02]
  Bounds range     [1e+00, 1e+00]
  RHS range        [1e+02, 1e+02]
Found heuristic solution: objective -0.0000000
Presolve removed 1080 rows and 94797 columns
Presolve time: 1.02s
Presolved: 1170 rows, 30703 columns, 91438 nonzeros
Variable types: 0 continuous, 30703 integer (30703 binary)
Found heuristic solution: objective 27373.000000

Root relaxation: objective 5.083867e+04, 3557 iterations, 0.22 seconds (0.10 work units)

    Nodes    |    Current Node    |     Objective Bounds      |     Work
 Expl Unexpl |  Obj  Depth IntInf | Incumbent    BestBd   Gap | It/Node Time

     0     0 50838.6658    0  279 27373.0000 50838.6658  85.7%     -    1s
H    0     0                    44644.000000 50838.6658  13.9%     -    1s
H    0     0                    44948.000000 50838.6658  13.1%     -    2s
     0     0 50690.4190    0  347 44948.0000 50690.4190  12.8%     -    2s
H    0     0                    45530.000000 50690.4190  11.3%     -    5s
     0     0 50107.5884    0  357 45530.0000 50107.5884  10.1%     -    5s
     0     0 49386.0911    0  426 45530.0000 49386.0911  8.47%     -    5s
     0     0 49216.7447    0  476 45530.0000 49216.7447  8.10%     -    6s
     0     0 49212.1079    0  506 45530.0000 49212.1079  8.09%     -    6s
     0     0 49212.1079    0  505 45530.0000 49212.1079  8.09%     -    6s
     0     0 48852.1404    0  480 45530.0000 48852.1404  7.30%     -    6s
     0     0 48268.2914    0  443 45530.0000 48268.2914  6.01%     -    7s
     0     0 48206.0916    0  436 45530.0000 48206.0916  5.88%     -    7s
     0     0 48144.1150    0  472 45530.0000 48144.1150  5.74%     -    8s
     0     0 48137.6263    0  512 45530.0000 48137.6263  5.73%     -    8s
     0     0 48137.3557    0  512 45530.0000 48137.3557  5.73%     -    8s
     0     0 47968.5515    0  499 45530.0000 47968.5515  5.36%     -    9s
     0     0 47940.8022    0  544 45530.0000 47940.8022  5.29%     -   10s
     0     0 47935.6650    0  561 45530.0000 47935.6650  5.28%     -   11s
     0     0 47933.4450    0  597 45530.0000 47933.4450  5.28%     -   11s
     0     0 47887.4876    0  604 45530.0000 47887.4876  5.18%     -   12s
H    0     0                    45690.000000 47887.4876  4.81%     -   13s
     0     0 47868.3650    0  642 45690.0000 47868.3650  4.77%     -   13s
     0     0 47820.9057    0  650 45690.0000 47820.9057  4.66%     -   14s
     0     0 47807.3736    0  672 45690.0000 47807.3736  4.63%     -   15s
     0     0 47802.1052    0  692 45690.0000 47802.1052  4.62%     -   16s
     0     0 47761.9106    0  698 45690.0000 47761.9106  4.53%     -   17s
     0     0 47743.2965    0  708 45690.0000 47743.2965  4.49%     -   20s
     0     0 47731.9413    0  744 45690.0000 47731.9413  4.47%     -   20s
     0     0 47727.2832    0  759 45690.0000 47727.2832  4.46%     -   20s
     0     0 47710.5309    0  756 45690.0000 47710.5309  4.42%     -   21s
     0     0 47710.5031    0  739 45690.0000 47710.5031  4.42%     -   21s
H    0     0                    45820.000000 47710.5031  4.13%     -   28s
     0     2 47710.5031    0  737 45820.0000 47710.5031  4.13%     -   28s
    23    25 47709.4881   15  726 45820.0000 47710.4941  4.13%  25.7   30s
H   27    27                    46133.000000 47710.4941  3.42%  23.1   33s
H   44    44                    46202.000000 47710.4941  3.26%  27.9   35s
H   54    54                    46302.000000 47710.4941  3.04%  28.3   39s
    69    71 47708.5164   40  696 46302.0000 47710.4941  3.04%  27.8   40s
H   96    96                    46363.000000 47710.4941  2.91%  26.2   44s
   107   109 47707.9398   61  705 46363.0000 47710.4941  2.91%  26.5   45s
   204   206 47703.8399  113  679 46363.0000 47710.4941  2.91%  21.9   50s
H  268   268                    46522.000000 47710.4941  2.55%  24.8   58s
H  269   269                    46554.000000 47710.4941  2.48%  25.0   60s
   354   356 47666.2828  206  645 46554.0000 47710.4941  2.48%  28.6   65s
   454   456 47654.5489  274  618 46554.0000 47710.4941  2.48%  30.1   70s
   549   551 47635.6859  339  553 46554.0000 47710.4941  2.48%  28.9   75s
   678   680 47565.5237  429  473 46554.0000 47710.4941  2.48%  29.6   80s
H  715   715                    46560.000000 47710.4941  2.47%  29.7   82s
   794   796 47511.4158  524  423 46560.0000 47710.4941  2.47%  29.1   85s
H  933   933                    46569.000000 47710.4941  2.45%  27.6   90s
H  993   993                    46584.000000 47710.4941  2.42%  27.2   92s
  1088  1090 47380.9775  752  336 46584.0000 47710.4941  2.42%  27.2   95s
H 1144  1144                    46594.000000 47710.4941  2.40%  26.9   97s
  1191  1193 47317.8412  835  295 46594.0000 47710.4941  2.40%  26.8  100s
  1357  1359 47186.1545  966  252 46594.0000 47710.4941  2.40%  26.4  105s
H 1440  1440                    46598.000000 47710.4941  2.39%  26.1  107s
  1549  1551 47054.5789 1114  191 46598.0000 47710.4941  2.39%  25.6  110s
H 1838  1838                    46601.000007 47710.4941  2.38%  22.9  115s
  1993  1995 46789.1735 1488  118 46601.0000 47710.4941  2.38%  21.6  120s
  2272  2272 46648.6915 1728  104 46601.0000 47710.4941  2.38%  19.9  125s
  2326  2297 46982.8657 1218  739 46601.0000 47710.1868  2.38%  19.7  132s
H 2327  2183                    46603.000000 47710.1868  2.38%  19.7  133s
H 2328  2073                    46616.000000 47710.1868  2.35%  19.7  136s
  2338  2080 47565.5237  424  589 46616.0000 47710.1868  2.35%  19.6  140s
  2345  2085 47246.0672  884  766 46616.0000 47660.1604  2.24%  19.6  145s
H 2348  1983                    46617.000000 47628.0383  2.17%  19.5  152s
  2353  1986 47508.2781  498  701 46617.0000 47508.2781  1.91%  19.5  155s
  2362  1992 47022.4316 1177  741 46617.0000 47441.9023  1.77%  19.4  165s
  2370  1997 47324.6680  604  750 46617.0000 47324.6680  1.52%  19.4  170s
H 2380  1903                    46625.000000 47256.0012  1.35%  19.3  177s
  2388  1908 47234.1633  254  815 46625.0000 47234.1633  1.31%  19.2  184s
  2389  1909 46719.8899 1572  797 46625.0000 47210.7531  1.26%  19.2  185s
  2394  1912 47155.6180  555  659 46625.0000 47155.6180  1.14%  19.2  190s
H 2399  1819                    46630.000000 47134.3184  1.08%  19.1  200s
  2405  1823 46714.5449 1560  667 46630.0000 47096.4406  1.00%  19.1  205s
  2411  1827 46733.4499 1534  691 46630.0000 47080.1375  0.97%  19.0  210s
H 2415  1736                    46638.000000 47065.9830  0.92%  19.0  220s
  2421  1740 47043.2708  710  619 46638.0000 47043.2708  0.87%  19.0  226s
  2426  1744 46982.8657 1218  613 46638.0000 47017.8123  0.81%  18.9  230s
H 2430  1657                    46762.000000 47008.9911  0.53%  18.9  242s
  2434  1660 46978.1988  946  639 46762.0000 46978.1988  0.46%  18.9  246s
  2438  1663 46965.9980  424  583 46762.0000 46965.9980  0.44%  18.8  250s
  2443  1666 46953.7124  591  593 46762.0000 46953.7124  0.41%  18.8  260s
  2448  1669 46942.0913  691  594 46762.0000 46942.0913  0.39%  18.7  268s
  2451  1671 46917.2278  629  561 46762.0000 46917.2278  0.33%  18.7  271s
  2457  1675 46906.4286   19  554 46762.0000 46906.4286  0.31%  18.7  275s
  2468  1684 46847.3417 1391  482 46762.0000 46906.4286  0.31%  53.9  280s
  2476  1689 46906.4286  208  561 46762.0000 46906.4286  0.31%  53.8  285s
  2482  1693 46906.0564  814  577 46762.0000 46906.0564  0.31%  53.6  290s
  2487  1697 46894.7096 1117  557 46762.0000 46894.7096  0.28%  53.5  296s
  2491  1699 46877.1659  605  522 46762.0000 46877.1659  0.25%  53.4  300s
  2495  1702 46869.4515 1009  524 46762.0000 46869.4515  0.23%  53.4  306s
  2498  1704 46851.5659 1329  492 46762.0000 46851.5659  0.19%  53.3  310s
  2503  1707 46834.9537 1237  452 46762.0000 46834.9537  0.16%  53.2  315s
  2511  1713 46762.0000 1534  339 46762.0000 46819.7289  0.12%  53.0  320s
  2522  1721 46819.7289 1070  532 46762.0000 46819.7289  0.12%  73.3  325s
  2533  1728 46819.0534 1041  348 46762.0000 46819.0534  0.12%  73.0  330s
H 2537  1644                    46769.000000 46805.9397  0.08%  72.9  337s
  2549  1653 46800.8414 1451  260 46769.0000 46800.8414  0.07%  88.2  340s
  2559  1660 46769.0000 1523  326 46769.0000 46800.8414  0.07%  87.8  345s
  2570  1667 46794.7275  604  171 46769.0000 46794.7275  0.06%  87.5  350s
  2583  1677 46787.8369  217  259 46769.0000 46787.8369  0.04%   101  355s
  2590  1682 46787.8369  757  356 46769.0000 46787.8369  0.04%   101  360s
  2599  1688 46785.2766  267  151 46769.0000 46785.2766  0.03%   101  366s
H 2608  1608                    46771.000000 46782.3858  0.02%   101  370s
  2615  1613 46771.0000 1557  124 46771.0000 46781.8788  0.02%   100  375s
  2625  1620 46781.5477  796  230 46771.0000 46781.5477  0.02%   116  380s
  2634  1626 46781.5477  946  194 46771.0000 46781.5477  0.02%   116  385s
  2644  1633 46781.3298  928   95 46771.0000 46781.3298  0.02%   115  390s
  2652  1638 46781.3070  849   88 46771.0000 46781.3070  0.02%   115  395s
  2678  1658 46779.2771   86  173 46771.0000 46781.2133  0.02%   127  400s
  2710  1673 46780.1833  103  156 46771.0000 46781.2133  0.02%   126  405s
  2730  1686 46779.8702  113  153 46771.0000 46781.2133  0.02%   127  410s
  2749  1699 46777.6823  122  159 46771.0000 46781.2133  0.02%   128  415s
H 2760  1621                    46772.000000 46781.2133  0.02%   128  417s
  2772  1626 46779.3106  134  153 46772.0000 46781.2133  0.02%   128  420s
  2786  1632 46774.8129  141  171 46772.0000 46781.2133  0.02%   129  425s
  2811  1639 46776.6936  154  105 46772.0000 46781.2133  0.02%   130  430s
  2840  1646 46776.1727  170   99 46772.0000 46781.2133  0.02%   130  435s
  2862  1647 46774.4275  182  126 46772.0000 46781.2133  0.02%   130  440s
  2881  1646 46779.9639   80  191 46772.0000 46781.2101  0.02%   130  445s
  2899  1652 46776.2334   89  201 46772.0000 46781.2101  0.02%   132  450s
  2924  1660 46776.5769  102   73 46772.0000 46781.2101  0.02%   132  455s
  2951  1664 46775.3779  119  130 46772.0000 46781.2101  0.02%   132  460s
  2958  1662 46775.2436  123  106 46772.0000 46781.2101  0.02%   132  465s
  2976  1659 46774.5934  137  105 46772.0000 46781.2101  0.02%   131  470s
  3000  1659 46779.4160   80  167 46772.0000 46781.1370  0.02%   131  475s
  3025  1659 46773.9302   95  168 46772.0000 46781.1370  0.02%   131  480s
  3045  1661 46778.6657   86  137 46772.0000 46781.1250  0.02%   132  485s
  3067  1670 46777.8244   97  114 46772.0000 46781.1250  0.02%   132  490s
  3090  1674 46777.5188  111  123 46772.0000 46781.1250  0.02%   132  495s
  3121  1676 46775.8140  130  111 46772.0000 46781.1250  0.02%   132  500s
  3147  1675 46775.3252  146  115 46772.0000 46781.1250  0.02%   132  505s
  3181  1666 46776.8895   81  150 46772.0000 46781.1171  0.02%   132  510s
  3192  1667 46774.1244   87  174 46772.0000 46781.1171  0.02%   132  516s
  3206  1663 46778.3099   86  129 46772.0000 46781.1074  0.02%   133  520s
  3220  1663 46778.5162   79  162 46772.0000 46781.1074  0.02%   135  525s
  3234  1659 46780.4862   82  133 46772.0000 46781.0806  0.02%   136  530s
  3252  1659 46777.4403   95  148 46772.0000 46781.0806  0.02%   137  535s
  3285  1669     cutoff  111      46772.0000 46781.0806  0.02%   137  540s
  3324  1670 46775.0935  133  132 46772.0000 46781.0806  0.02%   136  545s
  3360  1666 46774.0842  154   92 46772.0000 46781.0806  0.02%   136  550s
  3382  1661 46778.1889   84  113 46772.0000 46781.0754  0.02%   136  559s
  3384  1660 46775.2004   85  154 46772.0000 46781.0754  0.02%   137  560s
  3415  1677 46774.5407  107   78 46772.0000 46781.0754  0.02%   136  565s
  3450  1682 46774.4970  140  108 46772.0000 46781.0754  0.02%   136  570s
  3465  1679 46779.1136   82  127 46772.0000 46781.0737  0.02%   136  575s
  3522  1707 46775.2119  126  105 46772.0000 46781.0737  0.02%   135  580s
  3569  1715 46780.1874   80  107 46772.0000 46781.0424  0.02%   135  585s
  3601  1730 46776.3344  106  101 46772.0000 46781.0424  0.02%   135  590s
  3684  1759 46773.5855  168   87 46772.0000 46781.0424  0.02%   134  595s

Cutting planes:
  Gomory: 328
  Lift-and-project: 12
  Cover: 694
  Clique: 38
  MIR: 492
  StrongCG: 382
  Flow cover: 197
  Zero half: 59
  RLT: 2

Explored 3762 nodes (528373 simplex iterations) in 600.02 seconds (227.85 work units)
Thread count was 1 (of 12 available processors)

Solution count 10: 46772 46771 46769 ... 46603

Time limit reached
Best objective 4.677200000000e+04, best bound 4.678100000000e+04, gap 0.0192%
Solution = 46772.000000
