500_250_100_20_7
600
Set parameter Username
Academic license - for non-commercial use only - expires 2025-02-19
Set parameter Threads to value 1
Set parameter TimeLimit to value 600
Gurobi Optimizer version 11.0.0 build v11.0.0rc2 (linux64 - "Ubuntu 18.04.6 LTS")

CPU model: Intel(R) Xeon(R) CPU E5-2420 0 @ 1.90GHz, instruction set [SSE2|AVX]
Thread count: 6 physical cores, 12 logical processors, using up to 1 threads

Optimize a model with 2250 rows, 125500 columns and 282640 nonzeros
Model fingerprint: 0xdb050720
Variable types: 0 continuous, 125500 integer (125500 binary)
Coefficient statistics:
  Matrix range     [1e+00, 7e+01]
  Objective range  [1e+00, 1e+02]
  Bounds range     [1e+00, 1e+00]
  RHS range        [1e+02, 1e+02]
Found heuristic solution: objective -0.0000000
Presolve removed 1172 rows and 93911 columns
Presolve time: 0.69s
Presolved: 1078 rows, 31589 columns, 94642 nonzeros
Variable types: 0 continuous, 31589 integer (31588 binary)
Found heuristic solution: objective 14357.000000

Root relaxation: objective 5.771042e+04, 1971 iterations, 0.10 seconds (0.06 work units)

    Nodes    |    Current Node    |     Objective Bounds      |     Work
 Expl Unexpl |  Obj  Depth IntInf | Incumbent    BestBd   Gap | It/Node Time

     0     0 57710.4221    0  279 14357.0000 57710.4221   302%     -    1s
H    0     0                    45148.000000 57710.4221  27.8%     -    1s
H    0     0                    45409.000000 57710.4221  27.1%     -    1s
     0     0 57185.2349    0  323 45409.0000 57185.2349  25.9%     -    2s
H    0     0                    48119.000000 57184.3936  18.8%     -    4s
     0     0 55989.4865    0  330 48119.0000 55989.4865  16.4%     -    4s
     0     0 55148.8469    0  353 48119.0000 55148.8469  14.6%     -    5s
     0     0 54261.4923    0  399 48119.0000 54261.4923  12.8%     -    5s
     0     0 54082.1718    0  459 48119.0000 54082.1718  12.4%     -    5s
     0     0 54070.4939    0  492 48119.0000 54070.4939  12.4%     -    5s
     0     0 54070.1827    0  491 48119.0000 54070.1827  12.4%     -    5s
     0     0 54070.1827    0  495 48119.0000 54070.1827  12.4%     -    5s
     0     0 53746.9788    0  539 48119.0000 53746.9788  11.7%     -    6s
     0     0 53380.5615    0  540 48119.0000 53380.5615  10.9%     -    7s
     0     0 53123.1887    0  521 48119.0000 53123.1887  10.4%     -    7s
     0     0 53047.0528    0  562 48119.0000 53047.0528  10.2%     -    8s
     0     0 52997.1986    0  589 48119.0000 52997.1986  10.1%     -    8s
     0     0 52960.2902    0  608 48119.0000 52960.2902  10.1%     -    8s
     0     0 52953.9435    0  654 48119.0000 52953.9435  10.0%     -    8s
     0     0 52952.9078    0  652 48119.0000 52952.9078  10.0%     -    9s
     0     0 52783.3389    0  658 48119.0000 52783.3389  9.69%     -   10s
     0     0 52605.1267    0  682 48119.0000 52605.1267  9.32%     -   10s
     0     0 52458.2931    0  679 48119.0000 52458.2931  9.02%     -   11s
     0     0 52355.0221    0  668 48119.0000 52355.0221  8.80%     -   11s
     0     0 52318.8582    0  672 48119.0000 52318.8582  8.73%     -   11s
     0     0 52221.3745    0  654 48119.0000 52221.3745  8.53%     -   12s
     0     0 52209.7991    0  678 48119.0000 52209.7991  8.50%     -   12s
     0     0 52199.4265    0  695 48119.0000 52199.4265  8.48%     -   12s
     0     0 52195.1426    0  703 48119.0000 52195.1426  8.47%     -   12s
     0     0 52111.2306    0  733 48119.0000 52111.2306  8.30%     -   13s
H    0     0                    48131.000000 52110.5467  8.27%     -   14s
     0     0 52074.3839    0  748 48131.0000 52074.3839  8.19%     -   14s
     0     0 52043.7824    0  742 48131.0000 52043.7824  8.13%     -   15s
     0     0 52008.8130    0  716 48131.0000 52008.8130  8.06%     -   15s
     0     0 51996.6006    0  730 48131.0000 51996.6006  8.03%     -   16s
     0     0 51904.2175    0  809 48131.0000 51904.2175  7.84%     -   17s
     0     0 51877.7101    0  810 48131.0000 51877.7101  7.78%     -   19s
     0     0 51866.7296    0  839 48131.0000 51866.7296  7.76%     -   20s
     0     0 51821.8800    0  880 48131.0000 51821.8800  7.67%     -   20s
     0     0 51820.9558    0  873 48131.0000 51820.9558  7.67%     -   21s
     0     2 51820.9558    0  872 48131.0000 51820.9558  7.67%     -   26s
    12    14 51790.4056    6  774 48131.0000 51809.7982  7.64%   273   30s
H   26    26                    48134.000000 51809.7982  7.64%   148   32s
H   27    27                    48720.000000 51809.7982  6.34%   143   34s
    30    32 51790.0208   16  761 48720.0000 51809.7982  6.34%   131   35s
H   52    52                    48773.000000 51809.7982  6.23%  84.8   38s
H   54    54                    48846.000000 51809.7982  6.07%  81.8   40s
    98   100 51783.4596   53  720 48846.0000 51809.7982  6.07%  58.3   45s
H  122   122                    48849.000000 51809.7982  6.06%  57.8   48s
   143   145 51779.2901   79  716 48849.0000 51809.7982  6.06%  56.2   50s
   217   219 51771.8852  124  695 48849.0000 51809.7982  6.06%  45.7   55s
   301   303 51758.6671  187  675 48849.0000 51809.7982  6.06%  39.2   60s
   353   355 51729.6508  226  661 48849.0000 51809.7982  6.06%  42.2   65s
   435   437 51704.8086  283  638 48849.0000 51809.7982  6.06%  40.2   70s
   500   502 51646.0218  330  637 48849.0000 51809.7982  6.06%  40.2   75s
   564   566 51651.5946  379  595 48849.0000 51809.7982  6.06%  39.9   80s
   663   665 51598.1906  454  551 48849.0000 51809.7982  6.06%  38.5   85s
   745   747 51565.4082  522  526 48849.0000 51809.7982  6.06%  37.1   90s
   861   863 51501.8099  619  505 48849.0000 51809.7982  6.06%  34.8   95s
   988   990 51488.8343  728  480 48849.0000 51809.7982  6.06%  31.3  100s
H  993   993                    48997.000000 51809.7982  5.74%  31.2  103s
  1040  1042 51446.6069  772  490 48997.0000 51809.7982  5.74%  30.3  105s
  1218  1220 51421.6301  922  486 48997.0000 51809.7982  5.74%  28.3  110s
  1355  1357 51390.1986 1033  483 48997.0000 51809.7982  5.74%  27.2  115s
  1488  1490 51293.2228 1142  476 48997.0000 51809.7982  5.74%  26.5  120s
H 1499  1499                    48998.000000 51809.7982  5.74%  26.6  121s
  1640  1642 51192.6823 1272  442 48998.0000 51809.7982  5.74%  25.6  125s
H 1672  1672                    49039.000000 51809.7982  5.65%  25.2  126s
H 1687  1687                    49043.000000 51809.7982  5.64%  25.6  127s
  1787  1789 51124.5406 1388  421 49043.0000 51809.7982  5.64%  25.1  130s
  1997  1999 51020.4703 1578  406 49043.0000 51809.7982  5.64%  23.4  135s
  2189  2191 50949.7807 1735  396 49043.0000 51809.7982  5.64%  22.3  140s
H 2292  2292                    49052.000000 51809.7982  5.62%  21.6  143s
  2354  2356 50819.2800 1886  351 49052.0000 51809.7982  5.62%  21.4  145s
  2538  2540 50438.2301 2029  300 49052.0000 51809.7982  5.62%  20.9  150s
H 2550  2551                    49058.000000 51809.7982  5.61%  20.8  151s
  2553  2553 51033.1872 1544  281 49058.0000 51809.7982  5.61%  20.8  155s
  2566  2562 50967.9498 1687  684 49058.0000 51809.7982  5.61%  20.7  160s
  2575  2568 51540.7676  561  869 49058.0000 51717.0757  5.42%  20.6  168s
  2579  2571 51052.5102 1531  688 49058.0000 51433.7819  4.84%  20.6  170s
  2588  2577 51269.0099  737  757 49058.0000 51269.0099  4.51%  20.5  175s
  2598  2583 51006.0897 1009  757 49058.0000 51006.0897  3.97%  20.5  180s
  2611  2592 50783.9410 1709  805 49058.0000 50783.9410  3.52%  20.4  185s
H 2611  2461                    49070.000000 50744.9777  3.41%  20.4  189s
  2614  2463 50736.7920  312  813 49070.0000 50736.7920  3.40%  20.3  190s
  2617  2465 50695.7049  199  822 49070.0000 50695.7049  3.31%  20.3  195s
  2631  2474 50427.3473 1049  751 49070.0000 50427.3473  2.77%  20.2  201s
H 2631  2349                    49127.000000 50404.0384  2.60%  20.2  205s
  2636  2353 50389.2816  949  763 49127.0000 50389.2816  2.57%  20.2  210s
  2649  2361 50218.1085  155  715 49127.0000 50218.1085  2.22%  20.1  215s
  2654  2365 50117.5839 1096  647 49127.0000 50117.5839  2.02%  20.0  220s
  2667  2373 50056.8534  282  688 49127.0000 50056.8534  1.89%  19.9  225s
  2670  2375 50032.6871 1955  636 49127.0000 50032.6871  1.84%  19.9  230s
H 2670  2254                    49128.000000 50024.0852  1.82%  19.9  235s
  2682  2262 49934.2391  370  578 49128.0000 49934.2391  1.64%  19.8  240s
  2688  2267 49908.7224  737  280 49128.0000 49908.7224  1.59%  38.7  245s
  2697  2273 49908.7224 1283  446 49128.0000 49908.7224  1.59%  38.5  250s
  2708  2281 49899.0322  672  601 49128.0000 49899.0322  1.57%  38.4  256s
  2709  2281 49891.9928 1847  605 49128.0000 49891.9928  1.56%  38.4  261s
  2716  2286 49840.8589 1113  566 49128.0000 49840.8589  1.45%  38.3  267s
  2721  2289 49812.0097  252  476 49128.0000 49812.0097  1.39%  38.2  273s
  2724  2291 49782.0403  936  532 49128.0000 49782.0403  1.33%  38.1  275s
  2730  2295 49761.9471 1437  503 49128.0000 49761.9471  1.29%  38.1  281s
  2739  2301 49730.5732 1962  461 49128.0000 49730.5732  1.23%  37.9  286s
  2748  2307 49708.2889  636  506 49128.0000 49708.2889  1.18%  37.8  290s
H 2752  2195                    49159.000000 49708.2889  1.12%  48.1  294s
  2759  2200 49708.2889 1632  425 49159.0000 49708.2889  1.12%  47.9  295s
  2771  2208 49699.3779 1863  441 49159.0000 49699.3779  1.10%  47.7  302s
  2777  2212 49681.8947  477  346 49159.0000 49681.8947  1.06%  47.6  305s
H 2782  2104                    49410.000000 49669.3773  0.52%  47.5  308s
  2787  2108 49665.2214   42  376 49410.0000 49665.2214  0.52%  47.5  310s
H 2791  2005                    49420.000000 49665.2214  0.50%  55.2  312s
  2805  2015 49665.1911 1093  362 49420.0000 49665.1911  0.50%  54.9  315s
  2815  2021 49650.5399 1780  328 49420.0000 49650.5399  0.47%  54.7  320s
  2823  2027 49650.0693  744  214 49420.0000 49650.0693  0.47%  54.6  325s
  2831  2032 49649.8554 1049  202 49420.0000 49649.8554  0.47%  54.4  333s
H 2831  1930                    49564.000000 49649.8554  0.17%  64.5  335s
  2859  1951 49611.9830   60  142 49564.0000 49648.7038  0.17%  66.1  340s
H 2875  1861                    49588.000008 49648.7038  0.12%  66.3  341s
  2899  1879 49598.8661   80  210 49588.0000 49648.7038  0.12%  67.4  345s
  2941  1900 49614.1776  102  105 49588.0000 49648.7038  0.12%  69.0  350s
  2983  1910 49614.4015  124  119 49588.0000 49648.7038  0.12%  69.0  355s
  3048  1932 49606.4491  157  119 49588.0000 49648.7038  0.12%  68.8  360s
  3102  1958 49627.0354   53  166 49588.0000 49648.7019  0.12%  69.7  365s
H 3105  1825                    49606.000000 49648.7019  0.09%  69.8  365s
H 3155  1729                    49607.000000 49648.1164  0.08%  69.4  370s
  3201  1749 49626.1183   76   86 49607.0000 49648.1164  0.08%  71.8  375s
  3309  1781 49619.5156  133   68 49607.0000 49648.1164  0.08%  70.6  380s
H 3426  1724                    49608.000000 49648.1164  0.08%  68.9  385s
  3611  1827 49610.2000  286    3 49608.0000 49648.1164  0.08%  65.8  390s
  3763  1890 49621.5628   56  270 49608.0000 49647.3038  0.08%  64.6  395s
  3840  1916 49621.9179   96  102 49608.0000 49647.3038  0.08%  65.1  400s
  3932  1928 49622.6213   76  123 49608.0000 49647.2707  0.08%  65.9  405s
  3941  1932 49622.0975   81  100 49608.0000 49647.2707  0.08%  65.8  410s
  4036  1943 49625.8196   61  203 49608.0000 49647.1795  0.08%  65.8  415s
  4164  1961 49632.4787   58  233 49608.0000 49647.1699  0.08%  65.9  420s
  4280  1999 49616.0746  119  103 49608.0000 49647.1699  0.08%  66.5  425s
  4385  2004 49624.5737   59  240 49608.0000 49646.4145  0.08%  67.0  430s
  4505  2058 49642.8336   59  285 49608.0000 49646.1393  0.08%  66.3  435s
  4641  2124 49611.4108  152   77 49608.0000 49646.1393  0.08%  65.9  440s
  4701  2131 49629.1295   53  217 49608.0000 49645.5381  0.08%  67.0  447s
  4728  2146 49616.0872   72  108 49608.0000 49645.5381  0.08%  67.7  450s
  4790  2164 49620.5593   89  873 49608.0000 49645.5245  0.08%  67.3  456s
  4808  2176 49610.9833  187  190 49608.0000 49645.5245  0.08%  67.1  461s
  4818  2183 49610.5000  205  186 49608.0000 49645.5245  0.08%  66.9  474s
  4819  2185 49645.5245   56  188 49608.0000 49645.5245  0.08%  71.3  475s
  4863  2212 49645.5245   78  167 49608.0000 49645.5245  0.08%  72.9  480s
  4923  2239 49621.6313  109  137 49608.0000 49645.5245  0.08%  74.0  485s
  4980  2246 49645.5245   58  169 49608.0000 49645.5245  0.08%  74.1  490s
  5044  2276 49610.7536   90  129 49608.0000 49645.5245  0.08%  75.5  495s
  5112  2291 49613.8377   86  117 49608.0000 49645.5245  0.08%  76.3  500s
  5219  2309 49629.1950   68  188 49608.0000 49645.5245  0.08%  76.1  505s
  5275  2329 49620.2290   75  180 49608.0000 49645.5245  0.08%  77.4  510s
  5343  2351 49625.8049   71  159 49608.0000 49645.5245  0.08%  78.7  515s
  5416  2357 49634.3046   64  138 49608.0000 49645.5245  0.08%  79.3  520s
  5498  2376 49625.0480   63  243 49608.0000 49645.5245  0.08%  80.2  525s
  5590  2405 49612.2714  116   62 49608.0000 49645.5245  0.08%  79.7  530s
  5655  2418 49631.3176   70  261 49608.0000 49645.5245  0.08%  79.3  536s
  5702  2437 49612.7781  102   91 49608.0000 49645.5245  0.08%  79.2  540s
  5936  2568 49609.8000  241   13 49608.0000 49645.5245  0.08%  76.6  545s
  6130  2620 49617.2611   81   53 49608.0000 49645.5245  0.08%  75.2  550s
  6231  2641 49628.4932   88  149 49608.0000 49645.5245  0.08%  75.6  555s
  6363  2679 49637.8196   77  275 49608.0000 49645.5245  0.08%  75.6  560s
  6441  2693 49640.4161   75  293 49608.0000 49645.5245  0.08%  76.5  565s
  6552  2733 49613.1549  106   35 49608.0000 49645.5245  0.08%  76.9  570s
  6759  2815 49632.1480   63  221 49608.0000 49645.5245  0.08%  75.7  575s
  6859  2860 49614.4683   95   66 49608.0000 49645.5245  0.08%  76.1  580s
  6980  2893 49610.3733  101  162 49608.0000 49644.6301  0.07%  75.8  585s
  7030  2888 49616.0383  101  110 49608.0000 49644.2760  0.07%  76.4  590s
  7119  2918 49619.0834   91   58 49608.0000 49643.9850  0.07%  76.2  595s

Cutting planes:
  Gomory: 97
  Lift-and-project: 1
  Cover: 705
  Clique: 53
  MIR: 436
  Mixing: 2
  StrongCG: 306
  Flow cover: 314
  Zero half: 40
  RLT: 5
  BQP: 1

Explored 7317 nodes (570809 simplex iterations) in 600.01 seconds (248.46 work units)
Thread count was 1 (of 12 available processors)

Solution count 10: 49608 49607 49606 ... 49127

Time limit reached
Best objective 4.960800000000e+04, best bound 4.964396719739e+04, gap 0.0725%
Solution = 49608.000000
