instances,ADD,ADDCPY,CHG,MV,RPCK,time(ADD),time(ADDCPY),time(CHG),time(MV),time(RPCK),total(ADD),total(ADDCPY),total(CHG),total(MV),total(RPCK)
10000_500_200_2_0,163,0,0,0,0,599.58,0.0,0.28,0.0,0.0,164,0,164,0,0
10000_500_200_2_1,137,0,0,0,0,600.7,0.0,0.26,0.0,0.0,138,0,138,0,0
10000_500_200_2_2,86,0,0,0,0,600.78,0.0,0.17,0.0,0.0,87,0,87,0,0
10000_500_200_2_3,128,0,0,0,0,599.27,0.0,0.3,0.0,0.0,129,0,129,0,0
10000_500_200_2_4,111,0,0,0,0,601.3,0.0,0.25,0.0,0.0,112,0,112,0,0
10000_500_200_2_5,145,0,0,0,0,601.47,0.0,0.33,0.0,0.0,146,0,146,0,0
10000_500_200_2_6,134,0,0,0,0,602.6,0.0,0.31,0.0,0.0,135,0,135,0,0
10000_500_200_2_7,89,0,0,0,0,599.48,0.0,0.29,0.0,0.0,90,0,90,0,0
10000_500_200_2_8,95,0,0,0,0,604.13,0.0,0.32,0.0,0.0,96,0,96,0,0
10000_500_200_2_9,209,0,0,0,0,599.08,0.0,0.48,0.0,0.0,210,0,210,0,0
1000_500_250_2_0,1746,1,5,6,1,364.64,0.0,2.52,241.38,0.01,1757,11,1762,9,10
1000_500_250_2_1,1604,0,1,0,0,551.63,0.0,2.33,45.24,0.0,1607,2,1608,2,2
1000_500_250_2_2,1342,0,0,2,0,514.63,0.0,2.0,82.57,0.0,1346,3,1346,3,3
1000_500_250_2_3,1886,1,9,2,1,473.25,0.0,2.61,123.13,0.0,1894,7,1903,5,6
1000_500_250_2_4,1444,0,0,2,0,490.98,0.0,2.18,106.52,0.0,1449,4,1449,4,4
1000_500_250_2_5,1562,0,0,0,0,535.47,0.0,2.23,61.36,0.0,1565,2,1565,2,2
1000_500_250_2_6,1101,0,1,2,0,520.39,0.0,1.69,77.49,0.0,1105,3,1106,3,3
1000_500_250_2_7,1686,0,0,2,0,470.67,0.0,2.4,126.58,0.0,1691,5,1691,5,5
1000_500_250_2_8,1483,0,1,0,0,544.86,0.0,2.33,52.1,0.0,1486,2,1487,2,2
1000_500_250_2_9,1556,1,4,0,0,545.17,0.0,2.16,51.96,0.0,1560,3,1564,2,2
500_250_100_2_0,7354,7,24,41,3,282.27,0.01,3.01,315.47,0.02,7449,95,7473,85,88
500_250_100_2_1,6951,5,16,35,2,328.95,0.01,2.79,266.59,0.02,7033,82,7049,75,77
500_250_100_2_2,6902,7,15,46,2,291.51,0.01,2.74,306.64,0.02,6994,92,7009,83,85
500_250_100_2_3,7505,5,16,30,1,352.4,0.01,2.79,242.2,0.02,7579,73,7595,67,68
500_250_100_2_4,6223,23,62,67,4,226.88,0.02,2.71,368.68,0.03,6349,126,6411,99,103
500_250_100_2_5,7567,12,30,43,3,268.96,0.01,3.02,329.33,0.02,7671,104,7701,89,92
500_250_100_2_6,6364,16,52,50,2,286.44,0.01,2.84,309.25,0.02,6466,102,6518,84,86
500_250_100_2_7,8065,1,5,10,2,374.03,0.0,3.43,219.54,0.02,8129,63,8134,60,62
500_250_100_2_8,6184,11,51,61,2,279.76,0.01,2.47,317.15,0.02,6287,103,6338,90,92
500_250_100_2_9,7415,4,27,34,1,319.19,0.01,2.91,275.23,0.02,7497,81,7524,76,77
100_75_50_2_0,18326,78,334,583,22,23.33,0.03,1.1,80.76,0.08,20009,1683,20343,1583,1605
100_75_50_2_1,16789,76,131,486,43,21.95,0.03,0.72,69.9,0.07,18394,1605,18525,1486,1529
100_75_50_2_2,20940,517,1321,1183,86,25.91,0.1,1.65,116.69,0.11,23726,2786,25047,2183,2269
100_75_50_2_3,16687,191,720,76,36,25.16,0.04,1.07,56.55,0.06,17990,1303,18710,1076,1112
100_75_50_2_4,23470,331,966,1497,84,29.54,0.08,1.73,125.76,0.13,26382,2912,27348,2497,2581
100_75_50_2_5,11897,264,910,823,83,10.64,0.06,0.82,88.45,0.09,14067,2170,14977,1823,1906
100_75_50_2_6,26849,371,1054,1653,87,36.02,0.08,1.57,130.95,0.13,29960,3111,31014,2653,2740
100_75_50_2_7,13400,104,251,592,54,14.97,0.04,0.68,79.4,0.08,15150,1750,15401,1592,1646
100_75_50_2_8,22442,119,622,936,65,32.51,0.05,1.43,97.52,0.1,24562,2120,25184,1936,2001
100_75_50_2_9,17411,63,309,422,21,25.4,0.03,1.01,73.95,0.07,18917,1506,19226,1422,1443
10000_500_200_3_0,2,0,0,0,0,632.97,0.0,0.01,0.0,0.0,3,0,3,0,0
10000_500_200_3_1,3,0,0,0,0,708.32,0.0,0.02,0.0,0.0,4,0,4,0,0
10000_500_200_3_2,2,0,0,0,0,687.1,0.0,0.01,0.0,0.0,3,0,3,0,0
10000_500_200_3_3,2,0,0,0,0,727.23,0.0,0.01,0.0,0.0,3,0,3,0,0
10000_500_200_3_4,1,0,0,0,0,600.26,0.0,0.01,0.0,0.0,2,0,2,0,0
10000_500_200_3_5,2,0,0,0,0,742.88,0.0,0.01,0.0,0.0,3,0,3,0,0
10000_500_200_3_6,2,0,0,0,0,661.31,0.0,0.01,0.0,0.0,3,0,3,0,0
10000_500_200_3_7,2,0,0,0,0,712.43,0.0,0.02,0.0,0.0,3,0,3,0,0
10000_500_200_3_8,1,0,0,0,0,606.95,0.0,0.01,0.0,0.0,2,0,2,0,0
10000_500_200_3_9,2,0,0,0,0,604.71,0.0,0.01,0.0,0.0,3,0,3,0,0
1000_500_250_3_0,9,0,0,0,0,612.2,0.0,0.03,0.0,0.0,10,0,10,0,0
1000_500_250_3_1,10,0,0,0,0,619.54,0.0,0.03,0.0,0.0,11,0,11,0,0
1000_500_250_3_2,9,0,0,0,0,603.81,0.0,0.03,0.0,0.0,10,0,10,0,0
1000_500_250_3_3,9,0,0,0,0,612.29,0.0,0.03,0.0,0.0,10,0,10,0,0
1000_500_250_3_4,10,0,0,0,0,627.9,0.0,0.03,0.0,0.0,11,0,11,0,0
1000_500_250_3_5,10,0,0,0,0,639.02,0.0,0.03,0.0,0.0,11,0,11,0,0
1000_500_250_3_6,10,0,0,0,0,653.84,0.0,0.03,0.0,0.0,11,0,11,0,0
1000_500_250_3_7,10,0,0,0,0,658.68,0.0,0.03,0.0,0.0,11,0,11,0,0
1000_500_250_3_8,10,0,0,0,0,613.19,0.0,0.03,0.0,0.0,11,0,11,0,0
1000_500_250_3_9,9,0,0,0,0,644.09,0.0,0.03,0.0,0.0,10,0,10,0,0
500_250_100_3_0,174,0,0,0,0,600.36,0.0,0.13,0.0,0.0,175,0,175,0,0
500_250_100_3_1,127,0,0,0,0,600.94,0.0,0.09,0.0,0.0,128,0,128,0,0
500_250_100_3_2,95,0,0,0,0,603.84,0.0,0.07,0.0,0.0,96,0,96,0,0
500_250_100_3_3,130,0,0,0,0,601.08,0.0,0.1,0.0,0.0,131,0,131,0,0
500_250_100_3_4,108,0,0,0,0,602.72,0.0,0.08,0.0,0.0,109,0,109,0,0
500_250_100_3_5,95,0,0,0,0,604.81,0.0,0.07,0.0,0.0,96,0,96,0,0
500_250_100_3_6,98,0,0,0,0,602.92,0.0,0.07,0.0,0.0,99,0,99,0,0
500_250_100_3_7,139,0,0,0,0,602.93,0.0,0.1,0.0,0.0,140,0,140,0,0
500_250_100_3_8,131,0,0,0,0,603.21,0.0,0.1,0.0,0.0,132,0,132,0,0
500_250_100_3_9,118,0,0,0,0,601.22,0.0,0.09,0.0,0.0,119,0,119,0,0
100_75_50_3_0,17388,0,0,0,0,589.04,0.0,1.31,8.07,0.01,17585,196,17585,196,196
100_75_50_3_1,24592,0,0,0,0,579.33,0.01,2.04,16.14,0.02,24981,388,24981,388,388
100_75_50_3_2,25336,0,0,0,0,582.27,0.0,2.09,13.41,0.02,25638,301,25638,301,301
100_75_50_3_3,16768,0,29,0,0,589.01,0.0,1.24,8.16,0.01,16970,201,16999,201,201
100_75_50_3_4,22676,0,0,0,0,580.54,0.01,1.87,15.4,0.02,23038,361,23038,361,361
100_75_50_3_5,20141,0,0,0,0,585.32,0.0,1.64,11.23,0.01,20410,268,20410,268,268
100_75_50_3_6,17869,0,0,0,0,589.68,0.0,1.43,7.4,0.01,18048,178,18048,178,178
100_75_50_3_7,16320,0,6,0,0,589.71,0.0,1.26,7.61,0.01,16515,194,16521,194,194
100_75_50_3_8,22495,0,0,0,0,585.35,0.0,1.71,11.02,0.01,22752,256,22752,256,256
100_75_50_3_9,15753,0,0,0,0,590.09,0.0,1.21,7.42,0.01,15927,173,15927,173,173
10000_500_200_4_0,43,0,0,0,0,602.33,0.0,0.08,0.0,0.0,44,0,44,0,0
10000_500_200_4_1,82,0,0,0,0,604.83,0.0,0.17,0.0,0.0,83,0,83,0,0
10000_500_200_4_2,322,0,0,0,0,523.97,0.0,0.74,2945.86,0.01,323,1,323,1,1
10000_500_200_4_3,97,0,0,0,0,600.42,0.0,0.27,0.0,0.0,98,0,98,0,0
10000_500_200_4_4,269,0,0,0,0,598.16,0.0,0.65,0.0,0.0,270,0,270,0,0
10000_500_200_4_5,53,0,0,0,0,604.83,0.0,0.16,0.0,0.0,54,0,54,0,0
10000_500_200_4_6,47,0,0,0,0,609.79,0.0,0.13,0.0,0.0,48,0,48,0,0
10000_500_200_4_7,204,0,0,0,0,598.74,0.0,0.45,0.0,0.0,205,0,205,0,0
10000_500_200_4_8,89,0,0,0,0,602.82,0.0,0.21,0.0,0.0,90,0,90,0,0
10000_500_200_4_9,50,0,0,0,0,603.55,0.0,0.13,0.0,0.0,51,0,51,0,0
1000_500_250_4_0,894,0,0,0,0,569.78,0.0,1.35,28.92,0.0,896,1,896,1,1
1000_500_250_4_1,1176,0,0,0,0,572.86,0.0,1.69,25.01,0.0,1178,1,1178,1,1
1000_500_250_4_2,351,0,0,0,0,600.07,0.0,0.53,0.0,0.0,352,0,352,0,0
1000_500_250_4_3,969,0,2,1,1,538.71,0.0,1.44,60.72,0.0,973,3,975,2,3
1000_500_250_4_4,977,0,0,0,0,573.17,0.0,1.46,25.41,0.0,979,1,979,1,1
1000_500_250_4_5,923,0,0,0,0,594.4,0.0,1.24,27.15,0.0,924,1,924,1,1
1000_500_250_4_6,871,0,0,0,0,574.42,0.0,1.29,25.07,0.0,873,1,873,1,1
1000_500_250_4_7,913,0,0,0,0,573.5,0.0,1.29,25.12,0.0,915,1,915,1,1
1000_500_250_4_8,335,0,2,0,0,599.84,0.0,0.46,0.0,0.0,336,0,338,0,0
1000_500_250_4_9,1082,0,0,0,0,570.28,0.0,1.6,27.68,0.0,1084,1,1084,1,1
500_250_100_4_0,6632,0,1,1,0,504.22,0.0,2.34,91.2,0.01,6658,25,6659,25,25
500_250_100_4_1,4805,0,0,0,0,544.68,0.0,1.88,51.88,0.0,4821,15,4821,15,15
500_250_100_4_2,7149,0,1,0,0,473.28,0.0,2.79,121.6,0.01,7186,36,7187,36,36
500_250_100_4_3,5661,0,0,0,0,512.04,0.0,2.05,83.97,0.01,5685,23,5685,23,23
500_250_100_4_4,6526,0,0,0,0,496.75,0.0,2.71,98.32,0.01,6555,28,6555,28,28
500_250_100_4_5,5971,0,2,4,0,489.71,0.0,2.48,105.61,0.01,6003,31,6005,31,31
500_250_100_4_6,6100,0,22,0,0,501.06,0.0,2.08,97.04,0.01,6126,26,6148,26,26
500_250_100_4_7,5680,0,0,0,0,509.62,0.0,2.1,86.26,0.01,5704,23,5704,23,23
500_250_100_4_8,7221,0,0,0,0,444.54,0.0,3.14,149.73,0.01,7261,39,7261,39,39
500_250_100_4_9,7386,0,0,5,0,462.41,0.0,2.69,132.61,0.01,7425,39,7425,39,39
100_75_50_4_0,22705,0,0,145,0,34.33,0.02,1.03,60.61,0.06,23850,1145,23850,1145,1145
100_75_50_4_1,37598,98,188,360,2,96.32,0.03,1.79,69.57,0.06,39058,1460,39246,1360,1362
100_75_50_4_2,38496,0,577,1,1,113.45,0.02,1.94,51.76,0.05,39498,1002,40075,1001,1002
100_75_50_4_3,19496,0,0,415,0,19.03,0.02,0.98,66.3,0.07,20911,1415,20911,1415,1415
100_75_50_4_4,33490,0,1,13,0,79.55,0.02,1.57,47.94,0.05,34503,1013,34504,1013,1013
100_75_50_4_5,26101,0,302,195,0,32.52,0.02,1.05,59.31,0.05,27296,1195,27598,1195,1195
100_75_50_4_6,9862,23,33,210,0,8.12,0.02,0.43,60.83,0.05,11095,1233,11128,1210,1210
100_75_50_4_7,29020,13,22,3,0,46.43,0.01,1.11,50.19,0.04,30036,1016,30058,1003,1003
100_75_50_4_8,14992,0,0,208,0,14.49,0.02,0.63,62.2,0.05,16200,1208,16200,1208,1208
100_75_50_4_9,17826,0,0,0,0,22.67,0.02,0.97,56.93,0.05,18826,1000,18826,1000,1000
10000_500_200_6_0,202,0,0,0,0,370.08,0.0,0.35,704.91,0.01,203,1,203,1,1
10000_500_200_6_1,102,0,0,0,0,602.95,0.0,0.2,0.0,0.0,103,0,103,0,0
10000_500_200_6_2,67,0,0,0,0,602.89,0.0,0.15,0.0,0.0,68,0,68,0,0
10000_500_200_6_3,72,0,4,0,0,599.5,0.0,1.03,0.0,0.0,73,0,77,0,0
10000_500_200_6_4,151,0,2,0,0,600.21,0.0,0.48,0.0,0.0,152,0,154,0,0
10000_500_200_6_5,222,0,0,0,0,327.78,0.0,0.55,756.74,0.01,223,1,223,1,1
10000_500_200_6_6,152,0,16,0,0,581.91,0.0,17.62,0.0,0.0,153,0,169,0,0
10000_500_200_6_7,71,0,0,0,0,603.83,0.0,0.2,0.0,0.0,72,0,72,0,0
10000_500_200_6_8,63,0,0,0,0,603.17,0.0,0.19,0.0,0.0,64,0,64,0,0
10000_500_200_6_9,75,0,0,0,0,602.34,0.0,0.28,0.0,0.0,76,0,76,0,0
1000_500_250_6_0,1540,2,29,10,0,433.07,0.0,3.76,161.84,0.01,1556,15,1585,13,13
1000_500_250_6_1,1803,2,43,18,1,311.24,0.01,4.26,283.39,0.02,1827,23,1870,20,21
1000_500_250_6_2,908,3,10,2,0,555.68,0.0,1.46,42.64,0.0,915,6,925,3,3
1000_500_250_6_3,1691,9,56,12,1,390.41,0.01,4.5,217.16,0.01,1716,25,1772,15,16
1000_500_250_6_4,1330,2,47,1,0,537.99,0.0,3.47,57.92,0.0,1337,6,1384,4,4
1000_500_250_6_5,1606,5,23,10,0,416.11,0.01,2.93,180.79,0.01,1624,18,1647,13,13
1000_500_250_6_6,1534,1,20,16,0,353.19,0.0,2.7,243.25,0.01,1553,18,1573,17,17
1000_500_250_6_7,1765,2,44,6,1,472.57,0.0,3.28,132.01,0.01,1778,13,1822,10,11
1000_500_250_6_8,1616,2,19,8,1,457.46,0.0,2.94,151.98,0.01,1630,14,1649,11,12
1000_500_250_6_9,1268,1,32,7,0,477.73,0.0,2.73,119.06,0.01,1278,9,1310,8,8
500_250_100_6_0,6137,80,317,121,1,304.84,0.06,5.24,288.52,0.04,6365,228,6682,147,148
500_250_100_6_1,5616,57,266,120,4,300.92,0.04,4.93,293.04,0.04,5823,207,6089,146,150
500_250_100_6_2,6452,82,489,119,6,276.45,0.07,8.31,312.83,0.04,6696,244,7185,156,162
500_250_100_6_3,6250,65,372,128,2,292.74,0.04,5.76,298.86,0.04,6477,226,6849,159,161
500_250_100_6_4,6516,61,308,125,5,294.99,0.05,6.12,296.13,0.04,6738,221,7046,155,160
500_250_100_6_5,6423,53,352,132,8,269.62,0.05,6.51,322.49,0.05,6650,227,7002,166,174
500_250_100_6_6,6323,96,465,116,8,309.78,0.09,8.02,279.47,0.04,6576,252,7041,148,156
500_250_100_6_7,5854,70,377,134,3,282.41,0.06,6.58,308.39,0.04,6085,230,6462,157,160
500_250_100_6_8,6319,72,502,150,7,261.31,0.05,8.11,328.56,0.05,6573,254,7075,175,182
500_250_100_6_9,6142,39,438,124,8,282.4,0.03,6.01,308.97,0.04,6341,198,6779,151,159
100_75_50_6_0,29668,1428,5982,3324,163,62.63,0.26,8.77,138.91,0.23,35583,5915,41565,4324,4487
100_75_50_6_1,21525,1910,6845,3327,143,34.51,0.34,7.92,136.04,0.24,27905,6380,34750,4327,4470
100_75_50_6_2,23482,1894,6675,2476,242,42.51,0.33,9.06,116.39,0.2,29094,5612,35769,3476,3718
100_75_50_6_3,22822,1993,6916,2723,152,34.82,0.34,8.72,117.61,0.2,28690,5868,35606,3723,3875
100_75_50_6_4,25935,1034,6163,2449,136,56.97,0.19,8.76,109.64,0.19,30554,4619,36717,3449,3585
100_75_50_6_5,15713,1197,5574,2340,179,22.79,0.2,6.83,116.04,0.17,20429,4716,26003,3340,3519
100_75_50_6_6,23677,1684,6908,3360,171,39.44,0.29,8.72,144.67,0.23,29892,6215,36800,4360,4531
100_75_50_6_7,18118,1932,5563,2896,266,25.39,0.32,5.97,123.12,0.2,24212,6094,29775,3896,4162
100_75_50_6_8,21992,953,5252,2503,126,42.39,0.16,9.02,117.77,0.18,26574,4582,31826,3503,3629
100_75_50_6_9,19340,1394,7410,2368,158,33.07,0.23,10.59,106.44,0.17,24260,4920,31670,3368,3526
10000_500_200_7_0,3,0,1,0,0,615.63,0.0,1.05,0.0,0.0,4,0,5,0,0
10000_500_200_7_1,4,0,14,0,0,573.72,0.0,31.97,0.0,0.0,5,0,19,0,0
10000_500_200_7_2,1,0,39,0,0,411.99,0.0,246.9,0.0,0.0,2,0,41,0,0
10000_500_200_7_3,3,0,23,0,0,636.91,0.0,109.84,0.0,0.0,4,0,27,0,0
10000_500_200_7_4,2,0,3,0,0,712.22,0.0,3.34,0.0,0.0,3,0,6,0,0
10000_500_200_7_5,3,0,3,0,0,738.82,0.0,2.08,0.0,0.0,4,0,7,0,0
10000_500_200_7_6,2,0,1,0,0,607.41,0.0,2.09,0.0,0.0,3,0,4,0,0
10000_500_200_7_7,4,0,8,0,0,662.16,0.0,25.44,0.0,0.0,5,0,13,0,0
10000_500_200_7_8,2,0,0,0,0,622.04,0.0,0.01,0.0,0.0,3,0,3,0,0
10000_500_200_7_9,1,0,7,0,0,674.55,0.0,3.32,0.0,0.0,2,0,9,0,0
1000_500_250_7_0,12,0,14,0,0,628.97,0.0,1.42,0.0,0.0,13,0,27,0,0
1000_500_250_7_1,13,0,18,0,0,609.7,0.0,4.38,0.0,0.0,14,0,32,0,0
1000_500_250_7_2,11,0,9,0,0,601.22,0.0,0.61,0.0,0.0,12,0,21,0,0
1000_500_250_7_3,10,0,5,0,0,662.42,0.0,0.54,0.0,0.0,11,0,16,0,0
1000_500_250_7_4,11,0,13,0,0,643.1,0.0,1.28,0.0,0.0,12,0,25,0,0
1000_500_250_7_5,13,0,0,0,0,634.39,0.0,0.04,0.0,0.0,14,0,14,0,0
1000_500_250_7_6,10,0,4,0,0,635.15,0.0,0.19,0.0,0.0,11,0,15,0,0
1000_500_250_7_7,10,0,0,0,0,649.0,0.0,0.03,0.0,0.0,11,0,11,0,0
1000_500_250_7_8,12,0,35,0,0,612.59,0.0,17.85,0.0,0.0,13,0,48,0,0
1000_500_250_7_9,10,0,11,0,0,641.48,0.0,0.98,0.0,0.0,11,0,22,0,0
500_250_100_7_0,222,0,0,0,0,600.26,0.0,0.18,0.0,0.0,223,0,223,0,0
500_250_100_7_1,322,0,21,0,0,600.95,0.0,2.78,1.45,0.0,324,1,345,1,1
500_250_100_7_2,202,0,6,0,0,600.25,0.0,0.37,0.0,0.0,203,0,209,0,0
500_250_100_7_3,176,0,18,0,0,598.97,0.0,1.08,0.0,0.0,177,0,195,0,0
500_250_100_7_4,335,0,5,0,0,600.1,0.0,0.39,1.69,0.0,337,1,342,1,1
500_250_100_7_5,126,0,13,0,0,601.52,0.0,1.0,0.0,0.0,127,0,140,0,0
500_250_100_7_6,273,0,19,0,0,599.67,0.0,1.3,2.94,0.0,275,1,294,1,1
500_250_100_7_7,206,0,9,0,0,600.37,0.0,0.34,0.0,0.0,207,0,216,0,0
500_250_100_7_8,513,0,30,2,0,590.04,0.0,3.45,8.25,0.0,517,3,547,3,3
500_250_100_7_9,207,0,0,0,0,600.8,0.0,0.16,0.0,0.0,208,0,208,0,0
100_75_50_7_0,16410,8,703,62,0,585.51,0.01,2.93,9.9,0.02,16714,303,17417,295,295
100_75_50_7_1,25727,0,2034,234,0,563.91,0.01,12.98,20.28,0.04,26343,615,28377,615,615
100_75_50_7_2,36779,0,6991,83,25,496.46,0.02,66.41,32.63,0.06,37682,902,44673,877,902
100_75_50_7_3,24032,32,3405,219,0,557.99,0.02,14.04,25.28,0.04,24726,693,28131,661,661
100_75_50_7_4,21987,0,4300,376,0,526.59,0.01,45.74,25.47,0.04,22673,685,26973,685,685
100_75_50_7_5,24002,8,3260,346,26,545.23,0.01,23.29,29.03,0.05,24829,826,28089,792,818
100_75_50_7_6,27289,10,2718,228,2,553.64,0.01,18.87,24.82,0.04,27960,670,30678,658,660
100_75_50_7_7,21499,22,3858,158,83,547.18,0.01,35.73,15.0,0.07,21975,475,25833,370,453
100_75_50_7_8,21927,4,5405,234,86,547.6,0.01,28.96,21.11,0.06,22587,659,27992,569,655
100_75_50_7_9,25710,151,2267,249,0,562.99,0.04,9.75,24.72,0.04,26541,830,28808,679,679
10000_500_200_8_0,57,0,0,0,0,602.52,0.0,0.12,0.0,0.0,58,0,58,0,0
10000_500_200_8_1,103,0,0,0,0,601.81,0.0,0.24,0.0,0.0,104,0,104,0,0
10000_500_200_8_2,188,0,2,0,0,463.13,0.0,0.64,860.14,0.01,189,1,191,1,1
10000_500_200_8_3,170,0,10,0,0,389.42,0.0,0.68,1011.66,0.01,171,1,181,1,1
10000_500_200_8_4,59,0,0,0,0,606.1,0.0,0.15,0.0,0.0,60,0,60,0,0
10000_500_200_8_5,207,0,0,0,0,513.41,0.0,0.61,1030.05,0.01,208,1,208,1,1
10000_500_200_8_6,45,0,0,0,0,602.51,0.0,0.15,0.0,0.0,46,0,46,0,0
10000_500_200_8_7,42,0,3,0,0,609.7,0.0,0.41,0.0,0.0,43,0,46,0,0
10000_500_200_8_8,59,0,4,0,0,603.97,0.0,0.22,0.0,0.0,60,0,64,0,0
10000_500_200_8_9,89,0,1,0,0,600.74,0.0,0.3,0.0,0.0,90,0,91,0,0
1000_500_250_8_0,796,0,2,0,0,584.8,0.0,1.19,13.46,0.0,798,1,800,1,1
1000_500_250_8_1,600,1,7,0,0,583.59,0.0,1.04,15.45,0.0,603,2,610,1,1
1000_500_250_8_2,261,0,4,0,0,599.63,0.0,0.42,0.0,0.0,262,0,266,0,0
1000_500_250_8_3,232,0,3,0,0,599.98,0.0,0.39,0.0,0.0,233,0,236,0,0
1000_500_250_8_4,867,0,16,0,0,583.51,0.0,1.73,14.53,0.0,869,1,885,1,1
1000_500_250_8_5,757,0,0,0,0,585.99,0.0,1.01,12.59,0.0,759,1,759,1,1
1000_500_250_8_6,748,0,8,1,0,574.83,0.0,1.07,24.28,0.0,751,2,759,2,2
1000_500_250_8_7,676,0,21,0,0,586.36,0.0,1.36,11.9,0.0,678,1,699,1,1
1000_500_250_8_8,294,0,15,0,0,599.58,0.0,0.65,0.0,0.0,295,0,310,0,0
1000_500_250_8_9,856,1,14,1,0,560.15,0.0,1.47,38.9,0.0,861,4,875,3,3
500_250_100_8_0,5656,18,203,14,2,492.3,0.01,4.19,101.28,0.01,5724,67,5927,47,49
500_250_100_8_1,5011,17,170,11,0,519.81,0.01,3.72,74.51,0.01,5065,53,5235,36,36
500_250_100_8_2,6751,28,120,21,0,468.89,0.02,3.65,124.7,0.02,6847,95,6967,67,67
500_250_100_8_3,3973,30,164,16,1,527.55,0.02,2.67,68.3,0.01,4039,65,4203,34,35
500_250_100_8_4,4020,36,179,17,1,532.76,0.03,2.26,63.65,0.01,4090,69,4269,32,33
500_250_100_8_5,5102,28,192,17,3,510.23,0.02,4.53,83.25,0.01,5179,76,5371,45,48
500_250_100_8_6,6812,58,588,5,1,474.18,0.04,7.42,115.57,0.02,6931,118,7519,59,60
500_250_100_8_7,5299,47,314,28,9,474.17,0.03,6.03,117.56,0.02,5413,113,5727,57,66
500_250_100_8_8,7467,50,265,11,4,430.79,0.04,6.08,160.86,0.02,7607,140,7872,86,90
500_250_100_8_9,7198,31,156,19,0,468.85,0.02,4.59,124.54,0.02,7293,95,7449,64,64
100_75_50_8_0,17467,192,4733,596,328,44.52,0.05,3.53,56.37,0.12,19583,2116,24316,1596,1924
100_75_50_8_1,18017,1163,4342,1321,108,24.03,0.16,5.51,79.35,0.13,21609,3592,25951,2321,2429
100_75_50_8_2,15487,265,4103,812,28,30.4,0.06,6.31,58.13,0.1,17592,2105,21695,1812,1840
100_75_50_8_3,4903,607,1139,127,0,5.4,0.08,0.82,32.97,0.05,6637,1734,7776,1127,1127
100_75_50_8_4,17989,1110,4110,1125,82,31.37,0.17,5.92,70.97,0.11,21306,3317,25416,2125,2207
100_75_50_8_5,16595,917,5176,1248,67,16.05,0.15,5.3,78.46,0.11,19827,3232,25003,2248,2315
100_75_50_8_6,13437,43,1821,286,140,26.71,0.03,3.69,46.42,0.08,14906,1469,16727,1286,1426
100_75_50_8_7,6101,691,11403,812,180,3.88,0.09,20.65,69.05,0.11,8784,2683,20187,1812,1992
100_75_50_8_8,3665,2146,5004,125,0,1.5,0.23,4.78,47.74,0.05,6936,3271,11940,1125,1125
100_75_50_8_9,21657,102,2762,388,0,69.32,0.03,2.84,53.03,0.07,23147,1490,25909,1388,1388
10000_500_200_10_0,104,0,0,0,0,601.97,0.0,0.21,0.0,0.0,105,0,105,0,0
10000_500_200_10_1,59,0,0,0,0,605.96,0.0,0.14,0.0,0.0,60,0,60,0,0
10000_500_200_10_2,213,3,7,0,0,530.51,0.03,4.07,648.08,0.01,217,4,224,1,1
10000_500_200_10_3,55,0,0,0,0,600.17,0.0,0.14,0.0,0.0,56,0,56,0,0
10000_500_200_10_4,91,0,0,0,0,605.48,0.0,0.2,0.0,0.0,92,0,92,0,0
10000_500_200_10_5,210,0,0,0,0,598.33,0.0,0.52,0.0,0.0,211,0,211,0,0
10000_500_200_10_6,61,0,6,0,0,599.56,0.0,0.35,0.0,0.0,62,0,68,0,0
10000_500_200_10_7,61,0,0,0,0,601.63,0.0,0.2,0.0,0.0,62,0,62,0,0
10000_500_200_10_8,42,0,0,0,0,601.29,0.0,0.12,0.0,0.0,43,0,43,0,0
10000_500_200_10_9,38,0,5,0,0,605.3,0.0,2.24,0.0,0.0,39,0,44,0,0
1000_500_250_10_0,1072,13,79,5,2,528.0,0.03,10.02,63.09,0.01,1094,22,1173,7,9
1000_500_250_10_1,698,0,10,1,0,579.57,0.0,1.27,18.36,0.0,701,2,711,2,2
1000_500_250_10_2,1420,7,81,10,1,470.07,0.01,4.44,124.91,0.01,1440,19,1521,11,12
1000_500_250_10_3,1335,6,27,7,0,526.38,0.01,3.52,69.2,0.0,1350,14,1377,8,8
1000_500_250_10_4,1517,12,38,16,0,419.1,0.01,3.28,176.61,0.01,1547,29,1585,17,17
1000_500_250_10_5,1786,13,70,15,0,421.62,0.02,7.01,170.58,0.01,1816,30,1886,17,17
1000_500_250_10_6,1334,3,40,10,0,466.49,0.0,3.31,129.5,0.01,1350,15,1390,12,12
1000_500_250_10_7,953,0,67,15,0,417.27,0.0,5.0,177.45,0.01,971,17,1038,17,17
1000_500_250_10_8,1764,2,87,12,0,449.79,0.0,6.43,142.25,0.01,1782,17,1869,15,15
1000_500_250_10_9,1677,3,49,12,0,448.92,0.01,3.86,145.41,0.01,1695,17,1744,14,14
500_250_100_10_0,6402,66,651,153,6,315.66,0.05,15.34,266.18,0.05,6659,256,7310,184,190
500_250_100_10_1,6488,48,502,159,10,345.61,0.04,11.53,240.15,0.05,6731,242,7233,184,194
500_250_100_10_2,6317,67,787,150,8,300.61,0.06,17.17,279.28,0.05,6579,261,7366,186,194
500_250_100_10_3,6541,104,869,199,6,270.63,0.08,17.61,308.87,0.06,6886,344,7755,234,240
500_250_100_10_4,6418,67,661,147,5,355.5,0.06,13.93,228.19,0.05,6662,244,7323,172,177
500_250_100_10_5,6239,30,593,131,6,359.67,0.03,13.11,224.51,0.04,6434,194,7027,158,164
500_250_100_10_6,6362,72,761,144,10,341.29,0.07,21.3,234.33,0.05,6612,249,7373,167,177
500_250_100_10_7,6009,60,563,139,3,343.25,0.05,13.05,240.96,0.04,6238,229,6801,166,169
500_250_100_10_8,6512,78,690,145,13,346.4,0.06,13.37,237.32,0.05,6775,262,7465,171,184
500_250_100_10_9,5826,55,642,123,3,349.29,0.06,12.63,235.23,0.04,6031,205,6673,147,150
100_75_50_10_0,14487,1046,7713,2906,293,33.49,0.22,14.2,108.63,0.24,19732,5245,27445,3906,4199
100_75_50_10_1,8706,1315,6079,2949,281,16.02,0.23,9.14,105.38,0.22,14251,5545,20330,3949,4230
100_75_50_10_2,11981,1283,7339,2416,312,24.38,0.23,13.21,100.85,0.19,16992,5011,24331,3416,3728
100_75_50_10_3,10265,1786,6023,2648,335,16.72,0.32,9.53,108.11,0.21,16034,5769,22057,3648,3983
100_75_50_10_4,15956,977,8482,2538,259,40.26,0.17,16.04,96.91,0.19,20730,4774,29212,3538,3797
100_75_50_10_5,6595,1096,5968,2079,373,11.02,0.2,10.16,101.35,0.18,11143,4548,17111,3079,3452
100_75_50_10_6,11730,1474,7474,2842,356,23.24,0.26,13.23,113.25,0.22,17402,5672,24876,3842,4198
100_75_50_10_7,6963,1275,5581,2765,309,10.03,0.23,8.88,110.35,0.21,12312,5349,17893,3765,4074
100_75_50_10_8,13432,1163,9188,2637,281,33.08,0.21,20.92,110.46,0.2,18513,5081,27701,3637,3918
100_75_50_10_9,8599,1472,9212,2558,390,15.15,0.28,17.63,101.11,0.22,14019,5420,23231,3558,3948
10000_500_200_11_0,5,0,10,0,0,638.12,0.0,39.62,0.0,0.0,6,0,16,0,0
10000_500_200_11_1,5,0,4,0,0,630.7,0.0,5.43,0.0,0.0,6,0,10,0,0
10000_500_200_11_2,1,0,9,0,0,611.3,0.0,22.02,0.0,0.0,2,0,11,0,0
10000_500_200_11_3,3,0,0,0,0,702.18,0.0,0.02,0.0,0.0,4,0,4,0,0
10000_500_200_11_4,0,0,23,0,0,0.0,0.0,600.17,0.0,0.0,0,0,24,0,0
10000_500_200_11_5,2,0,6,0,0,691.58,0.0,17.81,0.0,0.0,3,0,9,0,0
10000_500_200_11_6,1,0,3,0,0,631.18,0.0,6.83,0.0,0.0,2,0,5,0,0
10000_500_200_11_7,0,0,10,0,0,0.0,0.0,659.01,0.0,0.0,0,0,11,0,0
10000_500_200_11_8,1,0,0,0,0,657.24,0.0,0.01,0.0,0.0,2,0,2,0,0
10000_500_200_11_9,4,0,0,0,0,685.34,0.0,0.02,0.0,0.0,5,0,5,0,0
1000_500_250_11_0,12,0,0,0,0,621.89,0.0,0.04,0.0,0.0,13,0,13,0,0
1000_500_250_11_1,10,0,9,0,0,606.3,0.0,1.63,0.0,0.0,11,0,20,0,0
1000_500_250_11_2,11,0,2,0,0,606.35,0.0,0.07,0.0,0.0,12,0,14,0,0
1000_500_250_11_3,9,0,2,0,0,611.46,0.0,0.08,0.0,0.0,10,0,12,0,0
1000_500_250_11_4,15,0,8,0,0,633.21,0.0,2.7,0.0,0.0,16,0,24,0,0
1000_500_250_11_5,13,0,0,0,0,606.14,0.0,0.04,0.0,0.0,14,0,14,0,0
1000_500_250_11_6,12,0,19,0,0,639.06,0.0,2.85,0.0,0.0,13,0,32,0,0
1000_500_250_11_7,10,0,2,0,0,646.46,0.0,0.06,0.0,0.0,11,0,13,0,0
1000_500_250_11_8,12,0,1,0,0,639.11,0.0,0.15,0.0,0.0,13,0,14,0,0
1000_500_250_11_9,13,0,0,0,0,620.31,0.0,0.04,0.0,0.0,14,0,14,0,0
500_250_100_11_0,287,0,0,0,0,605.22,0.0,0.21,0.98,0.0,289,1,289,1,1
500_250_100_11_1,288,0,46,0,0,592.64,0.0,8.28,1.02,0.0,290,1,336,1,1
500_250_100_11_2,509,0,8,1,0,595.31,0.0,0.62,5.17,0.0,513,3,521,3,3
500_250_100_11_3,343,0,0,0,0,600.2,0.0,0.26,1.08,0.0,345,1,345,1,1
500_250_100_11_4,658,1,7,0,0,594.23,0.0,0.61,5.27,0.0,664,5,671,4,4
500_250_100_11_5,289,0,6,0,0,598.95,0.0,0.28,1.7,0.0,291,1,297,1,1
500_250_100_11_6,301,0,7,0,0,599.45,0.0,0.31,1.05,0.0,303,1,310,1,1
500_250_100_11_7,321,0,18,0,0,598.26,0.0,1.69,1.06,0.0,323,1,341,1,1
500_250_100_11_8,431,0,21,1,0,594.43,0.0,1.64,5.65,0.0,435,3,456,3,3
500_250_100_11_9,340,0,0,0,0,599.46,0.0,0.25,1.09,0.0,342,1,342,1,1
100_75_50_11_0,17811,132,11061,310,237,406.37,0.06,177.78,13.41,0.22,18720,909,29782,540,777
100_75_50_11_1,14009,19,12211,325,108,258.64,0.01,325.67,13.71,0.05,14676,667,26888,540,648
100_75_50_11_2,12062,413,15631,289,347,102.92,0.23,478.06,16.61,0.15,13427,1365,29059,605,952
100_75_50_11_3,19104,1507,16974,362,367,316.0,0.74,256.95,23.14,0.23,21918,2814,38893,940,1307
100_75_50_11_4,15603,0,12445,400,171,257.76,0.01,323.63,16.16,0.06,16476,872,28921,701,872
100_75_50_11_5,16473,1777,15960,348,0,304.47,0.73,269.52,22.3,0.05,19211,2738,35172,961,961
100_75_50_11_6,17043,102,14094,248,434,281.88,0.05,302.63,12.97,0.12,18092,1048,32186,512,946
100_75_50_11_7,24084,640,8210,300,31,467.22,0.34,108.03,21.06,0.07,25710,1625,33920,954,985
100_75_50_11_8,22695,571,13508,416,186,409.2,0.29,166.14,20.98,0.24,24362,1667,37871,910,1096
100_75_50_11_9,17411,231,12612,322,271,344.11,0.1,236.99,15.98,0.24,18528,1116,31140,614,885
10000_500_200_12_0,64,0,10,0,0,595.67,0.0,8.13,0.0,0.0,65,0,75,0,0
10000_500_200_12_1,163,0,1,0,0,431.7,0.0,0.49,705.87,0.01,164,1,165,1,1
10000_500_200_12_2,174,1,14,0,0,572.48,0.01,4.04,1199.45,0.01,176,2,190,1,1
10000_500_200_12_3,109,0,0,0,0,383.73,0.0,0.34,1012.35,0.01,110,1,110,1,1
10000_500_200_12_4,146,0,13,0,0,477.85,0.0,3.5,987.75,0.01,147,1,160,1,1
10000_500_200_12_5,165,0,2,0,0,447.54,0.0,0.84,811.18,0.01,166,1,168,1,1
10000_500_200_12_6,72,0,10,0,0,591.01,0.0,10.01,0.0,0.0,73,0,83,0,0
10000_500_200_12_7,35,0,1,0,0,604.14,0.0,0.15,0.0,0.0,36,0,37,0,0
10000_500_200_12_8,153,0,6,0,0,357.56,0.0,5.86,991.67,0.01,154,1,160,1,1
10000_500_200_12_9,31,0,2,0,0,602.09,0.0,0.29,0.0,0.0,32,0,34,0,0
1000_500_250_12_0,544,0,30,0,0,587.06,0.0,2.64,10.6,0.0,546,1,576,1,1
1000_500_250_12_1,1247,4,58,2,1,543.57,0.01,4.53,53.18,0.0,1257,10,1315,5,6
1000_500_250_12_2,906,2,29,1,1,567.39,0.0,2.09,32.46,0.0,912,6,941,3,4
1000_500_250_12_3,149,0,27,0,0,599.65,0.0,2.61,0.0,0.0,150,0,177,0,0
1000_500_250_12_4,603,3,22,0,0,589.35,0.0,2.34,9.49,0.0,608,4,630,1,1
1000_500_250_12_5,961,1,16,2,0,567.86,0.0,1.66,29.56,0.0,966,4,982,3,3
1000_500_250_12_6,984,5,43,1,0,568.33,0.01,5.99,24.86,0.0,992,7,1035,2,2
1000_500_250_12_7,197,0,6,0,0,600.91,0.0,0.46,0.0,0.0,198,0,204,0,0
1000_500_250_12_8,751,2,32,1,0,576.03,0.0,2.47,20.72,0.0,756,4,788,2,2
1000_500_250_12_9,833,0,51,0,1,570.34,0.0,8.48,23.84,0.0,836,3,887,2,3
500_250_100_12_0,5111,22,336,29,0,474.04,0.02,6.25,117.63,0.02,5199,87,5535,65,65
500_250_100_12_1,5680,37,446,33,0,468.64,0.03,10.69,118.04,0.02,5796,115,6242,78,78
500_250_100_12_2,5557,9,209,22,0,503.18,0.01,5.41,89.08,0.02,5630,72,5839,63,63
500_250_100_12_3,3973,26,196,12,2,538.55,0.02,3.96,55.72,0.01,4036,62,4232,34,36
500_250_100_12_4,4823,44,392,18,1,522.78,0.03,6.98,68.07,0.01,4916,92,5308,47,48
500_250_100_12_5,5509,122,765,28,1,473.83,0.17,16.71,106.88,0.02,5708,198,6473,75,76
500_250_100_12_6,7268,24,684,26,0,444.58,0.02,11.27,140.74,0.03,7390,121,8074,97,97
500_250_100_12_7,4717,40,266,25,3,509.6,0.03,3.65,84.75,0.02,4822,104,5088,61,64
500_250_100_12_8,6367,99,321,14,2,476.23,0.07,5.79,115.12,0.02,6555,187,6876,86,88
500_250_100_12_9,6242,57,513,18,29,451.84,0.05,11.07,135.96,0.04,6404,162,6917,76,105
100_75_50_12_0,6693,0,5389,259,3,17.45,0.02,3.99,39.17,0.06,7955,1262,13344,1259,1262
100_75_50_12_1,8864,840,4611,1417,155,12.26,0.13,9.21,75.82,0.13,12276,3412,16887,2417,2572
100_75_50_12_2,4393,262,4488,722,137,4.76,0.05,7.65,51.43,0.1,6514,2121,11002,1722,1859
100_75_50_12_3,4231,984,3866,925,140,4.45,0.25,8.47,44.49,0.1,7280,3049,11146,1925,2065
100_75_50_12_4,2304,753,6356,517,366,3.4,0.11,8.6,43.01,0.11,4940,2636,11296,1517,1883
100_75_50_12_5,163,16,3232,731,5,0.14,0.02,2.04,54.87,0.08,1915,1752,5147,1731,1736
100_75_50_12_6,1700,19,4663,93,219,2.38,0.02,18.09,31.4,0.08,3031,1331,7694,1093,1312
100_75_50_12_7,0,0,6755,657,0,0.06,0.02,15.38,63.15,0.08,1657,1657,8412,1657,1657
100_75_50_12_8,6141,291,11937,542,28,11.29,0.05,35.74,52.79,0.07,8002,1861,19939,1542,1570
100_75_50_12_9,9667,1,1832,143,1,16.21,0.02,1.73,34.11,0.05,10812,1145,12644,1143,1144
10000_500_200_14_0,132,0,0,0,0,601.93,0.0,0.3,0.0,0.0,133,0,133,0,0
10000_500_200_14_1,107,0,0,0,0,600.49,0.0,0.28,0.0,0.0,108,0,108,0,0
10000_500_200_14_2,70,0,0,0,0,605.09,0.0,0.19,0.0,0.0,71,0,71,0,0
10000_500_200_14_3,116,0,0,0,0,600.88,0.0,0.33,0.0,0.0,117,0,117,0,0
10000_500_200_14_4,114,0,0,0,0,599.44,0.0,0.25,0.0,0.0,115,0,115,0,0
10000_500_200_14_5,115,0,0,0,0,600.52,0.0,0.34,0.0,0.0,116,0,116,0,0
10000_500_200_14_6,106,0,0,0,0,599.32,0.0,0.33,0.0,0.0,107,0,107,0,0
10000_500_200_14_7,120,0,0,0,0,599.17,0.0,0.27,0.0,0.0,121,0,121,0,0
10000_500_200_14_8,113,0,0,0,0,601.23,0.0,0.31,0.0,0.0,114,0,114,0,0
10000_500_200_14_9,187,0,0,0,0,599.01,0.0,0.48,0.0,0.0,188,0,188,0,0
1000_500_250_14_0,1746,1,5,6,1,363.26,0.0,2.59,239.43,0.01,1757,11,1762,9,10
1000_500_250_14_1,1614,0,1,0,0,546.17,0.0,2.44,50.51,0.0,1617,2,1618,2,2
1000_500_250_14_2,1205,0,0,2,0,509.46,0.0,1.83,87.89,0.0,1209,3,1209,3,3
1000_500_250_14_3,1847,1,9,2,1,460.84,0.0,2.86,134.98,0.0,1855,7,1864,5,6
1000_500_250_14_4,1473,0,0,2,0,495.95,0.0,2.08,101.47,0.0,1478,4,1478,4,4
1000_500_250_14_5,1655,0,0,0,0,539.12,0.0,2.32,57.68,0.0,1658,2,1658,2,2
1000_500_250_14_6,1017,0,1,2,0,515.15,0.0,1.54,82.82,0.0,1021,3,1022,3,3
1000_500_250_14_7,1686,0,0,2,0,487.42,0.0,2.46,126.63,0.0,1691,5,1691,5,5
1000_500_250_14_8,1474,0,1,0,0,547.22,0.0,2.16,49.97,0.0,1477,2,1478,2,2
1000_500_250_14_9,1504,1,4,0,0,543.19,0.0,2.24,53.61,0.0,1508,3,1512,2,2
500_250_100_14_0,7414,7,24,44,3,273.12,0.01,2.93,321.3,0.02,7513,98,7537,88,91
500_250_100_14_1,6749,5,16,35,2,327.45,0.01,2.72,267.45,0.02,6830,80,6846,73,75
500_250_100_14_2,7067,7,18,47,2,290.45,0.01,2.78,304.28,0.02,7161,93,7179,84,86
500_250_100_14_3,7368,5,16,29,1,356.66,0.01,2.77,238.0,0.02,7440,72,7456,66,67
500_250_100_14_4,6078,23,59,59,3,234.72,0.02,2.81,363.07,0.03,6195,117,6254,91,94
500_250_100_14_5,7404,10,25,42,3,273.47,0.01,3.01,324.19,0.02,7504,100,7529,87,90
500_250_100_14_6,6535,17,52,52,2,280.79,0.01,2.79,314.55,0.02,6641,106,6693,87,89
500_250_100_14_7,8483,1,6,12,2,370.17,0.0,3.37,224.56,0.02,8550,67,8556,64,66
500_250_100_14_8,6505,11,53,62,2,275.94,0.01,2.52,319.2,0.02,6611,105,6664,92,94
500_250_100_14_9,7715,4,27,34,1,322.86,0.01,2.99,274.7,0.02,7798,83,7825,78,79
100_75_50_14_0,18326,78,334,583,22,22.79,0.04,1.08,78.56,0.08,20009,1683,20343,1583,1605
100_75_50_14_1,16789,76,131,486,43,21.53,0.04,0.73,69.6,0.08,18394,1605,18525,1486,1529
100_75_50_14_2,20940,517,1321,1183,86,22.99,0.1,1.48,103.27,0.11,23726,2786,25047,2183,2269
100_75_50_14_3,16687,191,720,76,36,23.67,0.04,1.03,52.01,0.06,17990,1303,18710,1076,1112
100_75_50_14_4,23470,331,966,1497,84,28.56,0.1,1.75,121.71,0.14,26382,2912,27348,2497,2581
100_75_50_14_5,11897,264,910,823,83,10.49,0.06,0.8,86.31,0.1,14067,2170,14977,1823,1906
100_75_50_14_6,26849,371,1054,1653,87,34.17,0.08,1.51,123.29,0.13,29960,3111,31014,2653,2740
100_75_50_14_7,13400,104,251,592,54,14.33,0.04,0.67,75.82,0.09,15150,1750,15401,1592,1646
100_75_50_14_8,22442,119,622,936,65,29.48,0.05,1.32,89.19,0.09,24562,2120,25184,1936,2001
100_75_50_14_9,17411,63,309,422,21,22.22,0.03,0.89,63.51,0.07,18917,1506,19226,1422,1443
10000_500_200_15_0,2,0,0,0,0,716.95,0.0,0.01,0.0,0.0,3,0,3,0,0
10000_500_200_15_1,3,0,0,0,0,713.91,0.0,0.02,0.0,0.0,4,0,4,0,0
10000_500_200_15_2,2,0,0,0,0,639.65,0.0,0.01,0.0,0.0,3,0,3,0,0
10000_500_200_15_3,2,0,0,0,0,651.84,0.0,0.01,0.0,0.0,3,0,3,0,0
10000_500_200_15_4,2,0,0,0,0,695.87,0.0,0.01,0.0,0.0,3,0,3,0,0
10000_500_200_15_5,2,0,0,0,0,624.11,0.0,0.01,0.0,0.0,3,0,3,0,0
10000_500_200_15_6,2,0,0,0,0,652.87,0.0,0.01,0.0,0.0,3,0,3,0,0
10000_500_200_15_7,2,0,0,0,0,692.61,0.0,0.02,0.0,0.0,3,0,3,0,0
10000_500_200_15_8,1,0,0,0,0,606.31,0.0,0.01,0.0,0.0,2,0,2,0,0
10000_500_200_15_9,3,0,0,0,0,772.4,0.0,0.02,0.0,0.0,4,0,4,0,0
1000_500_250_15_0,9,0,0,0,0,616.82,0.0,0.03,0.0,0.0,10,0,10,0,0
1000_500_250_15_1,10,0,0,0,0,647.42,0.0,0.03,0.0,0.0,11,0,11,0,0
1000_500_250_15_2,9,0,0,0,0,605.96,0.0,0.03,0.0,0.0,10,0,10,0,0
1000_500_250_15_3,9,0,0,0,0,603.81,0.0,0.02,0.0,0.0,10,0,10,0,0
1000_500_250_15_4,10,0,0,0,0,636.97,0.0,0.03,0.0,0.0,11,0,11,0,0
1000_500_250_15_5,10,0,0,0,0,620.58,0.0,0.03,0.0,0.0,11,0,11,0,0
1000_500_250_15_6,9,0,0,0,0,610.53,0.0,0.03,0.0,0.0,10,0,10,0,0
1000_500_250_15_7,10,0,0,0,0,659.12,0.0,0.03,0.0,0.0,11,0,11,0,0
1000_500_250_15_8,10,0,0,0,0,631.53,0.0,0.03,0.0,0.0,11,0,11,0,0
1000_500_250_15_9,9,0,0,0,0,661.97,0.0,0.03,0.0,0.0,10,0,10,0,0
500_250_100_15_0,170,0,0,0,0,600.95,0.0,0.13,0.0,0.0,171,0,171,0,0
500_250_100_15_1,121,0,0,0,0,599.98,0.0,0.09,0.0,0.0,122,0,122,0,0
500_250_100_15_2,92,0,0,0,0,605.22,0.0,0.07,0.0,0.0,93,0,93,0,0
500_250_100_15_3,136,0,0,0,0,601.3,0.0,0.1,0.0,0.0,137,0,137,0,0
500_250_100_15_4,106,0,0,0,0,600.27,0.0,0.08,0.0,0.0,107,0,107,0,0
500_250_100_15_5,90,0,0,0,0,601.3,0.0,0.07,0.0,0.0,91,0,91,0,0
500_250_100_15_6,97,0,0,0,0,603.54,0.0,0.07,0.0,0.0,98,0,98,0,0
500_250_100_15_7,126,0,0,0,0,601.62,0.0,0.09,0.0,0.0,127,0,127,0,0
500_250_100_15_8,131,0,0,0,0,601.1,0.0,0.09,0.0,0.0,132,0,132,0,0
500_250_100_15_9,120,0,0,0,0,600.63,0.0,0.09,0.0,0.0,121,0,121,0,0
100_75_50_15_0,17687,0,0,0,0,588.91,0.0,1.38,8.01,0.01,17887,199,17887,199,199
100_75_50_15_1,25620,0,0,0,0,579.33,0.01,2.03,16.06,0.02,26023,403,26023,403,403
100_75_50_15_2,26491,0,0,0,0,582.04,0.01,2.13,13.36,0.02,26808,316,26808,316,316
100_75_50_15_3,16446,0,29,0,0,588.92,0.0,1.27,8.16,0.01,16644,197,16673,197,197
100_75_50_15_4,22805,0,0,0,0,580.55,0.01,1.86,15.47,0.02,23169,363,23169,363,363
100_75_50_15_5,19372,0,0,0,0,585.08,0.0,1.63,11.33,0.01,19631,258,19631,258,258
100_75_50_15_6,18076,0,0,0,0,589.51,0.0,1.42,7.53,0.01,18257,180,18257,180,180
100_75_50_15_7,15223,0,5,0,0,589.83,0.0,1.19,7.56,0.01,15405,181,15410,181,181
100_75_50_15_8,22438,0,0,0,0,585.19,0.0,1.71,11.03,0.01,22694,255,22694,255,255
100_75_50_15_9,15883,0,0,0,0,589.94,0.0,1.21,7.4,0.01,16058,174,16058,174,174
10000_500_200_16_0,40,0,0,0,0,603.66,0.0,0.08,0.0,0.0,41,0,41,0,0
10000_500_200_16_1,78,0,0,0,0,602.7,0.0,0.17,0.0,0.0,79,0,79,0,0
10000_500_200_16_2,322,0,0,0,0,491.59,0.0,0.69,2738.28,0.01,323,1,323,1,1
10000_500_200_16_3,127,0,0,0,0,601.33,0.0,0.26,0.0,0.0,128,0,128,0,0
10000_500_200_16_4,323,0,0,0,0,555.63,0.0,0.65,2688.38,0.01,324,1,324,1,1
10000_500_200_16_5,78,0,0,0,0,599.41,0.0,0.14,0.0,0.0,79,0,79,0,0
10000_500_200_16_6,38,0,0,0,0,600.29,0.0,0.13,0.0,0.0,39,0,39,0,0
10000_500_200_16_7,133,0,0,0,0,599.75,0.0,0.41,0.0,0.0,134,0,134,0,0
10000_500_200_16_8,88,0,0,0,0,602.74,0.0,0.21,0.0,0.0,89,0,89,0,0
10000_500_200_16_9,56,0,0,0,0,607.25,0.0,0.12,0.0,0.0,57,0,57,0,0
1000_500_250_16_0,927,0,0,0,0,570.16,0.0,1.3,28.07,0.0,929,1,929,1,1
1000_500_250_16_1,1208,0,0,0,0,570.23,0.0,1.73,27.24,0.0,1210,1,1210,1,1
1000_500_250_16_2,329,0,0,0,0,599.58,0.0,0.51,0.0,0.0,330,0,330,0,0
1000_500_250_16_3,971,0,2,1,1,542.83,0.0,1.44,56.79,0.0,975,3,977,2,3
1000_500_250_16_4,983,0,0,0,0,572.82,0.0,1.39,25.27,0.0,985,1,985,1,1
1000_500_250_16_5,809,0,0,0,0,598.42,0.0,1.12,0.0,0.0,810,0,810,0,0
1000_500_250_16_6,882,0,0,0,0,576.29,0.0,1.25,22.14,0.0,884,1,884,1,1
1000_500_250_16_7,914,0,0,0,0,571.97,0.0,1.28,27.14,0.0,916,1,916,1,1
1000_500_250_16_8,333,0,2,0,0,600.07,0.0,0.45,0.0,0.0,334,0,336,0,0
1000_500_250_16_9,1116,0,0,0,0,570.76,0.0,1.64,26.88,0.0,1118,1,1118,1,1
500_250_100_16_0,6732,0,1,1,0,503.24,0.0,2.39,92.04,0.01,6759,26,6760,26,26
500_250_100_16_1,4780,0,0,0,0,543.85,0.0,1.91,52.65,0.0,4796,15,4796,15,15
500_250_100_16_2,7137,0,1,0,0,472.93,0.0,2.78,121.94,0.01,7174,36,7175,36,36
500_250_100_16_3,5846,0,0,0,0,512.27,0.0,2.04,83.88,0.01,5871,24,5871,24,24
500_250_100_16_4,6599,0,0,0,0,495.06,0.0,2.74,99.95,0.01,6629,29,6629,29,29
500_250_100_16_5,5747,0,2,3,0,491.4,0.0,2.43,104.14,0.01,5777,29,5779,29,29
500_250_100_16_6,6651,0,24,0,0,500.79,0.0,2.12,94.6,0.01,6680,28,6704,28,28
500_250_100_16_7,5839,0,0,0,0,507.39,0.0,2.16,88.5,0.01,5864,24,5864,24,24
500_250_100_16_8,7743,0,0,0,0,442.28,0.0,3.25,151.71,0.01,7786,42,7786,42,42
500_250_100_16_9,7159,0,0,5,0,461.84,0.0,2.69,132.89,0.01,7198,38,7198,38,38
100_75_50_16_0,22705,0,0,145,0,32.2,0.02,0.97,56.66,0.05,23850,1145,23850,1145,1145
100_75_50_16_1,37598,98,188,360,2,93.82,0.03,1.8,68.34,0.06,39058,1460,39246,1360,1362
100_75_50_16_2,38496,0,577,1,1,123.57,0.02,2.06,56.01,0.05,39498,1002,40075,1001,1002
100_75_50_16_3,19496,0,0,415,0,19.38,0.02,1.0,67.66,0.07,20911,1415,20911,1415,1415
100_75_50_16_4,33490,0,1,13,0,84.96,0.02,1.68,51.44,0.05,34503,1013,34504,1013,1013
100_75_50_16_5,26101,0,302,195,0,36.22,0.02,1.15,66.53,0.06,27296,1195,27598,1195,1195
100_75_50_16_6,9862,23,33,210,0,8.67,0.02,0.46,65.44,0.06,11095,1233,11128,1210,1210
100_75_50_16_7,29020,13,22,3,0,52.58,0.02,1.28,57.04,0.05,30036,1016,30058,1003,1003
100_75_50_16_8,14992,0,0,208,0,14.17,0.02,0.63,61.11,0.06,16200,1208,16200,1208,1208
100_75_50_16_9,17826,0,0,0,0,23.65,0.02,1.0,59.23,0.05,18826,1000,18826,1000,1000
10000_500_200_18_0,202,0,0,0,0,446.44,0.0,0.48,819.69,0.01,203,1,203,1,1
10000_500_200_18_1,96,0,0,0,0,604.03,0.0,0.19,0.0,0.0,97,0,97,0,0
10000_500_200_18_2,75,0,0,0,0,599.62,0.0,0.15,0.0,0.0,76,0,76,0,0
10000_500_200_18_3,97,0,4,0,0,599.53,0.0,0.88,0.0,0.0,98,0,102,0,0
10000_500_200_18_4,334,0,2,0,0,597.83,0.0,0.76,0.0,0.0,335,0,337,0,0
10000_500_200_18_5,222,0,0,0,0,467.13,0.0,0.71,880.18,0.01,223,1,223,1,1
10000_500_200_18_6,109,0,16,0,0,578.2,0.0,22.27,0.0,0.0,110,0,126,0,0
10000_500_200_18_7,94,0,0,0,0,600.41,0.0,0.21,0.0,0.0,95,0,95,0,0
10000_500_200_18_8,86,0,0,0,0,603.37,0.0,0.21,0.0,0.0,87,0,87,0,0
10000_500_200_18_9,149,0,0,0,0,599.98,0.0,0.36,0.0,0.0,150,0,150,0,0
1000_500_250_18_0,1491,2,29,10,0,429.11,0.0,3.9,165.92,0.01,1507,15,1536,13,13
1000_500_250_18_1,1796,2,43,18,1,307.13,0.0,4.14,288.37,0.01,1820,23,1863,20,21
1000_500_250_18_2,933,3,10,2,0,557.5,0.0,1.5,40.45,0.0,940,6,950,3,3
1000_500_250_18_3,1604,6,50,11,1,399.91,0.01,3.97,201.85,0.01,1625,21,1675,14,15
1000_500_250_18_4,1313,2,47,1,0,536.68,0.0,3.47,59.3,0.0,1320,6,1367,4,4
1000_500_250_18_5,1606,5,23,10,0,416.55,0.01,2.99,182.11,0.01,1624,18,1647,13,13
1000_500_250_18_6,1518,1,20,16,0,346.5,0.0,2.8,250.05,0.01,1537,18,1557,17,17
1000_500_250_18_7,1765,2,44,6,1,473.52,0.0,3.46,134.79,0.01,1778,13,1822,10,11
1000_500_250_18_8,1616,2,19,8,1,453.54,0.0,2.88,144.38,0.01,1630,14,1649,11,12
1000_500_250_18_9,1263,1,32,7,0,476.91,0.0,2.81,119.69,0.01,1273,9,1305,8,8
500_250_100_18_0,6050,76,317,121,1,303.94,0.06,5.27,288.29,0.04,6274,223,6591,146,147
500_250_100_18_1,5705,57,271,120,4,302.59,0.04,4.67,291.15,0.04,5913,208,6184,147,151
500_250_100_18_2,6492,82,492,120,6,277.54,0.07,8.32,311.33,0.04,6738,245,7230,157,163
500_250_100_18_3,6172,65,362,126,2,286.06,0.05,5.49,306.46,0.04,6396,224,6758,157,159
500_250_100_18_4,6866,68,323,128,5,297.98,0.05,6.31,292.56,0.04,7099,233,7422,160,165
500_250_100_18_5,6461,53,352,135,8,267.6,0.05,6.48,324.67,0.05,6691,230,7043,169,177
500_250_100_18_6,6656,99,499,118,8,315.01,0.09,7.92,273.88,0.04,6915,259,7415,152,160
500_250_100_18_7,5927,70,377,134,4,279.46,0.06,6.6,311.78,0.04,6159,232,6536,158,162
500_250_100_18_8,6152,70,495,146,7,263.35,0.05,8.18,325.7,0.05,6400,247,6895,170,177
500_250_100_18_9,6089,39,438,124,8,283.08,0.03,6.01,308.25,0.04,6287,198,6726,151,159
100_75_50_18_0,29668,1428,5982,3324,163,63.03,0.26,8.94,141.4,0.23,35583,5915,41565,4324,4487
100_75_50_18_1,21525,1910,6845,3327,143,35.81,0.33,8.2,142.27,0.23,27905,6380,34750,4327,4470
100_75_50_18_2,23482,1894,6675,2476,242,41.12,0.31,8.61,110.64,0.19,29094,5612,35769,3476,3718
100_75_50_18_3,22822,1993,6916,2723,152,35.78,0.34,8.91,120.16,0.19,28690,5868,35606,3723,3875
100_75_50_18_4,25935,1034,6163,2449,136,56.68,0.19,8.72,109.71,0.19,30554,4619,36717,3449,3585
100_75_50_18_5,15713,1197,5574,2340,179,21.91,0.19,6.62,112.8,0.17,20429,4716,26003,3340,3519
100_75_50_18_6,23677,1684,6908,3360,171,39.24,0.29,8.68,143.23,0.23,29892,6215,36800,4360,4531
100_75_50_18_7,18118,1932,5563,2896,266,26.39,0.33,6.14,127.87,0.22,24212,6094,29775,3896,4162
100_75_50_18_8,21992,953,5252,2503,126,42.76,0.17,8.93,118.12,0.18,26574,4582,31826,3503,3629
100_75_50_18_9,19340,1394,7410,2368,158,32.5,0.22,10.23,104.22,0.17,24260,4920,31670,3368,3526
10000_500_200_19_0,3,0,1,0,0,671.44,0.0,0.75,0.0,0.0,4,0,5,0,0
10000_500_200_19_1,4,0,14,0,0,585.96,0.0,30.89,0.0,0.0,5,0,19,0,0
10000_500_200_19_2,1,0,39,0,0,452.3,0.0,275.37,0.0,0.0,2,0,41,0,0
10000_500_200_19_3,3,0,23,0,0,580.86,0.0,115.42,0.0,0.0,4,0,27,0,0
10000_500_200_19_4,2,0,3,0,0,795.22,0.0,3.65,0.0,0.0,3,0,6,0,0
10000_500_200_19_5,2,0,3,0,0,682.83,0.0,3.27,0.0,0.0,3,0,6,0,0
10000_500_200_19_6,3,0,1,0,0,675.37,0.0,1.8,0.0,0.0,4,0,5,0,0
10000_500_200_19_7,4,0,8,0,0,595.35,0.0,19.41,0.0,0.0,5,0,13,0,0
10000_500_200_19_8,4,0,0,0,0,720.07,0.0,0.02,0.0,0.0,5,0,5,0,0
10000_500_200_19_9,3,0,7,0,0,646.2,0.0,1.65,0.0,0.0,4,0,11,0,0
1000_500_250_19_0,12,0,14,0,0,616.57,0.0,1.41,0.0,0.0,13,0,27,0,0
1000_500_250_19_1,13,0,18,0,0,633.53,0.0,4.46,0.0,0.0,14,0,32,0,0
1000_500_250_19_2,11,0,9,0,0,616.42,0.0,0.63,0.0,0.0,12,0,21,0,0
1000_500_250_19_3,9,0,5,0,0,629.96,0.0,0.58,0.0,0.0,10,0,15,0,0
1000_500_250_19_4,11,0,13,0,0,632.4,0.0,1.35,0.0,0.0,12,0,25,0,0
1000_500_250_19_5,12,0,0,0,0,603.38,0.0,0.04,0.0,0.0,13,0,13,0,0
1000_500_250_19_6,11,0,4,0,0,649.44,0.0,0.19,0.0,0.0,12,0,16,0,0
1000_500_250_19_7,10,0,0,0,0,641.12,0.0,0.03,0.0,0.0,11,0,11,0,0
1000_500_250_19_8,12,0,35,0,0,591.53,0.0,16.0,0.0,0.0,13,0,48,0,0
1000_500_250_19_9,9,0,11,0,0,620.23,0.0,0.89,0.0,0.0,10,0,21,0,0
500_250_100_19_0,280,0,0,0,0,599.81,0.0,0.21,0.0,0.0,281,0,281,0,0
500_250_100_19_1,323,0,21,0,0,598.97,0.0,3.06,1.55,0.0,325,1,346,1,1
500_250_100_19_2,214,0,6,0,0,599.91,0.0,0.37,0.0,0.0,215,0,221,0,0
500_250_100_19_3,166,0,18,0,0,599.74,0.0,1.2,0.0,0.0,167,0,185,0,0
500_250_100_19_4,335,0,5,0,0,599.25,0.0,0.39,1.64,0.0,337,1,342,1,1
500_250_100_19_5,123,0,13,0,0,599.79,0.0,0.98,0.0,0.0,124,0,137,0,0
500_250_100_19_6,273,0,19,0,0,596.81,0.0,1.46,3.11,0.0,275,1,294,1,1
500_250_100_19_7,200,0,9,0,0,600.39,0.0,0.35,0.0,0.0,201,0,210,0,0
500_250_100_19_8,510,0,29,2,0,589.26,0.0,3.46,8.53,0.0,514,3,543,3,3
500_250_100_19_9,205,0,0,0,0,600.05,0.0,0.16,0.0,0.0,206,0,206,0,0
100_75_50_19_0,16059,8,691,62,0,585.52,0.01,2.99,10.0,0.02,16357,297,17048,289,289
100_75_50_19_1,25184,0,1992,232,0,563.76,0.01,13.02,20.49,0.03,25789,604,27781,604,604
100_75_50_19_2,36186,0,6889,82,25,495.69,0.01,67.16,32.82,0.05,37075,888,43964,863,888
100_75_50_19_3,24026,32,3403,219,0,557.93,0.02,14.07,25.35,0.04,24720,693,28123,661,661
100_75_50_19_4,22691,0,4458,386,0,526.92,0.01,45.44,25.28,0.04,23398,706,27856,706,706
100_75_50_19_5,23982,8,3260,346,26,544.79,0.01,23.47,29.16,0.05,24809,826,28069,792,818
100_75_50_19_6,27260,10,2712,228,2,554.13,0.01,18.58,24.58,0.04,27930,670,30642,658,660
100_75_50_19_7,21320,22,3819,156,83,548.31,0.01,34.68,14.75,0.07,21792,471,25611,366,449
100_75_50_19_8,21696,4,5343,231,85,547.41,0.01,29.03,21.2,0.06,22348,651,27691,562,647
100_75_50_19_9,25766,151,2267,249,0,562.93,0.04,9.7,24.56,0.04,26597,830,28864,679,679
10000_500_200_20_0,51,0,0,0,0,600.74,0.0,0.11,0.0,0.0,52,0,52,0,0
10000_500_200_20_1,144,0,0,0,0,600.61,0.0,0.26,0.0,0.0,145,0,145,0,0
10000_500_200_20_2,188,0,2,0,0,355.68,0.0,0.42,815.98,0.01,189,1,191,1,1
10000_500_200_20_3,170,0,10,0,0,329.98,0.0,0.56,953.87,0.01,171,1,181,1,1
10000_500_200_20_4,59,0,0,0,0,604.65,0.0,0.14,0.0,0.0,60,0,60,0,0
10000_500_200_20_5,207,0,0,0,0,389.3,0.0,0.42,886.22,0.01,208,1,208,1,1
10000_500_200_20_6,76,0,0,0,0,600.19,0.0,0.17,0.0,0.0,77,0,77,0,0
10000_500_200_20_7,46,0,3,0,0,600.21,0.0,0.33,0.0,0.0,47,0,50,0,0
10000_500_200_20_8,78,0,4,0,0,599.64,0.0,0.23,0.0,0.0,79,0,83,0,0
10000_500_200_20_9,182,1,1,0,0,551.68,0.01,0.48,980.24,0.01,184,2,185,1,1
1000_500_250_20_0,772,0,2,0,0,583.66,0.0,1.18,14.68,0.0,774,1,776,1,1
1000_500_250_20_1,630,1,7,0,0,587.39,0.0,0.98,12.22,0.0,633,2,640,1,1
1000_500_250_20_2,240,0,4,0,0,600.34,0.0,0.4,0.0,0.0,241,0,245,0,0
1000_500_250_20_3,237,0,3,0,0,600.67,0.0,0.39,0.0,0.0,238,0,241,0,0
1000_500_250_20_4,842,0,16,0,0,584.67,0.0,1.61,13.18,0.0,844,1,860,1,1
1000_500_250_20_5,744,0,0,0,0,585.77,0.0,0.99,13.1,0.0,746,1,746,1,1
1000_500_250_20_6,691,0,8,1,0,572.86,0.0,1.12,26.06,0.0,694,2,702,2,2
1000_500_250_20_7,664,0,21,0,0,587.46,0.0,1.48,13.6,0.0,666,1,687,1,1
1000_500_250_20_8,317,0,15,0,0,599.7,0.0,0.69,0.0,0.0,318,0,333,0,0
1000_500_250_20_9,846,1,14,1,0,558.55,0.0,1.46,39.41,0.0,851,4,865,3,3
500_250_100_20_0,5639,18,203,14,2,492.36,0.01,4.26,101.4,0.01,5707,67,5910,47,49
500_250_100_20_1,4982,17,170,11,0,520.2,0.01,3.71,74.12,0.01,5036,53,5206,36,36
500_250_100_20_2,6751,28,120,21,0,467.11,0.02,3.67,126.62,0.02,6847,95,6967,67,67
500_250_100_20_3,3946,30,164,16,1,524.03,0.02,2.77,71.95,0.01,4012,65,4176,34,35
500_250_100_20_4,3837,36,162,17,1,532.8,0.03,2.21,64.89,0.01,3905,68,4067,31,32
500_250_100_20_5,5066,28,192,17,3,508.95,0.02,4.63,84.58,0.01,5143,76,5335,45,48
500_250_100_20_6,6848,58,588,5,1,473.96,0.04,7.26,115.81,0.02,6967,118,7555,59,60
500_250_100_20_7,5300,47,314,28,9,472.91,0.03,6.06,119.11,0.02,5414,113,5728,57,66
500_250_100_20_8,7162,46,257,11,3,429.5,0.03,5.93,161.64,0.02,7295,132,7552,83,86
500_250_100_20_9,6662,26,144,19,0,470.4,0.02,4.67,122.28,0.02,6748,85,6892,59,59
100_75_50_20_0,17467,192,4733,596,328,45.03,0.05,3.52,57.31,0.12,19583,2116,24316,1596,1924
100_75_50_20_1,18017,1163,4342,1321,108,25.35,0.15,5.75,83.41,0.12,21609,3592,25951,2321,2429
100_75_50_20_2,15487,265,4103,812,28,32.37,0.06,6.66,62.0,0.09,17592,2105,21695,1812,1840
100_75_50_20_3,4903,607,1139,127,0,4.99,0.08,0.77,30.23,0.05,6637,1734,7776,1127,1127
100_75_50_20_4,17989,1110,4110,1125,82,28.77,0.16,5.44,64.76,0.11,21306,3317,25416,2125,2207
100_75_50_20_5,16595,917,5176,1248,67,16.35,0.16,5.45,79.4,0.11,19827,3232,25003,2248,2315
100_75_50_20_6,13437,43,1821,286,140,23.81,0.02,3.39,41.89,0.08,14906,1469,16727,1286,1426
100_75_50_20_7,6101,691,11403,812,180,3.56,0.09,19.08,63.38,0.1,8784,2683,20187,1812,1992
100_75_50_20_8,3665,2146,5004,125,0,1.57,0.24,5.03,50.35,0.05,6936,3271,11940,1125,1125
100_75_50_20_9,21657,102,2762,388,0,64.31,0.03,2.63,48.91,0.07,23147,1490,25909,1388,1388
10000_500_200_22_0,92,0,0,0,0,600.19,0.0,0.21,0.0,0.0,93,0,93,0,0
10000_500_200_22_1,52,0,0,0,0,600.5,0.0,0.14,0.0,0.0,53,0,53,0,0
10000_500_200_22_2,213,3,7,0,0,519.03,0.03,3.93,639.1,0.01,217,4,224,1,1
10000_500_200_22_3,72,0,0,0,0,602.16,0.0,0.15,0.0,0.0,73,0,73,0,0
10000_500_200_22_4,91,0,0,0,0,602.1,0.0,0.2,0.0,0.0,92,0,92,0,0
10000_500_200_22_5,243,0,0,0,0,507.34,0.0,0.55,558.39,0.01,244,1,244,1,1
10000_500_200_22_6,81,0,6,0,0,599.92,0.0,0.32,0.0,0.0,82,0,88,0,0
10000_500_200_22_7,132,0,0,0,0,599.8,0.0,0.29,0.0,0.0,133,0,133,0,0
10000_500_200_22_8,64,0,0,0,0,606.35,0.0,0.13,0.0,0.0,65,0,65,0,0
10000_500_200_22_9,63,0,5,0,0,599.15,0.0,1.62,0.0,0.0,64,0,69,0,0
1000_500_250_22_0,879,7,55,2,1,560.45,0.02,8.39,30.46,0.0,891,11,946,3,4
1000_500_250_22_1,725,0,10,1,0,579.4,0.0,1.34,19.12,0.0,728,2,738,2,2
1000_500_250_22_2,1424,7,81,10,1,464.72,0.01,5.37,129.45,0.01,1444,19,1525,11,12
1000_500_250_22_3,1214,2,27,6,0,535.28,0.0,3.43,60.48,0.0,1224,9,1251,7,7
1000_500_250_22_4,1487,12,35,15,0,425.12,0.01,3.23,173.17,0.01,1516,29,1551,17,17
1000_500_250_22_5,1869,13,70,16,1,420.2,0.02,7.27,178.06,0.01,1901,32,1971,18,19
1000_500_250_22_6,1302,3,40,10,0,461.57,0.0,3.35,134.15,0.01,1318,15,1358,12,12
1000_500_250_22_7,956,0,67,15,0,407.08,0.0,5.13,187.54,0.01,974,17,1041,17,17
1000_500_250_22_8,1833,2,88,12,0,441.34,0.0,5.96,152.31,0.01,1852,18,1940,16,16
1000_500_250_22_9,1644,3,49,12,0,450.47,0.0,3.92,144.43,0.01,1662,17,1711,14,14
500_250_100_22_0,6102,59,637,147,5,309.04,0.05,15.92,272.49,0.05,6345,242,6982,178,183
500_250_100_22_1,6213,45,446,150,9,350.35,0.04,10.34,236.58,0.05,6441,227,6887,173,182
500_250_100_22_2,6288,67,758,149,8,303.38,0.06,16.62,277.79,0.05,6548,260,7306,185,193
500_250_100_22_3,6132,100,806,192,6,265.23,0.08,16.62,315.23,0.06,6464,332,7271,226,232
500_250_100_22_4,6228,66,661,146,5,344.57,0.06,14.94,237.92,0.05,6470,241,7131,170,175
500_250_100_22_5,6077,30,569,128,6,362.11,0.03,13.64,221.57,0.04,6267,190,6837,154,160
500_250_100_22_6,6429,72,761,144,10,341.78,0.07,20.93,235.02,0.05,6680,251,7441,169,179
500_250_100_22_7,6069,60,587,140,3,340.53,0.05,13.81,243.79,0.04,6300,231,6887,168,171
500_250_100_22_8,6467,78,662,141,12,347.71,0.06,13.08,236.36,0.05,6725,258,7387,168,180
500_250_100_22_9,5869,57,650,124,3,352.88,0.06,12.35,232.1,0.04,6078,208,6728,148,151
100_75_50_22_0,14487,1046,7713,2906,293,34.51,0.2,14.71,113.03,0.22,19732,5245,27445,3906,4199
100_75_50_22_1,8706,1315,6079,2949,281,16.47,0.23,9.25,107.34,0.22,14251,5545,20330,3949,4230
100_75_50_22_2,11981,1283,7339,2416,312,24.26,0.23,13.37,100.33,0.19,16992,5011,24331,3416,3728
100_75_50_22_3,10265,1786,6023,2648,335,16.33,0.32,9.42,104.6,0.21,16034,5769,22057,3648,3983
100_75_50_22_4,15956,977,8482,2538,259,40.86,0.19,16.15,97.47,0.2,20730,4774,29212,3538,3797
100_75_50_22_5,6595,1096,5968,2079,373,11.21,0.21,10.33,102.86,0.19,11143,4548,17111,3079,3452
100_75_50_22_6,11730,1474,7474,2842,356,23.34,0.27,13.1,113.38,0.23,17402,5672,24876,3842,4198
100_75_50_22_7,6963,1275,5581,2765,309,10.38,0.24,8.96,115.39,0.21,12312,5349,17893,3765,4074
100_75_50_22_8,13432,1163,9188,2637,281,36.19,0.23,23.27,122.16,0.22,18513,5081,27701,3637,3918
100_75_50_22_9,8599,1472,9212,2558,390,15.1,0.27,17.16,99.19,0.22,14019,5420,23231,3558,3948
10000_500_200_23_0,4,0,10,0,0,609.46,0.0,46.39,0.0,0.0,5,0,15,0,0
10000_500_200_23_1,5,0,4,0,0,605.62,0.0,5.56,0.0,0.0,6,0,10,0,0
10000_500_200_23_2,1,0,9,0,0,619.23,0.0,21.8,0.0,0.0,2,0,11,0,0
10000_500_200_23_3,4,0,0,0,0,691.65,0.0,0.02,0.0,0.0,5,0,5,0,0
10000_500_200_23_4,0,0,44,0,0,288.1,0.0,566.54,0.0,0.0,1,0,45,0,0
10000_500_200_23_5,3,0,6,0,0,630.65,0.0,11.61,0.0,0.0,4,0,10,0,0
10000_500_200_23_6,2,0,3,0,0,625.54,0.0,4.86,0.0,0.0,3,0,6,0,0
10000_500_200_23_7,0,0,15,0,0,0.0,0.0,619.96,0.0,0.0,0,0,16,0,0
10000_500_200_23_8,3,0,0,0,0,653.39,0.0,0.02,0.0,0.0,4,0,4,0,0
10000_500_200_23_9,4,0,0,0,0,635.83,0.0,0.02,0.0,0.0,5,0,5,0,0
1000_500_250_23_0,12,0,0,0,0,630.42,0.0,0.04,0.0,0.0,13,0,13,0,0
1000_500_250_23_1,11,0,9,0,0,644.37,0.0,1.43,0.0,0.0,12,0,21,0,0
1000_500_250_23_2,12,0,2,0,0,652.56,0.0,0.05,0.0,0.0,13,0,15,0,0
1000_500_250_23_3,9,0,2,0,0,630.43,0.0,0.08,0.0,0.0,10,0,12,0,0
1000_500_250_23_4,14,0,8,0,0,604.98,0.0,2.43,0.0,0.0,15,0,23,0,0
1000_500_250_23_5,14,0,0,0,0,640.29,0.0,0.04,0.0,0.0,15,0,15,0,0
1000_500_250_23_6,11,0,19,0,0,630.42,0.0,2.56,0.0,0.0,12,0,31,0,0
1000_500_250_23_7,9,0,2,0,0,602.16,0.0,0.06,0.0,0.0,10,0,12,0,0
1000_500_250_23_8,12,0,1,0,0,622.98,0.0,0.15,0.0,0.0,13,0,14,0,0
1000_500_250_23_9,13,0,0,0,0,602.52,0.0,0.04,0.0,0.0,14,0,14,0,0
500_250_100_23_0,284,0,0,0,0,600.73,0.0,0.21,0.97,0.0,286,1,286,1,1
500_250_100_23_1,275,0,45,0,0,591.72,0.0,9.05,1.1,0.0,277,1,322,1,1
500_250_100_23_2,475,0,6,1,0,595.35,0.0,0.56,3.93,0.0,478,2,484,2,2
500_250_100_23_3,338,0,0,0,0,598.84,0.0,0.26,1.03,0.0,340,1,340,1,1
500_250_100_23_4,636,1,7,0,0,594.36,0.0,0.61,5.51,0.0,642,5,649,4,4
500_250_100_23_5,282,0,6,0,0,600.38,0.0,0.28,1.07,0.0,284,1,290,1,1
500_250_100_23_6,313,0,7,0,0,598.76,0.0,0.33,1.11,0.0,315,1,322,1,1
500_250_100_23_7,317,0,18,0,0,602.18,0.0,1.76,1.01,0.0,319,1,337,1,1
500_250_100_23_8,432,0,21,1,0,595.05,0.0,1.79,5.72,0.0,436,3,457,3,3
500_250_100_23_9,332,0,0,0,0,599.37,0.0,0.26,1.09,0.0,334,1,334,1,1
100_75_50_23_0,17544,132,10916,305,235,407.54,0.07,176.48,13.44,0.24,18444,899,29360,532,767
100_75_50_23_1,14252,20,12448,331,109,258.55,0.01,325.75,13.62,0.05,14931,679,27380,550,659
100_75_50_23_2,12271,413,15960,294,355,102.52,0.22,478.32,16.45,0.15,13654,1383,29615,615,970
100_75_50_23_3,18621,1476,16543,352,361,315.94,0.74,256.93,23.04,0.23,21373,2752,37917,915,1276
100_75_50_23_4,14964,0,11973,385,165,256.84,0.01,324.47,16.3,0.06,15804,839,27777,674,839
100_75_50_23_5,16023,1737,15550,335,0,305.41,0.73,268.64,22.16,0.05,18693,2670,34244,933,933
100_75_50_23_6,16883,99,14003,248,431,279.66,0.05,304.78,12.95,0.12,17924,1040,31927,510,941
100_75_50_23_7,25298,649,8673,313,34,467.22,0.33,108.15,21.18,0.08,26982,1683,35655,1000,1034
100_75_50_23_8,22723,571,13550,416,187,409.76,0.29,165.81,20.94,0.24,24392,1668,37942,910,1097
100_75_50_23_9,17719,231,12837,324,276,344.19,0.1,237.12,16.02,0.23,18847,1128,31685,621,897
10000_500_200_24_0,73,0,10,0,0,593.84,0.0,7.56,0.0,0.0,74,0,84,0,0
10000_500_200_24_1,163,0,1,0,0,383.48,0.0,0.45,618.67,0.01,164,1,165,1,1
10000_500_200_24_2,174,1,14,0,0,435.34,0.01,2.94,762.08,0.01,176,2,190,1,1
10000_500_200_24_3,109,0,0,0,0,279.92,0.0,0.27,768.73,0.01,110,1,110,1,1
10000_500_200_24_4,146,0,13,0,0,408.38,0.0,3.07,749.57,0.01,147,1,160,1,1
10000_500_200_24_5,165,0,2,0,0,350.3,0.0,0.61,609.01,0.01,166,1,168,1,1
10000_500_200_24_6,218,0,10,0,0,570.18,0.0,5.69,795.03,0.01,219,1,229,1,1
10000_500_200_24_7,43,0,1,0,0,609.46,0.0,0.14,0.0,0.0,44,0,45,0,0
10000_500_200_24_8,153,0,6,0,0,331.07,0.0,4.89,864.95,0.01,154,1,160,1,1
10000_500_200_24_9,33,0,2,0,0,608.68,0.0,0.27,0.0,0.0,34,0,36,0,0
1000_500_250_24_0,519,0,29,0,0,586.05,0.0,2.74,11.37,0.0,521,1,550,1,1
1000_500_250_24_1,1142,4,58,2,1,550.66,0.01,4.63,43.95,0.0,1152,9,1210,4,5
1000_500_250_24_2,675,2,29,1,1,574.98,0.0,1.95,22.59,0.0,681,5,710,2,3
1000_500_250_24_3,135,0,27,0,0,598.95,0.0,2.27,0.0,0.0,136,0,163,0,0
1000_500_250_24_4,611,3,22,0,0,588.82,0.0,2.21,9.34,0.0,616,4,638,1,1
1000_500_250_24_5,984,1,16,2,0,566.83,0.0,1.58,30.98,0.0,989,4,1005,3,3
1000_500_250_24_6,980,5,43,1,0,567.28,0.01,6.24,25.49,0.0,988,7,1031,2,2
1000_500_250_24_7,201,0,6,0,0,601.12,0.0,0.46,0.0,0.0,202,0,208,0,0
1000_500_250_24_8,744,2,32,1,0,579.71,0.0,2.47,17.47,0.0,749,4,781,2,2
1000_500_250_24_9,714,0,51,0,1,577.44,0.0,9.21,13.13,0.0,717,2,768,1,2
500_250_100_24_0,5123,22,336,29,0,477.39,0.02,6.09,114.64,0.02,5211,87,5547,65,65
500_250_100_24_1,5537,33,434,32,0,468.91,0.02,10.67,118.15,0.02,5647,109,6081,76,76
500_250_100_24_2,5747,11,216,23,0,500.67,0.01,5.36,91.77,0.02,5825,77,6041,66,66
500_250_100_24_3,3889,26,196,11,2,540.14,0.02,3.73,54.5,0.01,3951,61,4147,33,35
500_250_100_24_4,4629,44,392,16,1,521.28,0.03,7.34,69.57,0.01,4720,90,5112,45,46
500_250_100_24_5,5501,122,765,28,1,473.65,0.18,17.13,106.58,0.02,5700,198,6465,75,76
500_250_100_24_6,6979,24,645,25,0,445.2,0.02,10.84,141.11,0.02,7098,118,7743,94,94
500_250_100_24_7,4699,40,266,25,3,507.59,0.03,3.66,86.85,0.02,4804,104,5070,61,64
500_250_100_24_8,6185,99,315,14,2,474.29,0.07,5.86,117.17,0.02,6371,185,6686,84,86
500_250_100_24_9,6464,58,534,18,30,453.17,0.04,10.89,133.23,0.04,6631,166,7165,78,108
100_75_50_24_0,6693,0,5389,259,3,18.28,0.02,4.22,41.51,0.06,7955,1262,13344,1259,1262
100_75_50_24_1,8864,840,4611,1417,155,11.53,0.13,8.8,73.03,0.13,12276,3412,16887,2417,2572
100_75_50_24_2,4393,262,4488,722,137,4.27,0.05,6.59,44.64,0.09,6514,2121,11002,1722,1859
100_75_50_24_3,4231,984,3866,925,140,4.66,0.26,8.94,46.39,0.11,7280,3049,11146,1925,2065
100_75_50_24_4,2304,753,6356,517,366,4.07,0.13,10.1,50.95,0.13,4940,2636,11296,1517,1883
100_75_50_24_5,163,16,3232,731,5,0.16,0.03,2.23,60.22,0.09,1915,1752,5147,1731,1736
100_75_50_24_6,1700,19,4663,93,219,2.57,0.02,19.5,34.21,0.08,3031,1331,7694,1093,1312
100_75_50_24_7,0,0,6755,657,0,0.06,0.02,15.65,64.1,0.08,1657,1657,8412,1657,1657
100_75_50_24_8,6141,291,11937,542,28,12.3,0.05,39.15,57.78,0.08,8002,1861,19939,1542,1570
100_75_50_24_9,9667,1,1832,143,1,17.35,0.02,1.85,36.67,0.06,10812,1145,12644,1143,1144
10000_500_200_26_0,138,0,0,0,0,602.14,0.0,0.3,0.0,0.0,139,0,139,0,0
10000_500_200_26_1,132,0,0,0,0,600.17,0.0,0.27,0.0,0.0,133,0,133,0,0
10000_500_200_26_2,89,0,0,0,0,601.63,0.0,0.17,0.0,0.0,90,0,90,0,0
10000_500_200_26_3,158,0,0,0,0,599.38,0.0,0.28,0.0,0.0,159,0,159,0,0
10000_500_200_26_4,121,0,0,0,0,602.31,0.0,0.24,0.0,0.0,122,0,122,0,0
10000_500_200_26_5,150,0,0,0,0,601.38,0.0,0.31,0.0,0.0,151,0,151,0,0
10000_500_200_26_6,152,0,0,0,0,600.39,0.0,0.3,0.0,0.0,153,0,153,0,0
10000_500_200_26_7,113,0,0,0,0,601.26,0.0,0.28,0.0,0.0,114,0,114,0,0
10000_500_200_26_8,111,0,0,0,0,600.4,0.0,0.3,0.0,0.0,112,0,112,0,0
10000_500_200_26_9,207,0,0,0,0,599.09,0.0,0.46,0.0,0.0,208,0,208,0,0
1000_500_250_26_0,1746,1,5,6,1,376.29,0.0,2.69,246.52,0.01,1757,11,1762,9,10
1000_500_250_26_1,1561,0,1,0,0,546.89,0.0,2.33,50.04,0.0,1564,2,1565,2,2
1000_500_250_26_2,1204,0,0,2,0,513.8,0.0,1.83,83.79,0.0,1208,3,1208,3,3
1000_500_250_26_3,1840,1,9,2,1,458.85,0.0,2.66,137.65,0.0,1848,7,1857,5,6
1000_500_250_26_4,1398,0,0,2,0,491.46,0.0,2.18,106.13,0.0,1403,4,1403,4,4
1000_500_250_26_5,1519,0,0,0,0,539.18,0.0,2.15,57.93,0.0,1522,2,1522,2,2
1000_500_250_26_6,1061,0,1,2,0,514.34,0.0,1.63,83.61,0.0,1065,3,1066,3,3
1000_500_250_26_7,1686,0,0,2,0,470.68,0.0,2.36,129.56,0.0,1691,5,1691,5,5
1000_500_250_26_8,1488,0,1,0,0,545.82,0.0,2.23,51.15,0.0,1491,2,1492,2,2
1000_500_250_26_9,1514,1,4,0,0,544.22,0.0,2.1,52.94,0.0,1518,3,1522,2,2
500_250_100_26_0,7405,7,24,44,3,277.11,0.01,2.95,318.09,0.02,7503,98,7527,88,91
500_250_100_26_1,6953,5,16,36,2,326.08,0.01,2.76,270.9,0.02,7036,83,7052,76,78
500_250_100_26_2,6902,7,15,46,2,295.49,0.01,2.74,302.22,0.02,6994,92,7009,83,85
500_250_100_26_3,7723,5,16,30,1,353.61,0.01,2.82,240.98,0.02,7799,75,7815,69,70
500_250_100_26_4,6145,23,61,63,4,231.42,0.02,2.77,366.01,0.03,6267,122,6328,95,99
500_250_100_26_5,7535,10,26,42,3,275.48,0.01,3.01,320.97,0.02,7636,101,7662,88,91
500_250_100_26_6,6344,15,52,48,2,287.13,0.01,2.85,311.23,0.02,6443,99,6495,82,84
500_250_100_26_7,8195,1,6,10,2,371.96,0.0,3.34,221.9,0.02,8260,64,8266,61,63
500_250_100_26_8,5910,9,48,58,2,274.38,0.01,2.5,324.11,0.02,6007,97,6055,86,88
500_250_100_26_9,7141,4,22,30,1,328.68,0.01,2.92,267.79,0.02,7217,76,7239,71,72
100_75_50_26_0,18326,78,334,583,22,22.66,0.03,1.05,78.9,0.07,20009,1683,20343,1583,1605
100_75_50_26_1,16789,76,131,486,43,22.73,0.03,0.74,73.55,0.07,18394,1605,18525,1486,1529
100_75_50_26_2,20940,517,1321,1183,86,27.6,0.1,1.74,123.96,0.12,23726,2786,25047,2183,2269
100_75_50_26_3,16687,191,720,76,36,25.03,0.04,1.05,56.02,0.05,17990,1303,18710,1076,1112
100_75_50_26_4,23470,331,966,1497,84,28.32,0.07,1.65,120.96,0.12,26382,2912,27348,2497,2581
100_75_50_26_5,11897,264,910,823,83,11.6,0.06,0.89,97.97,0.1,14067,2170,14977,1823,1906
100_75_50_26_6,26849,371,1054,1653,87,38.13,0.08,1.66,139.37,0.14,29960,3111,31014,2653,2740
100_75_50_26_7,13400,104,251,592,54,15.24,0.04,0.68,81.67,0.08,15150,1750,15401,1592,1646
100_75_50_26_8,22442,119,622,936,65,29.82,0.04,1.32,91.39,0.09,24562,2120,25184,1936,2001
100_75_50_26_9,17411,63,309,422,21,23.84,0.03,0.94,69.23,0.07,18917,1506,19226,1422,1443
10000_500_200_27_0,2,0,0,0,0,664.31,0.0,0.01,0.0,0.0,3,0,3,0,0
10000_500_200_27_1,3,0,0,0,0,694.15,0.0,0.02,0.0,0.0,4,0,4,0,0
10000_500_200_27_2,2,0,0,0,0,616.23,0.0,0.01,0.0,0.0,3,0,3,0,0
10000_500_200_27_3,2,0,0,0,0,621.5,0.0,0.01,0.0,0.0,3,0,3,0,0
10000_500_200_27_4,2,0,0,0,0,691.95,0.0,0.01,0.0,0.0,3,0,3,0,0
10000_500_200_27_5,3,0,0,0,0,744.9,0.0,0.02,0.0,0.0,4,0,4,0,0
10000_500_200_27_6,2,0,0,0,0,646.62,0.0,0.01,0.0,0.0,3,0,3,0,0
10000_500_200_27_7,3,0,0,0,0,746.84,0.0,0.02,0.0,0.0,4,0,4,0,0
10000_500_200_27_8,3,0,0,0,0,752.18,0.0,0.02,0.0,0.0,4,0,4,0,0
10000_500_200_27_9,3,0,0,0,0,731.08,0.0,0.02,0.0,0.0,4,0,4,0,0
1000_500_250_27_0,9,0,0,0,0,645.39,0.0,0.03,0.0,0.0,10,0,10,0,0
1000_500_250_27_1,10,0,0,0,0,638.44,0.0,0.03,0.0,0.0,11,0,11,0,0
1000_500_250_27_2,9,0,0,0,0,601.36,0.0,0.03,0.0,0.0,10,0,10,0,0
1000_500_250_27_3,9,0,0,0,0,612.32,0.0,0.03,0.0,0.0,10,0,10,0,0
1000_500_250_27_4,10,0,0,0,0,648.75,0.0,0.03,0.0,0.0,11,0,11,0,0
1000_500_250_27_5,10,0,0,0,0,654.54,0.0,0.03,0.0,0.0,11,0,11,0,0
1000_500_250_27_6,10,0,0,0,0,661.37,0.0,0.03,0.0,0.0,11,0,11,0,0
1000_500_250_27_7,10,0,0,0,0,631.86,0.0,0.03,0.0,0.0,11,0,11,0,0
1000_500_250_27_8,11,0,0,0,0,655.61,0.0,0.03,0.0,0.0,12,0,12,0,0
1000_500_250_27_9,9,0,0,0,0,656.77,0.0,0.03,0.0,0.0,10,0,10,0,0
500_250_100_27_0,178,0,0,0,0,600.24,0.0,0.13,0.0,0.0,179,0,179,0,0
500_250_100_27_1,132,0,0,0,0,603.06,0.0,0.09,0.0,0.0,133,0,133,0,0
500_250_100_27_2,91,0,0,0,0,601.41,0.0,0.07,0.0,0.0,92,0,92,0,0
500_250_100_27_3,139,0,0,0,0,601.88,0.0,0.1,0.0,0.0,140,0,140,0,0
500_250_100_27_4,107,0,0,0,0,602.36,0.0,0.08,0.0,0.0,108,0,108,0,0
500_250_100_27_5,89,0,0,0,0,602.35,0.0,0.07,0.0,0.0,90,0,90,0,0
500_250_100_27_6,92,0,0,0,0,602.7,0.0,0.07,0.0,0.0,93,0,93,0,0
500_250_100_27_7,130,0,0,0,0,601.78,0.0,0.1,0.0,0.0,131,0,131,0,0
500_250_100_27_8,128,0,0,0,0,603.38,0.0,0.1,0.0,0.0,129,0,129,0,0
500_250_100_27_9,115,0,0,0,0,601.19,0.0,0.09,0.0,0.0,116,0,116,0,0
100_75_50_27_0,16990,0,0,0,0,589.1,0.0,1.3,8.22,0.01,17183,192,17183,192,192
100_75_50_27_1,24514,0,0,0,0,579.19,0.01,2.0,16.39,0.02,24902,387,24902,387,387
100_75_50_27_2,24863,0,0,0,0,582.1,0.0,2.09,13.44,0.02,25160,296,25160,296,296
100_75_50_27_3,16496,0,29,0,0,589.04,0.0,1.23,8.3,0.01,16695,198,16724,198,198
100_75_50_27_4,22715,0,0,0,0,580.61,0.01,1.84,15.42,0.02,23078,362,23078,362,362
100_75_50_27_5,19810,0,0,0,0,585.48,0.0,1.61,11.17,0.01,20074,263,20074,263,263
100_75_50_27_6,17226,0,0,0,0,589.44,0.0,1.44,7.55,0.01,17399,172,17399,172,172
100_75_50_27_7,15541,0,5,0,0,589.77,0.0,1.19,7.71,0.01,15727,185,15732,185,185
100_75_50_27_8,22312,0,0,0,0,585.17,0.0,1.71,11.0,0.01,22567,254,22567,254,254
100_75_50_27_9,15898,0,0,0,0,590.0,0.0,1.2,7.29,0.01,16073,174,16073,174,174
10000_500_200_28_0,40,0,0,0,0,613.06,0.0,0.09,0.0,0.0,41,0,41,0,0
10000_500_200_28_1,87,0,0,0,0,602.1,0.0,0.17,0.0,0.0,88,0,88,0,0
10000_500_200_28_2,322,0,0,0,0,489.66,0.0,0.64,2640.15,0.01,323,1,323,1,1
10000_500_200_28_3,134,0,0,0,0,601.02,0.0,0.26,0.0,0.0,135,0,135,0,0
10000_500_200_28_4,323,0,0,0,0,571.03,0.0,0.69,2900.77,0.0,324,1,324,1,1
10000_500_200_28_5,70,0,0,0,0,604.84,0.0,0.15,0.0,0.0,71,0,71,0,0
10000_500_200_28_6,48,0,0,0,0,607.23,0.0,0.12,0.0,0.0,49,0,49,0,0
10000_500_200_28_7,190,0,0,0,0,599.66,0.0,0.42,0.0,0.0,191,0,191,0,0
10000_500_200_28_8,91,0,0,0,0,601.94,0.0,0.2,0.0,0.0,92,0,92,0,0
10000_500_200_28_9,52,0,0,0,0,601.38,0.0,0.12,0.0,0.0,53,0,53,0,0
1000_500_250_28_0,889,0,0,0,0,569.79,0.0,1.29,28.7,0.0,891,1,891,1,1
1000_500_250_28_1,1224,0,0,0,0,572.43,0.0,1.76,25.22,0.0,1226,1,1226,1,1
1000_500_250_28_2,311,0,0,0,0,599.6,0.0,0.5,0.0,0.0,312,0,312,0,0
1000_500_250_28_3,972,0,2,1,1,545.75,0.0,1.44,52.32,0.0,976,3,978,2,3
1000_500_250_28_4,955,0,0,0,0,569.05,0.0,1.51,30.25,0.0,957,1,957,1,1
1000_500_250_28_5,923,0,0,0,0,586.91,0.0,1.25,27.37,0.0,924,1,924,1,1
1000_500_250_28_6,882,0,0,0,0,574.81,0.0,1.24,24.19,0.0,884,1,884,1,1
1000_500_250_28_7,919,0,0,0,0,571.91,0.0,1.3,27.7,0.0,921,1,921,1,1
1000_500_250_28_8,313,0,2,0,0,599.45,0.0,0.44,0.0,0.0,314,0,316,0,0
1000_500_250_28_9,1010,0,0,0,0,572.33,0.0,1.5,25.71,0.0,1012,1,1012,1,1
500_250_100_28_0,6650,0,1,1,0,505.99,0.0,2.38,89.37,0.01,6676,25,6677,25,25
500_250_100_28_1,4763,0,0,0,0,543.46,0.0,1.89,53.16,0.0,4779,15,4779,15,15
500_250_100_28_2,7421,0,1,0,0,476.09,0.0,2.8,118.7,0.01,7459,37,7460,37,37
500_250_100_28_3,5613,0,0,0,0,510.11,0.0,2.0,86.11,0.01,5637,23,5637,23,23
500_250_100_28_4,6414,0,0,0,0,494.57,0.0,2.7,100.56,0.01,6443,28,6443,28,28
500_250_100_28_5,5891,0,2,4,0,486.81,0.0,2.46,108.91,0.01,5923,31,5925,31,31
500_250_100_28_6,6131,0,23,0,0,499.94,0.0,2.0,95.96,0.01,6158,26,6181,26,26
500_250_100_28_7,5862,0,0,0,0,507.49,0.0,2.11,88.52,0.01,5887,24,5887,24,24
500_250_100_28_8,7773,0,0,0,0,446.47,0.0,3.26,147.52,0.01,7816,42,7816,42,42
500_250_100_28_9,7217,0,0,5,0,463.99,0.0,2.61,130.92,0.01,7255,38,7256,38,38
100_75_50_28_0,22705,0,0,145,0,34.36,0.02,1.02,60.72,0.05,23850,1145,23850,1145,1145
100_75_50_28_1,37598,98,188,360,2,94.29,0.03,1.76,68.78,0.06,39058,1460,39246,1360,1362
100_75_50_28_2,38496,0,577,1,1,118.65,0.02,2.01,54.27,0.05,39498,1002,40075,1001,1002
100_75_50_28_3,19496,0,0,415,0,19.59,0.02,1.01,68.22,0.07,20911,1415,20911,1415,1415
100_75_50_28_4,33490,0,1,13,0,83.65,0.01,1.61,50.39,0.05,34503,1013,34504,1013,1013
100_75_50_28_5,26101,0,302,195,0,34.32,0.02,1.08,63.04,0.05,27296,1195,27598,1195,1195
100_75_50_28_6,9862,23,33,210,0,8.02,0.02,0.43,60.4,0.05,11095,1233,11128,1210,1210
100_75_50_28_7,29020,13,22,3,0,47.01,0.02,1.15,50.54,0.04,30036,1016,30058,1003,1003
100_75_50_28_8,14992,0,0,208,0,15.35,0.02,0.67,66.59,0.06,16200,1208,16200,1208,1208
100_75_50_28_9,17826,0,0,0,0,20.87,0.01,0.88,52.41,0.04,18826,1000,18826,1000,1000
10000_500_200_30_0,202,0,0,0,0,389.32,0.0,0.39,766.34,0.01,203,1,203,1,1
10000_500_200_30_1,103,0,0,0,0,601.84,0.0,0.2,0.0,0.0,104,0,104,0,0
10000_500_200_30_2,88,0,0,0,0,601.97,0.0,0.16,0.0,0.0,89,0,89,0,0
10000_500_200_30_3,112,0,4,0,0,601.56,0.0,0.84,0.0,0.0,113,0,117,0,0
10000_500_200_30_4,202,0,2,0,0,598.43,0.0,0.51,0.0,0.0,203,0,205,0,0
10000_500_200_30_5,222,0,0,0,0,358.96,0.0,0.6,888.22,0.01,223,1,223,1,1
10000_500_200_30_6,178,0,16,0,0,584.64,0.0,14.89,0.0,0.0,179,0,195,0,0
10000_500_200_30_7,84,0,0,0,0,601.68,0.0,0.21,0.0,0.0,85,0,85,0,0
10000_500_200_30_8,90,0,0,0,0,601.36,0.0,0.21,0.0,0.0,91,0,91,0,0
10000_500_200_30_9,115,0,0,0,0,599.43,0.0,0.32,0.0,0.0,116,0,116,0,0
1000_500_250_30_0,1476,2,29,10,0,419.5,0.0,3.88,175.63,0.01,1492,15,1521,13,13
1000_500_250_30_1,1796,2,33,18,1,321.3,0.0,4.05,284.88,0.02,1819,23,1852,20,21
1000_500_250_30_2,913,3,10,2,0,556.37,0.0,1.42,41.63,0.0,920,6,930,3,3
1000_500_250_30_3,1691,9,56,12,1,395.83,0.01,4.4,208.43,0.01,1716,25,1772,15,16
1000_500_250_30_4,1351,2,47,1,0,541.2,0.0,3.45,55.17,0.0,1358,6,1405,4,4
1000_500_250_30_5,1606,5,23,10,0,411.68,0.01,2.82,185.55,0.01,1624,18,1647,13,13
1000_500_250_30_6,1516,1,20,16,0,351.73,0.0,2.89,244.76,0.01,1535,18,1555,17,17
1000_500_250_30_7,1673,1,41,5,1,480.23,0.0,3.15,117.2,0.01,1684,11,1725,9,10
1000_500_250_30_8,1677,2,19,10,1,440.06,0.0,2.95,155.84,0.01,1693,15,1712,12,13
1000_500_250_30_9,1267,1,32,7,0,483.72,0.0,2.69,113.38,0.01,1277,9,1309,8,8
500_250_100_30_0,6007,76,317,121,1,304.27,0.05,5.1,288.11,0.04,6231,223,6548,146,147
500_250_100_30_1,5577,57,260,118,4,305.05,0.04,4.81,288.05,0.04,5782,205,6042,144,148
500_250_100_30_2,6417,82,489,117,6,278.89,0.07,8.49,311.62,0.04,6659,242,7148,154,160
500_250_100_30_3,6263,65,372,128,2,293.98,0.05,5.65,297.88,0.04,6490,226,6862,159,161
500_250_100_30_4,6697,62,314,128,5,291.28,0.05,6.16,300.81,0.04,6923,226,7237,159,164
500_250_100_30_5,6375,52,352,132,8,270.72,0.05,6.39,320.25,0.04,6601,225,6953,165,173
500_250_100_30_6,6168,89,452,113,8,311.57,0.08,7.77,277.98,0.04,6410,241,6862,144,152
500_250_100_30_7,5927,70,377,134,4,281.23,0.06,6.51,309.82,0.04,6159,232,6536,158,162
500_250_100_30_8,6028,70,482,143,7,264.81,0.05,8.28,324.62,0.05,6272,244,6754,167,174
500_250_100_30_9,6221,40,442,125,8,285.77,0.03,6.05,305.84,0.04,6422,201,6864,153,161
100_75_50_30_0,29668,1428,5982,3324,163,63.45,0.26,8.98,141.67,0.23,35583,5915,41565,4324,4487
100_75_50_30_1,21525,1910,6845,3327,143,33.21,0.31,7.57,131.32,0.22,27905,6380,34750,4327,4470
100_75_50_30_2,23482,1894,6675,2476,242,43.6,0.33,9.2,118.87,0.2,29094,5612,35769,3476,3718
100_75_50_30_3,22822,1993,6916,2723,152,35.55,0.33,8.83,118.78,0.19,28690,5868,35606,3723,3875
100_75_50_30_4,25935,1034,6163,2449,136,57.2,0.18,8.71,110.33,0.18,30554,4619,36717,3449,3585
100_75_50_30_5,15713,1197,5574,2340,179,23.64,0.2,7.06,121.28,0.18,20429,4716,26003,3340,3519
100_75_50_30_6,23677,1684,6908,3360,171,36.67,0.27,8.14,133.3,0.22,29892,6215,36800,4360,4531
100_75_50_30_7,18118,1932,5563,2896,266,27.26,0.35,6.4,133.49,0.22,24212,6094,29775,3896,4162
100_75_50_30_8,21992,953,5252,2503,126,42.58,0.17,9.0,117.94,0.18,26574,4582,31826,3503,3629
100_75_50_30_9,19340,1394,7410,2368,158,32.81,0.23,10.5,105.14,0.17,24260,4920,31670,3368,3526
10000_500_200_31_0,3,0,1,0,0,619.46,0.0,1.09,0.0,0.0,4,0,5,0,0
10000_500_200_31_1,5,0,14,0,0,631.6,0.0,29.26,0.0,0.0,6,0,20,0,0
10000_500_200_31_2,1,0,39,0,0,395.43,0.0,243.61,0.0,0.0,2,0,41,0,0
10000_500_200_31_3,3,0,23,0,0,549.31,0.0,102.68,0.0,0.0,4,0,27,0,0
10000_500_200_31_4,3,0,3,0,0,756.21,0.0,3.07,0.0,0.0,4,0,7,0,0
10000_500_200_31_5,3,0,3,0,0,684.25,0.0,2.2,0.0,0.0,4,0,7,0,0
10000_500_200_31_6,3,0,1,0,0,689.3,0.0,2.12,0.0,0.0,4,0,5,0,0
10000_500_200_31_7,4,0,8,0,0,625.7,0.0,17.67,0.0,0.0,5,0,13,0,0
10000_500_200_31_8,3,0,0,0,0,637.25,0.0,0.02,0.0,0.0,4,0,4,0,0
10000_500_200_31_9,3,0,7,0,0,679.4,0.0,2.26,0.0,0.0,4,0,11,0,0
1000_500_250_31_0,12,0,14,0,0,633.42,0.0,1.43,0.0,0.0,13,0,27,0,0
1000_500_250_31_1,12,0,18,0,0,622.34,0.0,3.11,0.0,0.0,13,0,31,0,0
1000_500_250_31_2,11,0,9,0,0,612.32,0.0,0.63,0.0,0.0,12,0,21,0,0
1000_500_250_31_3,9,0,5,0,0,611.65,0.0,0.59,0.0,0.0,10,0,15,0,0
1000_500_250_31_4,11,0,13,0,0,624.99,0.0,1.46,0.0,0.0,12,0,25,0,0
1000_500_250_31_5,12,0,0,0,0,607.08,0.0,0.04,0.0,0.0,13,0,13,0,0
1000_500_250_31_6,10,0,4,0,0,615.6,0.0,0.19,0.0,0.0,11,0,15,0,0
1000_500_250_31_7,10,0,0,0,0,635.0,0.0,0.03,0.0,0.0,11,0,11,0,0
1000_500_250_31_8,12,0,35,0,0,625.22,0.0,18.9,0.0,0.0,13,0,48,0,0
1000_500_250_31_9,9,0,11,0,0,634.48,0.0,0.88,0.0,0.0,10,0,21,0,0
500_250_100_31_0,281,0,0,0,0,599.73,0.0,0.21,0.0,0.0,282,0,282,0,0
500_250_100_31_1,324,0,21,0,0,596.24,0.0,2.88,1.46,0.0,326,1,347,1,1
500_250_100_31_2,194,0,6,0,0,600.12,0.0,0.36,0.0,0.0,195,0,201,0,0
500_250_100_31_3,161,0,18,0,0,599.11,0.0,1.12,0.0,0.0,162,0,180,0,0
500_250_100_31_4,332,0,5,0,0,598.87,0.0,0.4,1.67,0.0,334,1,339,1,1
500_250_100_31_5,128,0,13,0,0,600.32,0.0,0.98,0.0,0.0,129,0,142,0,0
500_250_100_31_6,272,0,19,0,0,600.35,0.0,1.32,2.86,0.0,274,1,293,1,1
500_250_100_31_7,198,0,9,0,0,599.78,0.0,0.35,0.0,0.0,199,0,208,0,0
500_250_100_31_8,513,0,30,2,0,589.79,0.0,3.45,8.19,0.0,517,3,547,3,3
500_250_100_31_9,212,0,0,0,0,600.73,0.0,0.17,0.0,0.0,213,0,213,0,0
100_75_50_31_0,15780,8,679,61,0,585.52,0.01,2.96,9.9,0.02,16072,291,16751,283,283
100_75_50_31_1,25244,0,1995,232,0,563.89,0.01,12.98,20.54,0.04,25850,605,27845,605,605
100_75_50_31_2,35688,0,6803,81,25,496.07,0.01,67.2,32.76,0.05,36565,876,43368,851,876
100_75_50_31_3,23178,31,3262,208,0,557.85,0.01,14.11,25.29,0.04,23845,666,27107,635,635
100_75_50_31_4,21400,0,4162,371,0,527.09,0.01,45.26,25.37,0.04,22071,670,26233,670,670
100_75_50_31_5,23955,8,3257,346,26,544.65,0.01,23.49,29.2,0.05,24781,825,28038,791,817
100_75_50_31_6,27278,10,2718,228,2,553.88,0.01,18.63,24.66,0.04,27949,670,30667,658,660
100_75_50_31_7,20503,22,3659,150,80,548.73,0.01,34.5,14.7,0.07,20956,452,24615,350,430
100_75_50_31_8,21802,4,5362,232,86,547.8,0.01,28.73,21.01,0.06,22457,655,27820,565,651
100_75_50_31_9,25157,148,2196,239,0,563.34,0.03,9.51,24.5,0.04,25966,808,28162,660,660
10000_500_200_32_0,57,0,0,0,0,606.46,0.0,0.12,0.0,0.0,58,0,58,0,0
10000_500_200_32_1,101,0,0,0,0,601.26,0.0,0.23,0.0,0.0,102,0,102,0,0
10000_500_200_32_2,188,0,2,0,0,379.63,0.0,0.52,872.76,0.01,189,1,191,1,1
10000_500_200_32_3,170,0,10,0,0,377.38,0.0,0.63,985.07,0.01,171,1,181,1,1
10000_500_200_32_4,61,0,0,0,0,605.21,0.0,0.14,0.0,0.0,62,0,62,0,0
10000_500_200_32_5,207,0,0,0,0,452.53,0.0,0.52,916.83,0.01,208,1,208,1,1
10000_500_200_32_6,60,0,0,0,0,604.2,0.0,0.16,0.0,0.0,61,0,61,0,0
10000_500_200_32_7,40,0,3,0,0,609.39,0.0,0.4,0.0,0.0,41,0,44,0,0
10000_500_200_32_8,81,0,4,0,0,601.94,0.0,0.24,0.0,0.0,82,0,86,0,0
10000_500_200_32_9,96,0,1,0,0,600.39,0.0,0.31,0.0,0.0,97,0,98,0,0
1000_500_250_32_0,782,0,2,0,0,586.0,0.0,1.12,12.65,0.0,784,1,786,1,1
1000_500_250_32_1,612,1,7,0,0,582.15,0.0,1.09,16.44,0.0,615,2,622,1,1
1000_500_250_32_2,255,0,4,0,0,600.39,0.0,0.42,0.0,0.0,256,0,260,0,0
1000_500_250_32_3,237,0,3,0,0,599.86,0.0,0.39,0.0,0.0,238,0,241,0,0
1000_500_250_32_4,889,0,16,0,0,583.58,0.0,1.81,14.17,0.0,891,1,907,1,1
1000_500_250_32_5,733,0,0,0,0,585.71,0.0,0.98,12.92,0.0,735,1,735,1,1
1000_500_250_32_6,669,0,8,1,0,572.43,0.0,1.07,26.6,0.0,672,2,680,2,2
1000_500_250_32_7,673,0,21,0,0,585.3,0.0,1.45,14.03,0.0,675,1,696,1,1
1000_500_250_32_8,314,0,15,0,0,599.69,0.0,0.7,0.0,0.0,315,0,330,0,0
1000_500_250_32_9,843,1,14,1,0,562.14,0.0,1.41,35.95,0.0,848,4,862,3,3
500_250_100_32_0,5504,18,197,13,2,493.25,0.01,4.26,100.36,0.01,5570,65,5767,45,47
500_250_100_32_1,4993,17,170,11,0,518.86,0.01,3.78,75.34,0.01,5047,53,5217,36,36
500_250_100_32_2,6667,28,120,21,0,462.96,0.02,3.76,130.77,0.02,6763,95,6883,67,67
500_250_100_32_3,3817,28,151,16,1,524.49,0.02,2.65,71.33,0.01,3880,62,4031,33,34
500_250_100_32_4,3866,36,173,17,1,533.73,0.03,2.26,62.4,0.01,3935,68,4108,31,32
500_250_100_32_5,4917,27,184,16,3,509.87,0.02,4.52,83.74,0.01,4991,73,5175,43,46
500_250_100_32_6,6455,57,564,4,1,473.08,0.04,7.32,116.87,0.02,6570,114,7134,56,57
500_250_100_32_7,5241,47,314,25,9,477.11,0.03,6.04,115.86,0.02,5352,111,5666,55,64
500_250_100_32_8,7358,50,257,11,3,431.7,0.04,5.97,160.73,0.02,7496,138,7753,85,88
500_250_100_32_9,6916,27,156,19,0,470.7,0.02,4.6,122.08,0.02,7006,89,7162,62,62
100_75_50_32_0,17467,192,4733,596,328,44.96,0.05,3.52,57.17,0.12,19583,2116,24316,1596,1924
100_75_50_32_1,18017,1163,4342,1321,108,24.96,0.15,5.73,82.99,0.12,21609,3592,25951,2321,2429
100_75_50_32_2,15487,265,4103,812,28,31.57,0.06,6.56,60.79,0.09,17592,2105,21695,1812,1840
100_75_50_32_3,4903,607,1139,127,0,5.71,0.09,0.87,35.1,0.06,6637,1734,7776,1127,1127
100_75_50_32_4,17989,1110,4110,1125,82,28.87,0.15,5.43,64.64,0.1,21306,3317,25416,2125,2207
100_75_50_32_5,16595,917,5176,1248,67,15.81,0.15,5.24,77.62,0.11,19827,3232,25003,2248,2315
100_75_50_32_6,13437,43,1821,286,140,25.24,0.02,3.59,44.38,0.08,14906,1469,16727,1286,1426
100_75_50_32_7,6101,691,11403,812,180,3.94,0.1,20.85,69.56,0.11,8784,2683,20187,1812,1992
100_75_50_32_8,3665,2146,5004,125,0,1.71,0.27,5.52,54.97,0.06,6936,3271,11940,1125,1125
100_75_50_32_9,21657,102,2762,388,0,64.73,0.03,2.66,49.44,0.07,23147,1490,25909,1388,1388
10000_500_200_34_0,91,0,0,0,0,601.52,0.0,0.2,0.0,0.0,92,0,92,0,0
10000_500_200_34_1,48,0,0,0,0,602.15,0.0,0.14,0.0,0.0,49,0,49,0,0
10000_500_200_34_2,213,3,7,0,0,527.43,0.03,4.48,645.49,0.01,217,4,224,1,1
10000_500_200_34_3,58,0,0,0,0,602.79,0.0,0.15,0.0,0.0,59,0,59,0,0
10000_500_200_34_4,67,0,0,0,0,605.07,0.0,0.18,0.0,0.0,68,0,68,0,0
10000_500_200_34_5,243,0,0,0,0,540.23,0.0,0.56,651.11,0.01,244,1,244,1,1
10000_500_200_34_6,73,0,6,0,0,602.47,0.0,0.32,0.0,0.0,74,0,80,0,0
10000_500_200_34_7,84,0,0,0,0,602.66,0.0,0.23,0.0,0.0,85,0,85,0,0
10000_500_200_34_8,49,0,0,0,0,601.8,0.0,0.11,0.0,0.0,50,0,50,0,0
10000_500_200_34_9,53,0,5,0,0,598.38,0.0,2.05,0.0,0.0,54,0,59,0,0
1000_500_250_34_0,1023,7,55,3,2,546.1,0.02,9.22,47.6,0.01,1037,14,1092,5,7
1000_500_250_34_1,733,0,10,1,0,578.8,0.0,1.37,19.34,0.0,736,2,746,2,2
1000_500_250_34_2,1427,7,81,10,1,470.83,0.01,5.1,123.1,0.01,1447,19,1528,11,12
1000_500_250_34_3,1315,6,27,6,0,533.29,0.01,3.47,69.28,0.0,1329,14,1356,8,8
1000_500_250_34_4,1487,12,35,15,0,428.42,0.01,3.23,174.06,0.01,1516,29,1551,17,17
1000_500_250_34_5,1869,13,70,16,1,413.25,0.02,7.31,187.55,0.01,1901,32,1971,18,19
1000_500_250_34_6,1293,3,40,10,0,466.7,0.0,3.36,129.22,0.01,1309,15,1349,12,12
1000_500_250_34_7,942,0,67,15,0,404.08,0.0,5.25,191.08,0.01,960,17,1027,17,17
1000_500_250_34_8,1737,2,87,12,0,441.25,0.0,5.82,151.37,0.01,1755,17,1842,15,15
1000_500_250_34_9,1639,3,49,12,0,449.75,0.0,3.94,145.15,0.01,1657,17,1706,14,14
500_250_100_34_0,6099,59,637,147,5,306.83,0.05,15.87,274.7,0.05,6342,242,6979,178,183
500_250_100_34_1,6221,45,446,150,9,350.1,0.04,10.07,237.15,0.05,6449,227,6895,173,182
500_250_100_34_2,6318,67,787,150,8,301.94,0.06,17.37,277.79,0.05,6580,261,7367,186,194
500_250_100_34_3,6438,103,841,196,6,261.12,0.08,17.62,318.82,0.06,6778,340,7619,231,237
500_250_100_34_4,6033,66,647,142,5,352.43,0.07,14.62,230.21,0.05,6270,236,6917,165,170
500_250_100_34_5,6068,30,554,127,6,362.56,0.03,12.91,222.93,0.04,6257,189,6811,153,159
500_250_100_34_6,6317,72,761,144,10,336.89,0.07,21.79,238.47,0.05,6567,249,7328,167,177
500_250_100_34_7,5948,58,560,136,3,346.34,0.05,13.48,237.38,0.04,6172,224,6732,163,166
500_250_100_34_8,6197,75,607,135,12,355.45,0.06,12.0,230.65,0.05,6444,247,7051,160,172
500_250_100_34_9,5976,57,683,125,3,352.75,0.05,14.16,230.48,0.04,6186,209,6869,149,152
100_75_50_34_0,14487,1046,7713,2906,293,36.17,0.21,15.23,118.77,0.23,19732,5245,27445,3906,4199
100_75_50_34_1,8706,1315,6079,2949,281,16.8,0.23,9.58,110.31,0.22,14251,5545,20330,3949,4230
100_75_50_34_2,11981,1283,7339,2416,312,26.09,0.25,14.03,108.13,0.21,16992,5011,24331,3416,3728
100_75_50_34_3,10265,1786,6023,2648,335,16.73,0.33,9.42,107.68,0.21,16034,5769,22057,3648,3983
100_75_50_34_4,15956,977,8482,2538,259,42.82,0.19,17.18,104.02,0.21,20730,4774,29212,3538,3797
100_75_50_34_5,6595,1096,5968,2079,373,11.03,0.21,10.16,102.0,0.18,11143,4548,17111,3079,3452
100_75_50_34_6,11730,1474,7474,2842,356,23.61,0.27,13.41,115.93,0.23,17402,5672,24876,3842,4198
100_75_50_34_7,6963,1275,5581,2765,309,9.7,0.23,8.27,107.21,0.21,12312,5349,17893,3765,4074
100_75_50_34_8,13432,1163,9188,2637,281,32.37,0.21,20.71,109.17,0.2,18513,5081,27701,3637,3918
100_75_50_34_9,8599,1472,9212,2558,390,15.71,0.29,18.03,103.02,0.23,14019,5420,23231,3558,3948
10000_500_200_35_0,5,0,10,0,0,617.77,0.0,38.51,0.0,0.0,6,0,16,0,0
10000_500_200_35_1,6,0,4,0,0,649.04,0.0,5.57,0.0,0.0,7,0,11,0,0
10000_500_200_35_2,1,0,9,0,0,604.96,0.0,23.82,0.0,0.0,2,0,11,0,0
10000_500_200_35_3,3,0,0,0,0,634.56,0.0,0.02,0.0,0.0,4,0,4,0,0
10000_500_200_35_4,0,0,17,0,0,0.0,0.0,614.98,0.0,0.0,0,0,18,0,0
10000_500_200_35_5,2,0,6,0,0,591.85,0.0,13.7,0.0,0.0,3,0,9,0,0
10000_500_200_35_6,2,0,3,0,0,622.03,0.0,6.91,0.0,0.0,3,0,6,0,0
10000_500_200_35_7,0,0,14,0,0,0.0,0.0,600.3,0.0,0.0,0,0,15,0,0
10000_500_200_35_8,3,0,0,0,0,741.37,0.0,0.02,0.0,0.0,4,0,4,0,0
10000_500_200_35_9,4,0,0,0,0,668.26,0.0,0.02,0.0,0.0,5,0,5,0,0
1000_500_250_35_0,12,0,0,0,0,639.81,0.0,0.04,0.0,0.0,13,0,13,0,0
1000_500_250_35_1,11,0,9,0,0,630.02,0.0,0.92,0.0,0.0,12,0,21,0,0
1000_500_250_35_2,11,0,2,0,0,620.05,0.0,0.06,0.0,0.0,12,0,14,0,0
1000_500_250_35_3,9,0,2,0,0,634.91,0.0,0.08,0.0,0.0,10,0,12,0,0
1000_500_250_35_4,14,0,8,0,0,631.89,0.0,2.46,0.0,0.0,15,0,23,0,0
1000_500_250_35_5,13,0,0,0,0,616.55,0.0,0.04,0.0,0.0,14,0,14,0,0
1000_500_250_35_6,11,0,19,0,0,617.55,0.0,2.89,0.0,0.0,12,0,31,0,0
1000_500_250_35_7,10,0,2,0,0,626.43,0.0,0.06,0.0,0.0,11,0,13,0,0
1000_500_250_35_8,12,0,1,0,0,631.3,0.0,0.11,0.0,0.0,13,0,14,0,0
1000_500_250_35_9,13,0,0,0,0,614.95,0.0,0.04,0.0,0.0,14,0,14,0,0
500_250_100_35_0,281,0,0,0,0,604.95,0.0,0.22,1.03,0.0,283,1,283,1,1
500_250_100_35_1,283,0,46,0,0,591.94,0.0,8.41,1.03,0.0,285,1,331,1,1
500_250_100_35_2,506,0,8,1,0,594.7,0.0,0.62,5.07,0.0,510,3,518,3,3
500_250_100_35_3,335,0,0,0,0,602.37,0.0,0.27,1.1,0.0,337,1,337,1,1
500_250_100_35_4,632,1,7,0,0,594.77,0.0,0.62,4.81,0.0,638,5,645,4,4
500_250_100_35_5,285,0,6,0,0,599.5,0.0,0.26,1.66,0.0,287,1,293,1,1
500_250_100_35_6,297,0,7,0,0,598.99,0.0,0.31,1.05,0.0,299,1,306,1,1
500_250_100_35_7,317,0,18,0,0,597.49,0.0,1.68,1.11,0.0,319,1,337,1,1
500_250_100_35_8,431,0,21,1,0,594.5,0.0,1.5,5.08,0.0,435,3,456,3,3
500_250_100_35_9,330,0,0,0,0,599.69,0.0,0.26,1.04,0.0,332,1,332,1,1
100_75_50_35_0,17537,132,10916,305,235,405.97,0.06,177.87,13.38,0.23,18437,899,29353,532,767
100_75_50_35_1,14222,20,12406,330,109,259.52,0.02,324.83,13.57,0.05,14900,677,27306,548,657
100_75_50_35_2,11934,405,15491,287,344,103.87,0.23,477.05,16.53,0.15,13283,1348,28774,599,943
100_75_50_35_3,18691,1476,16638,354,363,315.91,0.75,256.8,23.1,0.24,21449,2757,38087,918,1281
100_75_50_35_4,15496,0,12345,398,170,257.21,0.01,324.18,16.31,0.06,16364,868,28710,698,868
100_75_50_35_5,16759,1810,16259,356,0,304.82,0.73,268.92,22.33,0.06,19549,2790,35809,980,980
100_75_50_35_6,17145,102,14239,252,438,282.47,0.05,302.27,12.78,0.12,18204,1058,32443,518,956
100_75_50_35_7,24192,644,8248,301,31,466.6,0.34,108.71,21.24,0.08,25825,1633,34074,958,989
100_75_50_35_8,22127,564,13172,404,180,409.27,0.3,165.83,20.93,0.24,23759,1631,36931,887,1067
100_75_50_35_9,17781,231,12896,324,278,343.24,0.1,238.17,15.8,0.23,18913,1131,31809,622,900
10000_500_200_36_0,58,0,10,0,0,593.09,0.0,9.98,0.0,0.0,59,0,69,0,0
10000_500_200_36_1,163,0,1,0,0,520.45,0.0,0.58,742.68,0.01,164,1,165,1,1
10000_500_200_36_2,174,1,14,0,0,490.86,0.01,3.57,1076.27,0.01,176,2,190,1,1
10000_500_200_36_3,109,0,0,0,0,290.07,0.0,0.27,808.93,0.01,110,1,110,1,1
10000_500_200_36_4,146,0,13,0,0,467.0,0.0,3.37,821.55,0.01,147,1,160,1,1
10000_500_200_36_5,165,0,2,0,0,399.71,0.0,0.72,689.21,0.01,166,1,168,1,1
10000_500_200_36_6,218,0,10,0,0,547.62,0.0,5.71,864.27,0.01,219,1,229,1,1
10000_500_200_36_7,42,0,1,0,0,606.58,0.0,0.14,0.0,0.0,43,0,44,0,0
10000_500_200_36_8,153,0,6,0,0,353.93,0.0,5.23,931.91,0.01,154,1,160,1,1
10000_500_200_36_9,25,0,2,0,0,605.23,0.0,0.33,0.0,0.0,26,0,28,0,0
1000_500_250_36_0,535,0,29,0,0,587.65,0.0,2.97,10.22,0.0,537,1,566,1,1
1000_500_250_36_1,1117,4,58,2,1,553.88,0.01,4.16,41.07,0.0,1127,9,1185,4,5
1000_500_250_36_2,906,2,29,1,1,567.08,0.0,2.07,30.69,0.0,912,6,941,3,4
1000_500_250_36_3,126,0,27,0,0,601.13,0.0,2.26,0.0,0.0,127,0,154,0,0
1000_500_250_36_4,589,3,22,0,0,588.77,0.0,2.22,9.59,0.0,594,4,616,1,1
1000_500_250_36_5,988,1,16,2,0,568.34,0.0,1.69,29.28,0.0,993,4,1009,3,3
1000_500_250_36_6,952,5,43,1,0,568.88,0.01,5.79,24.61,0.0,960,7,1003,2,2
1000_500_250_36_7,191,0,6,0,0,599.53,0.0,0.45,0.0,0.0,192,0,198,0,0
1000_500_250_36_8,727,2,32,1,0,578.24,0.0,2.4,19.33,0.0,732,4,764,2,2
1000_500_250_36_9,481,0,51,0,0,574.66,0.0,8.26,16.43,0.0,483,1,534,1,1
500_250_100_36_0,4922,22,329,28,0,476.33,0.02,5.58,116.03,0.02,5008,85,5337,63,63
500_250_100_36_1,5502,33,423,32,0,468.04,0.02,10.69,119.0,0.02,5611,109,6034,76,76
500_250_100_36_2,5410,9,201,22,0,504.15,0.01,5.39,88.24,0.02,5482,71,5683,62,62
500_250_100_36_3,3852,26,196,11,2,539.43,0.02,3.81,55.3,0.01,3914,61,4110,33,35
500_250_100_36_4,4429,38,377,16,1,520.71,0.03,7.0,70.42,0.01,4513,83,4890,44,45
500_250_100_36_5,5281,121,738,25,1,475.89,0.18,17.17,105.04,0.02,5475,194,6213,72,73
500_250_100_36_6,6985,24,645,25,0,447.1,0.02,10.44,139.51,0.02,7103,118,7749,94,94
500_250_100_36_7,4601,40,260,25,3,508.28,0.03,3.67,86.21,0.02,4704,102,4964,59,62
500_250_100_36_8,6083,98,315,14,2,476.63,0.07,5.74,114.83,0.02,6267,183,6582,83,85
500_250_100_36_9,6576,59,546,18,31,454.91,0.04,11.17,130.98,0.04,6747,170,7293,80,111
100_75_50_36_0,6693,0,5389,259,3,16.61,0.02,3.87,37.84,0.06,7955,1262,13344,1259,1262
100_75_50_36_1,8864,840,4611,1417,155,12.72,0.15,9.57,79.66,0.15,12276,3412,16887,2417,2572
100_75_50_36_2,4393,262,4488,722,137,4.4,0.05,7.06,47.4,0.1,6514,2121,11002,1722,1859
100_75_50_36_3,4231,984,3866,925,140,4.95,0.27,9.43,48.97,0.11,7280,3049,11146,1925,2065
100_75_50_36_4,2304,753,6356,517,366,3.48,0.12,8.85,44.25,0.11,4940,2636,11296,1517,1883
100_75_50_36_5,163,16,3232,731,5,0.15,0.03,2.0,53.96,0.08,1915,1752,5147,1731,1736
100_75_50_36_6,1700,19,4663,93,219,2.45,0.02,18.6,32.26,0.08,3031,1331,7694,1093,1312
100_75_50_36_7,0,0,6755,657,0,0.06,0.02,15.11,61.94,0.08,1657,1657,8412,1657,1657
100_75_50_36_8,6141,291,11937,542,28,12.22,0.05,38.72,57.34,0.08,8002,1861,19939,1542,1570
100_75_50_36_9,9667,1,1832,143,1,17.66,0.02,1.89,37.45,0.06,10812,1145,12644,1143,1144
Falkenauer_u120_03,42276,0,567,64,0,13.67,0.0,0.3,6.4,0.01,43340,1064,43907,1064,1064
Falkenauer_t501_05,2755,0,17,4,0,598.59,0.0,0.99,0.62,0.0,2762,6,2779,6,6
Falkenauer_u120_07,41909,0,575,128,0,22.3,0.0,0.48,10.01,0.01,43037,1128,43612,1128,1128
Falkenauer_u1000_03,5090,0,249,8,0,591.13,0.0,6.61,1.64,0.0,5110,19,5359,19,19
Falkenauer_u500_04,43806,0,1475,117,0,580.03,0.0,6.98,10.46,0.01,44118,311,45593,311,311
Falkenauer_u500_09,37942,0,1279,88,0,579.85,0.0,6.99,10.63,0.01,38205,262,39484,262,262
Falkenauer_u500_01,31573,0,968,46,0,581.83,0.0,6.63,9.08,0.01,31769,195,32737,195,195
Falkenauer_u500_05,47110,0,1427,89,0,580.72,0.0,6.94,9.66,0.01,47419,308,48846,308,308
Falkenauer_u120_06,38719,0,353,68,0,11.19,0.0,0.24,5.5,0.01,39787,1068,40140,1068,1068
Falkenauer_u1000_08,5666,0,253,6,0,591.73,0.0,6.19,1.41,0.0,5685,18,5938,18,18
Falkenauer_t120_06,85183,0,157,83,0,588.6,0.0,2.78,4.41,0.01,85629,445,85786,445,445
Falkenauer_u1000_01,4652,0,262,2,0,590.55,0.0,7.9,1.03,0.0,4665,12,4927,12,12
Falkenauer_u120_00,40968,0,464,109,0,21.65,0.01,0.47,8.18,0.02,42077,1109,42541,1109,1109
Falkenauer_u120_04,37548,0,415,17,0,23.0,0.01,0.55,11.09,0.02,38565,1017,38980,1017,1017
Falkenauer_t120_08,84796,0,134,60,0,589.49,0.0,2.57,4.17,0.01,85234,437,85368,437,437
Falkenauer_u120_01,40008,0,472,100,0,27.62,0.01,0.63,11.45,0.02,41108,1100,41580,1100,1100
Falkenauer_t501_00,1121,0,2,0,0,599.71,0.0,0.44,0.18,0.0,1123,1,1125,1,1
Falkenauer_u1000_05,4988,0,303,5,0,589.65,0.0,8.54,1.25,0.0,5005,16,5308,16,16
Falkenauer_t501_01,3727,0,10,1,0,598.91,0.0,0.82,0.2,0.0,3732,4,3742,4,4
Falkenauer_t120_07,81464,0,114,84,0,589.06,0.0,2.5,4.54,0.01,81911,446,82025,446,446
Falkenauer_u500_03,34717,0,1170,78,0,579.61,0.0,7.45,10.43,0.01,34956,238,36126,238,238
Falkenauer_t120_01,85126,0,135,69,0,589.12,0.0,2.64,4.3,0.01,85567,440,85702,440,440
Falkenauer_u500_02,53085,0,1852,113,0,579.72,0.0,7.41,10.26,0.01,53448,362,55300,362,362
Falkenauer_t501_02,1122,0,0,0,0,599.33,0.0,0.48,0.12,0.0,1124,1,1124,1,1
Falkenauer_t120_05,142520,0,157,118,0,589.23,0.0,2.42,4.61,0.01,143264,743,143421,743,743
Falkenauer_t501_04,2716,0,9,2,0,598.91,0.0,0.79,0.27,0.0,2721,4,2730,4,4
Falkenauer_t501_09,1199,0,4,0,0,599.79,0.0,0.51,0.21,0.0,1201,1,1205,1,1
Falkenauer_u120_02,39839,0,343,122,0,18.51,0.01,0.42,8.92,0.02,40961,1122,41304,1122,1122
Falkenauer_u1000_00,7300,0,379,8,0,591.34,0.0,6.72,1.32,0.0,7324,23,7703,23,23
Falkenauer_t120_03,149377,0,215,110,0,589.35,0.0,2.54,4.25,0.01,150143,765,150358,765,765
Falkenauer_t120_02,106412,0,107,51,0,589.54,0.0,2.3,4.52,0.01,106938,525,107045,525,525
Falkenauer_t501_06,3631,0,7,0,0,598.61,0.0,0.9,0.32,0.0,3635,3,3642,3,3
Falkenauer_u120_08,39066,0,425,62,0,12.42,0.0,0.29,6.67,0.01,40128,1062,40553,1062,1062
Falkenauer_u1000_06,8487,0,411,23,0,590.42,0.0,6.81,2.13,0.0,8527,39,8938,39,39
Falkenauer_u1000_09,5396,0,334,13,0,588.53,0.0,9.04,2.09,0.0,5421,24,5755,24,24
Falkenauer_u500_07,32787,0,1112,71,0,580.19,0.0,7.4,10.04,0.01,33009,221,34121,221,221
Falkenauer_u1000_07,9744,0,417,13,0,592.03,0.0,5.75,1.56,0.0,9779,34,10196,34,34
Falkenauer_t501_03,4810,0,12,3,0,598.56,0.0,0.88,0.42,0.0,4818,7,4830,7,7
Falkenauer_t120_00,182627,0,185,96,0,589.47,0.0,2.61,4.02,0.01,183496,868,183681,868,868
Falkenauer_u1000_02,6003,0,301,7,0,591.41,0.0,6.81,1.32,0.0,6022,18,6323,18,18
Falkenauer_t501_08,2204,0,1,1,0,599.64,0.0,0.8,0.19,0.0,2208,3,2209,3,3
Falkenauer_u500_06,34263,0,1238,88,0,580.24,0.0,7.35,10.07,0.01,34504,240,35742,240,240
Falkenauer_u500_00,47871,0,1480,110,0,581.18,0.0,6.63,9.72,0.01,48198,326,49678,326,326
Falkenauer_t501_07,2478,0,8,1,0,598.82,0.0,0.87,0.32,0.0,2482,3,2490,3,3
Falkenauer_u120_05,38862,0,469,105,0,18.67,0.01,0.44,9.0,0.02,39967,1105,40436,1105,1105
Falkenauer_u120_09,37644,0,302,12,0,16.5,0.0,0.36,8.49,0.01,38656,1012,38958,1012,1012
Falkenauer_t120_04,144073,0,126,76,0,589.22,0.0,2.33,4.69,0.01,144771,697,144897,697,697
Falkenauer_t120_09,107315,0,189,74,0,589.45,0.0,2.57,4.2,0.01,107863,547,108052,547,547
Falkenauer_u1000_04,8421,0,462,5,0,590.95,0.0,7.22,1.19,0.0,8445,23,8907,23,23
Falkenauer_u500_08,34029,0,1126,78,0,579.98,0.0,7.0,10.48,0.01,34263,233,35389,233,233
