TIMEOUT
TIMEOUT
TIMEOUT

Time used by neighbor in VND | Times each neighbor was used in VND | improvements
N_1 = 0.01 | 1 | 0
N_2 = 0.14 | 1 | 0
N_3 = 0.00 | 1 | 0
N_4 = 2464.87 | 1 | 0

Time used by local search = 2465.03
Time used by neighbor | Times each neighbor was used | Improvements
N_1 = 0.01 | 1 | 0
N_2 = 0.00 | 0 | 0
N_3 = 0.00 | 0 | 0
N_4 = 0.00 | 0 | 0

Time to find the best solution = 0.34
Solution = 100000.00
Time = 2462.77
