TIMEOUT
TIMEOUT
TIMEOUT

Time used by neighbor in VND | Times each neighbor was used in VND | improvements
N_1 = 0.74 | 942 | 14
N_2 = 8.76 | 928 | 772
N_3 = 0.05 | 156 | 0
N_4 = 590.48 | 156 | 156

Time used by local search = 600.34
Time used by neighbor | Times each neighbor was used | Improvements
N_1 = 0.04 | 1 | 0
N_2 = 0.00 | 0 | 0
N_3 = 0.00 | 0 | 0
N_4 = 0.00 | 0 | 0

Time to find the best solution = 600.40
Solution = 10705685.00
Time = 600.12
