TIMEOUT
TIMEOUT
TIMEOUT

Time used by neighbor in VND | Times each neighbor was used in VND | improvements
N_1 = 0.43 | 612 | 6
N_2 = 7.05 | 606 | 504
N_3 = 0.04 | 102 | 0
N_4 = 593.31 | 102 | 102

Time used by local search = 601.09
Time used by neighbor | Times each neighbor was used | Improvements
N_1 = 0.02 | 1 | 0
N_2 = 0.00 | 0 | 0
N_3 = 0.00 | 0 | 0
N_4 = 0.00 | 0 | 0

Time to find the best solution = 601.13
Solution = 10632418.00
Time = 600.89
