TIMEOUT
TIMEOUT
TIMEOUT

Time used by neighbor in VND | Times each neighbor was used in VND | improvements
N_1 = 0.61 | 891 | 9
N_2 = 8.02 | 882 | 713
N_3 = 0.06 | 169 | 1
N_4 = 591.43 | 168 | 168

Time used by local search = 600.43
Time used by neighbor | Times each neighbor was used | Improvements
N_1 = 0.03 | 1 | 0
N_2 = 0.00 | 0 | 0
N_3 = 0.00 | 0 | 0
N_4 = 0.00 | 0 | 0

Time to find the best solution = 600.47
Solution = 10453663.00
Time = 600.20
