solucao atual 3627.00
solucao atual 3627.00
solucao atual 3627.00
solucao atual 3627.00
solucao atual 3627.00
solucao atual 3627.00
solucao atual 3627.00
solucao atual 3627.00
solucao atual 3627.00
solucao atual 3627.00
solucao atual 3627.00

Time used by neighbor in VND | Times each neighbor was used in VND | improvements
N_1 = 0.00 | 23 | 0
N_2 = 0.00 | 23 | 0
N_3 = 0.00 | 23 | 0
N_4 = 0.12 | 23 | 12

Time used by local search = 0.13
Time used by neighbor | Times each neighbor was used | Improvements
N_1 = 0.00 | 2 | 1
N_2 = 0.00 | 1 | 0
N_3 = 0.00 | 1 | 0
N_4 = 0.01 | 1 | 0

Time to find the best solution = 0.15
Solution = 3627.00
Time = 0.13
