solucao atual 492206.00
solucao atual 492206.00
solucao atual 492206.00
solucao atual 492206.00
solucao atual 492206.00
solucao atual 492206.00
solucao atual 492206.00
solucao atual 492206.00
solucao atual 492206.00
solucao atual 492206.00
solucao atual 492206.00
solucao atual 492206.00

Time used by neighbor in VND | Times each neighbor was used in VND | improvements
N_1 = 0.28 | 2843 | 175
N_2 = 3.81 | 2668 | 2074
N_3 = 0.04 | 594 | 19
N_4 = 104.11 | 575 | 563

Time used by local search = 108.53
Time used by neighbor | Times each neighbor was used | Improvements
N_1 = 0.00 | 2 | 1
N_2 = 0.00 | 1 | 0
N_3 = 0.00 | 1 | 0
N_4 = 0.17 | 1 | 0

Time to find the best solution = 108.53
Solution = 492206.00
Time = 108.67
