solucao atual 543792.00
solucao atual 543792.00
solucao atual 543792.00
solucao atual 543792.00
solucao atual 543792.00
solucao atual 543792.00
solucao atual 543792.00
solucao atual 543820.00
solucao atual 543820.00
solucao atual 543820.00
solucao atual 543820.00
solucao atual 543820.00
solucao atual 543820.00
solucao atual 543820.00
solucao atual 543820.00
solucao atual 543820.00
solucao atual 543820.00
solucao atual 543820.00
solucao atual 543820.00

Time used by neighbor in VND | Times each neighbor was used in VND | improvements
N_1 = 0.59 | 3164 | 155
N_2 = 6.02 | 3009 | 2297
N_3 = 0.08 | 712 | 24
N_4 = 183.58 | 688 | 669

Time used by local search = 190.77
Time used by neighbor | Times each neighbor was used | Improvements
N_1 = 0.00 | 3 | 1
N_2 = 0.00 | 2 | 0
N_3 = 0.00 | 2 | 0
N_4 = 0.54 | 2 | 1

Time to find the best solution = 191.07
Solution = 543820.00
Time = 191.24
