solucao atual 1621130.00
solucao atual 1621130.00
solucao atual 1621130.00
solucao atual 1621130.00
solucao atual 1621130.00
solucao atual 1621130.00
solucao atual 1621130.00
solucao atual 1621130.00
solucao atual 1621130.00
solucao atual 1621130.00
solucao atual 1621130.00
solucao atual 1621130.00

Time used by neighbor in VND | Times each neighbor was used in VND | improvements
N_1 = 1.22 | 4248 | 164
N_2 = 17.55 | 4084 | 3234
N_3 = 0.14 | 850 | 12
N_4 = 557.47 | 838 | 826

Time used by local search = 577.25
Time used by neighbor | Times each neighbor was used | Improvements
N_1 = 0.01 | 2 | 1
N_2 = 0.00 | 1 | 0
N_3 = 0.00 | 1 | 0
N_4 = 0.64 | 1 | 0

Time to find the best solution = 577.24
Solution = 1621130.00
Time = 577.69
