solucao atual 4264777.00
solucao atual 4264777.00
solucao atual 4264777.00
solucao atual 4264777.00
solucao atual 4264777.00
TIMEOUT
TIMEOUT
TIMEOUT

Time used by neighbor in VND | Times each neighbor was used in VND | improvements
N_1 = 0.81 | 2014 | 56
N_2 = 13.53 | 1958 | 1490
N_3 = 0.10 | 468 | 4
N_4 = 584.26 | 464 | 459

Time used by local search = 599.20
Time used by neighbor | Times each neighbor was used | Improvements
N_1 = 0.02 | 2 | 1
N_2 = 0.00 | 1 | 0
N_3 = 0.00 | 1 | 0
N_4 = 1.43 | 1 | 0

Time to find the best solution = 600.67
Solution = 4264777.00
Time = 600.08
