solucao atual 4464190.00
solucao atual 4464190.00
solucao atual 4464190.00
solucao atual 4464190.00
solucao atual 4464190.00
TIMEOUT
TIMEOUT
TIMEOUT

Time used by neighbor in VND | Times each neighbor was used in VND | improvements
N_1 = 0.55 | 1509 | 39
N_2 = 8.14 | 1470 | 1124
N_3 = 0.08 | 346 | 6
N_4 = 590.84 | 340 | 335

Time used by local search = 599.98
Time used by neighbor | Times each neighbor was used | Improvements
N_1 = 0.01 | 2 | 1
N_2 = 0.00 | 1 | 0
N_3 = 0.00 | 1 | 0
N_4 = 1.17 | 1 | 0

Time to find the best solution = 601.17
Solution = 4464190.00
Time = 600.89
