solucao atual 132970052.00
solucao atual 132970052.00
solucao atual 132970052.00
solucao atual 132970052.00
solucao atual 132970052.00
solucao atual 132970052.00
solucao atual 132970052.00
solucao atual 132970052.00
solucao atual 132970052.00
solucao atual 132970052.00
solucao atual 132970052.00
solucao atual 132970052.00
solucao atual 132970052.00
solucao atual 132970052.00
solucao atual 132970052.00
solucao atual 132970052.00
solucao atual 132970052.00
solucao atual 132970052.00
solucao atual 132970052.00
solucao atual 132970052.00
solucao atual 132970052.00
solucao atual 132970052.00
solucao atual 133635892.00
solucao atual 133635892.00
solucao atual 133635892.00
solucao atual 133635892.00
solucao atual 133635892.00
solucao atual 133635892.00
solucao atual 133635892.00
solucao atual 133635892.00
solucao atual 133705965.00
solucao atual 133705965.00
solucao atual 133705965.00
solucao atual 133705965.00
solucao atual 133705965.00
solucao atual 133705965.00
solucao atual 133705965.00
solucao atual 133705965.00
solucao atual 133796670.00
solucao atual 133796670.00
solucao atual 133796670.00
solucao atual 133796670.00
solucao atual 133796670.00
solucao atual 133796670.00
solucao atual 133796670.00
solucao atual 133796670.00
solucao atual 133796670.00
solucao atual 133796670.00
solucao atual 133796670.00
solucao atual 133796670.00
solucao atual 133796670.00
solucao atual 133796670.00
solucao atual 133796670.00
solucao atual 133796670.00
solucao atual 133796670.00
solucao atual 133796670.00
solucao atual 133796670.00

Time used by neighbor in VND | Times each neighbor was used in VND | improvements
N_1 = 23.70 | 2106 | 360
N_2 = 444.14 | 1746 | 1642
N_3 = 0.05 | 104 | 34
N_4 = 6.38 | 70 | 13

Time used by local search = 474.88
Time used by neighbor | Times each neighbor was used | Improvements
N_1 = 0.01 | 7 | 1
N_2 = 0.51 | 6 | 4
N_3 = 0.00 | 2 | 0
N_4 = 0.19 | 2 | 1

Time to find the best solution = 474.94
Solution = 133796670.00
Time = 475.38
