TIMEOUT
TIMEOUT
TIMEOUT

Time used by neighbor in VND | Times each neighbor was used in VND | improvements
N_1 = 0.52 | 104 | 0
N_2 = 602.02 | 104 | 104
N_3 = 0.00 | 0 | 0
N_4 = 0.00 | 0 | 0

Time used by local search = 602.59
Time used by neighbor | Times each neighbor was used | Improvements
N_1 = 0.01 | 1 | 0
N_2 = 0.00 | 0 | 0
N_3 = 0.00 | 0 | 0
N_4 = 0.00 | 0 | 0

Time to find the best solution = 0.00
Solution = 267365851.00
Time = 602.14
