solucao atual 234957134.00
solucao atual 234957134.00
solucao atual 234957134.00
solucao atual 234957134.00
solucao atual 234957134.00
solucao atual 234957134.00
solucao atual 234957134.00
solucao atual 234957134.00
solucao atual 234957134.00
solucao atual 234957134.00
solucao atual 234957134.00
solucao atual 234957134.00
TIMEOUT
TIMEOUT
TIMEOUT

Time used by neighbor in VND | Times each neighbor was used in VND | improvements
N_1 = 10.02 | 795 | 33
N_2 = 576.14 | 762 | 734
N_3 = 0.02 | 28 | 6
N_4 = 13.10 | 22 | 10

Time used by local search = 599.64
Time used by neighbor | Times each neighbor was used | Improvements
N_1 = 0.00 | 2 | 1
N_2 = 0.07 | 1 | 0
N_3 = 0.00 | 1 | 0
N_4 = 0.63 | 1 | 0

Time to find the best solution = 529.15
Solution = 234957134.00
Time = 600.12
