TIMEOUT
TIMEOUT
TIMEOUT

Time used by neighbor in VND | Times each neighbor was used in VND | improvements
N_1 = 46.53 | 112 | 45
N_2 = 554.73 | 67 | 67
N_3 = 0.00 | 0 | 0
N_4 = 0.00 | 0 | 0

Time used by local search = 601.35
Time used by neighbor | Times each neighbor was used | Improvements
N_1 = 2.58 | 1 | 0
N_2 = 0.00 | 0 | 0
N_3 = 0.00 | 0 | 0
N_4 = 0.00 | 0 | 0

Time to find the best solution = 0.00
Solution = 430380987.00
Time = 603.36
