solucao atual 649272206.00
solucao atual 649272206.00
solucao atual 649272206.00
solucao atual 649272206.00
solucao atual 649272206.00
solucao atual 649272206.00
solucao atual 649272206.00
solucao atual 649272206.00
solucao atual 649272206.00
solucao atual 649272206.00
solucao atual 649272206.00
TIMEOUT
TIMEOUT
TIMEOUT

Time used by neighbor in VND | Times each neighbor was used in VND | improvements
N_1 = 45.49 | 825 | 178
N_2 = 547.22 | 647 | 633
N_3 = 0.01 | 14 | 0
N_4 = 6.81 | 14 | 3

Time used by local search = 599.84
Time used by neighbor | Times each neighbor was used | Improvements
N_1 = 0.70 | 2 | 1
N_2 = 0.26 | 1 | 0
N_3 = 0.00 | 1 | 0
N_4 = 0.57 | 1 | 0

Time to find the best solution = 241.19
Solution = 649272206.00
Time = 601.14
