solucao atual 35155.00
solucao atual 35155.00
solucao atual 35155.00
solucao atual 35155.00
solucao atual 35155.00
solucao atual 35155.00
solucao atual 35155.00
solucao atual 35155.00
solucao atual 35155.00
solucao atual 35155.00
solucao atual 35155.00
solucao atual 35155.00
solucao atual 35155.00
solucao atual 35155.00
solucao atual 35155.00
solucao atual 35155.00
solucao atual 35155.00
solucao atual 35155.00
solucao atual 35155.00
solucao atual 35155.00
solucao atual 35155.00
solucao atual 35155.00
solucao atual 35155.00
solucao atual 35155.00
solucao atual 35155.00
solucao atual 35155.00
solucao atual 35155.00
solucao atual 35155.00
solucao atual 35155.00
solucao atual 35155.00
solucao atual 35155.00
solucao atual 35155.00
solucao atual 35155.00

Time used by neighbor in VND | Times each neighbor was used in VND | improvements
N_1 = 0.07 | 1515 | 2
N_2 = 3.06 | 1513 | 1446
N_3 = 0.00 | 67 | 1
N_4 = 0.10 | 66 | 33

Time used by local search = 3.31
Time used by neighbor | Times each neighbor was used | Improvements
N_1 = 0.00 | 5 | 1
N_2 = 0.00 | 4 | 0
N_3 = 0.00 | 4 | 0
N_4 = 0.01 | 4 | 3

Time to find the best solution = 3.29
Solution = 35155.00
Time = 3.31
