solucao atual 1359.00
solucao atual 1359.00
solucao atual 1359.00
solucao atual 1359.00
solucao atual 1359.00
solucao atual 1359.00
solucao atual 1359.00
solucao atual 1359.00
solucao atual 1359.00
solucao atual 1359.00
solucao atual 1359.00

Time used by neighbor in VND | Times each neighbor was used in VND | improvements
N_1 = 0.00 | 102 | 23
N_2 = 0.00 | 79 | 47
N_3 = 0.00 | 32 | 1
N_4 = 0.02 | 31 | 20

Time used by local search = 0.03
Time used by neighbor | Times each neighbor was used | Improvements
N_1 = 0.00 | 1 | 0
N_2 = 0.00 | 1 | 0
N_3 = 0.00 | 1 | 0
N_4 = 0.00 | 1 | 0

Time to find the best solution = 0.03
Solution = 1359.00
Time = 0.03
