solucao atual 1509.00
solucao atual 1509.00
solucao atual 1509.00
solucao atual 1509.00
solucao atual 1535.00
solucao atual 1535.00
solucao atual 1535.00
solucao atual 1535.00
solucao atual 1536.00
solucao atual 1536.00
solucao atual 1536.00
solucao atual 1536.00
solucao atual 1544.00
solucao atual 1544.00
solucao atual 1544.00
solucao atual 1544.00
solucao atual 1598.00
solucao atual 1598.00
solucao atual 1598.00
solucao atual 1598.00
solucao atual 1605.00
solucao atual 1605.00
solucao atual 1605.00
solucao atual 1605.00
solucao atual 1607.00
solucao atual 1607.00
solucao atual 1607.00
solucao atual 1607.00
solucao atual 1641.00
solucao atual 1641.00
solucao atual 1641.00
solucao atual 1641.00
solucao atual 1641.00
solucao atual 1641.00
solucao atual 1641.00
solucao atual 1641.00
solucao atual 1641.00
solucao atual 1641.00
solucao atual 1641.00
solucao atual 1641.00

Time used by neighbor in VND | Times each neighbor was used in VND | improvements
N_1 = 0.00 | 281 | 7
N_2 = 0.01 | 274 | 128
N_3 = 0.00 | 146 | 7
N_4 = 0.08 | 139 | 99

Time used by local search = 0.10
Time used by neighbor | Times each neighbor was used | Improvements
N_1 = 0.00 | 9 | 1
N_2 = 0.00 | 8 | 0
N_3 = 0.00 | 8 | 0
N_4 = 0.01 | 8 | 7

Time to find the best solution = 0.13
Solution = 1641.00
Time = 0.11
