solucao atual 1619.00
solucao atual 1619.00
solucao atual 1619.00
solucao atual 1619.00
solucao atual 1628.00
solucao atual 1628.00
solucao atual 1628.00
solucao atual 1628.00
solucao atual 1628.00
solucao atual 1628.00
solucao atual 1628.00
solucao atual 1628.00
solucao atual 1628.00
solucao atual 1628.00
solucao atual 1628.00
solucao atual 1634.00
solucao atual 1634.00
solucao atual 1634.00
solucao atual 1634.00
solucao atual 1634.00
solucao atual 1634.00
solucao atual 1634.00
solucao atual 1634.00
solucao atual 1634.00
solucao atual 1634.00
solucao atual 1634.00
solucao atual 1634.00

Time used by neighbor in VND | Times each neighbor was used in VND | improvements
N_1 = 0.00 | 354 | 11
N_2 = 0.02 | 343 | 191
N_3 = 0.00 | 152 | 6
N_4 = 0.09 | 146 | 119

Time used by local search = 0.12
Time used by neighbor | Times each neighbor was used | Improvements
N_1 = 0.00 | 4 | 1
N_2 = 0.00 | 3 | 0
N_3 = 0.00 | 3 | 0
N_4 = 0.00 | 3 | 2

Time to find the best solution = 0.15
Solution = 1634.00
Time = 0.12
