solucao atual 2962.00
solucao atual 2962.00
solucao atual 2962.00
solucao atual 2962.00
solucao atual 2962.00
solucao atual 2962.00
solucao atual 2962.00
solucao atual 2962.00
solucao atual 2962.00
solucao atual 2962.00
solucao atual 2962.00
solucao atual 2962.00
solucao atual 2962.00
solucao atual 2962.00
solucao atual 2962.00
solucao atual 2962.00
solucao atual 2962.00
solucao atual 2962.00
solucao atual 2962.00
solucao atual 2962.00

Time used by neighbor in VND | Times each neighbor was used in VND | improvements
N_1 = 0.00 | 184 | 1
N_2 = 0.01 | 183 | 132
N_3 = 0.00 | 51 | 1
N_4 = 0.03 | 50 | 30

Time used by local search = 0.04
Time used by neighbor | Times each neighbor was used | Improvements
N_1 = 0.00 | 4 | 1
N_2 = 0.00 | 3 | 0
N_3 = 0.00 | 3 | 0
N_4 = 0.00 | 3 | 2

Time to find the best solution = 0.06
Solution = 2962.00
Time = 0.04
