solucao atual 9975.00
solucao atual 9975.00
solucao atual 9975.00
solucao atual 9975.00
solucao atual 9987.00
solucao atual 9987.00
solucao atual 9987.00
solucao atual 9987.00
solucao atual 9987.00
solucao atual 9987.00
solucao atual 9987.00
solucao atual 9987.00
solucao atual 9987.00
solucao atual 9987.00
solucao atual 9987.00
solucao atual 9987.00

Time used by neighbor in VND | Times each neighbor was used in VND | improvements
N_1 = 0.01 | 583 | 3
N_2 = 0.11 | 580 | 431
N_3 = 0.00 | 149 | 3
N_4 = 0.64 | 146 | 130

Time used by local search = 0.78
Time used by neighbor | Times each neighbor was used | Improvements
N_1 = 0.00 | 3 | 1
N_2 = 0.00 | 2 | 0
N_3 = 0.00 | 2 | 0
N_4 = 0.01 | 2 | 1

Time to find the best solution = 0.79
Solution = 9987.00
Time = 0.79
