solucao atual 5677.00
solucao atual 5677.00
solucao atual 5677.00
solucao atual 5677.00
solucao atual 5677.00
solucao atual 5677.00
solucao atual 5677.00
solucao atual 5677.00
solucao atual 5677.00
solucao atual 5677.00
solucao atual 5677.00
solucao atual 5677.00

Time used by neighbor in VND | Times each neighbor was used in VND | improvements
N_1 = 0.03 | 346 | 47
N_2 = 0.27 | 299 | 254
N_3 = 0.00 | 45 | 4
N_4 = 0.10 | 41 | 29

Time used by local search = 0.41
Time used by neighbor | Times each neighbor was used | Improvements
N_1 = 0.00 | 2 | 1
N_2 = 0.00 | 1 | 0
N_3 = 0.00 | 1 | 0
N_4 = 0.00 | 1 | 0

Time to find the best solution = 0.41
Solution = 5677.00
Time = 0.42
