solucao atual 5790.00
solucao atual 5790.00
solucao atual 5790.00
solucao atual 5790.00
solucao atual 5790.00
solucao atual 5790.00
solucao atual 5790.00
solucao atual 5790.00
solucao atual 5790.00
solucao atual 5790.00
solucao atual 5790.00
solucao atual 5790.00

Time used by neighbor in VND | Times each neighbor was used in VND | improvements
N_1 = 0.07 | 510 | 61
N_2 = 0.54 | 449 | 372
N_3 = 0.00 | 77 | 9
N_4 = 0.19 | 68 | 56

Time used by local search = 0.84
Time used by neighbor | Times each neighbor was used | Improvements
N_1 = 0.00 | 2 | 1
N_2 = 0.00 | 1 | 0
N_3 = 0.00 | 1 | 0
N_4 = 0.00 | 1 | 0

Time to find the best solution = 0.85
Solution = 5790.00
Time = 0.84
