solucao atual 19907.00
solucao atual 19907.00
solucao atual 19907.00
solucao atual 19907.00
solucao atual 19907.00
solucao atual 19909.00
solucao atual 19909.00
solucao atual 19909.00
solucao atual 19909.00
solucao atual 19909.00
solucao atual 19909.00
solucao atual 19909.00
solucao atual 19909.00
solucao atual 19937.00
solucao atual 19937.00
solucao atual 19937.00
solucao atual 19937.00
solucao atual 19937.00
solucao atual 19937.00
solucao atual 19937.00
solucao atual 19937.00
solucao atual 19937.00
solucao atual 19937.00
solucao atual 19940.00
solucao atual 19940.00
solucao atual 19940.00
solucao atual 19940.00
solucao atual 19940.00
solucao atual 19940.00
solucao atual 19940.00
solucao atual 19940.00
solucao atual 19940.00
solucao atual 19940.00
solucao atual 19940.00
solucao atual 19940.00

Time used by neighbor in VND | Times each neighbor was used in VND | improvements
N_1 = 0.08 | 3621 | 12
N_2 = 2.03 | 3609 | 3125
N_3 = 0.01 | 484 | 11
N_4 = 5.41 | 473 | 438

Time used by local search = 7.67
Time used by neighbor | Times each neighbor was used | Improvements
N_1 = 0.00 | 5 | 1
N_2 = 0.00 | 4 | 0
N_3 = 0.00 | 4 | 0
N_4 = 0.05 | 4 | 3

Time to find the best solution = 7.73
Solution = 19940.00
Time = 7.72
