solucao atual 12369.00
solucao atual 12369.00
solucao atual 12369.00
solucao atual 12369.00
solucao atual 12369.00
solucao atual 12369.00
solucao atual 12369.00
solucao atual 12369.00
solucao atual 12369.00
solucao atual 12369.00
solucao atual 12369.00
solucao atual 12369.00

Time used by neighbor in VND | Times each neighbor was used in VND | improvements
N_1 = 1.16 | 1697 | 401
N_2 = 10.63 | 1296 | 1219
N_3 = 0.01 | 77 | 15
N_4 = 0.79 | 62 | 50

Time used by local search = 12.73
Time used by neighbor | Times each neighbor was used | Improvements
N_1 = 0.00 | 2 | 1
N_2 = 0.00 | 1 | 0
N_3 = 0.00 | 1 | 0
N_4 = 0.01 | 1 | 0

Time to find the best solution = 12.73
Solution = 12369.00
Time = 12.74
