solucao atual 84602.00
solucao atual 84602.00
solucao atual 84602.00
solucao atual 84602.00
solucao atual 84602.00
solucao atual 84602.00
solucao atual 84602.00
solucao atual 84602.00
solucao atual 84602.00
solucao atual 84602.00
solucao atual 84602.00

Time used by neighbor in VND | Times each neighbor was used in VND | improvements
N_1 = 0.29 | 1652 | 29
N_2 = 7.01 | 1623 | 1244
N_3 = 0.05 | 379 | 5
N_4 = 87.02 | 374 | 363

Time used by local search = 94.63
Time used by neighbor | Times each neighbor was used | Improvements
N_1 = 0.00 | 2 | 1
N_2 = 0.00 | 1 | 0
N_3 = 0.00 | 1 | 0
N_4 = 0.23 | 1 | 0

Time to find the best solution = 94.65
Solution = 84602.00
Time = 94.83
