LB = 786 UB = 12294
Solução atual = 800
Solução atual = 800
Solução atual = 800
Solução atual = 800
Solução atual = 800
Solução atual = 800
Solução atual = 800
Solução atual = 800
Solução atual = 800
Solução atual = 800
Solução atual = 800
Solução atual = 800
Solução atual = 800
Solution = 800
Time = 0.49
