instances,ADD,CHG,MV,RPCK,iteracoes,time(ADD),time(CHG),time(MV),time(RPCK),total(ADD),total(CHG),total(MV),total(RPCK)
10000_500_200_1_0,0,0,0,991,2000,1.01,171.0,1.9,26.81,1270,1270,1270,1270
10000_500_200_1_1,0,1,0,963,2000,1.01,175.58,1.86,26.65,1251,1251,1251,1251
10000_500_200_1_2,0,0,0,970,2000,0.86,177.1,1.75,26.46,1266,1266,1266,1266
10000_500_200_1_3,0,11,0,974,2000,1.02,172.99,2.07,28.0,1274,1274,1274,1274
10000_500_200_1_4,0,0,0,963,2000,1.09,172.97,1.98,27.5,1234,1234,1234,1234
10000_500_200_1_5,0,2,0,1010,2000,0.77,177.35,1.57,25.7,1270,1270,1270,1270
10000_500_200_1_6,0,0,0,1042,2000,0.95,169.95,1.86,27.05,1340,1340,1340,1340
10000_500_200_1_7,0,0,0,1004,2000,0.94,173.08,1.84,26.62,1287,1287,1287,1287
10000_500_200_1_8,0,0,0,993,2000,0.99,172.0,1.78,26.31,1253,1253,1253,1253
10000_500_200_1_9,0,3,0,959,2000,1.08,174.1,2.1,27.58,1282,1282,1282,1282
1000_500_250_1_0,0,130,2,2076,2000,0.25,31.73,1.98,25.08,2130,2130,2130,2130
1000_500_250_1_1,0,0,45,1999,2000,0.28,22.62,2.06,24.28,2000,2000,2000,2000
1000_500_250_1_2,0,0,0,2000,2000,0.22,29.41,1.81,23.67,2000,2000,2000,2000
1000_500_250_1_3,0,7,3,1999,2000,0.24,30.74,1.85,24.04,2007,2007,2007,2007
1000_500_250_1_4,0,65,1,2002,2000,0.31,25.38,2.02,24.92,2065,2065,2065,2065
1000_500_250_1_5,0,0,1,2000,2000,0.19,23.84,1.81,22.69,2000,2000,2000,2000
1000_500_250_1_6,0,0,0,2000,2000,0.21,23.73,1.84,24.34,2000,2000,2000,2000
1000_500_250_1_7,0,0,0,2000,2000,0.23,20.38,1.87,23.65,2000,2000,2000,2000
1000_500_250_1_8,0,1,0,2000,2000,0.24,21.67,1.77,22.67,2001,2001,2001,2001
1000_500_250_1_9,0,0,0,1997,2000,0.16,28.49,1.8,23.51,2000,2000,2000,2000
500_250_100_1_0,0,1,0,1342,2000,0.02,3.34,0.45,5.82,2001,2001,2001,2001
500_250_100_1_1,0,0,0,1723,2000,0.03,5.5,0.43,5.87,2000,2000,2000,2000
500_250_100_1_2,0,0,0,1430,2000,0.02,6.35,0.41,5.68,2000,2000,2000,2000
500_250_100_1_3,0,0,31,1874,2000,0.05,7.95,0.44,6.06,2000,2000,2000,2000
500_250_100_1_4,0,0,0,1847,2000,0.03,6.9,0.37,5.28,2000,2000,2000,2000
500_250_100_1_5,0,0,0,1483,2000,0.03,4.7,0.42,5.82,2000,2000,2000,2000
500_250_100_1_6,0,0,0,1539,2000,0.03,4.57,0.44,5.98,2000,2000,2000,2000
500_250_100_1_7,0,20,0,1654,2000,0.03,3.65,0.45,6.11,2020,2020,2020,2020
500_250_100_1_8,0,9,1,1378,2000,0.03,4.46,0.42,5.83,2009,2009,2009,2009
500_250_100_1_9,0,23,0,1223,2000,0.02,3.89,0.44,5.93,2023,2023,2023,2023
100_75_50_1_0,0,414,1018,2306,2000,0.01,0.57,0.05,0.58,2414,2414,2414,2414
100_75_50_1_1,0,9,338,1948,2000,0.0,0.39,0.04,0.48,2009,2009,2009,2009
100_75_50_1_2,0,2,85,1935,2000,0.0,0.45,0.04,0.49,2002,2002,2002,2002
100_75_50_1_3,0,0,292,1803,2000,0.0,0.51,0.04,0.49,2000,2000,2000,2000
100_75_50_1_4,0,1,764,1965,2000,0.01,0.58,0.04,0.46,2001,2001,2001,2001
100_75_50_1_5,0,0,0,1386,2000,0.0,0.34,0.05,0.52,2000,2000,2000,2000
100_75_50_1_6,0,1,36,1501,2000,0.0,0.16,0.03,0.32,2001,2001,2001,2001
100_75_50_1_7,0,0,8,1823,2000,0.0,0.45,0.04,0.46,2000,2000,2000,2000
100_75_50_1_8,0,0,4,1429,2000,0.0,0.38,0.04,0.46,2000,2000,2000,2000
100_75_50_1_9,0,0,80,1661,2000,0.0,0.33,0.04,0.47,2000,2000,2000,2000
10000_500_200_5_0,20,4,851,1303,2000,1.01,174.26,1.58,14.29,1320,1320,1320,1320
10000_500_200_5_1,15,23,859,1301,2000,0.96,176.15,1.6,14.41,1317,1317,1317,1317
10000_500_200_5_2,15,0,837,1290,2000,0.88,175.67,1.54,14.19,1301,1301,1301,1301
10000_500_200_5_3,14,16,824,1274,2000,0.98,176.58,1.62,14.58,1294,1294,1294,1294
10000_500_200_5_4,18,3,846,1318,2000,0.97,175.07,1.6,14.49,1331,1331,1331,1331
10000_500_200_5_5,26,3,882,1359,2000,1.07,169.66,1.7,15.12,1378,1378,1378,1378
10000_500_200_5_6,11,0,880,1351,2000,1.18,166.56,1.8,15.69,1359,1359,1359,1359
10000_500_200_5_7,15,6,855,1338,2000,0.97,170.18,1.66,14.85,1358,1358,1358,1358
10000_500_200_5_8,16,1,834,1327,2000,0.94,168.73,1.6,14.53,1341,1341,1341,1341
10000_500_200_5_9,11,14,883,1372,2000,0.95,169.38,1.67,14.94,1388,1388,1388,1388
1000_500_250_5_0,33,165,1394,2166,2000,0.11,6.25,1.83,17.4,2198,2198,2198,2198
1000_500_250_5_1,29,0,1390,2008,2000,0.13,6.88,1.87,17.25,2029,2029,2029,2029
1000_500_250_5_2,44,0,1362,2010,2000,0.14,8.85,1.84,17.35,2044,2044,2044,2044
1000_500_250_5_3,17,6,1286,2007,2000,0.1,8.06,1.77,15.96,2023,2023,2023,2023
1000_500_250_5_4,22,80,1433,2046,2000,0.19,7.26,2.02,17.49,2101,2101,2101,2101
1000_500_250_5_5,26,3,1275,2006,2000,0.07,5.83,1.51,14.55,2029,2029,2029,2029
1000_500_250_5_6,21,1,1317,2009,2000,0.1,6.39,1.67,15.69,2022,2022,2022,2022
1000_500_250_5_7,40,0,1389,2008,2000,0.13,5.79,1.75,16.34,2040,2040,2040,2040
1000_500_250_5_8,24,0,1302,2004,2000,0.12,7.16,1.87,16.99,2024,2024,2024,2024
1000_500_250_5_9,27,0,1350,2010,2000,0.11,7.18,1.77,16.58,2027,2027,2027,2027
500_250_100_5_0,119,18,1570,2013,2000,0.04,1.65,0.48,4.33,2134,2134,2134,2134
500_250_100_5_1,103,0,1538,1994,2000,0.04,2.13,0.43,4.27,2103,2103,2103,2103
500_250_100_5_2,110,0,1526,1998,2000,0.04,2.33,0.45,4.32,2110,2110,2110,2110
500_250_100_5_3,105,6,1539,2014,2000,0.04,2.36,0.49,4.61,2111,2111,2111,2111
500_250_100_5_4,117,0,1502,1998,2000,0.03,1.77,0.36,3.74,2117,2117,2117,2117
500_250_100_5_5,97,0,1545,1999,2000,0.05,2.09,0.46,4.53,2097,2097,2097,2097
500_250_100_5_6,124,0,1525,1989,2000,0.05,1.98,0.5,4.51,2124,2124,2124,2124
500_250_100_5_7,129,71,1564,2061,2000,0.04,1.6,0.44,4.35,2200,2200,2200,2200
500_250_100_5_8,110,65,1593,2039,2000,0.05,2.03,0.44,4.29,2174,2174,2174,2174
500_250_100_5_9,116,129,1555,2038,2000,0.04,1.46,0.4,4.15,2235,2235,2235,2235
100_75_50_5_0,316,91,1734,1887,2000,0.01,0.25,0.05,0.32,2391,2391,2391,2391
100_75_50_5_1,198,82,1608,1891,2000,0.01,0.33,0.05,0.34,2272,2272,2272,2272
100_75_50_5_2,209,109,1608,1903,2000,0.01,0.23,0.05,0.36,2318,2318,2318,2318
100_75_50_5_3,256,105,1580,1893,2000,0.0,0.18,0.03,0.25,2359,2359,2359,2359
100_75_50_5_4,583,118,1751,1891,2000,0.01,0.41,0.07,0.44,2670,2670,2670,2670
100_75_50_5_5,383,373,1917,2133,2000,0.01,0.22,0.06,0.41,2752,2752,2752,2752
100_75_50_5_6,855,89,1947,2008,2000,0.01,0.27,0.07,0.45,2919,2919,2919,2919
100_75_50_5_7,411,331,1711,2013,2000,0.01,0.36,0.07,0.45,2701,2701,2701,2701
100_75_50_5_8,643,92,1724,1892,2000,0.01,0.34,0.06,0.4,2692,2692,2692,2692
100_75_50_5_9,767,30,1858,1876,2000,0.01,0.15,0.04,0.29,2781,2781,2781,2781
10000_500_200_9_0,228,8,1068,1310,2000,2.99,192.18,1.71,13.84,1475,1475,1475,1475
10000_500_200_9_1,194,42,1075,1289,2000,3.0,193.56,1.74,14.04,1427,1427,1427,1427
10000_500_200_9_2,210,0,1071,1302,2000,2.7,195.13,1.63,13.31,1454,1454,1454,1454
10000_500_200_9_3,206,28,1119,1357,2000,2.8,188.96,1.68,13.64,1510,1510,1510,1510
10000_500_200_9_4,210,19,1114,1314,2000,3.04,189.49,1.76,14.22,1473,1473,1473,1473
10000_500_200_9_5,226,16,1105,1309,2000,3.01,192.75,1.71,13.96,1478,1478,1478,1478
10000_500_200_9_6,196,0,1088,1319,2000,3.06,187.88,1.78,14.3,1459,1459,1459,1459
10000_500_200_9_7,239,10,1060,1273,2000,3.06,198.62,1.67,13.4,1460,1460,1460,1460
10000_500_200_9_8,225,2,1029,1254,2000,2.75,195.47,1.58,13.0,1426,1426,1426,1426
10000_500_200_9_9,240,24,1109,1325,2000,3.39,187.2,1.94,15.37,1502,1502,1502,1502
1000_500_250_9_0,350,167,1910,2250,2000,0.5,6.75,2.35,19.58,2505,2505,2505,2505
1000_500_250_9_1,372,0,1792,2133,2000,0.43,6.07,2.03,17.21,2372,2372,2372,2372
1000_500_250_9_2,396,40,1775,2133,2000,0.45,7.44,2.0,17.44,2407,2407,2407,2407
1000_500_250_9_3,221,22,1682,2082,2000,0.33,7.03,1.96,17.42,2240,2240,2240,2240
1000_500_250_9_4,439,133,1814,2205,2000,0.54,7.58,2.37,20.05,2538,2538,2538,2538
1000_500_250_9_5,510,6,1834,2218,2000,0.51,7.39,2.27,19.44,2515,2515,2515,2515
1000_500_250_9_6,242,9,1636,2090,2000,0.35,6.07,2.1,17.35,2250,2250,2250,2250
1000_500_250_9_7,325,0,1783,2092,2000,0.37,5.31,1.91,16.77,2325,2325,2325,2325
1000_500_250_9_8,391,2,1757,2125,2000,0.38,5.68,1.79,15.91,2393,2393,2393,2393
1000_500_250_9_9,365,4,1801,2115,2000,0.31,4.72,1.48,14.0,2369,2369,2369,2369
500_250_100_9_0,342,45,1696,2013,2000,0.09,1.14,0.33,3.22,2370,2370,2370,2370
500_250_100_9_1,217,0,1633,1966,2000,0.08,1.69,0.38,3.53,2217,2217,2217,2217
500_250_100_9_2,340,2,1629,1973,2000,0.07,1.12,0.26,2.75,2342,2342,2342,2342
500_250_100_9_3,129,16,1629,1960,2000,0.1,1.81,0.42,3.88,2145,2145,2145,2145
500_250_100_9_4,181,0,1652,1986,2000,0.1,2.01,0.47,4.31,2181,2181,2181,2181
500_250_100_9_5,288,0,1711,1976,2000,0.09,1.43,0.33,3.26,2288,2288,2288,2288
500_250_100_9_6,408,0,1706,1973,2000,0.15,2.01,0.47,4.3,2408,2408,2408,2408
500_250_100_9_7,471,102,1897,2070,2000,0.2,1.88,0.57,4.65,2550,2550,2550,2550
500_250_100_9_8,205,93,1666,2020,2000,0.11,1.75,0.44,4.0,2282,2282,2282,2282
500_250_100_9_9,263,158,1650,2022,2000,0.15,1.72,0.51,4.58,2386,2386,2386,2386
100_75_50_9_0,17,26,1995,1808,2000,0.0,0.19,0.05,0.21,2043,2043,2043,2043
100_75_50_9_1,18,24,2019,1807,2000,0.0,0.17,0.05,0.22,2039,2039,2039,2039
100_75_50_9_2,20,36,2035,1796,2000,0.0,0.17,0.05,0.21,2054,2054,2054,2054
100_75_50_9_3,35,381,2335,2186,2000,0.0,0.13,0.04,0.17,2416,2416,2416,2416
100_75_50_9_4,5,135,2049,1825,2000,0.0,0.2,0.05,0.24,2140,2140,2140,2140
100_75_50_9_5,8,439,2347,2002,2000,0.0,0.18,0.05,0.26,2447,2447,2447,2447
100_75_50_9_6,0,66,2045,1752,2000,0.0,0.17,0.05,0.24,2066,2066,2066,2066
100_75_50_9_7,15,250,2194,1939,2000,0.0,0.21,0.05,0.23,2264,2264,2264,2264
100_75_50_9_8,2,118,2066,1835,2000,0.0,0.18,0.04,0.22,2119,2119,2119,2119
100_75_50_9_9,0,91,2051,1794,2000,0.0,0.14,0.04,0.21,2091,2091,2091,2091
10000_500_200_13_0,0,0,0,964,2000,0.85,172.24,1.74,27.11,1233,1233,1233,1233
10000_500_200_13_1,0,1,0,974,2000,0.79,178.36,1.53,25.36,1263,1263,1263,1263
10000_500_200_13_2,0,0,0,1063,2000,0.73,174.22,1.51,25.65,1382,1382,1382,1382
10000_500_200_13_3,0,11,0,964,2000,1.12,174.46,2.17,28.14,1260,1260,1260,1260
10000_500_200_13_4,0,0,0,1014,2000,1.01,175.66,1.7,26.03,1295,1295,1295,1295
10000_500_200_13_5,0,2,0,998,2000,0.8,178.85,1.64,25.99,1256,1256,1256,1256
10000_500_200_13_6,0,0,0,991,2000,0.82,177.45,1.61,26.09,1281,1281,1281,1281
10000_500_200_13_7,0,0,0,987,2000,0.87,178.26,1.7,26.09,1267,1267,1267,1267
10000_500_200_13_8,0,0,0,1210,2000,0.73,161.38,1.36,24.64,1524,1524,1524,1524
10000_500_200_13_9,0,4,0,1299,2000,0.68,157.22,1.27,24.51,1718,1718,1718,1718
1000_500_250_13_0,0,130,2,2076,2000,0.14,18.69,1.2,16.73,2130,2130,2130,2130
1000_500_250_13_1,0,0,45,1999,2000,0.14,11.85,1.07,14.84,2000,2000,2000,2000
1000_500_250_13_2,0,0,0,2000,2000,0.12,15.79,1.06,14.99,2000,2000,2000,2000
1000_500_250_13_3,0,7,3,1999,2000,0.13,16.91,1.08,15.25,2007,2007,2007,2007
1000_500_250_13_4,0,65,1,2002,2000,0.16,13.39,1.11,15.19,2065,2065,2065,2065
1000_500_250_13_5,0,0,1,2000,2000,0.1,12.24,0.99,13.56,2000,2000,2000,2000
1000_500_250_13_6,0,0,0,2000,2000,0.1,11.9,0.99,13.98,2000,2000,2000,2000
1000_500_250_13_7,0,0,0,2000,2000,0.12,10.17,0.99,13.79,2000,2000,2000,2000
1000_500_250_13_8,0,1,0,2000,2000,0.13,11.48,0.99,13.85,2001,2001,2001,2001
1000_500_250_13_9,0,0,0,1997,2000,0.08,14.43,0.99,13.85,2000,2000,2000,2000
500_250_100_13_0,0,1,0,1342,2000,0.01,1.65,0.21,3.32,2001,2001,2001,2001
500_250_100_13_1,0,0,0,1723,2000,0.01,2.76,0.21,3.4,2000,2000,2000,2000
500_250_100_13_2,0,0,0,1430,2000,0.02,5.5,0.38,5.26,2000,2000,2000,2000
500_250_100_13_3,0,0,31,1874,2000,0.05,8.42,0.51,6.5,2000,2000,2000,2000
500_250_100_13_4,0,0,0,1847,2000,0.03,6.65,0.36,5.17,2000,2000,2000,2000
500_250_100_13_5,0,0,0,1483,2000,0.03,4.72,0.43,5.88,2000,2000,2000,2000
500_250_100_13_6,0,0,0,1539,2000,0.03,4.6,0.42,5.85,2000,2000,2000,2000
500_250_100_13_7,0,20,0,1654,2000,0.03,3.81,0.51,6.28,2020,2020,2020,2020
500_250_100_13_8,0,9,1,1378,2000,0.03,3.47,0.33,4.84,2009,2009,2009,2009
500_250_100_13_9,0,23,0,1223,2000,0.02,3.71,0.42,5.56,2023,2023,2023,2023
100_75_50_13_0,0,414,1018,2306,2000,0.01,0.61,0.05,0.58,2414,2414,2414,2414
100_75_50_13_1,0,9,338,1948,2000,0.0,0.41,0.04,0.49,2009,2009,2009,2009
100_75_50_13_2,0,2,85,1935,2000,0.0,0.48,0.04,0.49,2002,2002,2002,2002
100_75_50_13_3,0,0,292,1803,2000,0.0,0.5,0.05,0.5,2000,2000,2000,2000
100_75_50_13_4,0,1,764,1965,2000,0.01,0.63,0.05,0.53,2001,2001,2001,2001
100_75_50_13_5,0,0,0,1386,2000,0.0,0.32,0.04,0.48,2000,2000,2000,2000
100_75_50_13_6,0,1,36,1501,2000,0.0,0.27,0.04,0.46,2001,2001,2001,2001
100_75_50_13_7,0,0,8,1823,2000,0.0,0.46,0.04,0.47,2000,2000,2000,2000
100_75_50_13_8,0,0,4,1429,2000,0.0,0.39,0.04,0.47,2000,2000,2000,2000
100_75_50_13_9,0,0,80,1661,2000,0.01,0.34,0.05,0.52,2000,2000,2000,2000
10000_500_200_17_0,20,4,853,1305,2000,0.87,172.27,1.53,13.97,1322,1322,1322,1322
10000_500_200_17_1,15,27,924,1412,2000,0.76,173.42,1.44,13.69,1429,1429,1429,1429
10000_500_200_17_2,15,0,856,1314,2000,0.91,174.73,1.57,14.4,1325,1325,1325,1325
10000_500_200_17_3,14,16,821,1271,2000,0.94,178.25,1.58,14.15,1291,1291,1291,1291
10000_500_200_17_4,18,3,860,1341,2000,0.98,171.1,1.64,14.72,1354,1354,1354,1354
10000_500_200_17_5,26,3,860,1320,2000,1.02,172.39,1.66,14.76,1339,1339,1339,1339
10000_500_200_17_6,11,0,866,1327,2000,0.95,175.49,1.55,14.14,1335,1335,1335,1335
10000_500_200_17_7,14,6,850,1333,2000,0.83,173.49,1.53,14.18,1353,1353,1353,1353
10000_500_200_17_8,16,1,809,1288,2000,0.78,176.41,1.45,13.6,1302,1302,1302,1302
10000_500_200_17_9,10,12,853,1329,2000,0.81,177.36,1.5,13.85,1344,1344,1344,1344
1000_500_250_17_0,33,165,1394,2166,2000,0.1,5.69,1.71,16.35,2198,2198,2198,2198
1000_500_250_17_1,29,0,1390,2008,2000,0.12,6.93,1.9,17.39,2029,2029,2029,2029
1000_500_250_17_2,44,0,1362,2010,2000,0.13,7.73,1.74,15.8,2044,2044,2044,2044
1000_500_250_17_3,17,6,1286,2007,2000,0.07,6.41,1.38,13.5,2023,2023,2023,2023
1000_500_250_17_4,22,80,1433,2046,2000,0.09,5.52,1.47,14.26,2101,2101,2101,2101
1000_500_250_17_5,26,3,1275,2006,2000,0.06,5.02,1.32,13.14,2029,2029,2029,2029
1000_500_250_17_6,21,1,1317,2009,2000,0.07,4.85,1.32,12.95,2022,2022,2022,2022
1000_500_250_17_7,40,0,1389,2008,2000,0.07,3.21,1.08,11.08,2040,2040,2040,2040
1000_500_250_17_8,24,0,1302,2004,2000,0.06,3.87,1.07,11.01,2024,2024,2024,2024
1000_500_250_17_9,27,0,1350,2010,2000,0.06,3.59,0.99,10.19,2027,2027,2027,2027
500_250_100_17_0,119,18,1570,2013,2000,0.02,0.81,0.22,2.59,2134,2134,2134,2134
500_250_100_17_1,103,0,1538,1994,2000,0.05,2.27,0.51,4.66,2103,2103,2103,2103
500_250_100_17_2,110,0,1526,1998,2000,0.05,2.28,0.45,4.33,2110,2110,2110,2110
500_250_100_17_3,105,6,1539,2014,2000,0.04,2.25,0.42,4.31,2111,2111,2111,2111
500_250_100_17_4,117,0,1502,1998,2000,0.04,2.16,0.45,4.34,2117,2117,2117,2117
500_250_100_17_5,97,0,1545,1999,2000,0.04,2.04,0.42,4.25,2097,2097,2097,2097
500_250_100_17_6,124,0,1525,1989,2000,0.03,1.92,0.44,4.31,2124,2124,2124,2124
500_250_100_17_7,129,71,1564,2061,2000,0.04,1.29,0.35,3.72,2200,2200,2200,2200
500_250_100_17_8,110,65,1593,2039,2000,0.06,2.04,0.6,4.83,2174,2174,2174,2174
500_250_100_17_9,116,129,1555,2038,2000,0.04,1.39,0.38,4.01,2235,2235,2235,2235
100_75_50_17_0,316,91,1734,1887,2000,0.01,0.26,0.05,0.36,2391,2391,2391,2391
100_75_50_17_1,198,82,1608,1891,2000,0.01,0.32,0.05,0.35,2272,2272,2272,2272
100_75_50_17_2,209,109,1608,1903,2000,0.01,0.23,0.05,0.38,2318,2318,2318,2318
100_75_50_17_3,256,105,1580,1893,2000,0.01,0.33,0.05,0.36,2359,2359,2359,2359
100_75_50_17_4,583,118,1751,1891,2000,0.01,0.36,0.06,0.39,2670,2670,2670,2670
100_75_50_17_5,383,373,1917,2133,2000,0.01,0.22,0.06,0.41,2752,2752,2752,2752
100_75_50_17_6,855,89,1947,2008,2000,0.01,0.26,0.07,0.42,2919,2919,2919,2919
100_75_50_17_7,411,331,1711,2013,2000,0.01,0.31,0.06,0.4,2701,2701,2701,2701
100_75_50_17_8,643,92,1724,1892,2000,0.01,0.33,0.06,0.39,2692,2692,2692,2692
100_75_50_17_9,767,30,1858,1876,2000,0.01,0.24,0.06,0.39,2781,2781,2781,2781
10000_500_200_21_0,225,8,1060,1300,2000,2.95,190.59,1.72,14.09,1464,1464,1464,1464
10000_500_200_21_1,197,43,1087,1305,2000,2.92,193.49,1.73,13.92,1444,1444,1444,1444
10000_500_200_21_2,208,0,1068,1299,2000,2.84,192.13,1.7,13.78,1450,1450,1450,1450
10000_500_200_21_3,195,27,1067,1295,2000,2.77,195.34,1.63,13.33,1442,1442,1442,1442
10000_500_200_21_4,209,18,1108,1306,2000,2.82,193.35,1.65,13.43,1464,1464,1464,1464
10000_500_200_21_5,222,16,1078,1277,2000,2.87,199.41,1.61,13.18,1444,1444,1444,1444
10000_500_200_21_6,196,0,1080,1308,2000,2.85,191.56,1.68,13.67,1448,1448,1448,1448
10000_500_200_21_7,244,10,1076,1293,2000,2.89,197.5,1.59,13.09,1484,1484,1484,1484
10000_500_200_21_8,238,2,1060,1292,2000,2.77,193.06,1.58,13.06,1473,1473,1473,1473
10000_500_200_21_9,256,26,1202,1428,2000,2.74,191.89,1.58,13.23,1618,1618,1618,1618
1000_500_250_21_0,350,167,1910,2250,2000,0.35,5.3,1.8,16.27,2505,2505,2505,2505
1000_500_250_21_1,372,0,1792,2133,2000,0.36,5.17,1.74,15.56,2372,2372,2372,2372
1000_500_250_21_2,396,40,1775,2133,2000,0.31,5.04,1.42,13.21,2407,2407,2407,2407
1000_500_250_21_3,221,22,1682,2082,2000,0.18,3.86,1.18,11.36,2240,2240,2240,2240
1000_500_250_21_4,439,133,1814,2205,2000,0.32,4.62,1.47,13.76,2538,2538,2538,2538
1000_500_250_21_5,510,6,1834,2218,2000,0.28,3.91,1.33,12.69,2515,2515,2515,2515
1000_500_250_21_6,242,9,1636,2090,2000,0.18,3.46,1.19,11.45,2250,2250,2250,2250
1000_500_250_21_7,325,0,1783,2092,2000,0.21,2.96,1.14,10.93,2325,2325,2325,2325
1000_500_250_21_8,391,2,1757,2125,2000,0.23,3.5,1.17,12.12,2393,2393,2393,2393
1000_500_250_21_9,365,4,1801,2115,2000,0.24,3.53,1.15,11.07,2369,2369,2369,2369
500_250_100_21_0,342,45,1696,2013,2000,0.14,1.68,0.51,4.41,2370,2370,2370,2370
500_250_100_21_1,217,0,1633,1966,2000,0.1,1.86,0.41,3.79,2217,2217,2217,2217
500_250_100_21_2,340,2,1629,1973,2000,0.13,2.03,0.47,4.23,2342,2342,2342,2342
500_250_100_21_3,129,16,1629,1960,2000,0.07,1.88,0.43,3.94,2145,2145,2145,2145
500_250_100_21_4,181,0,1652,1986,2000,0.1,1.9,0.44,4.01,2181,2181,2181,2181
500_250_100_21_5,288,0,1711,1976,2000,0.15,2.35,0.53,4.73,2288,2288,2288,2288
500_250_100_21_6,408,0,1706,1973,2000,0.15,1.87,0.5,4.38,2408,2408,2408,2408
500_250_100_21_7,471,102,1897,2070,2000,0.18,1.87,0.54,4.61,2550,2550,2550,2550
500_250_100_21_8,205,93,1666,2020,2000,0.11,1.89,0.45,4.08,2282,2282,2282,2282
500_250_100_21_9,263,158,1650,2022,2000,0.11,1.36,0.39,3.73,2386,2386,2386,2386
100_75_50_21_0,17,26,1995,1808,2000,0.0,0.19,0.05,0.22,2043,2043,2043,2043
100_75_50_21_1,18,24,2019,1807,2000,0.0,0.16,0.05,0.21,2039,2039,2039,2039
100_75_50_21_2,20,36,2035,1796,2000,0.0,0.12,0.04,0.17,2054,2054,2054,2054
100_75_50_21_3,35,381,2335,2186,2000,0.01,0.23,0.05,0.24,2416,2416,2416,2416
100_75_50_21_4,5,135,2049,1825,2000,0.0,0.14,0.04,0.18,2140,2140,2140,2140
100_75_50_21_5,8,439,2347,2002,2000,0.0,0.12,0.04,0.19,2447,2447,2447,2447
100_75_50_21_6,0,66,2045,1752,2000,0.0,0.15,0.04,0.22,2066,2066,2066,2066
100_75_50_21_7,15,250,2194,1939,2000,0.0,0.2,0.05,0.23,2264,2264,2264,2264
100_75_50_21_8,2,118,2066,1835,2000,0.0,0.18,0.04,0.21,2119,2119,2119,2119
100_75_50_21_9,0,91,2051,1794,2000,0.0,0.17,0.05,0.23,2091,2091,2091,2091
10000_500_200_25_0,0,0,0,975,2000,0.78,178.2,1.54,25.67,1249,1249,1249,1249
10000_500_200_25_1,0,1,0,972,2000,0.76,179.24,1.46,25.19,1261,1261,1261,1261
10000_500_200_25_2,0,0,0,1019,2000,0.73,177.97,1.49,25.5,1327,1327,1327,1327
10000_500_200_25_3,0,12,0,1296,2000,0.67,157.69,1.3,24.62,1695,1695,1695,1695
10000_500_200_25_4,0,0,0,1323,2000,0.73,156.12,1.27,24.54,1695,1695,1695,1695
10000_500_200_25_5,0,5,0,1524,2000,0.63,142.69,1.24,24.32,1927,1927,1927,1927
10000_500_200_25_6,0,0,0,1560,2000,0.57,136.31,1.17,23.65,2000,2000,2000,2000
10000_500_200_25_7,0,0,0,1582,2000,0.51,137.92,1.15,23.37,2000,2000,2000,2000
10000_500_200_25_8,0,0,0,1576,2000,0.52,136.15,1.15,23.44,2000,2000,2000,2000
10000_500_200_25_9,0,4,0,1536,2000,0.51,142.0,1.16,23.47,2004,2004,2004,2004
1000_500_250_25_0,0,130,2,2076,2000,0.13,16.28,1.05,14.75,2130,2130,2130,2130
1000_500_250_25_1,0,0,45,1999,2000,0.13,10.64,0.96,13.27,2000,2000,2000,2000
1000_500_250_25_2,0,0,0,2000,2000,0.1,13.12,0.89,12.53,2000,2000,2000,2000
1000_500_250_25_3,0,7,3,1999,2000,0.11,14.17,0.9,12.74,2007,2007,2007,2007
1000_500_250_25_4,0,65,1,2002,2000,0.13,10.95,0.92,12.79,2065,2065,2065,2065
1000_500_250_25_5,0,0,1,2000,2000,0.09,11.04,0.89,12.24,2000,2000,2000,2000
1000_500_250_25_6,0,0,0,2000,2000,0.09,10.7,0.89,12.62,2000,2000,2000,2000
1000_500_250_25_7,0,0,0,2000,2000,0.11,9.16,0.89,12.46,2000,2000,2000,2000
1000_500_250_25_8,0,1,0,2000,2000,0.12,10.35,0.89,12.47,2001,2001,2001,2001
1000_500_250_25_9,0,0,0,1997,2000,0.14,24.73,1.62,21.01,2000,2000,2000,2000
500_250_100_25_0,0,1,0,1342,2000,0.02,2.87,0.38,5.2,2001,2001,2001,2001
500_250_100_25_1,0,0,0,1723,2000,0.03,5.48,0.46,6.09,2000,2000,2000,2000
500_250_100_25_2,0,0,0,1430,2000,0.02,6.38,0.43,5.85,2000,2000,2000,2000
500_250_100_25_3,0,0,31,1874,2000,0.05,7.66,0.42,5.92,2000,2000,2000,2000
500_250_100_25_4,0,0,0,1847,2000,0.04,7.93,0.43,5.96,2000,2000,2000,2000
500_250_100_25_5,0,0,0,1483,2000,0.02,3.6,0.32,4.7,2000,2000,2000,2000
500_250_100_25_6,0,0,0,1539,2000,0.02,4.1,0.37,5.31,2000,2000,2000,2000
500_250_100_25_7,0,20,0,1654,2000,0.02,3.02,0.36,5.04,2020,2020,2020,2020
500_250_100_25_8,0,9,1,1378,2000,0.03,4.48,0.43,5.93,2009,2009,2009,2009
500_250_100_25_9,0,23,0,1223,2000,0.01,2.94,0.32,4.66,2023,2023,2023,2023
100_75_50_25_0,0,414,1018,2306,2000,0.01,0.32,0.03,0.37,2414,2414,2414,2414
100_75_50_25_1,0,9,338,1948,2000,0.0,0.28,0.03,0.37,2009,2009,2009,2009
100_75_50_25_2,0,2,85,1935,2000,0.0,0.47,0.04,0.49,2002,2002,2002,2002
100_75_50_25_3,0,0,292,1803,2000,0.0,0.4,0.04,0.42,2000,2000,2000,2000
100_75_50_25_4,0,1,764,1965,2000,0.01,0.58,0.05,0.47,2001,2001,2001,2001
100_75_50_25_5,0,0,0,1386,2000,0.0,0.19,0.03,0.33,2000,2000,2000,2000
100_75_50_25_6,0,1,36,1501,2000,0.0,0.15,0.03,0.32,2001,2001,2001,2001
100_75_50_25_7,0,0,8,1823,2000,0.0,0.28,0.03,0.34,2000,2000,2000,2000
100_75_50_25_8,0,0,4,1429,2000,0.0,0.24,0.03,0.35,2000,2000,2000,2000
100_75_50_25_9,0,0,80,1661,2000,0.0,0.32,0.05,0.5,2000,2000,2000,2000
10000_500_200_29_0,20,4,835,1277,2000,0.96,175.01,1.59,14.38,1294,1294,1294,1294
10000_500_200_29_1,15,23,869,1315,2000,0.84,174.6,1.54,14.18,1331,1331,1331,1331
10000_500_200_29_2,15,0,881,1357,2000,0.81,175.74,1.46,13.67,1368,1368,1368,1368
10000_500_200_29_3,15,16,848,1310,2000,0.85,175.27,1.55,14.19,1330,1330,1330,1330
10000_500_200_29_4,18,3,912,1424,2000,0.83,171.15,1.46,13.81,1437,1437,1437,1437
10000_500_200_29_5,28,3,1057,1641,2000,0.76,160.69,1.34,13.45,1662,1662,1662,1662
10000_500_200_29_6,18,0,1136,1759,2000,0.77,154.44,1.3,13.39,1771,1771,1771,1771
10000_500_200_29_7,18,7,1185,1842,2000,0.67,148.31,1.26,13.22,1866,1866,1866,1866
10000_500_200_29_8,22,1,1267,1956,2000,0.66,138.47,1.22,13.05,1975,1975,1975,1975
10000_500_200_29_9,21,17,1286,1991,2000,0.67,141.71,1.23,13.27,2017,2017,2017,2017
1000_500_250_29_0,33,165,1394,2166,2000,0.06,3.56,1.14,11.61,2198,2198,2198,2198
1000_500_250_29_1,29,0,1390,2008,2000,0.06,3.49,1.04,10.61,2029,2029,2029,2029
1000_500_250_29_2,44,0,1362,2010,2000,0.07,4.59,1.06,10.85,2044,2044,2044,2044
1000_500_250_29_3,17,6,1286,2007,2000,0.05,4.31,0.99,10.22,2023,2023,2023,2023
1000_500_250_29_4,22,80,1433,2046,2000,0.06,3.64,1.02,10.59,2101,2101,2101,2101
1000_500_250_29_5,26,3,1275,2006,2000,0.04,3.52,0.99,10.24,2029,2029,2029,2029
1000_500_250_29_6,21,1,1317,2009,2000,0.05,3.46,0.98,10.2,2022,2022,2022,2022
1000_500_250_29_7,40,0,1389,2008,2000,0.13,5.84,1.81,16.93,2040,2040,2040,2040
1000_500_250_29_8,24,0,1302,2004,2000,0.11,7.16,1.78,16.58,2024,2024,2024,2024
1000_500_250_29_9,27,0,1350,2010,2000,0.12,7.53,1.83,17.2,2027,2027,2027,2027
500_250_100_29_0,119,18,1570,2013,2000,0.04,1.57,0.4,4.1,2134,2134,2134,2134
500_250_100_29_1,103,0,1538,1994,2000,0.03,1.58,0.32,3.45,2103,2103,2103,2103
500_250_100_29_2,110,0,1526,1998,2000,0.03,1.64,0.32,3.41,2110,2110,2110,2110
500_250_100_29_3,105,6,1539,2014,2000,0.03,2.04,0.39,3.97,2111,2111,2111,2111
500_250_100_29_4,117,0,1502,1998,2000,0.04,2.15,0.43,4.29,2117,2117,2117,2117
500_250_100_29_5,97,0,1545,1999,2000,0.04,2.03,0.54,4.58,2097,2097,2097,2097
500_250_100_29_6,124,0,1525,1989,2000,0.03,1.36,0.31,3.38,2124,2124,2124,2124
500_250_100_29_7,129,71,1564,2061,2000,0.03,1.32,0.37,3.81,2200,2200,2200,2200
500_250_100_29_8,110,65,1593,2039,2000,0.03,1.43,0.31,3.42,2174,2174,2174,2174
500_250_100_29_9,116,129,1555,2038,2000,0.02,0.88,0.25,2.94,2235,2235,2235,2235
100_75_50_29_0,316,91,1734,1887,2000,0.01,0.28,0.05,0.34,2391,2391,2391,2391
100_75_50_29_1,198,82,1608,1891,2000,0.0,0.19,0.04,0.26,2272,2272,2272,2272
100_75_50_29_2,209,109,1608,1903,2000,0.0,0.13,0.03,0.24,2318,2318,2318,2318
100_75_50_29_3,256,105,1580,1893,2000,0.0,0.19,0.04,0.26,2359,2359,2359,2359
100_75_50_29_4,583,118,1751,1891,2000,0.01,0.19,0.04,0.27,2670,2670,2670,2670
100_75_50_29_5,383,373,1917,2133,2000,0.01,0.13,0.04,0.27,2752,2752,2752,2752
100_75_50_29_6,855,89,1947,2008,2000,0.01,0.14,0.04,0.28,2919,2919,2919,2919
100_75_50_29_7,411,331,1711,2013,2000,0.01,0.32,0.06,0.4,2701,2701,2701,2701
100_75_50_29_8,643,92,1724,1892,2000,0.01,0.39,0.07,0.45,2692,2692,2692,2692
100_75_50_29_9,767,30,1858,1876,2000,0.01,0.25,0.06,0.41,2781,2781,2781,2781
10000_500_200_33_0,241,9,1124,1373,2000,2.75,191.7,1.57,13.13,1550,1550,1550,1550
10000_500_200_33_1,197,44,1099,1317,2000,2.73,195.32,1.63,13.29,1456,1456,1456,1456
10000_500_200_33_2,218,0,1102,1345,2000,2.64,195.5,1.58,13.07,1501,1501,1501,1501
10000_500_200_33_3,228,30,1268,1531,2000,2.59,182.3,1.52,12.89,1703,1703,1703,1703
10000_500_200_33_4,269,20,1384,1645,2000,2.57,177.78,1.47,12.85,1846,1846,1846,1846
10000_500_200_33_5,329,20,1534,1807,2000,2.65,168.92,1.44,12.93,2058,2058,2058,2058
10000_500_200_33_6,296,0,1557,1900,2000,2.37,162.52,1.39,12.8,2114,2114,2114,2114
10000_500_200_33_7,375,16,1647,1988,2000,2.53,159.17,1.4,12.99,2272,2272,2272,2272
10000_500_200_33_8,363,4,1722,2087,2000,2.29,153.47,1.34,12.57,2366,2366,2366,2366
10000_500_200_33_9,374,40,1783,2117,2000,2.33,155.89,1.35,12.69,2394,2394,2394,2394
1000_500_250_33_0,350,167,1910,2250,2000,0.22,3.37,1.23,11.78,2505,2505,2505,2505
1000_500_250_33_1,372,0,1792,2133,2000,0.23,3.26,1.16,11.12,2372,2372,2372,2372
1000_500_250_33_2,396,40,1775,2133,2000,0.25,4.09,1.17,11.28,2407,2407,2407,2407
1000_500_250_33_3,221,22,1682,2082,2000,0.16,3.56,1.09,10.54,2240,2240,2240,2240
1000_500_250_33_4,439,133,1814,2205,2000,0.26,3.85,1.23,11.88,2538,2538,2538,2538
1000_500_250_33_5,510,6,1834,2218,2000,0.25,3.49,1.19,11.32,2515,2515,2515,2515
1000_500_250_33_6,242,9,1636,2090,2000,0.41,6.83,2.53,19.06,2250,2250,2250,2250
1000_500_250_33_7,325,0,1783,2092,2000,0.46,6.12,2.33,18.76,2325,2325,2325,2325
1000_500_250_33_8,391,2,1757,2125,2000,0.45,6.9,2.14,18.27,2393,2393,2393,2393
1000_500_250_33_9,365,4,1801,2115,2000,0.42,6.29,1.95,16.87,2369,2369,2369,2369
500_250_100_33_0,342,45,1696,2013,2000,0.13,1.73,0.48,4.25,2370,2370,2370,2370
500_250_100_33_1,217,0,1633,1966,2000,0.09,1.86,0.4,3.74,2217,2217,2217,2217
500_250_100_33_2,340,2,1629,1973,2000,0.12,2.0,0.47,4.17,2342,2342,2342,2342
500_250_100_33_3,129,16,1629,1960,2000,0.04,1.06,0.25,2.67,2145,2145,2145,2145
500_250_100_33_4,181,0,1652,1986,2000,0.06,1.2,0.28,2.9,2181,2181,2181,2181
500_250_100_33_5,288,0,1711,1976,2000,0.1,1.65,0.37,3.53,2288,2288,2288,2288
500_250_100_33_6,408,0,1706,1973,2000,0.08,1.06,0.26,2.81,2408,2408,2408,2408
500_250_100_33_7,471,102,1897,2070,2000,0.09,0.99,0.28,2.96,2550,2550,2550,2550
500_250_100_33_8,205,93,1666,2020,2000,0.08,1.3,0.37,3.22,2282,2282,2282,2282
500_250_100_33_9,263,158,1650,2022,2000,0.07,0.83,0.24,2.61,2386,2386,2386,2386
100_75_50_33_0,17,26,1995,1808,2000,0.0,0.11,0.03,0.15,2043,2043,2043,2043
100_75_50_33_1,18,24,2019,1807,2000,0.0,0.1,0.03,0.15,2039,2039,2039,2039
100_75_50_33_2,20,36,2035,1796,2000,0.0,0.1,0.03,0.15,2054,2054,2054,2054
100_75_50_33_3,35,381,2335,2186,2000,0.0,0.12,0.03,0.16,2416,2416,2416,2416
100_75_50_33_4,5,135,2049,1825,2000,0.0,0.11,0.03,0.16,2140,2140,2140,2140
100_75_50_33_5,8,439,2347,2002,2000,0.0,0.1,0.03,0.16,2447,2447,2447,2447
100_75_50_33_6,0,66,2045,1752,2000,0.0,0.17,0.05,0.24,2066,2066,2066,2066
100_75_50_33_7,15,250,2194,1939,2000,0.0,0.21,0.05,0.24,2264,2264,2264,2264
100_75_50_33_8,2,118,2066,1835,2000,0.0,0.19,0.04,0.23,2119,2119,2119,2119
100_75_50_33_9,0,91,2051,1794,2000,0.0,0.16,0.05,0.24,2091,2091,2091,2091
Falkenauer_u120_03,66,7165,38,5658,2000,0.01,0.25,0.02,0.2,9189,9189,9189,9189
Falkenauer_t501_05,0,858,2025,2858,2000,0.01,0.13,0.18,3.65,2858,2858,2858,2858
Falkenauer_u120_07,61,9965,44,4832,2000,0.02,0.52,0.04,0.42,11982,11982,11982,11982
Falkenauer_u1000_03,821,3536,2876,4881,2000,0.07,2.15,0.81,7.73,5848,5848,5848,5848
Falkenauer_u500_04,574,3674,1657,4946,2000,0.03,0.93,0.19,1.79,5934,5934,5934,5934
Falkenauer_u500_09,348,3249,1397,4833,2000,0.04,1.03,0.21,1.95,5406,5406,5406,5406
Falkenauer_u500_01,456,3708,1310,5174,2000,0.04,1.26,0.24,2.21,5894,5894,5894,5894
Falkenauer_u500_05,1130,4239,1878,5409,2000,0.03,0.96,0.2,1.93,6645,6645,6645,6645
Falkenauer_u120_06,55,8891,13,5764,2000,0.01,0.24,0.02,0.21,10908,10908,10908,10908
Falkenauer_u1000_08,711,4133,3414,5595,2000,0.07,2.26,0.84,7.9,6348,6348,6348,6348
Falkenauer_t120_06,0,1296,1028,3296,2000,0.0,0.13,0.03,0.55,3296,3296,3296,3296
Falkenauer_u1000_01,764,3821,3167,5070,2000,0.07,2.23,0.82,7.81,6075,6075,6075,6075
Falkenauer_u120_00,28,7734,10,5389,2000,0.01,0.37,0.02,0.19,9748,9748,9748,9748
Falkenauer_u120_04,41,7251,22,4988,2000,0.01,0.41,0.02,0.2,9260,9260,9260,9260
Falkenauer_t120_08,0,1959,72,3816,2000,0.01,0.16,0.03,0.62,3959,3959,3959,3959
Falkenauer_u120_01,59,6062,37,4561,2000,0.01,0.33,0.02,0.17,8088,8088,8088,8088
Falkenauer_t501_00,0,1318,2720,3318,2000,0.01,0.49,0.31,5.49,3318,3318,3318,3318
Falkenauer_u1000_05,533,3993,2938,5270,2000,0.07,2.27,0.83,7.89,6165,6165,6165,6165
Falkenauer_t501_01,0,999,2192,2999,2000,0.01,0.13,0.19,3.78,2999,2999,2999,2999
Falkenauer_t120_07,0,650,787,2627,2000,0.0,0.09,0.02,0.41,2650,2650,2650,2650
Falkenauer_u500_03,437,3415,1343,4756,2000,0.03,0.88,0.18,1.69,5551,5551,5551,5551
Falkenauer_t120_01,0,813,685,2788,2000,0.0,0.09,0.02,0.42,2813,2813,2813,2813
Falkenauer_u500_02,1112,3912,1736,5095,2000,0.02,0.65,0.15,1.48,6318,6318,6318,6318
Falkenauer_t501_02,0,1942,1844,3942,2000,0.02,0.75,0.41,7.57,3942,3942,3942,3942
Falkenauer_t120_05,0,1235,362,3208,2000,0.0,0.07,0.02,0.29,3235,3235,3235,3235
Falkenauer_t501_04,0,1828,2328,3828,2000,0.02,0.31,0.4,7.5,3828,3828,3828,3828
Falkenauer_t501_09,0,1840,2189,3839,2000,0.01,0.62,0.37,6.96,3840,3840,3840,3840
Falkenauer_u120_02,89,6067,38,5057,2000,0.01,0.29,0.02,0.15,8093,8093,8093,8093
Falkenauer_u1000_00,506,3197,2759,4851,2000,0.05,1.4,0.53,5.35,5355,5355,5355,5355
Falkenauer_t120_03,0,563,581,2562,2000,0.0,0.05,0.01,0.22,2563,2563,2563,2563
Falkenauer_t120_02,0,1869,864,3771,2000,0.0,0.15,0.03,0.61,3869,3869,3869,3869
Falkenauer_t501_06,0,1718,2068,3711,2000,0.01,0.17,0.23,4.74,3718,3718,3718,3718
Falkenauer_u120_08,38,7535,23,4745,2000,0.02,0.54,0.03,0.33,9547,9547,9547,9547
Falkenauer_u1000_06,786,4551,3253,5775,2000,0.05,1.76,0.7,6.89,6822,6822,6822,6822
Falkenauer_u1000_09,650,4396,3293,5499,2000,0.06,1.76,0.67,6.69,6614,6614,6614,6614
Falkenauer_u500_07,581,4594,1689,5714,2000,0.04,1.17,0.24,2.2,6763,6763,6763,6763
Falkenauer_u1000_07,412,2982,2753,4664,2000,0.07,1.88,0.7,6.66,5118,5118,5118,5118
Falkenauer_t501_03,0,2098,2037,4095,2000,0.01,0.18,0.22,4.51,4098,4098,4098,4098
Falkenauer_t120_00,0,197,1057,2197,2000,0.0,0.07,0.02,0.37,2197,2197,2197,2197
Falkenauer_u1000_02,726,5339,3461,6689,2000,0.08,2.59,0.96,9.26,7501,7501,7501,7501
Falkenauer_t501_08,0,2195,2303,4193,2000,0.02,0.37,0.49,8.81,4195,4195,4195,4195
Falkenauer_u500_06,1047,3893,1384,5233,2000,0.03,1.32,0.26,2.41,6305,6305,6305,6305
Falkenauer_u500_00,202,2471,1440,4241,2000,0.02,0.47,0.1,1.02,4545,4545,4545,4545
Falkenauer_t501_07,0,1390,1906,3390,2000,0.01,0.21,0.29,5.63,3390,3390,3390,3390
Falkenauer_u120_05,53,6608,36,5229,2000,0.01,0.34,0.02,0.18,8634,8634,8634,8634
Falkenauer_u120_09,20,8060,8,6055,2000,0.02,0.4,0.03,0.32,10065,10065,10065,10065
Falkenauer_t120_04,0,1574,5,3509,2000,0.0,0.08,0.02,0.32,3574,3574,3574,3574
Falkenauer_t120_09,0,611,425,2609,2000,0.0,0.08,0.02,0.39,2611,2611,2611,2611
Falkenauer_u1000_04,376,2480,2665,4225,2000,0.05,1.2,0.48,4.76,4619,4619,4619,4619
Falkenauer_u500_08,450,4882,1528,5285,2000,0.04,1.33,0.27,2.46,7009,7009,7009,7009
