instances,callsChange,callsChangeRemovedBIT,callsAdd,callsAddRemovedBIT,iteracoes
10000_500_200_2_0,2009674630,2009602487,32132948,6737782,1500
10000_500_200_2_1,2087385935,2087342041,31980902,6572978,1500
10000_500_200_2_2,1805397217,1805239109,32653821,6323946,1500
10000_500_200_2_3,2075671982,2075542900,33864917,6622722,1500
10000_500_200_2_4,2123316242,2123275844,33015805,6651925,1500
10000_500_200_2_5,2024427861,2024382826,31364290,6503959,1500
10000_500_200_2_6,1915991560,1915829697,33274614,6949094,1500
10000_500_200_2_7,2031323133,2031209035,34050855,6741681,1500
10000_500_200_2_8,2341167243,2341140252,35430473,7272353,1500
10000_500_200_2_9,2279717183,2279682670,34718634,6983503,1500
1000_500_250_2_0,637362094,636168786,13748904,2311663,1500
1000_500_250_2_1,603508116,602588288,12606419,2528051,1500
1000_500_250_2_2,581970256,580944013,12164314,2180263,1500
1000_500_250_2_3,737910096,737021253,13875002,2841400,1500
1000_500_250_2_4,560379167,559632968,11302126,2257718,1500
1000_500_250_2_5,693962854,693609566,12093218,2353668,1500
1000_500_250_2_6,474858959,473835742,11274572,2350362,1500
1000_500_250_2_7,509492555,508505446,11334672,2223166,1500
1000_500_250_2_8,748925294,748117819,13786428,2787585,1500
1000_500_250_2_9,577257635,576280927,12038307,2251169,1500
500_250_100_2_0,159183498,158954995,5332864,1699773,1500
500_250_100_2_1,79772003,79615167,3040195,857342,1500
500_250_100_2_2,167782136,167334735,6202754,1934038,1500
500_250_100_2_3,119248997,119027464,4601156,1055472,1500
500_250_100_2_4,183870123,182972240,7734051,2083698,1500
500_250_100_2_5,158132833,157621774,5807505,1598143,1500
500_250_100_2_6,186579361,185686903,7782835,2139109,1500
500_250_100_2_7,129937546,129821065,4474771,1379913,1500
500_250_100_2_8,175393444,174795331,6831769,1722804,1500
500_250_100_2_9,171022643,170617706,6228380,1921176,1500
100_75_50_2_0,6000766,5935017,703358,347927,1500
100_75_50_2_1,4430756,4414994,483432,246635,1500
100_75_50_2_2,9110179,8986260,898105,437107,1500
100_75_50_2_3,6019785,6008847,626556,319144,1500
100_75_50_2_4,6240528,6161941,699044,350213,1500
100_75_50_2_5,5379727,5326909,663544,373239,1500
100_75_50_2_6,8194140,8083956,854081,393273,1500
100_75_50_2_7,6836220,6806012,688248,327115,1500
100_75_50_2_8,5410921,5342679,626997,311464,1500
100_75_50_2_9,6326930,6291623,649137,363320,1500
10000_500_200_3_0,1376588042,1376588042,24048126,0,1500
10000_500_200_3_1,1451295561,1451295561,25937655,0,1500
10000_500_200_3_2,1528643442,1528643442,26965330,0,1500
10000_500_200_3_3,1445021399,1445021399,26303478,0,1500
10000_500_200_3_4,1474642809,1474642809,26470901,0,1500
10000_500_200_3_5,1411016996,1411016996,25792415,0,1500
10000_500_200_3_6,1431192219,1431192219,25413875,0,1500
10000_500_200_3_7,1489755104,1489755104,26520902,0,1500
10000_500_200_3_8,1538152194,1538152194,27442030,0,1500
10000_500_200_3_9,1625400450,1625400450,28746003,0,1500
1000_500_250_3_0,486853520,486853520,9366748,0,1500
1000_500_250_3_1,439624183,439624183,8225941,0,1500
1000_500_250_3_2,495517344,495517344,9183325,0,1500
1000_500_250_3_3,431419705,431419705,7977668,0,1500
1000_500_250_3_4,496357439,496356800,9117093,0,1500
1000_500_250_3_5,379988200,379988200,7548959,0,1500
1000_500_250_3_6,473800678,473800678,8996966,0,1500
1000_500_250_3_7,430907933,430907933,8184692,0,1500
1000_500_250_3_8,496205255,496205255,9196913,0,1500
1000_500_250_3_9,461613943,461613943,8872067,0,1500
500_250_100_3_0,111338985,111338985,4096391,0,1500
500_250_100_3_1,97553860,97552903,3680516,0,1500
500_250_100_3_2,109450539,109450539,4138760,0,1500
500_250_100_3_3,117921889,117917550,4365560,0,1500
500_250_100_3_4,124450947,124450947,4571179,0,1500
500_250_100_3_5,110907401,110906862,4164853,0,1500
500_250_100_3_6,121688206,121688206,4406203,0,1500
500_250_100_3_7,120671210,120670981,4573525,0,1500
500_250_100_3_8,125078656,125078656,4485010,0,1500
500_250_100_3_9,137305762,137305762,4780235,0,1500
100_75_50_3_0,5541105,5541105,647436,14681,1500
100_75_50_3_1,5616069,5615926,660747,28841,1500
100_75_50_3_2,7794427,7792324,843135,277,1500
100_75_50_3_3,7241004,7236996,818064,86,1500
100_75_50_3_4,5768744,5767453,697695,7503,1500
100_75_50_3_5,6449182,6449182,765145,208,1500
100_75_50_3_6,5542873,5542873,778361,300,1500
100_75_50_3_7,7064284,7056085,803907,467,1500
100_75_50_3_8,5469245,5469245,653781,16407,1500
100_75_50_3_9,7674870,7674870,775900,1360,1500
10000_500_200_4_0,2076935317,2076935289,31200702,5095520,1500
10000_500_200_4_1,1820736514,1820561951,34771961,5576234,1500
10000_500_200_4_2,2036159548,2036090683,32909751,5201301,1500
10000_500_200_4_3,2205654497,2205647145,33511299,4959497,1500
10000_500_200_4_4,2023544691,2023501669,32072783,5185241,1500
10000_500_200_4_5,2194013417,2194013042,33554313,5471767,1500
10000_500_200_4_6,2186456566,2186454247,32686953,5039529,1500
10000_500_200_4_7,2166864984,2166829037,33414465,5554769,1500
10000_500_200_4_8,2043044875,2043042543,31046787,5035629,1500
10000_500_200_4_9,2217622122,2217616929,32961191,5311970,1500
1000_500_250_4_0,421090576,419658448,11565110,1880183,1500
1000_500_250_4_1,817924351,817180444,15056711,2404972,1500
1000_500_250_4_2,759946109,759819821,12797755,2052463,1500
1000_500_250_4_3,749713928,748817126,15369455,2214923,1500
1000_500_250_4_4,758668975,758400544,12898673,1843759,1500
1000_500_250_4_5,584948971,584693333,10349515,1745301,1500
1000_500_250_4_6,493283017,492043212,12227271,1704955,1500
1000_500_250_4_7,623823214,622923296,12643921,1736449,1500
1000_500_250_4_8,484146336,482880302,11536081,1662190,1500
1000_500_250_4_9,452802657,452184652,10022680,1330865,1500
500_250_100_4_0,134635998,133976996,6147603,1459928,1500
500_250_100_4_1,104797613,104677370,3884587,903684,1500
500_250_100_4_2,110140031,110069016,4115275,996323,1500
500_250_100_4_3,200718423,200610926,6313254,1901906,1500
500_250_100_4_4,193789037,193633784,5953680,1565833,1500
500_250_100_4_5,161060503,160723506,5804559,1440973,1500
500_250_100_4_6,134345135,133651353,6139824,1423367,1500
500_250_100_4_7,145804883,145242894,5877107,1253912,1500
500_250_100_4_8,143290042,143022922,5434572,1281626,1500
500_250_100_4_9,148177825,148048498,5153038,1288860,1500
100_75_50_4_0,6077102,6021292,590215,283702,1500
100_75_50_4_1,5133805,5093206,661222,300893,1500
100_75_50_4_2,7817299,7657344,945339,407705,1500
100_75_50_4_3,5815292,5722092,730415,305051,1500
100_75_50_4_4,6420822,6402810,711119,430414,1500
100_75_50_4_5,7930261,7816591,942618,400586,1500
100_75_50_4_6,7509808,7427435,751632,373922,1500
100_75_50_4_7,8692302,8597861,892058,419357,1500
100_75_50_4_8,5412937,5379354,546331,226583,1500
100_75_50_4_9,4143270,4058619,624636,236383,1500
10000_500_200_6_0,263660412,262462732,38368560,17547517,1500
10000_500_200_6_1,190575210,189357419,32547491,14829084,1500
10000_500_200_6_2,207652239,206544530,34133377,15313845,1500
10000_500_200_6_3,276071304,274766222,32541181,14478720,1500
10000_500_200_6_4,246935184,245744792,37673395,17197692,1500
10000_500_200_6_5,268230102,267178497,32283335,14747550,1500
10000_500_200_6_6,308610930,307253500,37924486,17815302,1500
10000_500_200_6_7,286103207,284878341,38723996,17491145,1500
10000_500_200_6_8,264626491,263401938,34065469,15392385,1500
10000_500_200_6_9,281383833,280415786,32787493,15060143,1500
1000_500_250_6_0,128518125,125870871,12767271,4417606,1500
1000_500_250_6_1,111220700,108559007,12312324,4580789,1500
1000_500_250_6_2,121257946,118694218,12066247,4060181,1500
1000_500_250_6_3,155587975,152660774,13566947,4838492,1500
1000_500_250_6_4,94481826,92508215,10164952,3721884,1500
1000_500_250_6_5,107671794,105204398,11659321,4205206,1500
1000_500_250_6_6,100803448,98268161,11135671,4084345,1500
1000_500_250_6_7,102686603,100150676,12388405,4586141,1500
1000_500_250_6_8,140965730,138245403,12214133,4461988,1500
1000_500_250_6_9,137490279,134559059,13049865,4571577,1500
500_250_100_6_0,45697472,44675096,5557973,2830862,1500
500_250_100_6_1,42321811,41047968,6239148,2951754,1500
500_250_100_6_2,41264820,40174211,5668253,2834614,1500
500_250_100_6_3,37552197,36297418,6363155,2913707,1500
500_250_100_6_4,44396844,42875310,6809758,3105876,1500
500_250_100_6_5,49028690,47841289,6206781,3198814,1500
500_250_100_6_6,36823406,35487342,6296871,2974780,1500
500_250_100_6_7,37445780,36307219,5818019,2810157,1500
500_250_100_6_8,35294121,34018674,6274885,2825185,1500
500_250_100_6_9,44944398,43789561,6104543,3034332,1500
100_75_50_6_0,2633602,2480431,846679,486147,1500
100_75_50_6_1,3700462,3566926,845694,460677,1500
100_75_50_6_2,3834265,3660845,938214,526242,1500
100_75_50_6_3,3722774,3582292,810284,474272,1500
100_75_50_6_4,2629711,2501124,751925,434248,1500
100_75_50_6_5,2864795,2757285,733789,395775,1500
100_75_50_6_6,3654977,3508049,901341,513373,1500
100_75_50_6_7,3503884,3349491,899422,494342,1500
100_75_50_6_8,2888950,2775489,751657,460893,1500
100_75_50_6_9,2956435,2796728,865709,469309,1500
10000_500_200_7_0,164984882,164731556,29181573,0,1500
10000_500_200_7_1,295010283,294727372,29569243,0,1500
10000_500_200_7_2,241204658,240884687,34732310,0,1500
10000_500_200_7_3,267183565,266905330,28331660,0,1500
10000_500_200_7_4,277872211,277660808,28184271,0,1500
10000_500_200_7_5,253754882,253396045,30918992,0,1500
10000_500_200_7_6,265524314,265232199,28623640,0,1500
10000_500_200_7_7,293400632,293119648,30244606,0,1500
10000_500_200_7_8,176586169,176339318,30320473,0,1500
10000_500_200_7_9,264497701,264213988,28476404,0,1500
1000_500_250_7_0,78629629,77732829,10290607,0,1500
1000_500_250_7_1,102864355,102202497,8918484,0,1500
1000_500_250_7_2,106306045,105553198,9817273,0,1500
1000_500_250_7_3,90044362,89374276,8979904,0,1500
1000_500_250_7_4,86481704,85609001,10133873,0,1500
1000_500_250_7_5,53859308,53302067,8127143,0,1500
1000_500_250_7_6,83579037,82820098,9735954,0,1500
1000_500_250_7_7,52295444,51552058,9049252,0,1500
1000_500_250_7_8,82057933,81090055,10265501,0,1500
1000_500_250_7_9,86663011,85877667,9543779,0,1500
500_250_100_7_0,22134743,21827150,4242096,1233,1500
500_250_100_7_1,22041633,21741006,4146330,23743,1500
500_250_100_7_2,37475118,37091005,5045566,2769,1500
500_250_100_7_3,28262743,28015556,4229341,8101,1500
500_250_100_7_4,32553387,32160832,5062851,81,1500
500_250_100_7_5,26090044,25795314,4667245,3313,1500
500_250_100_7_6,28326614,28000704,4943160,2174,1500
500_250_100_7_7,27342261,27114826,4556701,25481,1500
500_250_100_7_8,28697011,28336407,4874608,2609,1500
500_250_100_7_9,26310972,25866911,5046441,7604,1500
100_75_50_7_0,1079672,1011130,701075,85912,1500
100_75_50_7_1,836967,760470,646616,61724,1500
100_75_50_7_2,958402,813724,900449,20309,1500
100_75_50_7_3,954310,843601,821933,25089,1500
100_75_50_7_4,1479734,1370906,913577,80010,1500
100_75_50_7_5,494415,353322,790941,50020,1500
100_75_50_7_6,1139592,1034976,946820,82347,1500
100_75_50_7_7,1044621,945666,755434,32964,1500
100_75_50_7_8,1259250,1190859,823148,74401,1500
100_75_50_7_9,879335,785317,756513,31313,1500
10000_500_200_8_0,226659151,225637386,33009249,12828413,1500
10000_500_200_8_1,196230075,195309739,32580701,12417529,1500
10000_500_200_8_2,225868905,224807362,31455518,11788240,1500
10000_500_200_8_3,178216157,177220313,33485716,12208378,1500
10000_500_200_8_4,237761419,236677365,31570422,12295843,1500
10000_500_200_8_5,218971530,218031889,31789122,12129787,1500
10000_500_200_8_6,196264812,195125659,32897826,12126765,1500
10000_500_200_8_7,249960828,248648884,33959651,13258816,1500
10000_500_200_8_8,242504970,241331021,34116849,13094821,1500
10000_500_200_8_9,220431413,219393033,31950775,12463951,1500
1000_500_250_8_0,97280036,95087801,10799949,3544246,1500
1000_500_250_8_1,135876730,132412160,14554841,3961352,1500
1000_500_250_8_2,110731928,108365844,11843561,3450387,1500
1000_500_250_8_3,104362504,102214186,11524710,3356235,1500
1000_500_250_8_4,102255157,100296573,10386884,2929710,1500
1000_500_250_8_5,86953758,85446655,8760678,3122379,1500
1000_500_250_8_6,98558029,95837236,12894960,3480780,1500
1000_500_250_8_7,113360974,110910106,11303639,3250058,1500
1000_500_250_8_8,81937216,79742604,10789705,3434196,1500
1000_500_250_8_9,81366225,79379081,10470332,3052497,1500
500_250_100_8_0,28091725,27178230,4890972,2027095,1500
500_250_100_8_1,19011121,18057648,4911801,1949250,1500
500_250_100_8_2,29621664,28902198,4643709,2092721,1500
500_250_100_8_3,35614021,34535934,5410288,2665862,1500
500_250_100_8_4,37519570,36425483,5396137,2293875,1500
500_250_100_8_5,31812177,30858388,5241436,2285681,1500
500_250_100_8_6,29364654,28529766,4763162,2168581,1500
500_250_100_8_7,23499021,22401306,5382722,2196590,1500
500_250_100_8_8,23063999,22139167,5338508,2245625,1500
500_250_100_8_9,29268321,28375559,4825285,2036061,1500
100_75_50_8_0,3108967,2998381,736864,409479,1500
100_75_50_8_1,3445441,3270656,912284,424907,1500
100_75_50_8_2,2334622,2176031,779392,346242,1500
100_75_50_8_3,2954707,2835741,726223,417210,1500
100_75_50_8_4,3197766,3053883,851747,489596,1500
100_75_50_8_5,4026180,3822434,990501,466823,1500
100_75_50_8_6,3116304,2979195,772537,378878,1500
100_75_50_8_7,4928965,4739574,894756,444002,1500
100_75_50_8_8,1898763,1811461,622971,314771,1500
100_75_50_8_9,1894317,1752886,760621,369263,1500
10000_500_200_10_0,232661832,230294606,33511131,18081200,1500
10000_500_200_10_1,204371788,201858906,33336912,18456275,1500
10000_500_200_10_2,202292993,199940446,32432308,17564013,1500
10000_500_200_10_3,251806537,249565727,28877730,15831094,1500
10000_500_200_10_4,275183776,272336185,38074102,20801281,1500
10000_500_200_10_5,266707002,264312966,33399099,18475436,1500
10000_500_200_10_6,297361780,294899681,33432323,18668916,1500
10000_500_200_10_7,212318597,210044540,33111868,18164010,1500
10000_500_200_10_8,243767484,241133946,32829069,17915317,1500
10000_500_200_10_9,226638474,224299233,36095715,20209371,1500
1000_500_250_10_0,97839083,95018603,13449930,6011409,1500
1000_500_250_10_1,68507216,65601468,12245732,5452202,1500
1000_500_250_10_2,93954825,90846266,13308329,5537554,1500
1000_500_250_10_3,109908341,106691430,13773496,5906346,1500
1000_500_250_10_4,66550313,64419102,10187302,4512827,1500
1000_500_250_10_5,72971936,70461292,11860892,5398529,1500
1000_500_250_10_6,76965169,74017533,12057432,5269412,1500
1000_500_250_10_7,77723883,75091806,12644877,5716283,1500
1000_500_250_10_8,89371949,86495503,11985933,5372375,1500
1000_500_250_10_9,104402520,101246851,13751299,6179134,1500
500_250_100_10_0,33650918,32572720,5578328,3138873,1500
500_250_100_10_1,38171024,36896111,6441207,3463969,1500
500_250_100_10_2,36920196,35725371,6010816,3264116,1500
500_250_100_10_3,29742091,28350304,6502276,3388356,1500
500_250_100_10_4,34300939,32775664,6707175,3463698,1500
500_250_100_10_5,37262892,36216575,5848786,3550005,1500
500_250_100_10_6,29081155,27763578,6267657,3327138,1500
500_250_100_10_7,24162955,23074585,5427444,2896716,1500
500_250_100_10_8,29152721,27782718,6325805,3275647,1500
500_250_100_10_9,37505864,36201944,6211432,3299197,1500
100_75_50_10_0,2236596,2090730,782947,380540,1500
100_75_50_10_1,2827068,2709376,742188,325483,1500
100_75_50_10_2,2830584,2673830,829809,378713,1500
100_75_50_10_3,3108786,2976400,747844,358867,1500
100_75_50_10_4,2616633,2505104,735707,390342,1500
100_75_50_10_5,2773552,2655617,706085,294971,1500
100_75_50_10_6,2760833,2647310,746042,355419,1500
100_75_50_10_7,3340755,3211167,794247,361809,1500
100_75_50_10_8,2910164,2803166,743199,404421,1500
100_75_50_10_9,2397187,2258575,798352,369079,1500
10000_500_200_11_0,136470943,136293692,31820158,0,1500
10000_500_200_11_1,182408702,182094845,28915600,38902,1500
10000_500_200_11_2,113174108,112913777,29541021,11916,1500
10000_500_200_11_3,180154247,179849554,32336943,1031,1500
10000_500_200_11_4,177074879,176875045,27396096,715,1500
10000_500_200_11_5,150655912,150406000,26488841,6999,1500
10000_500_200_11_6,183073119,182825000,28661041,9787,1500
10000_500_200_11_7,199966377,199731518,27720574,11992,1500
10000_500_200_11_8,124789520,124598407,31067374,3000,1500
10000_500_200_11_9,187023684,186716050,31153244,1198,1500
1000_500_250_11_0,39931294,39188552,9221836,4175,1500
1000_500_250_11_1,58855005,58377067,8034383,1556,1500
1000_500_250_11_2,56966770,56367926,8696405,399,1500
1000_500_250_11_3,48666039,48076874,8264332,2408,1500
1000_500_250_11_4,48120632,47458837,9416656,45,1500
1000_500_250_11_5,33062435,32675220,7457754,365,1500
1000_500_250_11_6,45896887,45409572,8638597,3144,1500
1000_500_250_11_7,31238261,30753867,7937966,2546,1500
1000_500_250_11_8,50015256,49319217,8757989,0,1500
1000_500_250_11_9,46268044,45646152,8758569,0,1500
500_250_100_11_0,13886252,13731092,3615943,105155,1500
500_250_100_11_1,14614485,14450028,3590308,361378,1500
500_250_100_11_2,22282165,22102170,4246289,150824,1500
500_250_100_11_3,16869590,16741962,3630307,285887,1500
500_250_100_11_4,20056432,19864766,4299732,63711,1500
500_250_100_11_5,17454079,17322458,4001235,220251,1500
500_250_100_11_6,17887017,17628426,4395296,116999,1500
500_250_100_11_7,16500291,16386306,3837092,409419,1500
500_250_100_11_8,17131975,16933481,4152305,165173,1500
500_250_100_11_9,15824451,15539141,4195324,220363,1500
100_75_50_11_0,716962,664476,756022,97201,1500
100_75_50_11_1,645874,570255,750849,110010,1500
100_75_50_11_2,861802,781948,851315,120946,1500
100_75_50_11_3,511648,436293,776217,78202,1500
100_75_50_11_4,810600,687200,937712,170383,1500
100_75_50_11_5,311704,217078,813636,45393,1500
100_75_50_11_6,627914,570748,852202,128376,1500
100_75_50_11_7,662411,593318,758982,82711,1500
100_75_50_11_8,602601,563284,742054,143104,1500
100_75_50_11_9,481082,414691,725962,95723,1500
10000_500_200_12_0,197898119,195500363,34542956,16659640,1500
10000_500_200_12_1,161650095,159823798,32077356,15415401,1500
10000_500_200_12_2,207128599,204435174,33966404,15759218,1500
10000_500_200_12_3,160793691,158960891,29455575,13690935,1500
10000_500_200_12_4,173233847,171313078,29282965,14303748,1500
10000_500_200_12_5,172338486,170299562,30100757,14448234,1500
10000_500_200_12_6,194527097,192205964,32261653,14895474,1500
10000_500_200_12_7,237988168,235285678,32906569,15637825,1500
10000_500_200_12_8,189111751,186952898,30744734,14662049,1500
10000_500_200_12_9,217407183,215115692,32967327,15662942,1500
1000_500_250_12_0,57898892,55940396,9374392,3861120,1500
1000_500_250_12_1,75451196,72194446,13115256,4601744,1500
1000_500_250_12_2,59051725,56951455,9947293,3647495,1500
1000_500_250_12_3,57370685,55619551,9949819,3882175,1500
1000_500_250_12_4,57607699,55908175,8936286,3290748,1500
1000_500_250_12_5,61111862,59436391,8906253,3923026,1500
1000_500_250_12_6,64364683,61731083,11639350,4120418,1500
1000_500_250_12_7,65528181,63313342,9920210,3676602,1500
1000_500_250_12_8,50854064,48758284,10075601,4017504,1500
1000_500_250_12_9,59271931,57208370,10336548,3956616,1500
500_250_100_12_0,19993570,19237475,4260429,2057976,1500
500_250_100_12_1,17838718,16766399,5031011,2255999,1500
500_250_100_12_2,18945840,18114566,4676985,2368319,1500
500_250_100_12_3,20249794,19310651,4732191,2581772,1500
500_250_100_12_4,25971822,24996604,4790249,2310935,1500
500_250_100_12_5,22033782,21224178,4796483,2357358,1500
500_250_100_12_6,18598498,17829514,4147872,2079062,1500
500_250_100_12_7,19097393,17949059,5271286,2442509,1500
500_250_100_12_8,16242297,15500773,4321130,2116559,1500
500_250_100_12_9,16932851,16013512,4483779,2166923,1500
100_75_50_12_0,2525788,2435020,648663,312529,1500
100_75_50_12_1,2834771,2688689,848506,362014,1500
100_75_50_12_2,1457834,1347262,631186,209256,1500
100_75_50_12_3,2537048,2439367,667228,360670,1500
100_75_50_12_4,2668696,2558421,730850,386415,1500
100_75_50_12_5,2429728,2265739,707054,243308,1500
100_75_50_12_6,2276249,2175181,634068,277600,1500
100_75_50_12_7,4083628,3964692,729120,339053,1500
100_75_50_12_8,1612899,1528227,570210,228680,1500
100_75_50_12_9,1512466,1414643,619098,277139,1500
10000_500_200_14_0,2056567075,2056488658,33047082,6933921,1500
10000_500_200_14_1,2380213026,2380164044,36434853,7493284,1500
10000_500_200_14_2,1810148551,1809990443,32712927,6337291,1500
10000_500_200_14_3,2041532862,2041403936,33381199,6531279,1500
10000_500_200_14_4,2121885846,2121845448,32996089,6647445,1500
10000_500_200_14_5,2404748245,2404700312,37040497,7663284,1500
10000_500_200_14_6,1940906111,1940738703,33832587,7070379,1500
10000_500_200_14_7,2048138887,2048022123,34408691,6822354,1500
10000_500_200_14_8,2276848173,2276821182,34512922,7086813,1500
10000_500_200_14_9,2109542822,2109508521,32152590,6467689,1500
1000_500_250_14_0,637362094,636168786,13748904,2311663,1500
1000_500_250_14_1,603508116,602588288,12606419,2528051,1500
1000_500_250_14_2,581970256,580944013,12164314,2180263,1500
1000_500_250_14_3,737910096,737021253,13875002,2841400,1500
1000_500_250_14_4,560379167,559632968,11302126,2257718,1500
1000_500_250_14_5,693962854,693609566,12093218,2353668,1500
1000_500_250_14_6,474858959,473835742,11274572,2350362,1500
1000_500_250_14_7,509492555,508505446,11334672,2223166,1500
1000_500_250_14_8,748925294,748117819,13786428,2787585,1500
1000_500_250_14_9,577257635,576280927,12038307,2251169,1500
500_250_100_14_0,159183498,158954995,5332864,1699773,1500
500_250_100_14_1,79772003,79615167,3040195,857342,1500
500_250_100_14_2,167782136,167334735,6202754,1934038,1500
500_250_100_14_3,119248997,119027464,4601156,1055472,1500
500_250_100_14_4,183870123,182972240,7734051,2083698,1500
500_250_100_14_5,158132833,157621774,5807505,1598143,1500
500_250_100_14_6,186579361,185686903,7782835,2139109,1500
500_250_100_14_7,129937546,129821065,4474771,1379913,1500
500_250_100_14_8,175393444,174795331,6831769,1722804,1500
500_250_100_14_9,171022643,170617706,6228380,1921176,1500
100_75_50_14_0,6000766,5935017,703358,347927,1500
100_75_50_14_1,4430756,4414994,483432,246635,1500
100_75_50_14_2,9110179,8986260,898105,437107,1500
100_75_50_14_3,6019785,6008847,626556,319144,1500
100_75_50_14_4,6240528,6161941,699044,350213,1500
100_75_50_14_5,5379727,5326909,663544,373239,1500
100_75_50_14_6,8194140,8083956,854081,393273,1500
100_75_50_14_7,6836220,6806012,688248,327115,1500
100_75_50_14_8,5410921,5342679,626997,311464,1500
100_75_50_14_9,6326930,6291623,649137,363320,1500
10000_500_200_15_0,1563383106,1563383106,27271549,0,1500
10000_500_200_15_1,1529200690,1529200690,27351747,0,1500
10000_500_200_15_2,1442619097,1442619097,25462389,0,1500
10000_500_200_15_3,1414563322,1414563322,25759719,0,1500
10000_500_200_15_4,1603105892,1603105892,28784446,0,1500
10000_500_200_15_5,1440429931,1440429931,26326398,0,1500
10000_500_200_15_6,1450264558,1450264558,25740134,0,1500
10000_500_200_15_7,1481483446,1481483446,26372582,0,1500
10000_500_200_15_8,1401773847,1401773847,24999360,0,1500
10000_500_200_15_9,1504507878,1504507878,26629955,0,1500
1000_500_250_15_0,486853520,486853520,9366748,0,1500
1000_500_250_15_1,439624183,439624183,8225941,0,1500
1000_500_250_15_2,495517344,495517344,9183325,0,1500
1000_500_250_15_3,431419705,431419705,7977668,0,1500
1000_500_250_15_4,496357439,496356800,9117093,0,1500
1000_500_250_15_5,379988200,379988200,7548959,0,1500
1000_500_250_15_6,473800678,473800678,8996966,0,1500
1000_500_250_15_7,430907933,430907933,8184692,0,1500
1000_500_250_15_8,496205255,496205255,9196913,0,1500
1000_500_250_15_9,461613943,461613943,8872067,0,1500
500_250_100_15_0,111338985,111338985,4096391,0,1500
500_250_100_15_1,97553860,97552903,3680516,0,1500
500_250_100_15_2,109450539,109450539,4138760,0,1500
500_250_100_15_3,117921889,117917550,4365560,0,1500
500_250_100_15_4,124450947,124450947,4571179,0,1500
500_250_100_15_5,110907401,110906862,4164853,0,1500
500_250_100_15_6,121688206,121688206,4406203,0,1500
500_250_100_15_7,120671210,120670981,4573525,0,1500
500_250_100_15_8,125078656,125078656,4485010,0,1500
500_250_100_15_9,137305762,137305762,4780235,0,1500
100_75_50_15_0,5541105,5541105,647436,14681,1500
100_75_50_15_1,5616069,5615926,660747,28841,1500
100_75_50_15_2,7794427,7792324,843135,277,1500
100_75_50_15_3,7241004,7236996,818064,86,1500
100_75_50_15_4,5768744,5767453,697695,7503,1500
100_75_50_15_5,6449182,6449182,765145,208,1500
100_75_50_15_6,5542873,5542873,778361,300,1500
100_75_50_15_7,7064284,7056085,803907,467,1500
100_75_50_15_8,5469245,5469245,653781,16407,1500
100_75_50_15_9,7674870,7674870,775900,1360,1500
10000_500_200_16_0,2029816166,2029816138,30490037,4981415,1500
10000_500_200_16_1,1689905394,1689751209,31909125,5118251,1500
10000_500_200_16_2,2069293765,2069219661,33566334,5310105,1500
10000_500_200_16_3,2220907654,2220898461,33779343,4997095,1500
10000_500_200_16_4,2106379557,2106336333,33325820,5388651,1500
10000_500_200_16_5,2173774649,2173774274,33248367,5421120,1500
10000_500_200_16_6,2104516362,2104514043,31453236,4840733,1500
10000_500_200_16_7,2072543633,2072507686,31993723,5319196,1500
10000_500_200_16_8,2312470362,2312468030,35082995,5687268,1500
10000_500_200_16_9,2204955975,2204953494,32672425,5266333,1500
1000_500_250_16_0,421090576,419658448,11565110,1880183,1500
1000_500_250_16_1,817924351,817180444,15056711,2404972,1500
1000_500_250_16_2,759946109,759819821,12797755,2052463,1500
1000_500_250_16_3,749713928,748817126,15369455,2214923,1500
1000_500_250_16_4,758668975,758400544,12898673,1843759,1500
1000_500_250_16_5,584948971,584693333,10349515,1745301,1500
1000_500_250_16_6,493283017,492043212,12227271,1704955,1500
1000_500_250_16_7,623823214,622923296,12643921,1736449,1500
1000_500_250_16_8,484146336,482880302,11536081,1662190,1500
1000_500_250_16_9,452802657,452184652,10022680,1330865,1500
500_250_100_16_0,134635998,133976996,6147603,1459928,1500
500_250_100_16_1,104797613,104677370,3884587,903684,1500
500_250_100_16_2,110140031,110069016,4115275,996323,1500
500_250_100_16_3,200718423,200610926,6313254,1901906,1500
500_250_100_16_4,193789037,193633784,5953680,1565833,1500
500_250_100_16_5,161060503,160723506,5804559,1440973,1500
500_250_100_16_6,134345135,133651353,6139824,1423367,1500
500_250_100_16_7,145804883,145242894,5877107,1253912,1500
500_250_100_16_8,143290042,143022922,5434572,1281626,1500
500_250_100_16_9,148177825,148048498,5153038,1288860,1500
100_75_50_16_0,6077102,6021292,590215,283702,1500
100_75_50_16_1,5133805,5093206,661222,300893,1500
100_75_50_16_2,7817299,7657344,945339,407705,1500
100_75_50_16_3,5815292,5722092,730415,305051,1500
100_75_50_16_4,6420822,6402810,711119,430414,1500
100_75_50_16_5,7930261,7816591,942618,400586,1500
100_75_50_16_6,7509808,7427435,751632,373922,1500
100_75_50_16_7,8692302,8597861,892058,419357,1500
100_75_50_16_8,5412937,5379354,546331,226583,1500
100_75_50_16_9,4143270,4058619,624636,236383,1500
10000_500_200_18_0,238829367,237755534,34376799,15709995,1500
10000_500_200_18_1,231485289,229997866,39379234,17938850,1500
10000_500_200_18_2,190572531,189542408,31380327,14087008,1500
10000_500_200_18_3,276589406,275284010,32591235,14501511,1500
10000_500_200_18_4,238341274,237177821,36771450,16810475,1500
10000_500_200_18_5,276204660,275112113,33368385,15243817,1500
10000_500_200_18_6,245742026,244614081,31023553,14527580,1500
10000_500_200_18_7,244002026,242985719,32221145,14539440,1500
10000_500_200_18_8,279536561,278206000,36507713,16496981,1500
10000_500_200_18_9,276497642,275543869,32146574,14756184,1500
1000_500_250_18_0,128518125,125870871,12767271,4417606,1500
1000_500_250_18_1,111220700,108559007,12312324,4580789,1500
1000_500_250_18_2,121257946,118694218,12066247,4060181,1500
1000_500_250_18_3,155587975,152660774,13566947,4838492,1500
1000_500_250_18_4,94481826,92508215,10164952,3721884,1500
1000_500_250_18_5,107671794,105204398,11659321,4205206,1500
1000_500_250_18_6,100803448,98268161,11135671,4084345,1500
1000_500_250_18_7,102686603,100150676,12388405,4586141,1500
1000_500_250_18_8,140965730,138245403,12214133,4461988,1500
1000_500_250_18_9,137490279,134559059,13049865,4571577,1500
500_250_100_18_0,45697472,44675096,5557973,2830862,1500
500_250_100_18_1,42321811,41047968,6239148,2951754,1500
500_250_100_18_2,41264820,40174211,5668253,2834614,1500
500_250_100_18_3,37552197,36297418,6363155,2913707,1500
500_250_100_18_4,44396844,42875310,6809758,3105876,1500
500_250_100_18_5,49028690,47841289,6206781,3198814,1500
500_250_100_18_6,36823406,35487342,6296871,2974780,1500
500_250_100_18_7,37445780,36307219,5818019,2810157,1500
500_250_100_18_8,35294121,34018674,6274885,2825185,1500
500_250_100_18_9,44944398,43789561,6104543,3034332,1500
100_75_50_18_0,2633602,2480431,846679,486147,1500
100_75_50_18_1,3700462,3566926,845694,460677,1500
100_75_50_18_2,3834265,3660845,938214,526242,1500
100_75_50_18_3,3722774,3582292,810284,474272,1500
100_75_50_18_4,2629711,2501124,751925,434248,1500
100_75_50_18_5,2864795,2757285,733789,395775,1500
100_75_50_18_6,3654977,3508049,901341,513373,1500
100_75_50_18_7,3503884,3349491,899422,494342,1500
100_75_50_18_8,2888950,2775489,751657,460893,1500
100_75_50_18_9,2956435,2796728,865709,469309,1500
10000_500_200_19_0,167843176,167573298,30501644,0,1500
10000_500_200_19_1,289116679,288840983,28845540,0,1500
10000_500_200_19_2,203415457,203144107,29548801,0,1500
10000_500_200_19_3,309798226,309468085,33488742,0,1500
10000_500_200_19_4,271542790,271339183,27360514,0,1500
10000_500_200_19_5,244439754,244096575,29619659,0,1500
10000_500_200_19_6,304540037,304198755,33399596,0,1500
10000_500_200_19_7,292165382,291886308,30053573,0,1500
10000_500_200_19_8,172579040,172334477,29890212,0,1500
10000_500_200_19_9,288897991,288590065,30819167,0,1500
1000_500_250_19_0,78629629,77732829,10290607,0,1500
1000_500_250_19_1,102864355,102202497,8918484,0,1500
1000_500_250_19_2,106306045,105553198,9817273,0,1500
1000_500_250_19_3,90044362,89374276,8979904,0,1500
1000_500_250_19_4,86481704,85609001,10133873,0,1500
1000_500_250_19_5,53859308,53302067,8127143,0,1500
1000_500_250_19_6,83579037,82820098,9735954,0,1500
1000_500_250_19_7,52295444,51552058,9049252,0,1500
1000_500_250_19_8,82057933,81090055,10265501,0,1500
1000_500_250_19_9,86663011,85877667,9543779,0,1500
500_250_100_19_0,22134743,21827150,4242096,1233,1500
500_250_100_19_1,22041633,21741006,4146330,23743,1500
500_250_100_19_2,37475118,37091005,5045566,2769,1500
500_250_100_19_3,28262743,28015556,4229341,8101,1500
500_250_100_19_4,32553387,32160832,5062851,81,1500
500_250_100_19_5,26090044,25795314,4667245,3313,1500
500_250_100_19_6,28326614,28000704,4943160,2174,1500
500_250_100_19_7,27342261,27114826,4556701,25481,1500
500_250_100_19_8,28697011,28336407,4874608,2609,1500
500_250_100_19_9,26310972,25866911,5046441,7604,1500
100_75_50_19_0,1079672,1011130,701075,85912,1500
100_75_50_19_1,836967,760470,646616,61724,1500
100_75_50_19_2,958402,813724,900449,20309,1500
100_75_50_19_3,954310,843601,821933,25089,1500
100_75_50_19_4,1479734,1370906,913577,80010,1500
100_75_50_19_5,494415,353322,790941,50020,1500
100_75_50_19_6,1139592,1034976,946820,82347,1500
100_75_50_19_7,1044621,945666,755434,32964,1500
100_75_50_19_8,1259250,1190859,823148,74401,1500
100_75_50_19_9,879335,785317,756513,31313,1500
10000_500_200_20_0,252905293,251765718,36656916,14269328,1500
10000_500_200_20_1,215101945,214077865,35935894,13694115,1500
10000_500_200_20_2,240911491,239768144,33863890,12712752,1500
10000_500_200_20_3,185865374,184813764,35321626,12883453,1500
10000_500_200_20_4,233554034,232489688,30924210,12040410,1500
10000_500_200_20_5,209210632,208322522,30196115,11519595,1500
10000_500_200_20_6,189404305,188302235,31577744,11615186,1500
10000_500_200_20_7,222707816,221537258,29911063,11654360,1500
10000_500_200_20_8,232753880,231641897,32464058,12461955,1500
10000_500_200_20_9,222629191,221586535,32173948,12553881,1500
1000_500_250_20_0,97280036,95087801,10799949,3544246,1500
1000_500_250_20_1,135876730,132412160,14554841,3961352,1500
1000_500_250_20_2,110731928,108365844,11843561,3450387,1500
1000_500_250_20_3,104362504,102214186,11524710,3356235,1500
1000_500_250_20_4,102255157,100296573,10386884,2929710,1500
1000_500_250_20_5,86953758,85446655,8760678,3122379,1500
1000_500_250_20_6,98558029,95837236,12894960,3480780,1500
1000_500_250_20_7,113360974,110910106,11303639,3250058,1500
1000_500_250_20_8,81937216,79742604,10789705,3434196,1500
1000_500_250_20_9,81366225,79379081,10470332,3052497,1500
500_250_100_20_0,28091725,27178230,4890972,2027095,1500
500_250_100_20_1,19011121,18057648,4911801,1949250,1500
500_250_100_20_2,29621664,28902198,4643709,2092721,1500
500_250_100_20_3,35614021,34535934,5410288,2665862,1500
500_250_100_20_4,37519570,36425483,5396137,2293875,1500
500_250_100_20_5,31812177,30858388,5241436,2285681,1500
500_250_100_20_6,29364654,28529766,4763162,2168581,1500
500_250_100_20_7,23499021,22401306,5382722,2196590,1500
500_250_100_20_8,23063999,22139167,5338508,2245625,1500
500_250_100_20_9,29268321,28375559,4825285,2036061,1500
100_75_50_20_0,3108967,2998381,736864,409479,1500
100_75_50_20_1,3445441,3270656,912284,424907,1500
100_75_50_20_2,2334622,2176031,779392,346242,1500
100_75_50_20_3,2954707,2835741,726223,417210,1500
100_75_50_20_4,3197766,3053883,851747,489596,1500
100_75_50_20_5,4026180,3822434,990501,466823,1500
100_75_50_20_6,3116304,2979195,772537,378878,1500
100_75_50_20_7,4928965,4739574,894756,444002,1500
100_75_50_20_8,1898763,1811461,622971,314771,1500
100_75_50_20_9,1894317,1752886,760621,369263,1500
10000_500_200_22_0,274455162,271591166,39963665,21524051,1500
10000_500_200_22_1,195493169,193070717,32121348,17784410,1500
10000_500_200_22_2,217545079,215026255,34620302,18710500,1500
10000_500_200_22_3,285261723,282671113,33280419,18222477,1500
10000_500_200_22_4,237224943,234758071,32703084,17848268,1500
10000_500_200_22_5,262464021,260101280,32849858,18150904,1500
10000_500_200_22_6,288421908,286048899,32307575,18022862,1500
10000_500_200_22_7,208893257,206663326,32450241,17775847,1500
10000_500_200_22_8,237899881,235335312,31843825,17387839,1500
10000_500_200_22_9,204396353,202286062,32759262,18384553,1500
1000_500_250_22_0,97839083,95018603,13449930,6011409,1500
1000_500_250_22_1,68507216,65601468,12245732,5452202,1500
1000_500_250_22_2,93954825,90846266,13308329,5537554,1500
1000_500_250_22_3,109908341,106691430,13773496,5906346,1500
1000_500_250_22_4,66550313,64419102,10187302,4512827,1500
1000_500_250_22_5,72971936,70461292,11860892,5398529,1500
1000_500_250_22_6,76965169,74017533,12057432,5269412,1500
1000_500_250_22_7,77723883,75091806,12644877,5716283,1500
1000_500_250_22_8,89371949,86495503,11985933,5372375,1500
1000_500_250_22_9,104402520,101246851,13751299,6179134,1500
500_250_100_22_0,33650918,32572720,5578328,3138873,1500
500_250_100_22_1,38171024,36896111,6441207,3463969,1500
500_250_100_22_2,36920196,35725371,6010816,3264116,1500
500_250_100_22_3,29742091,28350304,6502276,3388356,1500
500_250_100_22_4,34300939,32775664,6707175,3463698,1500
500_250_100_22_5,37262892,36216575,5848786,3550005,1500
500_250_100_22_6,29081155,27763578,6267657,3327138,1500
500_250_100_22_7,24162955,23074585,5427444,2896716,1500
500_250_100_22_8,29152721,27782718,6325805,3275647,1500
500_250_100_22_9,37505864,36201944,6211432,3299197,1500
100_75_50_22_0,2236596,2090730,782947,380540,1500
100_75_50_22_1,2827068,2709376,742188,325483,1500
100_75_50_22_2,2830584,2673830,829809,378713,1500
100_75_50_22_3,3108786,2976400,747844,358867,1500
100_75_50_22_4,2616633,2505104,735707,390342,1500
100_75_50_22_5,2773552,2655617,706085,294971,1500
100_75_50_22_6,2760833,2647310,746042,355419,1500
100_75_50_22_7,3340755,3211167,794247,361809,1500
100_75_50_22_8,2910164,2803166,743199,404421,1500
100_75_50_22_9,2397187,2258575,798352,369079,1500
10000_500_200_23_0,116097014,115938766,27982891,0,1500
10000_500_200_23_1,175591883,175293345,27703917,38902,1500
10000_500_200_23_2,102864650,102614825,27995136,11916,1500
10000_500_200_23_3,162282790,162007516,28897897,845,1500
10000_500_200_23_4,189108378,188892457,29356200,715,1500
10000_500_200_23_5,149138751,148894602,26014534,6999,1500
10000_500_200_23_6,172291077,172054043,27014863,9787,1500
10000_500_200_23_7,220561969,220304200,30684666,21146,1500
10000_500_200_23_8,118869629,118687056,29563466,3000,1500
10000_500_200_23_9,167150722,166872007,27724712,1198,1500
1000_500_250_23_0,39931294,39188552,9221836,4175,1500
1000_500_250_23_1,58855005,58377067,8034383,1556,1500
1000_500_250_23_2,56966770,56367926,8696405,399,1500
1000_500_250_23_3,48666039,48076874,8264332,2408,1500
1000_500_250_23_4,48120632,47458837,9416656,45,1500
1000_500_250_23_5,33062435,32675220,7457754,365,1500
1000_500_250_23_6,45896887,45409572,8638597,3144,1500
1000_500_250_23_7,31238261,30753867,7937966,2546,1500
1000_500_250_23_8,50015256,49319217,8757989,0,1500
1000_500_250_23_9,46268044,45646152,8758569,0,1500
500_250_100_23_0,13886252,13731092,3615943,105155,1500
500_250_100_23_1,14614485,14450028,3590308,361378,1500
500_250_100_23_2,22282165,22102170,4246289,150824,1500
500_250_100_23_3,16869590,16741962,3630307,285887,1500
500_250_100_23_4,20056432,19864766,4299732,63711,1500
500_250_100_23_5,17454079,17322458,4001235,220251,1500
500_250_100_23_6,17887017,17628426,4395296,116999,1500
500_250_100_23_7,16500291,16386306,3837092,409419,1500
500_250_100_23_8,17131975,16933481,4152305,165173,1500
500_250_100_23_9,15824451,15539141,4195324,220363,1500
100_75_50_23_0,716962,664476,756022,97201,1500
100_75_50_23_1,645874,570255,750849,110010,1500
100_75_50_23_2,861802,781948,851315,120946,1500
100_75_50_23_3,511648,436293,776217,78202,1500
100_75_50_23_4,810600,687200,937712,170383,1500
100_75_50_23_5,311704,217078,813636,45393,1500
100_75_50_23_6,627914,570748,852202,128376,1500
100_75_50_23_7,662411,593318,758982,82711,1500
100_75_50_23_8,602601,563284,742054,143104,1500
100_75_50_23_9,481082,414691,725962,95723,1500
10000_500_200_24_0,181478629,179286936,31647550,15277511,1500
10000_500_200_24_1,167223166,165330459,33129766,15915307,1500
10000_500_200_24_2,201768566,199130742,33064176,15332002,1500
10000_500_200_24_3,172601768,170646233,31391141,14605085,1500
10000_500_200_24_4,179975971,177957419,30436671,14844034,1500
10000_500_200_24_5,197376559,195026309,34755810,16679766,1500
10000_500_200_24_6,206748460,204291552,34110407,15735247,1500
10000_500_200_24_7,249712207,246832922,34806076,16508568,1500
10000_500_200_24_8,205084013,202747789,33033488,15758626,1500
10000_500_200_24_9,220054376,217741961,33346796,15847704,1500
1000_500_250_24_0,57898892,55940396,9374392,3861120,1500
1000_500_250_24_1,75451196,72194446,13115256,4601744,1500
1000_500_250_24_2,59051725,56951455,9947293,3647495,1500
1000_500_250_24_3,57370685,55619551,9949819,3882175,1500
1000_500_250_24_4,57607699,55908175,8936286,3290748,1500
1000_500_250_24_5,61111862,59436391,8906253,3923026,1500
1000_500_250_24_6,64364683,61731083,11639350,4120418,1500
1000_500_250_24_7,65528181,63313342,9920210,3676602,1500
1000_500_250_24_8,50854064,48758284,10075601,4017504,1500
1000_500_250_24_9,59271931,57208370,10336548,3956616,1500
500_250_100_24_0,19993570,19237475,4260429,2057976,1500
500_250_100_24_1,17838718,16766399,5031011,2255999,1500
500_250_100_24_2,18945840,18114566,4676985,2368319,1500
500_250_100_24_3,20249794,19310651,4732191,2581772,1500
500_250_100_24_4,25971822,24996604,4790249,2310935,1500
500_250_100_24_5,22033782,21224178,4796483,2357358,1500
500_250_100_24_6,18598498,17829514,4147872,2079062,1500
500_250_100_24_7,19097393,17949059,5271286,2442509,1500
500_250_100_24_8,16242297,15500773,4321130,2116559,1500
500_250_100_24_9,16932851,16013512,4483779,2166923,1500
100_75_50_24_0,2525788,2435020,648663,312529,1500
100_75_50_24_1,2834771,2688689,848506,362014,1500
100_75_50_24_2,1457834,1347262,631186,209256,1500
100_75_50_24_3,2537048,2439367,667228,360670,1500
100_75_50_24_4,2668696,2558421,730850,386415,1500
100_75_50_24_5,2429728,2265739,707054,243308,1500
100_75_50_24_6,2276249,2175181,634068,277600,1500
100_75_50_24_7,4083628,3964692,729120,339053,1500
100_75_50_24_8,1612899,1528227,570210,228680,1500
100_75_50_24_9,1512466,1414643,619098,277139,1500
10000_500_200_26_0,1936930004,1936862193,30905012,6494530,1500
10000_500_200_26_1,2119858963,2119812450,32565448,6705711,1500
10000_500_200_26_2,1860293582,1860128478,33736487,6534690,1500
10000_500_200_26_3,1872291711,1872171534,30688590,6007077,1500
10000_500_200_26_4,2153282349,2153238801,33630879,6780400,1500
10000_500_200_26_5,2042377470,2042332283,31650876,6559690,1500
10000_500_200_26_6,1889436139,1889274276,32909685,6867329,1500
10000_500_200_26_7,1979311113,1979200127,33169427,6562406,1500
10000_500_200_26_8,2224386288,2224361870,33661765,6913511,1500
10000_500_200_26_9,2401167829,2401133315,36425101,7310055,1500
1000_500_250_26_0,637362094,636168786,13748904,2311663,1500
1000_500_250_26_1,603508116,602588288,12606419,2528051,1500
1000_500_250_26_2,581970256,580944013,12164314,2180263,1500
1000_500_250_26_3,737910096,737021253,13875002,2841400,1500
1000_500_250_26_4,560379167,559632968,11302126,2257718,1500
1000_500_250_26_5,693962854,693609566,12093218,2353668,1500
1000_500_250_26_6,474858959,473835742,11274572,2350362,1500
1000_500_250_26_7,509492555,508505446,11334672,2223166,1500
1000_500_250_26_8,748925294,748117819,13786428,2787585,1500
1000_500_250_26_9,577257635,576280927,12038307,2251169,1500
500_250_100_26_0,159183498,158954995,5332864,1699773,1500
500_250_100_26_1,79772003,79615167,3040195,857342,1500
500_250_100_26_2,167782136,167334735,6202754,1934038,1500
500_250_100_26_3,119248997,119027464,4601156,1055472,1500
500_250_100_26_4,183870123,182972240,7734051,2083698,1500
500_250_100_26_5,158132833,157621774,5807505,1598143,1500
500_250_100_26_6,186579361,185686903,7782835,2139109,1500
500_250_100_26_7,129937546,129821065,4474771,1379913,1500
500_250_100_26_8,175393444,174795331,6831769,1722804,1500
500_250_100_26_9,171022643,170617706,6228380,1921176,1500
100_75_50_26_0,6000766,5935017,703358,347927,1500
100_75_50_26_1,4430756,4414994,483432,246635,1500
100_75_50_26_2,9110179,8986260,898105,437107,1500
100_75_50_26_3,6019785,6008847,626556,319144,1500
100_75_50_26_4,6240528,6161941,699044,350213,1500
100_75_50_26_5,5379727,5326909,663544,373239,1500
100_75_50_26_6,8194140,8083956,854081,393273,1500
100_75_50_26_7,6836220,6806012,688248,327115,1500
100_75_50_26_8,5410921,5342679,626997,311464,1500
100_75_50_26_9,6326930,6291623,649137,363320,1500
10000_500_200_27_0,1525493466,1525493466,26599252,0,1500
10000_500_200_27_1,1463652500,1463652500,26165037,0,1500
10000_500_200_27_2,1432616238,1432616238,25284314,0,1500
10000_500_200_27_3,1499547069,1499547069,27302293,0,1500
10000_500_200_27_4,1540098390,1540098390,27637624,0,1500
10000_500_200_27_5,1474249801,1474249801,26939495,0,1500
10000_500_200_27_6,1486215711,1486215711,26373043,0,1500
10000_500_200_27_7,1500036904,1500036904,26708863,0,1500
10000_500_200_27_8,1463057406,1463057406,26087108,0,1500
10000_500_200_27_9,1554306081,1554306081,27500043,0,1500
1000_500_250_27_0,486853520,486853520,9366748,0,1500
1000_500_250_27_1,439624183,439624183,8225941,0,1500
1000_500_250_27_2,495517344,495517344,9183325,0,1500
1000_500_250_27_3,431419705,431419705,7977668,0,1500
1000_500_250_27_4,496357439,496356800,9117093,0,1500
1000_500_250_27_5,379988200,379988200,7548959,0,1500
1000_500_250_27_6,473800678,473800678,8996966,0,1500
1000_500_250_27_7,430907933,430907933,8184692,0,1500
1000_500_250_27_8,496205255,496205255,9196913,0,1500
1000_500_250_27_9,461613943,461613943,8872067,0,1500
500_250_100_27_0,111338985,111338985,4096391,0,1500
500_250_100_27_1,97553860,97552903,3680516,0,1500
500_250_100_27_2,109450539,109450539,4138760,0,1500
500_250_100_27_3,117921889,117917550,4365560,0,1500
500_250_100_27_4,124450947,124450947,4571179,0,1500
500_250_100_27_5,110907401,110906862,4164853,0,1500
500_250_100_27_6,121688206,121688206,4406203,0,1500
500_250_100_27_7,120671210,120670981,4573525,0,1500
500_250_100_27_8,125078656,125078656,4485010,0,1500
500_250_100_27_9,137305762,137305762,4780235,0,1500
100_75_50_27_0,5541105,5541105,647436,14681,1500
100_75_50_27_1,5616069,5615926,660747,28841,1500
100_75_50_27_2,7794427,7792324,843135,277,1500
100_75_50_27_3,7241004,7236996,818064,86,1500
100_75_50_27_4,5768744,5767453,697695,7503,1500
100_75_50_27_5,6449182,6449182,765145,208,1500
100_75_50_27_6,5542873,5542873,778361,300,1500
100_75_50_27_7,7064284,7056085,803907,467,1500
100_75_50_27_8,5469245,5469245,653781,16407,1500
100_75_50_27_9,7674870,7674870,775900,1360,1500
10000_500_200_28_0,2206374451,2206374423,33184195,5412577,1500
10000_500_200_28_1,1809165732,1808994833,34452620,5527185,1500
10000_500_200_28_2,2267374321,2267296479,36648445,5811902,1500
10000_500_200_28_3,2008806091,2008799857,30519971,4517664,1500
10000_500_200_28_4,2038473212,2038430178,32289710,5222260,1500
10000_500_200_28_5,2016125061,2016124686,30860713,5038531,1500
10000_500_200_28_6,2301921488,2301919169,34434065,5306419,1500
10000_500_200_28_7,2195907684,2195871737,33848494,5630753,1500
10000_500_200_28_8,2135218314,2135215982,32418658,5251141,1500
10000_500_200_28_9,2204955975,2204953494,32672425,5266333,1500
1000_500_250_28_0,421090576,419658448,11565110,1880183,1500
1000_500_250_28_1,817924351,817180444,15056711,2404972,1500
1000_500_250_28_2,759946109,759819821,12797755,2052463,1500
1000_500_250_28_3,749713928,748817126,15369455,2214923,1500
1000_500_250_28_4,758668975,758400544,12898673,1843759,1500
1000_500_250_28_5,584948971,584693333,10349515,1745301,1500
1000_500_250_28_6,493283017,492043212,12227271,1704955,1500
1000_500_250_28_7,623823214,622923296,12643921,1736449,1500
1000_500_250_28_8,484146336,482880302,11536081,1662190,1500
1000_500_250_28_9,452802657,452184652,10022680,1330865,1500
500_250_100_28_0,134635998,133976996,6147603,1459928,1500
500_250_100_28_1,104797613,104677370,3884587,903684,1500
500_250_100_28_2,110140031,110069016,4115275,996323,1500
500_250_100_28_3,200718423,200610926,6313254,1901906,1500
500_250_100_28_4,193789037,193633784,5953680,1565833,1500
500_250_100_28_5,161060503,160723506,5804559,1440973,1500
500_250_100_28_6,134345135,133651353,6139824,1423367,1500
500_250_100_28_7,145804883,145242894,5877107,1253912,1500
500_250_100_28_8,143290042,143022922,5434572,1281626,1500
500_250_100_28_9,148177825,148048498,5153038,1288860,1500
100_75_50_28_0,6077102,6021292,590215,283702,1500
100_75_50_28_1,5133805,5093206,661222,300893,1500
100_75_50_28_2,7817299,7657344,945339,407705,1500
100_75_50_28_3,5815292,5722092,730415,305051,1500
100_75_50_28_4,6420822,6402810,711119,430414,1500
100_75_50_28_5,7930261,7816591,942618,400586,1500
100_75_50_28_6,7509808,7427435,751632,373922,1500
100_75_50_28_7,8692302,8597861,892058,419357,1500
100_75_50_28_8,5412937,5379354,546331,226583,1500
100_75_50_28_9,4143270,4058619,624636,236383,1500
10000_500_200_30_0,242180861,241098992,34732971,15882127,1500
10000_500_200_30_1,225942876,224504467,38097335,17345493,1500
10000_500_200_30_2,207851244,206741800,34204728,15347982,1500
10000_500_200_30_3,269759498,268488123,31721966,14119016,1500
10000_500_200_30_4,230604886,229493410,35257813,16093360,1500
10000_500_200_30_5,307985708,306764188,37076974,16943019,1500
10000_500_200_30_6,285508852,284232508,35626301,16718835,1500
10000_500_200_30_7,270396043,269256508,36063070,16271601,1500
10000_500_200_30_8,269758582,268504623,34711237,15668290,1500
10000_500_200_30_9,354855599,353639750,41756769,19290017,1500
1000_500_250_30_0,128518125,125870871,12767271,4417606,1500
1000_500_250_30_1,111220700,108559007,12312324,4580789,1500
1000_500_250_30_2,121257946,118694218,12066247,4060181,1500
1000_500_250_30_3,155587975,152660774,13566947,4838492,1500
1000_500_250_30_4,94481826,92508215,10164952,3721884,1500
1000_500_250_30_5,107671794,105204398,11659321,4205206,1500
1000_500_250_30_6,100803448,98268161,11135671,4084345,1500
1000_500_250_30_7,102686603,100150676,12388405,4586141,1500
1000_500_250_30_8,140965730,138245403,12214133,4461988,1500
1000_500_250_30_9,137490279,134559059,13049865,4571577,1500
500_250_100_30_0,45697472,44675096,5557973,2830862,1500
500_250_100_30_1,42321811,41047968,6239148,2951754,1500
500_250_100_30_2,41264820,40174211,5668253,2834614,1500
500_250_100_30_3,37552197,36297418,6363155,2913707,1500
500_250_100_30_4,44396844,42875310,6809758,3105876,1500
500_250_100_30_5,49028690,47841289,6206781,3198814,1500
500_250_100_30_6,36823406,35487342,6296871,2974780,1500
500_250_100_30_7,37445780,36307219,5818019,2810157,1500
500_250_100_30_8,35294121,34018674,6274885,2825185,1500
500_250_100_30_9,44944398,43789561,6104543,3034332,1500
100_75_50_30_0,2633602,2480431,846679,486147,1500
100_75_50_30_1,3700462,3566926,845694,460677,1500
100_75_50_30_2,3834265,3660845,938214,526242,1500
100_75_50_30_3,3722774,3582292,810284,474272,1500
100_75_50_30_4,2629711,2501124,751925,434248,1500
100_75_50_30_5,2864795,2757285,733789,395775,1500
100_75_50_30_6,3654977,3508049,901341,513373,1500
100_75_50_30_7,3503884,3349491,899422,494342,1500
100_75_50_30_8,2888950,2775489,751657,460893,1500
100_75_50_30_9,2956435,2796728,865709,469309,1500
10000_500_200_31_0,176297316,176014213,31947824,0,1500
10000_500_200_31_1,308256995,307967648,30361687,0,1500
10000_500_200_31_2,204211689,203939142,29689328,0,1500
10000_500_200_31_3,267690464,267412153,28361624,0,1500
10000_500_200_31_4,285947056,285725731,29249160,0,1500
10000_500_200_31_5,223531277,223221299,26840024,0,1500
10000_500_200_31_6,261809646,261519628,28352867,0,1500
10000_500_200_31_7,307637394,307349338,31396089,0,1500
10000_500_200_31_8,186463880,186212335,31191030,0,1500
10000_500_200_31_9,262884812,262602736,28305549,0,1500
1000_500_250_31_0,78629629,77732829,10290607,0,1500
1000_500_250_31_1,102864355,102202497,8918484,0,1500
1000_500_250_31_2,106306045,105553198,9817273,0,1500
1000_500_250_31_3,90044362,89374276,8979904,0,1500
1000_500_250_31_4,86481704,85609001,10133873,0,1500
1000_500_250_31_5,53859308,53302067,8127143,0,1500
1000_500_250_31_6,83579037,82820098,9735954,0,1500
1000_500_250_31_7,52295444,51552058,9049252,0,1500
1000_500_250_31_8,82057933,81090055,10265501,0,1500
1000_500_250_31_9,86663011,85877667,9543779,0,1500
500_250_100_31_0,22134743,21827150,4242096,1233,1500
500_250_100_31_1,22041633,21741006,4146330,23743,1500
500_250_100_31_2,37475118,37091005,5045566,2769,1500
500_250_100_31_3,28262743,28015556,4229341,8101,1500
500_250_100_31_4,32553387,32160832,5062851,81,1500
500_250_100_31_5,26090044,25795314,4667245,3313,1500
500_250_100_31_6,28326614,28000704,4943160,2174,1500
500_250_100_31_7,27342261,27114826,4556701,25481,1500
500_250_100_31_8,28697011,28336407,4874608,2609,1500
500_250_100_31_9,26310972,25866911,5046441,7604,1500
100_75_50_31_0,1079672,1011130,701075,85912,1500
100_75_50_31_1,836967,760470,646616,61724,1500
100_75_50_31_2,958402,813724,900449,20309,1500
100_75_50_31_3,954310,843601,821933,25089,1500
100_75_50_31_4,1479734,1370906,913577,80010,1500
100_75_50_31_5,494415,353322,790941,50020,1500
100_75_50_31_6,1139592,1034976,946820,82347,1500
100_75_50_31_7,1044621,945666,755434,32964,1500
100_75_50_31_8,1259250,1190859,823148,74401,1500
100_75_50_31_9,879335,785317,756513,31313,1500
10000_500_200_32_0,226659151,225637386,33009249,12828413,1500
10000_500_200_32_1,200580196,199635217,33271717,12670198,1500
10000_500_200_32_2,225776523,224718990,31381906,11758217,1500
10000_500_200_32_3,167960206,167023855,31447153,11457974,1500
10000_500_200_32_4,241841209,240720231,32721124,12769870,1500
10000_500_200_32_5,213654605,212740599,30878422,11787178,1500
10000_500_200_32_6,184742658,183667706,30735161,11313589,1500
10000_500_200_32_7,243856991,242580505,33099159,12916041,1500
10000_500_200_32_8,224790915,223720085,31229728,12009246,1500
10000_500_200_32_9,223307129,222264469,32203830,12563898,1500
1000_500_250_32_0,97280036,95087801,10799949,3544246,1500
1000_500_250_32_1,135876730,132412160,14554841,3961352,1500
1000_500_250_32_2,110731928,108365844,11843561,3450387,1500
1000_500_250_32_3,104362504,102214186,11524710,3356235,1500
1000_500_250_32_4,102255157,100296573,10386884,2929710,1500
1000_500_250_32_5,86953758,85446655,8760678,3122379,1500
1000_500_250_32_6,98558029,95837236,12894960,3480780,1500
1000_500_250_32_7,113360974,110910106,11303639,3250058,1500
1000_500_250_32_8,81937216,79742604,10789705,3434196,1500
1000_500_250_32_9,81366225,79379081,10470332,3052497,1500
500_250_100_32_0,28091725,27178230,4890972,2027095,1500
500_250_100_32_1,19011121,18057648,4911801,1949250,1500
500_250_100_32_2,29621664,28902198,4643709,2092721,1500
500_250_100_32_3,35614021,34535934,5410288,2665862,1500
500_250_100_32_4,37519570,36425483,5396137,2293875,1500
500_250_100_32_5,31812177,30858388,5241436,2285681,1500
500_250_100_32_6,29364654,28529766,4763162,2168581,1500
500_250_100_32_7,23499021,22401306,5382722,2196590,1500
500_250_100_32_8,23063999,22139167,5338508,2245625,1500
500_250_100_32_9,29268321,28375559,4825285,2036061,1500
100_75_50_32_0,3108967,2998381,736864,409479,1500
100_75_50_32_1,3445441,3270656,912284,424907,1500
100_75_50_32_2,2334622,2176031,779392,346242,1500
100_75_50_32_3,2954707,2835741,726223,417210,1500
100_75_50_32_4,3197766,3053883,851747,489596,1500
100_75_50_32_5,4026180,3822434,990501,466823,1500
100_75_50_32_6,3116304,2979195,772537,378878,1500
100_75_50_32_7,4928965,4739574,894756,444002,1500
100_75_50_32_8,1898763,1811461,622971,314771,1500
100_75_50_32_9,1894317,1752886,760621,369263,1500
10000_500_200_34_0,246090426,243585825,35441211,19128694,1500
10000_500_200_34_1,185670567,183354996,30690083,16924920,1500
10000_500_200_34_2,207600848,205174040,33044216,17842219,1500
10000_500_200_34_3,283801295,281224416,33017747,18060120,1500
10000_500_200_34_4,235933162,233476894,32463259,17703023,1500
10000_500_200_34_5,267020805,264622251,33473331,18516632,1500
10000_500_200_34_6,282147316,279834246,31650216,17663550,1500
10000_500_200_34_7,187252002,185302055,29162639,16038058,1500
10000_500_200_34_8,267927296,265053796,36056670,19755293,1500
10000_500_200_34_9,206857845,204692148,33053568,18492801,1500
1000_500_250_34_0,97839083,95018603,13449930,6011409,1500
1000_500_250_34_1,68507216,65601468,12245732,5452202,1500
1000_500_250_34_2,93954825,90846266,13308329,5537554,1500
1000_500_250_34_3,109908341,106691430,13773496,5906346,1500
1000_500_250_34_4,66550313,64419102,10187302,4512827,1500
1000_500_250_34_5,72971936,70461292,11860892,5398529,1500
1000_500_250_34_6,76965169,74017533,12057432,5269412,1500
1000_500_250_34_7,77723883,75091806,12644877,5716283,1500
1000_500_250_34_8,89371949,86495503,11985933,5372375,1500
1000_500_250_34_9,104402520,101246851,13751299,6179134,1500
500_250_100_34_0,33650918,32572720,5578328,3138873,1500
500_250_100_34_1,38171024,36896111,6441207,3463969,1500
500_250_100_34_2,36920196,35725371,6010816,3264116,1500
500_250_100_34_3,29742091,28350304,6502276,3388356,1500
500_250_100_34_4,34300939,32775664,6707175,3463698,1500
500_250_100_34_5,37262892,36216575,5848786,3550005,1500
500_250_100_34_6,29081155,27763578,6267657,3327138,1500
500_250_100_34_7,24162955,23074585,5427444,2896716,1500
500_250_100_34_8,29152721,27782718,6325805,3275647,1500
500_250_100_34_9,37505864,36201944,6211432,3299197,1500
100_75_50_34_0,2236596,2090730,782947,380540,1500
100_75_50_34_1,2827068,2709376,742188,325483,1500
100_75_50_34_2,2830584,2673830,829809,378713,1500
100_75_50_34_3,3108786,2976400,747844,358867,1500
100_75_50_34_4,2616633,2505104,735707,390342,1500
100_75_50_34_5,2773552,2655617,706085,294971,1500
100_75_50_34_6,2760833,2647310,746042,355419,1500
100_75_50_34_7,3340755,3211167,794247,361809,1500
100_75_50_34_8,2910164,2803166,743199,404421,1500
100_75_50_34_9,2397187,2258575,798352,369079,1500
10000_500_200_35_0,121524522,121363804,28703125,0,1500
10000_500_200_35_1,182215706,181901607,28905879,38902,1500
10000_500_200_35_2,101193192,100947253,27632384,11916,1500
10000_500_200_35_3,171216752,170931509,30313526,1031,1500
10000_500_200_35_4,199446476,199214968,31246064,715,1500
10000_500_200_35_5,145816243,145575628,25502481,6999,1500
10000_500_200_35_6,195409974,195149496,30408155,9787,1500
10000_500_200_35_7,200062469,199826500,27821363,11992,1500
10000_500_200_35_8,112625257,112451488,27899666,3000,1500
10000_500_200_35_9,168171006,167891804,27844838,1198,1500
1000_500_250_35_0,39931294,39188552,9221836,4175,1500
1000_500_250_35_1,58855005,58377067,8034383,1556,1500
1000_500_250_35_2,56966770,56367926,8696405,399,1500
1000_500_250_35_3,48666039,48076874,8264332,2408,1500
1000_500_250_35_4,48120632,47458837,9416656,45,1500
1000_500_250_35_5,33062435,32675220,7457754,365,1500
1000_500_250_35_6,45896887,45409572,8638597,3144,1500
1000_500_250_35_7,31238261,30753867,7937966,2546,1500
1000_500_250_35_8,50015256,49319217,8757989,0,1500
1000_500_250_35_9,46268044,45646152,8758569,0,1500
500_250_100_35_0,13886252,13731092,3615943,105155,1500
500_250_100_35_1,14614485,14450028,3590308,361378,1500
500_250_100_35_2,22282165,22102170,4246289,150824,1500
500_250_100_35_3,16869590,16741962,3630307,285887,1500
500_250_100_35_4,20056432,19864766,4299732,63711,1500
500_250_100_35_5,17454079,17322458,4001235,220251,1500
500_250_100_35_6,17887017,17628426,4395296,116999,1500
500_250_100_35_7,16500291,16386306,3837092,409419,1500
500_250_100_35_8,17131975,16933481,4152305,165173,1500
500_250_100_35_9,15824451,15539141,4195324,220363,1500
100_75_50_35_0,716962,664476,756022,97201,1500
100_75_50_35_1,645874,570255,750849,110010,1500
100_75_50_35_2,861802,781948,851315,120946,1500
100_75_50_35_3,511648,436293,776217,78202,1500
100_75_50_35_4,810600,687200,937712,170383,1500
100_75_50_35_5,311704,217078,813636,45393,1500
100_75_50_35_6,627914,570748,852202,128376,1500
100_75_50_35_7,662411,593318,758982,82711,1500
100_75_50_35_8,602601,563284,742054,143104,1500
100_75_50_35_9,481082,414691,725962,95723,1500
10000_500_200_36_0,185908311,183646119,32465121,15653006,1500
10000_500_200_36_1,161057235,159241787,31927061,15334662,1500
10000_500_200_36_2,199887333,197272843,32702152,15170517,1500
10000_500_200_36_3,172875932,170919037,31442305,14627127,1500
10000_500_200_36_4,180166041,178145522,30478485,14863898,1500
10000_500_200_36_5,179723654,177570612,31669499,15195381,1500
10000_500_200_36_6,202997154,200569087,33643289,15530472,1500
10000_500_200_36_7,226918399,224325010,31453008,14956249,1500
10000_500_200_36_8,205084013,202747789,33033488,15758626,1500
10000_500_200_36_9,211493807,209256791,32136016,15286822,1500
1000_500_250_36_0,57898892,55940396,9374392,3861120,1500
1000_500_250_36_1,75451196,72194446,13115256,4601744,1500
1000_500_250_36_2,59051725,56951455,9947293,3647495,1500
1000_500_250_36_3,57370685,55619551,9949819,3882175,1500
1000_500_250_36_4,57607699,55908175,8936286,3290748,1500
1000_500_250_36_5,61111862,59436391,8906253,3923026,1500
1000_500_250_36_6,64364683,61731083,11639350,4120418,1500
1000_500_250_36_7,65528181,63313342,9920210,3676602,1500
1000_500_250_36_8,50854064,48758284,10075601,4017504,1500
1000_500_250_36_9,59271931,57208370,10336548,3956616,1500
500_250_100_36_0,19993570,19237475,4260429,2057976,1500
500_250_100_36_1,17838718,16766399,5031011,2255999,1500
500_250_100_36_2,18945840,18114566,4676985,2368319,1500
500_250_100_36_3,20249794,19310651,4732191,2581772,1500
500_250_100_36_4,25971822,24996604,4790249,2310935,1500
500_250_100_36_5,22033782,21224178,4796483,2357358,1500
500_250_100_36_6,18598498,17829514,4147872,2079062,1500
500_250_100_36_7,19097393,17949059,5271286,2442509,1500
500_250_100_36_8,16242297,15500773,4321130,2116559,1500
500_250_100_36_9,16932851,16013512,4483779,2166923,1500
100_75_50_36_0,2525788,2435020,648663,312529,1500
100_75_50_36_1,2834771,2688689,848506,362014,1500
100_75_50_36_2,1457834,1347262,631186,209256,1500
100_75_50_36_3,2537048,2439367,667228,360670,1500
100_75_50_36_4,2668696,2558421,730850,386415,1500
100_75_50_36_5,2429728,2265739,707054,243308,1500
100_75_50_36_6,2276249,2175181,634068,277600,1500
100_75_50_36_7,4083628,3964692,729120,339053,1500
100_75_50_36_8,1612899,1528227,570210,228680,1500
100_75_50_36_9,1512466,1414643,619098,277139,1500
