instances,callsChange,callsChangeRemovedBIT,callsAdd,callsAddRemovedBIT,iteracoes
10000_500_200_2_0,2043224613,2043150621,32707166,6862228,10000
10000_500_200_2_1,2144172983,2144126470,32930465,6777402,10000
10000_500_200_2_2,1805365733,1805207625,32653823,6323983,10000
10000_500_200_2_3,2151244899,2151112291,35032823,6840205,10000
10000_500_200_2_4,2003125220,2003088343,31137639,6277116,10000
10000_500_200_2_5,1933737512,1933697622,29849440,6196751,10000
10000_500_200_2_6,2065523194,2065340208,36186353,7568576,10000
10000_500_200_2_7,2003797119,2003683023,33656177,6661007,10000
10000_500_200_2_8,2275320419,2275293428,34493220,7082575,10000
10000_500_200_2_9,2085657631,2085626551,31705488,6371532,10000
1000_500_250_2_0,3058034153,3052236633,66209749,11121306,10000
1000_500_250_2_1,3130657030,3125970495,65197919,13130353,10000
1000_500_250_2_2,3050603613,3045313816,63325852,11378954,10000
1000_500_250_2_3,3421892321,3417882422,64143377,13166669,10000
1000_500_250_2_4,3219530831,3214988183,66023454,13111623,10000
1000_500_250_2_5,3464320138,3462608231,60124246,11757433,10000
1000_500_250_2_6,2879566261,2874148889,65238253,13646073,10000
1000_500_250_2_7,2861083284,2855418947,64480356,12626313,10000
1000_500_250_2_8,3421825053,3418026076,63414921,12759541,10000
1000_500_250_2_9,3104603431,3099548654,64237960,12080928,10000
500_250_100_2_0,1061343734,1059764440,35739215,11369932,10000
500_250_100_2_1,528750823,527701255,20224642,5711800,10000
500_250_100_2_2,1115735450,1112760499,41236654,12824488,10000
500_250_100_2_3,812779382,811322714,31069237,7161500,10000
500_250_100_2_4,1203660259,1197689414,51026214,13709003,10000
500_250_100_2_5,1064264633,1060844423,39019766,10799384,10000
500_250_100_2_6,1237938266,1231933065,51981678,14307437,10000
500_250_100_2_7,842680445,841888601,29179121,8978481,10000
500_250_100_2_8,1166488547,1162604176,45116966,11397115,10000
500_250_100_2_9,1128121924,1125487388,41035768,12696215,10000
100_75_50_2_0,39430114,38994958,4659526,2306637,10000
100_75_50_2_1,29444559,29346963,3213601,1637368,10000
100_75_50_2_2,60697705,59870683,5967895,2901977,10000
100_75_50_2_3,40386360,40299951,4204465,2132369,10000
100_75_50_2_4,41881436,41365663,4675407,2352254,10000
100_75_50_2_5,37030736,36652733,4558522,2548202,10000
100_75_50_2_6,55150644,54421175,5697316,2602170,10000
100_75_50_2_7,46183514,45986161,4616292,2191572,10000
100_75_50_2_8,35215039,34781953,4096314,2038551,10000
100_75_50_2_9,41787767,41550161,4317160,2415973,10000
10000_500_200_3_0,1481010267,1481010267,25837871,0,10000
10000_500_200_3_1,1407854901,1407854901,25156358,0,10000
10000_500_200_3_2,1363305803,1363305803,24087962,0,10000
10000_500_200_3_3,1524512840,1524512840,27757154,0,10000
10000_500_200_3_4,1550870295,1550870295,27825402,0,10000
10000_500_200_3_5,1430077434,1430077434,26138447,0,10000
10000_500_200_3_6,1377064806,1377064806,24454675,0,10000
10000_500_200_3_7,1482132226,1482132226,26382453,0,10000
10000_500_200_3_8,1580524286,1580524286,28193630,0,10000
10000_500_200_3_9,1417842257,1417842257,25117075,0,10000
1000_500_250_3_0,1275072207,1275072207,24600264,0,10000
1000_500_250_3_1,1309914128,1309913792,24528983,0,10000
1000_500_250_3_2,1497565671,1497565671,27813075,0,10000
1000_500_250_3_3,1491429044,1491429044,27514834,0,10000
1000_500_250_3_4,1428202409,1428197643,26247643,0,10000
1000_500_250_3_5,1443348638,1443348638,28666486,0,10000
1000_500_250_3_6,1305634919,1305634919,24837500,0,10000
1000_500_250_3_7,1364992780,1364992780,25936878,0,10000
1000_500_250_3_8,1337283148,1337283148,24746391,0,10000
1000_500_250_3_9,1395657938,1395657938,26871649,0,10000
500_250_100_3_0,748689862,748689862,27500490,0,10000
500_250_100_3_1,640570929,640561798,24273586,0,10000
500_250_100_3_2,730120635,730120635,27616926,0,10000
500_250_100_3_3,785150931,785122094,29109562,0,10000
500_250_100_3_4,829302359,829302359,30496470,0,10000
500_250_100_3_5,739584505,739580557,27782799,0,10000
500_250_100_3_6,813780390,813780390,29409350,0,10000
500_250_100_3_7,809334817,809334077,30568571,0,10000
500_250_100_3_8,834395278,834395278,29889963,0,10000
500_250_100_3_9,911905484,911905484,31817736,0,10000
100_75_50_3_0,37032362,37032362,4351035,97042,10000
100_75_50_3_1,36778100,36776317,4342957,194932,10000
100_75_50_3_2,51388334,51374371,5592477,2751,10000
100_75_50_3_3,47979335,47954079,5409708,480,10000
100_75_50_3_4,38761210,38751454,4684849,47938,10000
100_75_50_3_5,43084409,43084409,5117989,1543,10000
100_75_50_3_6,37026036,37026036,5202044,1222,10000
100_75_50_3_7,47265257,47209577,5374957,3906,10000
100_75_50_3_8,36584758,36584758,4361809,111263,10000
100_75_50_3_9,50667210,50667053,5136076,8084,10000
10000_500_200_4_0,2146383638,2146383610,32276389,5270021,10000
10000_500_200_4_1,1832237433,1832062862,34959572,5603815,10000
10000_500_200_4_2,1891302223,1891236776,30577181,4842224,10000
10000_500_200_4_3,1913918408,1913912174,29069060,4308938,10000
10000_500_200_4_4,1905413084,1905371554,30215972,4884463,10000
10000_500_200_4_5,2061195769,2061195394,31551333,5149163,10000
10000_500_200_4_6,1984349112,1984346793,29687126,4574858,10000
10000_500_200_4_7,2014956473,2014920744,31135356,5178576,10000
10000_500_200_4_8,1942736043,1942734701,29536313,4791266,10000
10000_500_200_4_9,2131556609,2131554128,31597026,5092618,10000
1000_500_250_4_0,2569136593,2560519568,70331983,11454751,10000
1000_500_250_4_1,3788283202,3785018611,69146147,11065269,10000
1000_500_250_4_2,3558396139,3557787532,59846096,9600547,10000
1000_500_250_4_3,3087789657,3084257444,62476634,9024635,10000
1000_500_250_4_4,3505515296,3504188021,59944599,8555539,10000
1000_500_250_4_5,3395473088,3394036270,60395747,10212119,10000
1000_500_250_4_6,2638764602,2632062999,65378656,9099485,10000
1000_500_250_4_7,3258258283,3253434919,66420821,9098600,10000
1000_500_250_4_8,2697164565,2690064880,64253300,9229623,10000
1000_500_250_4_9,3061668374,3057747140,67024472,8944558,10000
500_250_100_4_0,892809561,888385911,40948510,9735087,10000
500_250_100_4_1,688460676,687683615,25575993,5932651,10000
500_250_100_4_2,747639725,747155153,27911114,6791523,10000
500_250_100_4_3,1335980919,1335224909,42019310,12655574,10000
500_250_100_4_4,1304552744,1303466090,40090298,10553649,10000
500_250_100_4_5,1079934890,1077659643,38829942,9644360,10000
500_250_100_4_6,910802441,906164844,41432744,9628359,10000
500_250_100_4_7,969351251,965638217,39033056,8322152,10000
500_250_100_4_8,951447759,949667124,36153760,8554106,10000
500_250_100_4_9,984548697,983720307,34232118,8551704,10000
100_75_50_4_0,40685571,40318990,3925331,1895313,10000
100_75_50_4_1,34670396,34417703,4396789,2006807,10000
100_75_50_4_2,52581114,51502562,6362168,2732814,10000
100_75_50_4_3,38467385,37837372,4864054,2019847,10000
100_75_50_4_4,43101793,42980723,4765871,2885245,10000
100_75_50_4_5,53040791,52295372,6268096,2678309,10000
100_75_50_4_6,49852520,49284152,5038759,2499411,10000
100_75_50_4_7,57698543,57062044,5934292,2785317,10000
100_75_50_4_8,35452347,35229688,3601554,1485614,10000
100_75_50_4_9,27936637,27359626,4209193,1585413,10000
10000_500_200_6_0,244923503,243827243,35204735,16096362,10000
10000_500_200_6_1,217412086,216067116,35916107,16347155,10000
10000_500_200_6_2,220292214,219136804,35533141,15958044,10000
10000_500_200_6_3,260762465,259516988,30960457,13774940,10000
10000_500_200_6_4,224876709,223800736,34188054,15582928,10000
10000_500_200_6_5,274458605,273372952,33152652,15145093,10000
10000_500_200_6_6,272713253,271487971,34014024,15976335,10000
10000_500_200_6_7,269651240,268516154,35969082,16229810,10000
10000_500_200_6_8,273229707,271948085,35295528,15939772,10000
10000_500_200_6_9,336594176,335448726,39279598,18116458,10000
1000_500_250_6_0,862025961,844426764,84363284,29205471,10000
1000_500_250_6_1,722161883,704583222,81058477,30157736,10000
1000_500_250_6_2,802475193,785389096,80422147,27088361,10000
1000_500_250_6_3,1026885535,1007776576,89197927,31814786,10000
1000_500_250_6_4,640700984,627687787,67565975,24694757,10000
1000_500_250_6_5,738540865,721991302,78468651,28424207,10000
1000_500_250_6_6,676074526,658637354,75886696,27616805,10000
1000_500_250_6_7,677753864,661278686,81465928,30194927,10000
1000_500_250_6_8,946374506,928627827,80293580,29405386,10000
1000_500_250_6_9,917340950,897982052,86796650,30680416,10000
500_250_100_6_0,310993198,304326979,36917396,18977352,10000
500_250_100_6_1,282404877,273969279,41629732,19744727,10000
500_250_100_6_2,280458109,273147829,38301465,19115656,10000
500_250_100_6_3,246770307,238625938,41686289,19138042,10000
500_250_100_6_4,296956201,286633936,45770872,20816572,10000
500_250_100_6_5,324043608,316127585,41354699,21324902,10000
500_250_100_6_6,244744375,235963898,42325312,20226362,10000
500_250_100_6_7,245193758,237704279,38545062,18597255,10000
500_250_100_6_8,231907384,223452475,41772296,18823349,10000
500_250_100_6_9,301052414,293223027,41288896,20497245,10000
100_75_50_6_0,17173468,16168698,5549527,3177726,10000
100_75_50_6_1,24890324,23982280,5700973,3089223,10000
100_75_50_6_2,25136461,23989826,6207336,3471891,10000
100_75_50_6_3,24443937,23523739,5388829,3151293,10000
100_75_50_6_4,17765060,16920714,5015324,2939221,10000
100_75_50_6_5,19074413,18360097,4864013,2613038,10000
100_75_50_6_6,24335824,23357147,6028649,3415616,10000
100_75_50_6_7,22978887,21963415,5986795,3271143,10000
100_75_50_6_8,19379701,18625793,5010996,3071964,10000
100_75_50_6_9,20002354,18943688,5744389,3092364,10000
10000_500_200_7_0,167855688,167583340,30703079,0,10000
10000_500_200_7_1,314285355,313993499,30762325,0,10000
10000_500_200_7_2,212650049,212369277,30672765,0,10000
10000_500_200_7_3,269372778,269094466,28431286,0,10000
10000_500_200_7_4,295900731,295663899,30876739,0,10000
10000_500_200_7_5,225043883,224731441,27021585,0,10000
10000_500_200_7_6,274343597,274048701,29143807,0,10000
10000_500_200_7_7,271275408,271008292,28439549,0,10000
10000_500_200_7_8,193494966,193229608,32836877,0,10000
10000_500_200_7_9,277214614,276915727,29854842,0,10000
1000_500_250_7_0,273441843,270391819,35182953,0,10000
1000_500_250_7_1,406110287,403425770,35655599,0,10000
1000_500_250_7_2,370013845,367338465,34775348,0,10000
1000_500_250_7_3,361112346,358384289,35908383,0,10000
1000_500_250_7_4,327173253,323925646,37797898,0,10000
1000_500_250_7_5,246148122,243695352,36176205,0,10000
1000_500_250_7_6,307183916,304480752,35149218,0,10000
1000_500_250_7_7,214018354,211154907,35781232,0,10000
1000_500_250_7_8,310875411,307313940,38252440,0,10000
1000_500_250_7_9,300705535,297880866,33918969,0,10000
500_250_100_7_0,150566326,148546222,28444854,10945,10000
500_250_100_7_1,153367470,151396997,27959935,155766,10000
500_250_100_7_2,250239985,247737785,33331324,30248,10000
500_250_100_7_3,188397346,186643785,28687720,56177,10000
500_250_100_7_4,215404875,212789246,33729111,4076,10000
500_250_100_7_5,178183680,176243055,31198564,38028,10000
500_250_100_7_6,189441854,187229672,33136833,13002,10000
500_250_100_7_7,181584970,180057445,30347099,153751,10000
500_250_100_7_8,194245265,191899912,32526895,26889,10000
500_250_100_7_9,177187484,174250321,33685699,62952,10000
100_75_50_7_0,7085298,6628492,4691711,564371,10000
100_75_50_7_1,5385751,4909845,4258701,424166,10000
100_75_50_7_2,6360988,5397882,5967838,149684,10000
100_75_50_7_3,6681179,5944587,5535391,170069,10000
100_75_50_7_4,9730138,9000510,6028373,561754,10000
100_75_50_7_5,3196174,2273481,5214867,339040,10000
100_75_50_7_6,7646398,6954187,6292503,528326,10000
100_75_50_7_7,7166307,6503022,5093787,214431,10000
100_75_50_7_8,8046696,7583522,5445588,494078,10000
100_75_50_7_9,5664931,5053358,4993347,207681,10000
10000_500_200_8_0,234346602,233307452,33712675,13111951,10000
10000_500_200_8_1,190737344,189845368,31677219,12060035,10000
10000_500_200_8_2,234771135,233654230,32992443,12363060,10000
10000_500_200_8_3,189535359,188475593,35667846,13012648,10000
10000_500_200_8_4,239888081,238785870,32135506,12532399,10000
10000_500_200_8_5,230447362,229442840,33743984,12865538,10000
10000_500_200_8_6,192944718,191823100,32263664,11886282,10000
10000_500_200_8_7,245747580,244461612,33277618,12990865,10000
10000_500_200_8_8,230368950,229270348,32062934,12307579,10000
10000_500_200_8_9,237296023,236188214,34118381,13287098,10000
1000_500_250_8_0,657588883,642733165,72891595,23973314,10000
1000_500_250_8_1,845800748,824309458,90237029,24615221,10000
1000_500_250_8_2,754330475,738203416,80210198,23260675,10000
1000_500_250_8_3,694160421,679669764,77354061,22627814,10000
1000_500_250_8_4,672179279,659430690,67982358,19159951,10000
1000_500_250_8_5,582083160,572201651,57863739,20681176,10000
1000_500_250_8_6,664093138,645673163,86881658,23446456,10000
1000_500_250_8_7,758036701,741791061,74947939,21518965,10000
1000_500_250_8_8,570423507,555469666,73523687,23352456,10000
1000_500_250_8_9,538053050,524823729,70004694,20387522,10000
500_250_100_8_0,186654416,180597578,32408464,13534994,10000
500_250_100_8_1,127803515,121383858,33010616,13040461,10000
500_250_100_8_2,199654751,194873526,30990216,14001605,10000
500_250_100_8_3,235434899,228256457,35971623,17728011,10000
500_250_100_8_4,251764837,244498631,35872097,15313172,10000
500_250_100_8_5,213218882,206814085,35134376,15256967,10000
500_250_100_8_6,193905878,188308768,31766804,14395479,10000
500_250_100_8_7,153824145,146562074,35802551,14658311,10000
500_250_100_8_8,156254777,150157860,35410242,14959689,10000
500_250_100_8_9,195459505,189444067,32386968,13691844,10000
100_75_50_8_0,20733606,19969872,4959796,2733246,10000
100_75_50_8_1,23059190,21888880,6130219,2842427,10000
100_75_50_8_2,15371062,14336519,5149564,2303807,10000
100_75_50_8_3,19915131,19116135,4849303,2806294,10000
100_75_50_8_4,21243236,20287327,5701699,3278217,10000
100_75_50_8_5,26885753,25521778,6623451,3109930,10000
100_75_50_8_6,20673898,19771872,5119404,2532260,10000
100_75_50_8_7,33064589,31815907,5957168,2973314,10000
100_75_50_8_8,12575841,11992198,4115601,2075865,10000
100_75_50_8_9,12460578,11526223,5039397,2429185,10000
10000_500_200_10_0,242295180,239834270,34939411,18858840,10000
10000_500_200_10_1,204332740,201821092,33295834,18429818,10000
10000_500_200_10_2,209806664,207362638,33539560,18120363,10000
10000_500_200_10_3,357289827,354089513,41049807,22410577,10000
10000_500_200_10_4,262287651,259598201,36093135,19669793,10000
10000_500_200_10_5,252748680,250495375,31654860,17488045,10000
10000_500_200_10_6,261172592,259010230,29637183,16552184,10000
10000_500_200_10_7,219402094,217046739,34667723,19057632,10000
10000_500_200_10_8,303014815,299776024,40823517,22363789,10000
10000_500_200_10_9,210215216,208027896,33702802,18868594,10000
1000_500_250_10_0,651736764,633092533,88523830,39549060,10000
1000_500_250_10_1,446173870,427083271,81096404,36098826,10000
1000_500_250_10_2,594116503,574049375,85188373,35303883,10000
1000_500_250_10_3,613252578,595144625,77974718,33390331,10000
1000_500_250_10_4,454744751,440373987,68938983,30622198,10000
1000_500_250_10_5,486190353,469600522,78607453,35721591,10000
1000_500_250_10_6,522033375,502043118,81410595,35437426,10000
1000_500_250_10_7,515078976,497525105,84294562,38057291,10000
1000_500_250_10_8,596997664,578201497,78567220,35186520,10000
1000_500_250_10_9,654772014,635505212,84765101,38105125,10000
500_250_100_10_0,223876997,216740931,37106387,20863915,10000
500_250_100_10_1,251568063,243008785,42778202,22937856,10000
500_250_100_10_2,253561656,245494106,40884403,22190984,10000
500_250_100_10_3,198352193,189172978,43240944,22553422,10000
500_250_100_10_4,230141501,219930264,44579186,22893486,10000
500_250_100_10_5,253904031,246823190,39523102,23971371,10000
500_250_100_10_6,190646359,181969528,41443343,22136222,10000
500_250_100_10_7,157567879,150583693,35596933,19186771,10000
500_250_100_10_8,193040243,183991534,42354862,21983277,10000
500_250_100_10_9,248823458,240111751,41622792,22104168,10000
100_75_50_10_0,14448877,13509831,5177084,2519161,10000
100_75_50_10_1,18732541,17943026,4946854,2160758,10000
100_75_50_10_2,18540702,17518472,5478735,2518672,10000
100_75_50_10_3,20527866,19664340,4944143,2391866,10000
100_75_50_10_4,17226594,16501963,4835212,2590871,10000
100_75_50_10_5,18438737,17642746,4685004,1956625,10000
100_75_50_10_6,18417912,17659659,4957917,2355415,10000
100_75_50_10_7,22009393,21159630,5249012,2405298,10000
100_75_50_10_8,19176310,18463491,4933382,2690489,10000
100_75_50_10_9,15700683,14792960,5221590,2394679,10000
10000_500_200_11_0,118766477,118607293,28282908,0,10000
10000_500_200_11_1,172237285,171940214,27363468,38902,10000
10000_500_200_11_2,106035210,105782813,28446373,11916,10000
10000_500_200_11_3,165560237,165280964,29490088,1031,10000
10000_500_200_11_4,199282181,199053298,31054016,715,10000
10000_500_200_11_5,150332442,150083305,26408321,6999,10000
10000_500_200_11_6,179356388,179112715,28028476,9787,10000
10000_500_200_11_7,212851952,212600811,29681077,21146,10000
10000_500_200_11_8,116011577,115832121,28852428,3000,10000
10000_500_200_11_9,188546833,188236061,31455440,1198,10000
1000_500_250_11_0,176702656,173611866,39195381,7183,10000
1000_500_250_11_1,275872419,273578531,37858286,12654,10000
1000_500_250_11_2,243983912,241330082,37712208,3226,10000
1000_500_250_11_3,226898946,224163419,38482721,13691,10000
1000_500_250_11_4,186386406,183804122,36788930,948,10000
1000_500_250_11_5,167634786,165753962,36922524,3530,10000
1000_500_250_11_6,195893480,193719158,37685070,11592,10000
1000_500_250_11_7,149666097,147281221,38332693,19292,10000
1000_500_250_11_8,200582663,197547182,36945034,0,10000
1000_500_250_11_9,200685618,198051150,37670682,910,10000
500_250_100_11_0,94121834,93054513,24250839,727457,10000
500_250_100_11_1,95600615,94521051,23838841,2359345,10000
500_250_100_11_2,151600713,150298598,29068265,1136128,10000
500_250_100_11_3,113285109,112447484,24166251,1720327,10000
500_250_100_11_4,133623970,132336017,28771543,415067,10000
500_250_100_11_5,115046889,114162547,26535329,1367727,10000
500_250_100_11_6,119212442,117590097,29107170,757429,10000
500_250_100_11_7,109584682,108822536,25376384,2660606,10000
500_250_100_11_8,116029603,114744505,27789636,1027956,10000
500_250_100_11_9,104833669,102781502,28774967,1598873,10000
100_75_50_11_0,4748265,4400316,5013012,609290,10000
100_75_50_11_1,4168556,3702003,4892400,760669,10000
100_75_50_11_2,5684064,5178291,5594027,791911,10000
100_75_50_11_3,3426785,2942686,5156401,539102,10000
100_75_50_11_4,5255336,4427357,6235131,1073990,10000
100_75_50_11_5,2068892,1424588,5450650,290089,10000
100_75_50_11_6,4094104,3702770,5690303,866929,10000
100_75_50_11_7,4431273,3995775,5031601,548647,10000
100_75_50_11_8,3956861,3698003,4952274,966688,10000
100_75_50_11_9,2953699,2537160,4760004,588667,10000
10000_500_200_12_0,181428675,179236742,31637835,15272379,10000
10000_500_200_12_1,171679027,169747543,34204799,16444530,10000
10000_500_200_12_2,196760965,194189013,32161653,14918782,10000
10000_500_200_12_3,172875932,170919037,31442305,14627127,10000
10000_500_200_12_4,188934233,186801499,31815793,15441712,10000
10000_500_200_12_5,174973866,172901317,30702363,14733571,10000
10000_500_200_12_6,196232190,193885106,32586362,15040932,10000
10000_500_200_12_7,232600568,229952253,32165208,15273185,10000
10000_500_200_12_8,209018701,206649758,33584073,16014741,10000
10000_500_200_12_9,196022046,193915345,30352699,14440635,10000
1000_500_250_12_0,383239521,370233493,62258159,25774417,10000
1000_500_250_12_1,501661306,479982849,87275434,30563275,10000
1000_500_250_12_2,409993441,395296138,68655746,25011571,10000
1000_500_250_12_3,383045598,371409647,66315265,25893311,10000
1000_500_250_12_4,381152561,369867765,59196861,21748360,10000
1000_500_250_12_5,404525012,393340194,59233942,26108366,10000
1000_500_250_12_6,417298809,399939123,76443220,26881751,10000
1000_500_250_12_7,442162671,427387461,66115906,24438465,10000
1000_500_250_12_8,337173922,323110518,67496791,26820853,10000
1000_500_250_12_9,388146382,374585610,68132391,26001493,10000
500_250_100_12_0,131452010,126422865,28070527,13561204,10000
500_250_100_12_1,119978629,112682939,33993998,15137084,10000
500_250_100_12_2,128045616,122462515,31574627,15950366,10000
500_250_100_12_3,134383823,128068859,31512417,17108083,10000
500_250_100_12_4,170618755,164329705,31317160,15124708,10000
500_250_100_12_5,147571743,142115654,32075909,15738248,10000
500_250_100_12_6,120941671,115943322,27344564,13727676,10000
500_250_100_12_7,123901868,116601761,34230651,15854218,10000
500_250_100_12_8,109820309,104852230,28927429,14179682,10000
500_250_100_12_9,112467396,106343092,29658341,14274158,10000
100_75_50_12_0,16784640,16178246,4330140,2076280,10000
100_75_50_12_1,18776116,17801839,5625574,2404932,10000
100_75_50_12_2,9922978,9168827,4277306,1442648,10000
100_75_50_12_3,16919763,16284777,4417587,2417122,10000
100_75_50_12_4,18144795,17393908,4927251,2591342,10000
100_75_50_12_5,16383270,15261321,4762649,1619011,10000
100_75_50_12_6,15220239,14548300,4257105,1862783,10000
100_75_50_12_7,27200651,26395974,4867123,2227843,10000
100_75_50_12_8,10795956,10240697,3797076,1517375,10000
100_75_50_12_9,10141570,9480212,4117424,1856258,10000
10000_500_200_14_0,2133858647,2133779670,34242035,7181099,10000
10000_500_200_14_1,2119858963,2119812450,32565448,6705711,10000
10000_500_200_14_2,1839948494,1839785652,33339450,6462205,10000
10000_500_200_14_3,2248630365,2248492482,36616501,7169712,10000
10000_500_200_14_4,2018103910,2018067033,31354734,6322599,10000
10000_500_200_14_5,2157650281,2157603601,33369223,6919562,10000
10000_500_200_14_6,1909477190,1909315327,33185798,6925957,10000
10000_500_200_14_7,1958293513,1958186746,32681763,6467248,10000
10000_500_200_14_8,2243863432,2243836441,34039309,6987337,10000
10000_500_200_14_9,2098315862,2098281248,31995031,6431071,10000
1000_500_250_14_0,2924932510,2919381007,63296624,10633803,10000
1000_500_250_14_1,3124934240,3120257824,65071639,13104922,10000
1000_500_250_14_2,3150031620,3144553321,65448638,11759083,10000
1000_500_250_14_3,3465125145,3461064624,64956624,13334354,10000
1000_500_250_14_4,3128780776,3124376821,64131889,12742636,10000
1000_500_250_14_5,3732234858,3730380919,64808113,12673283,10000
1000_500_250_14_6,2931620763,2926094949,66456413,13902153,10000
1000_500_250_14_7,2927658051,2921880120,65902706,12909681,10000
1000_500_250_14_8,3539573025,3535672297,65516543,13190052,10000
1000_500_250_14_9,3426220404,3420660500,70864557,13327221,10000
500_250_100_14_0,1061343734,1059764440,35739215,11369932,10000
500_250_100_14_1,528750823,527701255,20224642,5711800,10000
500_250_100_14_2,1115735450,1112760499,41236654,12824488,10000
500_250_100_14_3,812779382,811322714,31069237,7161500,10000
500_250_100_14_4,1203660259,1197689414,51026214,13709003,10000
500_250_100_14_5,1064264633,1060844423,39019766,10799384,10000
500_250_100_14_6,1237938266,1231933065,51981678,14307437,10000
500_250_100_14_7,842680445,841888601,29179121,8978481,10000
500_250_100_14_8,1166488547,1162604176,45116966,11397115,10000
500_250_100_14_9,1128121924,1125487388,41035768,12696215,10000
100_75_50_14_0,39430114,38994958,4659526,2306637,10000
100_75_50_14_1,29444559,29346963,3213601,1637368,10000
100_75_50_14_2,60697705,59870683,5967895,2901977,10000
100_75_50_14_3,40386360,40299951,4204465,2132369,10000
100_75_50_14_4,41881436,41365663,4675407,2352254,10000
100_75_50_14_5,37030736,36652733,4558522,2548202,10000
100_75_50_14_6,55150644,54421175,5697316,2602170,10000
100_75_50_14_7,46183514,45986161,4616292,2191572,10000
100_75_50_14_8,35215039,34781953,4096314,2038551,10000
100_75_50_14_9,41787767,41550161,4317160,2415973,10000
10000_500_200_15_0,1448080222,1448080222,25264360,0,10000
10000_500_200_15_1,1445190164,1445190164,25828814,0,10000
10000_500_200_15_2,1527308616,1527308616,26945588,0,10000
10000_500_200_15_3,1384114097,1384114097,25206049,0,10000
10000_500_200_15_4,1326918824,1326918824,23801118,0,10000
10000_500_200_15_5,1363772290,1363772290,24922028,0,10000
10000_500_200_15_6,1817210198,1817210198,32266406,0,10000
10000_500_200_15_7,1531574034,1531574034,27272604,0,10000
10000_500_200_15_8,1510239190,1510239190,26937637,0,10000
10000_500_200_15_9,1532831135,1532831135,27114447,0,10000
1000_500_250_15_0,1303689962,1303689962,25151469,0,10000
1000_500_250_15_1,1653758897,1653758141,30969500,0,10000
1000_500_250_15_2,1388830599,1388830599,25794079,0,10000
1000_500_250_15_3,1356101217,1356101217,25032038,0,10000
1000_500_250_15_4,1376486862,1376483037,25299376,0,10000
1000_500_250_15_5,1392062297,1392062297,27649415,0,10000
1000_500_250_15_6,1437442568,1437442568,27340160,0,10000
1000_500_250_15_7,1379116107,1379116107,26210269,0,10000
1000_500_250_15_8,1454265197,1454265197,26909528,0,10000
1000_500_250_15_9,1333914105,1333914105,25690423,0,10000
500_250_100_15_0,748689862,748689862,27500490,0,10000
500_250_100_15_1,640570929,640561798,24273586,0,10000
500_250_100_15_2,730120635,730120635,27616926,0,10000
500_250_100_15_3,785150931,785122094,29109562,0,10000
500_250_100_15_4,829302359,829302359,30496470,0,10000
500_250_100_15_5,739584505,739580557,27782799,0,10000
500_250_100_15_6,813780390,813780390,29409350,0,10000
500_250_100_15_7,809334817,809334077,30568571,0,10000
500_250_100_15_8,834395278,834395278,29889963,0,10000
500_250_100_15_9,911905484,911905484,31817736,0,10000
100_75_50_15_0,37032362,37032362,4351035,97042,10000
100_75_50_15_1,36778100,36776317,4342957,194932,10000
100_75_50_15_2,51388334,51374371,5592477,2751,10000
100_75_50_15_3,47979335,47954079,5409708,480,10000
100_75_50_15_4,38761210,38751454,4684849,47938,10000
100_75_50_15_5,43084409,43084409,5117989,1543,10000
100_75_50_15_6,37026036,37026036,5202044,1222,10000
100_75_50_15_7,47265257,47209577,5374957,3906,10000
100_75_50_15_8,36584758,36584758,4361809,111263,10000
100_75_50_15_9,50667210,50667053,5136076,8084,10000
10000_500_200_16_0,2117222476,2117222448,31812568,5189110,10000
10000_500_200_16_1,1794948557,1794780024,34124631,5477169,10000
10000_500_200_16_2,1844578479,1844519038,29653409,4687012,10000
10000_500_200_16_3,2056107429,2056101195,31240490,4624252,10000
10000_500_200_16_4,1953607687,1953564697,31016965,5020722,10000
10000_500_200_16_5,2023523535,2023523160,30979140,5059858,10000
10000_500_200_16_6,2164114076,2164111757,32341550,4985857,10000
10000_500_200_16_7,2315818293,2315772440,35910748,5980085,10000
10000_500_200_16_8,2167739639,2167737307,32892227,5328398,10000
10000_500_200_16_9,2224679323,2224673924,33069938,5329352,10000
1000_500_250_16_0,2680705510,2671708058,73395640,11951469,10000
1000_500_250_16_1,3641866651,3638713087,66520893,10645786,10000
1000_500_250_16_2,3535674357,3535067427,59471483,9540781,10000
1000_500_250_16_3,3269882420,3266183501,66019835,9544658,10000
1000_500_250_16_4,3663599090,3662214689,62644184,8936325,10000
1000_500_250_16_5,3385916650,3384484433,60226055,10183445,10000
1000_500_250_16_6,2717141088,2710254232,67266831,9364713,10000
1000_500_250_16_7,3248135635,3243319433,66242666,9073259,10000
1000_500_250_16_8,2808283851,2800894277,66901274,9604063,10000
1000_500_250_16_9,3002712308,2998857105,65764422,8776690,10000
500_250_100_16_0,892809561,888385911,40948510,9735087,10000
500_250_100_16_1,688460676,687683615,25575993,5932651,10000
500_250_100_16_2,747639725,747155153,27911114,6791523,10000
500_250_100_16_3,1335980919,1335224909,42019310,12655574,10000
500_250_100_16_4,1304552744,1303466090,40090298,10553649,10000
500_250_100_16_5,1079934890,1077659643,38829942,9644360,10000
500_250_100_16_6,910802441,906164844,41432744,9628359,10000
500_250_100_16_7,969351251,965638217,39033056,8322152,10000
500_250_100_16_8,951447759,949667124,36153760,8554106,10000
500_250_100_16_9,984548697,983720307,34232118,8551704,10000
100_75_50_16_0,40685571,40318990,3925331,1895313,10000
100_75_50_16_1,34670396,34417703,4396789,2006807,10000
100_75_50_16_2,52581114,51502562,6362168,2732814,10000
100_75_50_16_3,38467385,37837372,4864054,2019847,10000
100_75_50_16_4,43101793,42980723,4765871,2885245,10000
100_75_50_16_5,53040791,52295372,6268096,2678309,10000
100_75_50_16_6,49852520,49284152,5038759,2499411,10000
100_75_50_16_7,57698543,57062044,5934292,2785317,10000
100_75_50_16_8,35452347,35229688,3601554,1485614,10000
100_75_50_16_9,27936637,27359626,4209193,1585413,10000
10000_500_200_18_0,244014773,242923516,35020770,16012917,10000
10000_500_200_18_1,217569417,216221981,35988199,16384395,10000
10000_500_200_18_2,215535987,214386974,35298144,15840052,10000
10000_500_200_18_3,314557246,313098982,36979031,16484488,10000
10000_500_200_18_4,225087484,224009826,34269371,15619052,10000
10000_500_200_18_5,274407518,273321688,33142898,15140428,10000
10000_500_200_18_6,268725585,267526619,33261976,15604511,10000
10000_500_200_18_7,282474137,281267376,38119185,17216207,10000
10000_500_200_18_8,269615895,268362897,34690426,15660191,10000
10000_500_200_18_9,292741045,291724663,34536510,15882667,10000
1000_500_250_18_0,869939782,852204579,85074270,29453129,10000
1000_500_250_18_1,722161883,704583222,81058477,30157736,10000
1000_500_250_18_2,802475193,785389096,80422147,27088361,10000
1000_500_250_18_3,1026885535,1007776576,89197927,31814786,10000
1000_500_250_18_4,640700984,627687787,67565975,24694757,10000
1000_500_250_18_5,738540865,721991302,78468651,28424207,10000
1000_500_250_18_6,676074526,658637354,75886696,27616805,10000
1000_500_250_18_7,677753864,661278686,81465928,30194927,10000
1000_500_250_18_8,946374506,928627827,80293580,29405386,10000
1000_500_250_18_9,917340950,897982052,86796650,30680416,10000
500_250_100_18_0,310993198,304326979,36917396,18977352,10000
500_250_100_18_1,282404877,273969279,41629732,19744727,10000
500_250_100_18_2,280458109,273147829,38301465,19115656,10000
500_250_100_18_3,246770307,238625938,41686289,19138042,10000
500_250_100_18_4,296956201,286633936,45770872,20816572,10000
500_250_100_18_5,324043608,316127585,41354699,21324902,10000
500_250_100_18_6,244744375,235963898,42325312,20226362,10000
500_250_100_18_7,245193758,237704279,38545062,18597255,10000
500_250_100_18_8,231907384,223452475,41772296,18823349,10000
500_250_100_18_9,301052414,293223027,41288896,20497245,10000
100_75_50_18_0,17173468,16168698,5549527,3177726,10000
100_75_50_18_1,24890324,23982280,5700973,3089223,10000
100_75_50_18_2,25136461,23989826,6207336,3471891,10000
100_75_50_18_3,24443937,23523739,5388829,3151293,10000
100_75_50_18_4,17765060,16920714,5015324,2939221,10000
100_75_50_18_5,19074413,18360097,4864013,2613038,10000
100_75_50_18_6,24335824,23357147,6028649,3415616,10000
100_75_50_18_7,22978887,21963415,5986795,3271143,10000
100_75_50_18_8,19379701,18625793,5010996,3071964,10000
100_75_50_18_9,20002354,18943688,5744389,3092364,10000
10000_500_200_19_0,173332094,173051647,31576978,0,10000
10000_500_200_19_1,338331970,338010419,33608183,0,10000
10000_500_200_19_2,186195576,185941790,27690402,0,10000
10000_500_200_19_3,299890775,299571890,32323052,0,10000
10000_500_200_19_4,287886994,287662072,29730527,0,10000
10000_500_200_19_5,244963506,244618665,29740763,0,10000
10000_500_200_19_6,254843070,254557726,27780970,0,10000
10000_500_200_19_7,312733900,312443072,31747160,0,10000
10000_500_200_19_8,174447156,174202593,29959872,0,10000
10000_500_200_19_9,277492848,277192971,29935432,0,10000
1000_500_250_19_0,270239487,267225431,34762155,0,10000
1000_500_250_19_1,412501247,409761489,36308829,0,10000
1000_500_250_19_2,367208968,364551660,34530635,0,10000
1000_500_250_19_3,356187349,353490285,35448317,0,10000
1000_500_250_19_4,315163311,312025374,36494377,0,10000
1000_500_250_19_5,267397302,264732940,39270894,0,10000
1000_500_250_19_6,326982951,324102838,37458712,0,10000
1000_500_250_19_7,217121874,214227162,36211062,0,10000
1000_500_250_19_8,327525238,323752386,40450612,0,10000
1000_500_250_19_9,329955753,326885588,37027447,0,10000
500_250_100_19_0,150566326,148546222,28444854,10945,10000
500_250_100_19_1,153367470,151396997,27959935,155766,10000
500_250_100_19_2,250239985,247737785,33331324,30248,10000
500_250_100_19_3,188397346,186643785,28687720,56177,10000
500_250_100_19_4,215404875,212789246,33729111,4076,10000
500_250_100_19_5,178183680,176243055,31198564,38028,10000
500_250_100_19_6,189441854,187229672,33136833,13002,10000
500_250_100_19_7,181584970,180057445,30347099,153751,10000
500_250_100_19_8,194245265,191899912,32526895,26889,10000
500_250_100_19_9,177187484,174250321,33685699,62952,10000
100_75_50_19_0,7085298,6628492,4691711,564371,10000
100_75_50_19_1,5385751,4909845,4258701,424166,10000
100_75_50_19_2,6360988,5397882,5967838,149684,10000
100_75_50_19_3,6681179,5944587,5535391,170069,10000
100_75_50_19_4,9730138,9000510,6028373,561754,10000
100_75_50_19_5,3196174,2273481,5214867,339040,10000
100_75_50_19_6,7646398,6954187,6292503,528326,10000
100_75_50_19_7,7166307,6503022,5093787,214431,10000
100_75_50_19_8,8046696,7583522,5445588,494078,10000
100_75_50_19_9,5664931,5053358,4993347,207681,10000
10000_500_200_20_0,252905293,251765718,36656916,14269328,10000
10000_500_200_20_1,196095898,195176229,32550229,12406810,10000
10000_500_200_20_2,244573162,243407569,34383214,12892448,10000
10000_500_200_20_3,185195364,184148346,35207738,12835557,10000
10000_500_200_20_4,260540523,259323978,35481328,13824808,10000
10000_500_200_20_5,209210632,208322522,30196115,11519595,10000
10000_500_200_20_6,216559325,215351302,35343119,13028496,10000
10000_500_200_20_7,240198503,238942220,32522154,12689571,10000
10000_500_200_20_8,233620110,232500759,32620526,12519619,10000
10000_500_200_20_9,228617204,227540182,33113049,12888691,10000
1000_500_250_20_0,657588883,642733165,72891595,23973314,10000
1000_500_250_20_1,818921893,798120769,87393997,23851116,10000
1000_500_250_20_2,754330475,738203416,80210198,23260675,10000
1000_500_250_20_3,694160421,679669764,77354061,22627814,10000
1000_500_250_20_4,672179279,659430690,67982358,19159951,10000
1000_500_250_20_5,582083160,572201651,57863739,20681176,10000
1000_500_250_20_6,657615734,639377293,86011815,23211564,10000
1000_500_250_20_7,758036701,741791061,74947939,21518965,10000
1000_500_250_20_8,570423507,555469666,73523687,23352456,10000
1000_500_250_20_9,538053050,524823729,70004694,20387522,10000
500_250_100_20_0,186654416,180597578,32408464,13534994,10000
500_250_100_20_1,127803515,121383858,33010616,13040461,10000
500_250_100_20_2,199654751,194873526,30990216,14001605,10000
500_250_100_20_3,235434899,228256457,35971623,17728011,10000
500_250_100_20_4,251764837,244498631,35872097,15313172,10000
500_250_100_20_5,213218882,206814085,35134376,15256967,10000
500_250_100_20_6,193905878,188308768,31766804,14395479,10000
500_250_100_20_7,153824145,146562074,35802551,14658311,10000
500_250_100_20_8,156254777,150157860,35410242,14959689,10000
500_250_100_20_9,195459505,189444067,32386968,13691844,10000
100_75_50_20_0,20733606,19969872,4959796,2733246,10000
100_75_50_20_1,23059190,21888880,6130219,2842427,10000
100_75_50_20_2,15371062,14336519,5149564,2303807,10000
100_75_50_20_3,19915131,19116135,4849303,2806294,10000
100_75_50_20_4,21243236,20287327,5701699,3278217,10000
100_75_50_20_5,26885753,25521778,6623451,3109930,10000
100_75_50_20_6,20673898,19771872,5119404,2532260,10000
100_75_50_20_7,33064589,31815907,5957168,2973314,10000
100_75_50_20_8,12575841,11992198,4115601,2075865,10000
100_75_50_20_9,12460578,11526223,5039397,2429185,10000
10000_500_200_22_0,248318842,245775214,35818732,19302600,10000
10000_500_200_22_1,240377372,237405122,39463650,21862953,10000
10000_500_200_22_2,219743194,217204011,34999183,18911743,10000
10000_500_200_22_3,270096143,267674629,31099715,17026419,10000
10000_500_200_22_4,270655091,267872438,37242175,20324063,10000
10000_500_200_22_5,312529396,309745254,39028475,21700702,10000
10000_500_200_22_6,288388848,286014491,32348789,18051416,10000
10000_500_200_22_7,207504472,205294036,32101946,17574214,10000
10000_500_200_22_8,257576140,254802617,34632345,18941678,10000
10000_500_200_22_9,212286175,210075450,33965124,19000630,10000
1000_500_250_22_0,590963401,574043340,80206057,35822823,10000
1000_500_250_22_1,446173870,427083271,81096404,36098826,10000
1000_500_250_22_2,577255383,557721054,82929026,34368329,10000
1000_500_250_22_3,645665132,626599886,82092034,35143375,10000
1000_500_250_22_4,454744751,440373987,68938983,30622198,10000
1000_500_250_22_5,486190353,469600522,78607453,35721591,10000
1000_500_250_22_6,522033375,502043118,81410595,35437426,10000
1000_500_250_22_7,509205274,491827466,83386625,37637739,10000
1000_500_250_22_8,596997664,578201497,78567220,35186520,10000
1000_500_250_22_9,604676927,586832760,78431428,35248855,10000
500_250_100_22_0,223876997,216740931,37106387,20863915,10000
500_250_100_22_1,251568063,243008785,42778202,22937856,10000
500_250_100_22_2,253561656,245494106,40884403,22190984,10000
500_250_100_22_3,198352193,189172978,43240944,22553422,10000
500_250_100_22_4,230141501,219930264,44579186,22893486,10000
500_250_100_22_5,253904031,246823190,39523102,23971371,10000
500_250_100_22_6,190646359,181969528,41443343,22136222,10000
500_250_100_22_7,157567879,150583693,35596933,19186771,10000
500_250_100_22_8,193040243,183991534,42354862,21983277,10000
500_250_100_22_9,248823458,240111751,41622792,22104168,10000
100_75_50_22_0,14448877,13509831,5177084,2519161,10000
100_75_50_22_1,18732541,17943026,4946854,2160758,10000
100_75_50_22_2,18540702,17518472,5478735,2518672,10000
100_75_50_22_3,20527866,19664340,4944143,2391866,10000
100_75_50_22_4,17226594,16501963,4835212,2590871,10000
100_75_50_22_5,18438737,17642746,4685004,1956625,10000
100_75_50_22_6,18417912,17659659,4957917,2355415,10000
100_75_50_22_7,22009393,21159630,5249012,2405298,10000
100_75_50_22_8,19176310,18463491,4933382,2690489,10000
100_75_50_22_9,15700683,14792960,5221590,2394679,10000
10000_500_200_23_0,124459257,124294627,29374994,0,10000
10000_500_200_23_1,178797363,178492685,28278396,38902,10000
10000_500_200_23_2,116324688,116055521,30407160,11916,10000
10000_500_200_23_3,157629258,157366253,27659333,845,10000
10000_500_200_23_4,217506818,217253877,34686925,715,10000
10000_500_200_23_5,175500585,175189607,32102632,15583,10000
10000_500_200_23_6,195415689,195154078,30518938,9787,10000
10000_500_200_23_7,201486591,201246922,28074340,11992,10000
10000_500_200_23_8,127823063,127628716,31579075,3000,10000
10000_500_200_23_9,179825351,179530183,29884677,1198,10000
1000_500_250_23_0,173709154,170673119,38492864,7183,10000
1000_500_250_23_1,271819376,269552735,37353237,12654,10000
1000_500_250_23_2,237771034,235193398,36636369,3226,10000
1000_500_250_23_3,223770729,221056854,38046229,13691,10000
1000_500_250_23_4,177428482,174950939,35166792,900,10000
1000_500_250_23_5,173294357,171342909,38250353,3530,10000
1000_500_250_23_6,199777291,197558830,38418946,11592,10000
1000_500_250_23_7,155002182,152521830,39760109,19888,10000
1000_500_250_23_8,209202762,206035311,38549970,0,10000
1000_500_250_23_9,192925610,190377707,36358471,910,10000
500_250_100_23_0,94121834,93054513,24250839,727457,10000
500_250_100_23_1,95600615,94521051,23838841,2359345,10000
500_250_100_23_2,151600713,150298598,29068265,1136128,10000
500_250_100_23_3,113285109,112447484,24166251,1720327,10000
500_250_100_23_4,133623970,132336017,28771543,415067,10000
500_250_100_23_5,115046889,114162547,26535329,1367727,10000
500_250_100_23_6,119212442,117590097,29107170,757429,10000
500_250_100_23_7,109584682,108822536,25376384,2660606,10000
500_250_100_23_8,116029603,114744505,27789636,1027956,10000
500_250_100_23_9,104833669,102781502,28774967,1598873,10000
100_75_50_23_0,4748265,4400316,5013012,609290,10000
100_75_50_23_1,4168556,3702003,4892400,760669,10000
100_75_50_23_2,5684064,5178291,5594027,791911,10000
100_75_50_23_3,3426785,2942686,5156401,539102,10000
100_75_50_23_4,5255336,4427357,6235131,1073990,10000
100_75_50_23_5,2068892,1424588,5450650,290089,10000
100_75_50_23_6,4094104,3702770,5690303,866929,10000
100_75_50_23_7,4431273,3995775,5031601,548647,10000
100_75_50_23_8,3956861,3698003,4952274,966688,10000
100_75_50_23_9,2953699,2537160,4760004,588667,10000
10000_500_200_24_0,197812421,195414882,34522823,16648897,10000
10000_500_200_24_1,158283907,156502360,31385071,15082700,10000
10000_500_200_24_2,204803355,202138789,33558983,15559067,10000
10000_500_200_24_3,171174182,169232532,31227991,14538941,10000
10000_500_200_24_4,212048639,209668920,35538923,17290733,10000
10000_500_200_24_5,178592445,176456061,31443637,15078847,10000
10000_500_200_24_6,192653713,190347559,32007711,14779402,10000
10000_500_200_24_7,227928749,225327173,31590618,15019967,10000
10000_500_200_24_8,205869538,203523591,33172700,15831373,10000
10000_500_200_24_9,212260708,210018499,32210915,15322615,10000
1000_500_250_24_0,383239521,370233493,62258159,25774417,10000
1000_500_250_24_1,490167283,468977784,85246613,29840700,10000
1000_500_250_24_2,409993441,395296138,68655746,25011571,10000
1000_500_250_24_3,383045598,371409647,66315265,25893311,10000
1000_500_250_24_4,381152561,369867765,59196861,21748360,10000
1000_500_250_24_5,404525012,393340194,59233942,26108366,10000
1000_500_250_24_6,417298809,399939123,76443220,26881751,10000
1000_500_250_24_7,442162671,427387461,66115906,24438465,10000
1000_500_250_24_8,337173922,323110518,67496791,26820853,10000
1000_500_250_24_9,388146382,374585610,68132391,26001493,10000
500_250_100_24_0,131452010,126422865,28070527,13561204,10000
500_250_100_24_1,119978629,112682939,33993998,15137084,10000
500_250_100_24_2,128045616,122462515,31574627,15950366,10000
500_250_100_24_3,134383823,128068859,31512417,17108083,10000
500_250_100_24_4,170618755,164329705,31317160,15124708,10000
500_250_100_24_5,147571743,142115654,32075909,15738248,10000
500_250_100_24_6,120941671,115943322,27344564,13727676,10000
500_250_100_24_7,123901868,116601761,34230651,15854218,10000
500_250_100_24_8,109820309,104852230,28927429,14179682,10000
500_250_100_24_9,112467396,106343092,29658341,14274158,10000
100_75_50_24_0,16784640,16178246,4330140,2076280,10000
100_75_50_24_1,18776116,17801839,5625574,2404932,10000
100_75_50_24_2,9922978,9168827,4277306,1442648,10000
100_75_50_24_3,16919763,16284777,4417587,2417122,10000
100_75_50_24_4,18144795,17393908,4927251,2591342,10000
100_75_50_24_5,16383270,15261321,4762649,1619011,10000
100_75_50_24_6,15220239,14548300,4257105,1862783,10000
100_75_50_24_7,27200651,26395974,4867123,2227843,10000
100_75_50_24_8,10795956,10240697,3797076,1517375,10000
100_75_50_24_9,10141570,9480212,4117424,1856258,10000
10000_500_200_26_0,2051424973,2051350981,32835444,6890386,10000
10000_500_200_26_1,2108272302,2108228408,32286612,6643802,10000
10000_500_200_26_2,1882726342,1882559822,34152649,6627478,10000
10000_500_200_26_3,2151244899,2151112291,35032823,6840205,10000
10000_500_200_26_4,2011023642,2010986765,31256061,6301307,10000
10000_500_200_26_5,2398355290,2398307357,36951822,7642044,10000
10000_500_200_26_6,2068716818,2068533832,36225745,7577151,10000
10000_500_200_26_7,1959746533,1959639766,32701464,6471322,10000
10000_500_200_26_8,2374927692,2374900701,35913888,7369934,10000
10000_500_200_26_9,2212022177,2211987664,33712015,6791379,10000
1000_500_250_26_0,3024145602,3018414103,65458038,10996920,10000
1000_500_250_26_1,3365616039,3360550981,70230617,14137372,10000
1000_500_250_26_2,2988818744,2983627805,62079393,11155546,10000
1000_500_250_26_3,3582023990,3577837836,67112515,13777949,10000
1000_500_250_26_4,3188637182,3184133581,65409245,12991259,10000
1000_500_250_26_5,3551065751,3549310808,61618974,12053327,10000
1000_500_250_26_6,3244802645,3238719004,73435298,15379201,10000
1000_500_250_26_7,2873297425,2867618232,64729145,12675816,10000
1000_500_250_26_8,3213159845,3209613301,59468764,11972569,10000
1000_500_250_26_9,3028890222,3023964339,62658979,11784195,10000
500_250_100_26_0,1061343734,1059764440,35739215,11369932,10000
500_250_100_26_1,528750823,527701255,20224642,5711800,10000
500_250_100_26_2,1115735450,1112760499,41236654,12824488,10000
500_250_100_26_3,812779382,811322714,31069237,7161500,10000
500_250_100_26_4,1203660259,1197689414,51026214,13709003,10000
500_250_100_26_5,1064264633,1060844423,39019766,10799384,10000
500_250_100_26_6,1237938266,1231933065,51981678,14307437,10000
500_250_100_26_7,842680445,841888601,29179121,8978481,10000
500_250_100_26_8,1166488547,1162604176,45116966,11397115,10000
500_250_100_26_9,1128121924,1125487388,41035768,12696215,10000
100_75_50_26_0,39430114,38994958,4659526,2306637,10000
100_75_50_26_1,29444559,29346963,3213601,1637368,10000
100_75_50_26_2,60697705,59870683,5967895,2901977,10000
100_75_50_26_3,40386360,40299951,4204465,2132369,10000
100_75_50_26_4,41881436,41365663,4675407,2352254,10000
100_75_50_26_5,37030736,36652733,4558522,2548202,10000
100_75_50_26_6,55150644,54421175,5697316,2602170,10000
100_75_50_26_7,46183514,45986161,4616292,2191572,10000
100_75_50_26_8,35215039,34781953,4096314,2038551,10000
100_75_50_26_9,41787767,41550161,4317160,2415973,10000
10000_500_200_27_0,1403918021,1403918021,24512848,0,10000
10000_500_200_27_1,1473823849,1473823849,26352965,0,10000
10000_500_200_27_2,1496301674,1496301674,26411645,0,10000
10000_500_200_27_3,1376765402,1376765402,25067588,0,10000
10000_500_200_27_4,1495326265,1495326265,26836646,0,10000
10000_500_200_27_5,1394412306,1394412306,25485762,0,10000
10000_500_200_27_6,1410302278,1410302278,25038093,0,10000
10000_500_200_27_7,1454443147,1454443147,25907957,0,10000
10000_500_200_27_8,1308021845,1308021845,23308354,0,10000
10000_500_200_27_9,1525747075,1525747075,26985854,0,10000
1000_500_250_27_0,1435683333,1435683333,27696045,0,10000
1000_500_250_27_1,1499282252,1499281565,28075855,0,10000
1000_500_250_27_2,1368649559,1368649559,25422616,0,10000
1000_500_250_27_3,1469646200,1469646200,27112576,0,10000
1000_500_250_27_4,1478977289,1478970271,27186761,0,10000
1000_500_250_27_5,1301931555,1301931555,25862122,0,10000
1000_500_250_27_6,1298079370,1298079370,24690571,0,10000
1000_500_250_27_7,1554641646,1554641646,29558684,0,10000
1000_500_250_27_8,1355797352,1355797352,25089322,0,10000
1000_500_250_27_9,1363789832,1363789832,26261755,0,10000
500_250_100_27_0,748689862,748689862,27500490,0,10000
500_250_100_27_1,640570929,640561798,24273586,0,10000
500_250_100_27_2,730120635,730120635,27616926,0,10000
500_250_100_27_3,785150931,785122094,29109562,0,10000
500_250_100_27_4,829302359,829302359,30496470,0,10000
500_250_100_27_5,739584505,739580557,27782799,0,10000
500_250_100_27_6,813780390,813780390,29409350,0,10000
500_250_100_27_7,809334817,809334077,30568571,0,10000
500_250_100_27_8,834395278,834395278,29889963,0,10000
500_250_100_27_9,911905484,911905484,31817736,0,10000
100_75_50_27_0,37032362,37032362,4351035,97042,10000
100_75_50_27_1,36778100,36776317,4342957,194932,10000
100_75_50_27_2,51388334,51374371,5592477,2751,10000
100_75_50_27_3,47979335,47954079,5409708,480,10000
100_75_50_27_4,38761210,38751454,4684849,47938,10000
100_75_50_27_5,43084409,43084409,5117989,1543,10000
100_75_50_27_6,37026036,37026036,5202044,1222,10000
100_75_50_27_7,47265257,47209577,5374957,3906,10000
100_75_50_27_8,36584758,36584758,4361809,111263,10000
100_75_50_27_9,50667210,50667053,5136076,8084,10000
10000_500_200_28_0,2227843976,2227843948,33509829,5464673,10000
10000_500_200_28_1,1714186023,1714028628,32425797,5208165,10000
10000_500_200_28_2,2228107447,2228031748,35965399,5695574,10000
10000_500_200_28_3,1971733659,1971727425,29957388,4442535,10000
10000_500_200_28_4,1980313405,1980270415,31411567,5080291,10000
10000_500_200_28_5,2147271530,2147271155,32843727,5359837,10000
10000_500_200_28_6,2104481826,2104479507,31453239,4840716,10000
10000_500_200_28_7,2243091107,2243050255,34692197,5770204,10000
10000_500_200_28_8,2125828070,2125825738,32280555,5230224,10000
10000_500_200_28_9,2058953455,2058950974,30561130,4916825,10000
1000_500_250_28_0,2420319964,2412234038,66124393,10772028,10000
1000_500_250_28_1,3519209702,3516160592,64302588,10287884,10000
1000_500_250_28_2,3420148130,3419566190,57510106,9227944,10000
1000_500_250_28_3,2947323374,2943927151,59732090,8626771,10000
1000_500_250_28_4,3466340367,3465034281,59238857,8455560,10000
1000_500_250_28_5,3370702906,3369277206,59952184,10138656,10000
1000_500_250_28_6,2750545604,2743574611,68099044,9480825,10000
1000_500_250_28_7,3240261389,3235454727,66093207,9052795,10000
1000_500_250_28_8,2802892581,2795523755,66749142,9584156,10000
1000_500_250_28_9,3025133580,3021256591,66229618,8838647,10000
500_250_100_28_0,892809561,888385911,40948510,9735087,10000
500_250_100_28_1,688460676,687683615,25575993,5932651,10000
500_250_100_28_2,747639725,747155153,27911114,6791523,10000
500_250_100_28_3,1335980919,1335224909,42019310,12655574,10000
500_250_100_28_4,1304552744,1303466090,40090298,10553649,10000
500_250_100_28_5,1079934890,1077659643,38829942,9644360,10000
500_250_100_28_6,910802441,906164844,41432744,9628359,10000
500_250_100_28_7,969351251,965638217,39033056,8322152,10000
500_250_100_28_8,951447759,949667124,36153760,8554106,10000
500_250_100_28_9,984548697,983720307,34232118,8551704,10000
100_75_50_28_0,40685571,40318990,3925331,1895313,10000
100_75_50_28_1,34670396,34417703,4396789,2006807,10000
100_75_50_28_2,52581114,51502562,6362168,2732814,10000
100_75_50_28_3,38467385,37837372,4864054,2019847,10000
100_75_50_28_4,43101793,42980723,4765871,2885245,10000
100_75_50_28_5,53040791,52295372,6268096,2678309,10000
100_75_50_28_6,49852520,49284152,5038759,2499411,10000
100_75_50_28_7,57698543,57062044,5934292,2785317,10000
100_75_50_28_8,35452347,35229688,3601554,1485614,10000
100_75_50_28_9,27936637,27359626,4209193,1585413,10000
10000_500_200_30_0,245728723,244627857,35378382,16173229,10000
10000_500_200_30_1,219811522,218449797,36350419,16551081,10000
10000_500_200_30_2,206482583,205389108,33621855,15095649,10000
10000_500_200_30_3,270331293,269051121,31929620,14209747,10000
10000_500_200_30_4,228177518,227078455,34927205,15931008,10000
10000_500_200_30_5,286614032,285485657,34617303,15820021,10000
10000_500_200_30_6,308199309,306844983,37841837,17773156,10000
10000_500_200_30_7,265127268,264016762,35218645,15877027,10000
10000_500_200_30_8,286556813,285186468,37501923,16934319,10000
10000_500_200_30_9,281910584,280940834,32878751,15103501,10000
1000_500_250_30_0,869939782,852204579,85074270,29453129,10000
1000_500_250_30_1,722161883,704583222,81058477,30157736,10000
1000_500_250_30_2,802475193,785389096,80422147,27088361,10000
1000_500_250_30_3,1009754043,990986173,87644871,31263931,10000
1000_500_250_30_4,640700984,627687787,67565975,24694757,10000
1000_500_250_30_5,738540865,721991302,78468651,28424207,10000
1000_500_250_30_6,676074526,658637354,75886696,27616805,10000
1000_500_250_30_7,677753864,661278686,81465928,30194927,10000
1000_500_250_30_8,946374506,928627827,80293580,29405386,10000
1000_500_250_30_9,892485528,873635473,84517102,29879721,10000
500_250_100_30_0,310993198,304326979,36917396,18977352,10000
500_250_100_30_1,282404877,273969279,41629732,19744727,10000
500_250_100_30_2,280458109,273147829,38301465,19115656,10000
500_250_100_30_3,246770307,238625938,41686289,19138042,10000
500_250_100_30_4,296956201,286633936,45770872,20816572,10000
500_250_100_30_5,324043608,316127585,41354699,21324902,10000
500_250_100_30_6,244744375,235963898,42325312,20226362,10000
500_250_100_30_7,245193758,237704279,38545062,18597255,10000
500_250_100_30_8,231907384,223452475,41772296,18823349,10000
500_250_100_30_9,301052414,293223027,41288896,20497245,10000
100_75_50_30_0,17173468,16168698,5549527,3177726,10000
100_75_50_30_1,24890324,23982280,5700973,3089223,10000
100_75_50_30_2,25136461,23989826,6207336,3471891,10000
100_75_50_30_3,24443937,23523739,5388829,3151293,10000
100_75_50_30_4,17765060,16920714,5015324,2939221,10000
100_75_50_30_5,19074413,18360097,4864013,2613038,10000
100_75_50_30_6,24335824,23357147,6028649,3415616,10000
100_75_50_30_7,22978887,21963415,5986795,3271143,10000
100_75_50_30_8,19379701,18625793,5010996,3071964,10000
100_75_50_30_9,20002354,18943688,5744389,3092364,10000
10000_500_200_31_0,177751681,177463315,32500374,0,10000
10000_500_200_31_1,304555203,304267611,30111170,0,10000
10000_500_200_31_2,206632746,206360199,29788824,0,10000
10000_500_200_31_3,282160988,281870098,29747398,0,10000
10000_500_200_31_4,285758599,285537884,29158934,0,10000
10000_500_200_31_5,250258823,249908148,30254049,0,10000
10000_500_200_31_6,255115633,254828977,27861881,0,10000
10000_500_200_31_7,269593025,269326265,28359585,0,10000
10000_500_200_31_8,180665874,180417090,30700597,0,10000
10000_500_200_31_9,275726460,275431766,29582009,0,10000
1000_500_250_31_0,279992837,276861472,36090997,0,10000
1000_500_250_31_1,412252377,409514039,36288311,0,10000
1000_500_250_31_2,371856423,369169828,34938969,0,10000
1000_500_250_31_3,373782424,370956343,37190952,0,10000
1000_500_250_31_4,303278325,300243605,35266301,0,10000
1000_500_250_31_5,254050349,251520210,37315801,0,10000
1000_500_250_31_6,310163033,307432509,35505276,0,10000
1000_500_250_31_7,228697912,225637415,38201080,0,10000
1000_500_250_31_8,314143317,310531880,38750285,0,10000
1000_500_250_31_9,330066514,326992297,37059093,0,10000
500_250_100_31_0,150566326,148546222,28444854,10945,10000
500_250_100_31_1,153367470,151396997,27959935,155766,10000
500_250_100_31_2,250239985,247737785,33331324,30248,10000
500_250_100_31_3,188397346,186643785,28687720,56177,10000
500_250_100_31_4,215404875,212789246,33729111,4076,10000
500_250_100_31_5,178183680,176243055,31198564,38028,10000
500_250_100_31_6,189441854,187229672,33136833,13002,10000
500_250_100_31_7,181584970,180057445,30347099,153751,10000
500_250_100_31_8,194245265,191899912,32526895,26889,10000
500_250_100_31_9,177187484,174250321,33685699,62952,10000
100_75_50_31_0,7085298,6628492,4691711,564371,10000
100_75_50_31_1,5385751,4909845,4258701,424166,10000
100_75_50_31_2,6360988,5397882,5967838,149684,10000
100_75_50_31_3,6681179,5944587,5535391,170069,10000
100_75_50_31_4,9730138,9000510,6028373,561754,10000
100_75_50_31_5,3196174,2273481,5214867,339040,10000
100_75_50_31_6,7646398,6954187,6292503,528326,10000
100_75_50_31_7,7166307,6503022,5093787,214431,10000
100_75_50_31_8,8046696,7583522,5445588,494078,10000
100_75_50_31_9,5664931,5053358,4993347,207681,10000
10000_500_200_32_0,248002877,246908418,35567813,13828888,10000
10000_500_200_32_1,207481084,206488653,34740920,13240250,10000
10000_500_200_32_2,242800235,241649237,34030566,12773595,10000
10000_500_200_32_3,194687845,193597849,36543392,13331183,10000
10000_500_200_32_4,243030303,241902892,32926512,12859381,10000
10000_500_200_32_5,224783592,223811146,32746808,12487244,10000
10000_500_200_32_6,213591580,212407406,34712680,12817768,10000
10000_500_200_32_7,253510124,252180899,34493946,13468089,10000
10000_500_200_32_8,233370558,232253157,32588792,12507319,10000
10000_500_200_32_9,237494405,236384445,34210074,13327967,10000
1000_500_250_32_0,657588883,642733165,72891595,23973314,10000
1000_500_250_32_1,820337749,799495901,87561487,23895922,10000
1000_500_250_32_2,754330475,738203416,80210198,23260675,10000
1000_500_250_32_3,694160421,679669764,77354061,22627814,10000
1000_500_250_32_4,672179279,659430690,67982358,19159951,10000
1000_500_250_32_5,582083160,572201651,57863739,20681176,10000
1000_500_250_32_6,655271865,637093416,85759964,23144702,10000
1000_500_250_32_7,758036701,741791061,74947939,21518965,10000
1000_500_250_32_8,570423507,555469666,73523687,23352456,10000
1000_500_250_32_9,538053050,524823729,70004694,20387522,10000
500_250_100_32_0,186654416,180597578,32408464,13534994,10000
500_250_100_32_1,127803515,121383858,33010616,13040461,10000
500_250_100_32_2,199654751,194873526,30990216,14001605,10000
500_250_100_32_3,235434899,228256457,35971623,17728011,10000
500_250_100_32_4,251764837,244498631,35872097,15313172,10000
500_250_100_32_5,213218882,206814085,35134376,15256967,10000
500_250_100_32_6,193905878,188308768,31766804,14395479,10000
500_250_100_32_7,153824145,146562074,35802551,14658311,10000
500_250_100_32_8,156254777,150157860,35410242,14959689,10000
500_250_100_32_9,195459505,189444067,32386968,13691844,10000
100_75_50_32_0,20733606,19969872,4959796,2733246,10000
100_75_50_32_1,23059190,21888880,6130219,2842427,10000
100_75_50_32_2,15371062,14336519,5149564,2303807,10000
100_75_50_32_3,19915131,19116135,4849303,2806294,10000
100_75_50_32_4,21243236,20287327,5701699,3278217,10000
100_75_50_32_5,26885753,25521778,6623451,3109930,10000
100_75_50_32_6,20673898,19771872,5119404,2532260,10000
100_75_50_32_7,33064589,31815907,5957168,2973314,10000
100_75_50_32_8,12575841,11992198,4115601,2075865,10000
100_75_50_32_9,12460578,11526223,5039397,2429185,10000
10000_500_200_34_0,240024067,237584717,34489552,18618005,10000
10000_500_200_34_1,208920860,206337307,34144620,18899477,10000
10000_500_200_34_2,187620603,185405023,30313469,16448191,10000
10000_500_200_34_3,276632833,274149205,32058132,17535434,10000
10000_500_200_34_4,257151295,254520623,35307140,19246936,10000
10000_500_200_34_5,283016197,280438463,35594858,19674499,10000
10000_500_200_34_6,291769861,289355361,32787183,18313299,10000
10000_500_200_34_7,238539951,236025224,37616083,20680708,10000
10000_500_200_34_8,242323188,239709014,32690287,17857238,10000
10000_500_200_34_9,208211194,206043516,33254795,18617165,10000
1000_500_250_34_0,566593692,550365985,76920206,34368217,10000
1000_500_250_34_1,446173870,427083271,81096404,36098826,10000
1000_500_250_34_2,597018287,576856844,85614469,35482518,10000
1000_500_250_34_3,668646934,648913125,85044456,36419340,10000
1000_500_250_34_4,454744751,440373987,68938983,30622198,10000
1000_500_250_34_5,486190353,469600522,78607453,35721591,10000
1000_500_250_34_6,518822342,498968527,80864879,35199950,10000
1000_500_250_34_7,515078976,497525105,84294562,38057291,10000
1000_500_250_34_8,596997664,578201497,78567220,35186520,10000
1000_500_250_34_9,606214794,588325562,78631298,35339123,10000
500_250_100_34_0,223876997,216740931,37106387,20863915,10000
500_250_100_34_1,251568063,243008785,42778202,22937856,10000
500_250_100_34_2,253561656,245494106,40884403,22190984,10000
500_250_100_34_3,198352193,189172978,43240944,22553422,10000
500_250_100_34_4,230141501,219930264,44579186,22893486,10000
500_250_100_34_5,253904031,246823190,39523102,23971371,10000
500_250_100_34_6,190646359,181969528,41443343,22136222,10000
500_250_100_34_7,157567879,150583693,35596933,19186771,10000
500_250_100_34_8,193040243,183991534,42354862,21983277,10000
500_250_100_34_9,248823458,240111751,41622792,22104168,10000
100_75_50_34_0,14448877,13509831,5177084,2519161,10000
100_75_50_34_1,18732541,17943026,4946854,2160758,10000
100_75_50_34_2,18540702,17518472,5478735,2518672,10000
100_75_50_34_3,20527866,19664340,4944143,2391866,10000
100_75_50_34_4,17226594,16501963,4835212,2590871,10000
100_75_50_34_5,18438737,17642746,4685004,1956625,10000
100_75_50_34_6,18417912,17659659,4957917,2355415,10000
100_75_50_34_7,22009393,21159630,5249012,2405298,10000
100_75_50_34_8,19176310,18463491,4933382,2690489,10000
100_75_50_34_9,15700683,14792960,5221590,2394679,10000
10000_500_200_35_0,128299382,128133173,29875048,0,10000
10000_500_200_35_1,185791249,185474496,29297341,38902,10000
10000_500_200_35_2,99904835,99663037,27089856,11916,10000
10000_500_200_35_3,162500770,162226316,28887114,845,10000
10000_500_200_35_4,204889798,204654160,32017787,715,10000
10000_500_200_35_5,159408057,159146418,27866302,6999,10000
10000_500_200_35_6,174620120,174380199,27466422,9787,10000
10000_500_200_35_7,210283913,210039136,29046546,11992,10000
10000_500_200_35_8,124970898,124778650,31188143,3000,10000
10000_500_200_35_9,176306016,176012637,29484075,1198,10000
1000_500_250_35_0,187681775,184406051,41510349,7425,10000
1000_500_250_35_1,293050790,290618937,40265172,13454,10000
1000_500_250_35_2,232464126,229949406,35760494,3226,10000
1000_500_250_35_3,232533437,229727649,39432670,13691,10000
1000_500_250_35_4,193836803,191156278,38224023,948,10000
1000_500_250_35_5,180590780,178553946,39920253,3530,10000
1000_500_250_35_6,198663236,196456195,38217370,11592,10000
1000_500_250_35_7,149401456,147019774,38271218,19292,10000
1000_500_250_35_8,196468855,193506620,36149036,0,10000
1000_500_250_35_9,210028373,207268625,39459194,910,10000
500_250_100_35_0,94121834,93054513,24250839,727457,10000
500_250_100_35_1,95600615,94521051,23838841,2359345,10000
500_250_100_35_2,151600713,150298598,29068265,1136128,10000
500_250_100_35_3,113285109,112447484,24166251,1720327,10000
500_250_100_35_4,133623970,132336017,28771543,415067,10000
500_250_100_35_5,115046889,114162547,26535329,1367727,10000
500_250_100_35_6,119212442,117590097,29107170,757429,10000
500_250_100_35_7,109584682,108822536,25376384,2660606,10000
500_250_100_35_8,116029603,114744505,27789636,1027956,10000
500_250_100_35_9,104833669,102781502,28774967,1598873,10000
100_75_50_35_0,4748265,4400316,5013012,609290,10000
100_75_50_35_1,4168556,3702003,4892400,760669,10000
100_75_50_35_2,5684064,5178291,5594027,791911,10000
100_75_50_35_3,3426785,2942686,5156401,539102,10000
100_75_50_35_4,5255336,4427357,6235131,1073990,10000
100_75_50_35_5,2068892,1424588,5450650,290089,10000
100_75_50_35_6,4094104,3702770,5690303,866929,10000
100_75_50_35_7,4431273,3995775,5031601,548647,10000
100_75_50_35_8,3956861,3698003,4952274,966688,10000
100_75_50_35_9,2953699,2537160,4760004,588667,10000
10000_500_200_36_0,203499675,201040935,35340922,17053869,10000
10000_500_200_36_1,167273597,165379924,33160603,15934602,10000
10000_500_200_36_2,201602881,198967406,33012011,15312339,10000
10000_500_200_36_3,168535924,166625652,30698565,14284418,10000
10000_500_200_36_4,187122687,185024663,31462301,15284754,10000
10000_500_200_36_5,172684306,170640995,30174911,14484921,10000
10000_500_200_36_6,194729664,192404091,32315900,14922648,10000
10000_500_200_36_7,236785270,234091050,32738940,15556224,10000
10000_500_200_36_8,209424386,207051383,33647888,16043581,10000
10000_500_200_36_9,213384320,211125167,32437019,15428680,10000
1000_500_250_36_0,383239521,370233493,62258159,25774417,10000
1000_500_250_36_1,489828468,468656022,85176576,29815595,10000
1000_500_250_36_2,409993441,395296138,68655746,25011571,10000
1000_500_250_36_3,383045598,371409647,66315265,25893311,10000
1000_500_250_36_4,381152561,369867765,59196861,21748360,10000
1000_500_250_36_5,404525012,393340194,59233942,26108366,10000
1000_500_250_36_6,417298809,399939123,76443220,26881751,10000
1000_500_250_36_7,442162671,427387461,66115906,24438465,10000
1000_500_250_36_8,337173922,323110518,67496791,26820853,10000
1000_500_250_36_9,388146382,374585610,68132391,26001493,10000
500_250_100_36_0,131452010,126422865,28070527,13561204,10000
500_250_100_36_1,119978629,112682939,33993998,15137084,10000
500_250_100_36_2,128045616,122462515,31574627,15950366,10000
500_250_100_36_3,134383823,128068859,31512417,17108083,10000
500_250_100_36_4,170618755,164329705,31317160,15124708,10000
500_250_100_36_5,147571743,142115654,32075909,15738248,10000
500_250_100_36_6,120941671,115943322,27344564,13727676,10000
500_250_100_36_7,123901868,116601761,34230651,15854218,10000
500_250_100_36_8,109820309,104852230,28927429,14179682,10000
500_250_100_36_9,112467396,106343092,29658341,14274158,10000
100_75_50_36_0,16784640,16178246,4330140,2076280,10000
100_75_50_36_1,18776116,17801839,5625574,2404932,10000
100_75_50_36_2,9922978,9168827,4277306,1442648,10000
100_75_50_36_3,16919763,16284777,4417587,2417122,10000
100_75_50_36_4,18144795,17393908,4927251,2591342,10000
100_75_50_36_5,16383270,15261321,4762649,1619011,10000
100_75_50_36_6,15220239,14548300,4257105,1862783,10000
100_75_50_36_7,27200651,26395974,4867123,2227843,10000
100_75_50_36_8,10795956,10240697,3797076,1517375,10000
100_75_50_36_9,10141570,9480212,4117424,1856258,10000
