Warning messages:
1: In readLines(instancesFile) :
  incomplete final line found on '/home/mauro/problema-disposicao-propagandas/irace/MAXSPACE/training.txt'
2: In readLines(instancesFile) :
  incomplete final line found on '/home/mauro/problema-disposicao-propagandas/irace/MAXSPACE/test.txt'
Warning messages:
1: In readLines(instancesFile) :
  incomplete final line found on '/home/mauro/problema-disposicao-propagandas/irace/MAXSPACE_VARIANTE/training.txt'
2: In readLines(instancesFile) :
  incomplete final line found on '/home/mauro/problema-disposicao-propagandas/irace/MAXSPACE_VARIANTE/test.txt'
Warning messages:
1: In readLines(instancesFile) :
  incomplete final line found on '/home/mauro/problema-disposicao-propagandas/irace/MAXSPACE_VARIANTE/training.txt'
2: In readLines(instancesFile) :
  incomplete final line found on '/home/mauro/problema-disposicao-propagandas/irace/MAXSPACE_VARIANTE/test.txt'
Warning messages:
1: In readLines(instancesFile) :
  incomplete final line found on '/home/mauro/problema-disposicao-propagandas/irace/MAXSPACE/training.txt'
2: In readLines(instancesFile) :
  incomplete final line found on '/home/mauro/problema-disposicao-propagandas/irace/MAXSPACE/test.txt'
