instances,GRASP,Hybrid-GA,LSMF,PLI,VNS,brkga,localSearch
10000_500_200_1,943.7,2451.84,105.37,570.26,3600.0,3600.0,13.1
10000_500_200_2,3600.0,3600.0,0.11,56.87,3600.0,3600.0,204.17
10000_500_200_3,3600.0,3600.0,0.11,3600.0,3600.0,3600.0,400.9
1000_250_125_1,37.68,568.98,0.01,3600.0,124.53,351.95,0.1
1000_250_125_2,1198.57,1342.85,0.01,3600.0,742.15,483.15,4.09
1000_250_125_3,652.61,1207.81,0.01,3600.0,1017.49,463.92,2.82
1000_500_250_1,574.66,2276.06,0.01,3600.0,176.35,940.38,1.46
1000_500_250_2,3600.0,3600.0,0.02,1528.16,3600.0,2681.58,882.61
1000_500_250_3,3600.0,3600.0,0.02,3600.0,3600.0,2218.62,475.8
100_50_40_1,0.5,45.0,0.0,3600.0,0.18,18.16,0.0
100_50_40_2,0.31,39.87,0.0,3600.0,0.12,18.14,0.0
100_50_40_3,0.27,40.51,0.02,30.89,0.04,17.12,0.0
100_75_50_1,1.08,77.31,0.0,3600.0,1.41,28.46,0.0
100_75_50_2,1.17,81.1,0.0,3600.0,0.29,30.9,0.0
100_75_50_3,0.5,72.65,0.0,3600.0,0.56,27.33,0.0
200_100_50_1,1.92,77.57,0.0,102.17,0.56,52.6,0.0
200_100_50_2,1.91,80.08,0.0,3600.0,1.8,56.06,0.0
200_100_50_3,0.74,56.71,0.0,3600.0,0.51,51.61,0.0
200_50_40_1,0.71,27.69,0.0,3600.0,0.23,26.52,0.0
200_50_40_2,0.43,29.2,0.0,293.13,0.26,29.67,0.0
200_50_40_3,0.45,27.22,0.07,6.58,0.07,23.17,0.0
400_100_50_1,3.14,77.06,0.0,3600.0,2.21,76.4,0.0
400_100_50_2,3.19,80.57,0.0,3600.0,2.15,76.31,0.0
400_100_50_3,1.45,70.81,0.0,3600.0,1.22,70.92,0.0
400_150_75_1,6.69,135.22,0.0,3600.0,11.05,119.52,0.07
400_150_75_2,62.6,219.92,0.0,3600.0,49.46,132.43,0.63
400_150_75_3,6.32,203.59,0.0,3600.0,1.58,133.06,0.16
400_200_100_1,13.94,268.81,0.0,3600.0,38.28,174.2,0.18
400_200_100_2,392.46,392.22,0.0,3600.0,132.43,240.7,1.58
400_200_100_3,159.59,355.96,0.0,3600.0,70.73,213.95,0.6
500_125_50_1,6.19,209.86,0.0,3600.0,9.95,108.58,0.01
500_125_50_2,6.16,226.47,0.0,3600.0,14.41,110.19,0.02
500_125_50_3,2.97,197.32,0.0,3600.0,8.7,104.86,0.01
500_250_100_1,29.71,752.03,0.01,3600.0,37.5,253.87,0.71
500_250_100_2,870.47,1406.44,0.01,3600.0,561.25,351.24,1.71
500_250_100_3,338.42,1150.49,0.01,3600.0,432.23,314.79,2.15
10000_500_200_4,3600.0,3600.0,0.11,54.28,3600.0,3600.0,3600.0
1000_500_250_4,3600.0,3600.0,0.02,2541.8,3600.0,3293.65,1021.44
1000_250_125_4,1051.23,1363.3,0.01,40.47,1237.72,573.89,18.96
500_250_100_4,895.25,1276.49,0.01,3600.0,726.13,418.46,7.49
500_125_50_4,6.23,224.17,0.0,3600.0,9.28,119.32,0.21
400_200_100_4,428.36,392.55,0.0,3600.0,180.6,283.38,3.78
400_150_75_4,130.07,218.38,0.0,3600.0,87.0,157.66,0.51
400_100_50_4,3.22,81.56,0.0,3600.0,3.8,84.43,0.16
200_100_50_4,2.14,80.84,0.0,3600.0,1.81,59.55,0.11
200_50_40_4,0.51,25.66,0.0,3600.0,0.18,27.32,0.0
100_75_50_4,1.2,80.8,0.0,3600.0,1.03,32.88,0.0
100_50_40_4,0.33,39.04,0.0,3600.0,0.17,18.06,0.0
10000_500_200_5,3600.0,3600.0,0.1,563.83,3600.0,3600.0,177.43
1000_500_250_5,3600.0,3600.0,0.02,5.92,126.95,3600.0,24.38
1000_250_125_5,968.27,3600.0,0.01,284.18,1168.87,1729.84,2.25
500_250_100_5,921.47,3427.04,0.0,1.61,16.1,1199.17,16.55
500_125_50_5,26.74,636.26,0.0,1.66,27.68,241.59,0.29
400_200_100_5,480.56,888.5,0.0,0.95,8.23,800.22,6.52
400_150_75_5,85.51,495.36,0.0,11.56,32.15,419.28,0.93
400_100_50_5,13.95,199.26,0.0,6.38,12.81,170.27,0.08
200_100_50_5,11.79,138.66,0.0,25.27,5.37,145.65,0.06
200_50_40_5,1.64,47.85,0.0,1.17,0.52,54.13,0.01
100_75_50_5,6.09,162.59,0.0,0.61,1.7,89.34,0.11
100_50_40_5,1.52,75.6,0.0,1.98,0.58,44.97,0.01
10000_500_200_6,975.18,2468.03,103.55,114.39,1609.73,3600.0,12.77
1000_500_250_6,630.62,2300.54,0.02,3600.0,815.08,1091.89,8.06
1000_250_125_6,37.12,568.03,0.01,3600.0,30.22,400.21,0.3
500_250_100_6,29.49,757.02,0.01,3600.0,16.31,295.09,0.53
500_125_50_6,6.55,209.21,0.0,3600.0,3.73,118.52,0.0
400_200_100_6,14.27,269.97,0.0,3600.0,11.42,198.58,0.33
400_150_75_6,6.86,134.67,0.0,3600.0,15.91,130.38,0.01
400_100_50_6,3.13,76.94,0.0,3600.0,2.02,82.81,0.0
200_100_50_6,2.01,77.18,0.0,3600.0,0.56,59.41,0.0
200_50_40_6,0.67,25.96,0.0,13.09,0.29,28.9,0.0
100_75_50_6,0.96,78.87,0.0,3600.0,0.67,30.64,0.0
100_50_40_6,0.53,45.08,0.0,28.97,0.24,18.38,0.0
10000_500_200_7,943.6,2458.23,102.08,92.68,3600.0,3600.0,12.1
1000_500_250_7,546.14,2297.36,0.02,3600.0,577.64,1091.78,5.83
1000_250_125_7,38.36,569.19,0.01,3600.0,56.73,392.64,0.41
500_250_100_7,29.65,755.51,0.01,3600.0,26.03,294.03,0.21
500_125_50_7,5.76,210.26,0.0,3600.0,6.98,118.0,0.04
400_200_100_7,13.66,268.46,0.0,3600.0,18.42,196.74,0.14
400_150_75_7,6.79,135.72,0.0,3600.0,2.28,134.1,0.01
400_100_50_7,3.14,77.36,0.0,3600.0,1.11,83.15,0.01
200_100_50_7,2.0,77.28,0.0,3600.0,1.62,58.32,0.0
200_50_40_7,0.64,26.03,0.0,1495.73,0.45,28.16,0.0
100_75_50_7,1.11,77.22,0.0,3600.0,0.6,31.0,0.0
100_50_40_7,0.55,45.35,0.0,3600.0,0.13,19.44,0.0
10000_500_200_8,772.67,2258.31,0.12,1110.19,3600.0,3600.0,9.42
1000_500_250_8,326.18,2254.84,0.02,3600.0,1451.42,1128.47,13.22
1000_250_125_8,28.2,549.81,0.01,3600.0,158.46,384.03,0.4
500_250_100_8,20.58,736.97,0.01,3600.0,9.66,275.73,0.15
500_125_50_8,5.23,196.03,0.0,3600.0,8.51,107.15,0.01
400_200_100_8,9.76,263.6,0.0,3600.0,5.86,188.03,0.09
400_150_75_8,5.09,129.1,0.0,3600.0,2.68,115.97,0.02
400_100_50_8,2.56,71.85,0.0,3600.0,1.67,77.49,0.01
200_100_50_8,1.43,74.92,0.0,3600.0,0.38,54.69,0.0
200_50_40_8,0.61,24.8,0.0,3600.0,0.17,26.9,0.0
100_75_50_8,0.85,74.55,0.0,3600.0,0.13,30.41,0.0
100_50_40_8,0.43,42.53,0.0,3600.0,0.09,17.89,0.0
10000_500_200_9,899.41,2445.34,107.02,1212.82,3141.95,3600.0,11.78
1000_500_250_9,524.84,2289.2,0.02,3600.0,714.35,1087.41,34.76
1000_250_125_9,37.52,566.6,0.01,3600.0,23.94,390.96,1.05
500_250_100_9,27.53,756.66,0.01,3600.0,169.76,292.87,1.82
500_125_50_9,5.65,209.79,0.0,3600.0,5.54,119.12,0.04
400_200_100_9,12.95,268.91,0.0,3600.0,4.02,201.6,0.42
400_150_75_9,6.73,136.13,0.0,3600.0,2.35,132.12,0.07
400_100_50_9,2.89,76.81,0.0,3600.0,2.58,81.46,0.02
200_100_50_9,1.85,77.5,0.0,3600.0,1.65,58.74,0.02
200_50_40_9,0.7,25.81,0.0,3600.0,0.18,29.0,0.0
100_75_50_9,1.11,76.7,0.0,3600.0,0.26,31.64,0.01
100_50_40_9,0.53,45.28,0.0,3600.0,0.1,20.14,0.0
10000_500_200_10,954.47,2451.08,104.49,106.35,3600.0,3600.0,15.82
1000_500_250_10,571.99,2280.59,0.01,3600.0,736.01,1097.53,42.89
1000_250_125_10,38.77,569.12,0.01,3600.0,162.6,391.31,0.84
500_250_100_10,30.77,754.08,0.01,3600.0,105.49,292.13,1.11
500_125_50_10,5.93,209.57,0.0,3600.0,7.31,115.71,0.1
400_200_100_10,15.07,267.95,0.0,3600.0,29.07,198.24,0.64
400_150_75_10,6.36,135.79,0.0,3600.0,3.36,132.26,0.12
400_100_50_10,3.15,76.84,0.0,3600.0,3.35,80.77,0.04
200_100_50_10,2.0,77.13,0.0,3600.0,0.47,59.53,0.04
200_50_40_10,0.64,25.99,0.0,3600.0,0.22,28.3,0.0
100_75_50_10,1.08,76.68,0.0,3600.0,0.53,30.86,0.0
100_50_40_10,0.54,45.56,0.0,3600.0,0.22,19.74,0.0
