instances,GRASP,GRASP+Tabu,GRASP+VNS,Hybrid-GA,VNS,VNS-CHG,VNS-MV,VNS-RPCK
10000_500_200_1_0,600.0,600.0,600.0,600.0,600.0,0.51,600.0,600.0
10000_500_200_1_1,600.0,600.0,600.0,600.0,600.0,0.57,600.0,600.0
10000_500_200_1_2,600.0,600.0,600.0,600.0,600.0,0.58,600.0,600.0
10000_500_200_1_3,600.0,600.0,600.0,600.0,600.0,0.55,600.0,600.0
10000_500_200_1_4,600.0,600.0,600.0,600.0,600.0,0.6,600.0,600.0
10000_500_200_1_5,600.0,600.0,600.0,600.0,600.0,0.54,600.0,600.0
10000_500_200_1_6,600.0,600.0,600.0,600.0,600.0,0.56,600.0,600.0
10000_500_200_1_7,600.0,600.0,600.0,600.0,600.0,0.57,600.0,600.0
10000_500_200_1_8,600.0,600.0,600.0,600.0,600.0,0.59,600.0,600.0
10000_500_200_1_9,600.0,600.0,600.0,600.0,600.0,0.59,600.0,600.0
1000_500_250_1_0,67.44,600.0,600.0,600.0,600.0,66.69,600.0,498.56
1000_500_250_1_1,57.97,600.0,600.0,600.0,600.0,1.2,600.0,238.5
1000_500_250_1_2,63.54,600.0,600.0,600.0,600.0,19.45,600.0,202.6
1000_500_250_1_3,65.25,600.0,600.0,600.0,524.54,6.16,600.0,164.69
1000_500_250_1_4,61.34,600.0,600.0,600.0,600.0,20.5,600.0,600.0
1000_500_250_1_5,56.74,600.0,600.0,600.0,600.0,108.29,600.0,192.38
1000_500_250_1_6,58.59,600.0,600.0,600.0,600.0,0.48,600.0,197.99
1000_500_250_1_7,54.46,600.0,600.0,600.0,345.29,11.19,600.0,131.05
1000_500_250_1_8,54.38,600.0,600.0,600.0,600.0,12.11,600.0,304.92
1000_500_250_1_9,62.25,600.0,600.0,600.0,600.0,135.18,600.0,285.95
500_250_100_1_0,12.16,600.0,600.0,600.0,43.17,0.08,66.89,22.82
500_250_100_1_1,14.34,600.0,600.0,600.0,75.77,0.15,63.8,28.34
500_250_100_1_2,14.95,600.0,600.0,600.0,118.64,8.97,116.31,73.16
500_250_100_1_3,17.14,600.0,600.0,600.0,76.95,1.84,73.38,38.24
500_250_100_1_4,14.86,600.0,600.0,600.0,95.68,28.51,97.74,78.51
500_250_100_1_5,13.49,600.0,600.0,600.0,94.87,0.21,74.62,36.47
500_250_100_1_6,13.62,600.0,600.0,600.0,110.69,1.84,137.03,32.7
500_250_100_1_7,12.89,600.0,600.0,600.0,125.51,8.19,113.79,95.94
500_250_100_1_8,13.24,600.0,600.0,600.0,60.08,0.16,69.7,24.59
500_250_100_1_9,12.85,600.0,600.0,600.0,54.64,0.06,95.46,26.18
100_75_50_1_0,1.48,600.0,581.94,600.0,1.32,0.23,1.44,1.14
100_75_50_1_1,1.2,600.0,36.68,600.0,1.48,0.03,1.71,0.25
100_75_50_1_2,1.25,600.0,169.95,600.0,1.72,0.15,0.8,0.41
100_75_50_1_3,1.31,600.0,26.57,600.0,1.2,0.01,1.78,0.29
100_75_50_1_4,1.37,600.0,435.95,600.0,1.29,0.28,1.39,0.57
100_75_50_1_5,1.21,600.0,21.53,600.0,1.8,0.01,1.4,0.28
100_75_50_1_6,0.69,600.0,27.65,600.0,1.62,0.02,2.07,0.33
100_75_50_1_7,1.24,600.0,20.44,600.0,1.11,0.02,1.06,0.23
100_75_50_1_8,1.16,600.0,30.41,600.0,1.93,0.01,2.05,0.25
100_75_50_1_9,1.11,600.0,46.68,600.0,1.3,0.01,1.81,0.45
10000_500_200_5_0,600.0,600.0,600.0,600.0,600.0,176.78,600.0,600.0
10000_500_200_5_1,600.0,600.0,600.0,600.0,600.0,16.22,600.0,600.0
10000_500_200_5_2,600.0,600.0,600.0,600.0,600.0,469.98,600.0,600.0
10000_500_200_5_3,600.0,600.0,600.0,600.0,600.0,166.7,600.0,600.0
10000_500_200_5_4,600.0,600.0,600.0,600.0,600.0,133.82,600.0,600.0
10000_500_200_5_5,600.0,600.0,600.0,600.0,600.0,361.48,600.0,600.0
10000_500_200_5_6,600.0,600.0,600.0,600.0,600.0,2.64,600.0,600.0
10000_500_200_5_7,600.0,600.0,600.0,600.0,600.0,385.96,600.0,600.0
10000_500_200_5_8,600.0,600.0,600.0,600.0,600.0,44.65,600.0,600.0
10000_500_200_5_9,600.0,600.0,600.0,600.0,600.0,37.52,600.0,600.0
1000_500_250_5_0,33.52,600.0,600.0,600.0,600.0,6.33,600.0,72.62
1000_500_250_5_1,34.61,600.0,600.0,600.0,600.0,95.68,600.0,50.94
1000_500_250_5_2,36.6,600.0,600.0,600.0,600.0,9.82,600.0,67.41
1000_500_250_5_3,33.71,600.0,600.0,600.0,600.0,19.49,600.0,54.86
1000_500_250_5_4,35.47,600.0,600.0,600.0,600.0,2.69,600.0,101.0
1000_500_250_5_5,29.16,600.0,600.0,600.0,239.75,6.88,241.89,66.14
1000_500_250_5_6,31.49,600.0,600.0,600.0,600.0,3.48,600.0,58.46
1000_500_250_5_7,32.01,600.0,600.0,600.0,600.0,11.37,600.0,61.56
1000_500_250_5_8,34.32,600.0,600.0,600.0,600.0,17.63,600.0,61.25
1000_500_250_5_9,33.76,600.0,600.0,600.0,600.0,21.48,600.0,63.29
500_250_100_5_0,9.0,600.0,600.0,600.0,437.05,7.48,214.76,10.22
500_250_100_5_1,9.37,600.0,600.0,600.0,137.02,3.26,95.67,10.05
500_250_100_5_2,9.83,600.0,600.0,600.0,157.1,0.48,150.7,17.95
500_250_100_5_3,10.1,600.0,600.0,600.0,47.93,0.04,127.04,9.35
500_250_100_5_4,8.08,600.0,600.0,600.0,164.31,3.7,160.4,11.78
500_250_100_5_5,9.76,600.0,600.0,600.0,124.33,21.69,182.53,21.17
500_250_100_5_6,9.71,600.0,600.0,600.0,278.42,1.62,99.49,10.18
500_250_100_5_7,8.9,600.0,600.0,600.0,335.05,11.55,228.03,12.67
500_250_100_5_8,9.36,600.0,600.0,600.0,98.93,11.4,94.62,8.71
500_250_100_5_9,8.36,600.0,600.0,600.0,102.52,2.56,210.89,11.6
100_75_50_5_0,0.87,600.0,305.17,600.0,2.82,0.2,13.12,0.44
100_75_50_5_1,0.99,600.0,210.61,600.0,2.02,0.22,3.77,0.34
100_75_50_5_2,0.91,600.0,165.55,600.0,6.98,0.31,4.38,0.46
100_75_50_5_3,0.64,600.0,257.48,600.0,3.02,0.13,2.64,0.34
100_75_50_5_4,1.24,597.6,262.99,600.0,1.02,0.26,2.51,0.25
100_75_50_5_5,0.97,600.0,267.97,600.0,3.71,0.12,8.28,0.28
100_75_50_5_6,1.09,600.0,148.27,600.0,5.5,0.3,1.83,1.04
100_75_50_5_7,1.19,447.5,87.07,600.0,2.84,0.02,1.6,0.35
100_75_50_5_8,1.08,600.0,230.57,600.0,10.46,0.41,5.88,0.57
100_75_50_5_9,0.67,600.0,320.19,600.0,3.48,0.47,3.91,0.2
10000_500_200_9_0,600.0,600.0,600.0,600.0,600.0,600.0,600.0,600.0
10000_500_200_9_1,600.0,600.0,600.0,600.0,600.0,600.0,600.0,600.0
10000_500_200_9_2,600.0,600.0,600.0,600.0,600.0,600.0,600.0,600.0
10000_500_200_9_3,600.0,600.0,600.0,600.0,600.0,386.05,600.0,600.0
10000_500_200_9_4,600.0,600.0,600.0,600.0,600.0,600.0,600.0,600.0
10000_500_200_9_5,600.0,600.0,600.0,600.0,600.0,600.0,600.0,600.0
10000_500_200_9_6,600.0,600.0,600.0,600.0,600.0,393.39,600.0,600.0
10000_500_200_9_7,600.0,600.0,600.0,600.0,600.0,600.0,600.0,600.0
10000_500_200_9_8,600.0,600.0,600.0,600.0,600.0,114.69,600.0,600.0
10000_500_200_9_9,600.0,600.0,600.0,600.0,600.0,600.0,600.0,600.0
1000_500_250_9_0,37.61,600.0,600.0,600.0,600.0,3.4,600.0,29.65
1000_500_250_9_1,33.68,600.0,600.0,600.0,600.0,66.23,600.0,60.49
1000_500_250_9_2,35.16,600.0,600.0,600.0,600.0,552.36,600.0,115.64
1000_500_250_9_3,35.08,600.0,600.0,600.0,600.0,289.58,600.0,45.24
1000_500_250_9_4,38.82,600.0,600.0,600.0,600.0,0.32,600.0,29.66
1000_500_250_9_5,38.29,600.0,600.0,600.0,600.0,198.32,600.0,60.07
1000_500_250_9_6,34.06,600.0,600.0,600.0,600.0,104.54,600.0,72.16
1000_500_250_9_7,32.03,600.0,600.0,600.0,600.0,283.54,600.0,101.08
1000_500_250_9_8,30.88,600.0,600.0,600.0,600.0,390.97,600.0,99.53
1000_500_250_9_9,26.66,600.0,600.0,600.0,600.0,241.79,600.0,71.8
500_250_100_9_0,6.7,600.0,600.0,600.0,52.42,0.26,54.17,4.91
500_250_100_9_1,7.91,600.0,600.0,600.0,154.59,2.74,600.0,15.28
500_250_100_9_2,5.89,600.0,600.0,600.0,186.34,71.19,266.98,33.27
500_250_100_9_3,8.81,600.0,600.0,600.0,303.1,37.02,315.48,11.91
500_250_100_9_4,9.62,600.0,600.0,600.0,234.37,0.1,239.92,6.35
500_250_100_9_5,7.14,600.0,600.0,600.0,350.94,50.88,146.34,31.17
500_250_100_9_6,9.5,600.0,600.0,600.0,145.87,0.11,165.43,7.27
500_250_100_9_7,10.03,600.0,600.0,600.0,600.0,53.83,304.78,44.46
500_250_100_9_8,8.72,600.0,600.0,600.0,318.74,0.1,105.06,5.82
500_250_100_9_9,9.64,600.0,600.0,600.0,213.88,90.85,112.65,34.81
100_75_50_9_0,0.73,469.98,204.67,600.0,0.39,0.07,0.65,0.46
100_75_50_9_1,0.73,437.92,253.04,600.0,0.8,0.03,5.58,0.31
100_75_50_9_2,0.68,473.94,248.44,600.0,3.0,0.13,3.81,0.59
100_75_50_9_3,0.52,449.67,155.62,600.0,1.82,0.08,1.37,0.39
100_75_50_9_4,0.78,548.74,258.95,600.0,3.93,0.06,4.92,0.26
100_75_50_9_5,0.77,444.34,131.78,600.0,10.86,0.03,6.09,0.28
100_75_50_9_6,0.73,401.44,62.72,600.0,1.97,0.06,5.12,0.33
100_75_50_9_7,0.76,493.01,302.86,600.0,1.29,0.16,1.26,0.6
100_75_50_9_8,0.7,486.6,239.52,600.0,1.52,0.13,7.73,0.32
100_75_50_9_9,0.64,399.63,94.0,600.0,13.72,0.1,6.65,0.64
10000_500_200_13_0,600.0,600.0,600.0,600.0,600.0,0.6,600.0,600.0
10000_500_200_13_1,600.0,600.0,600.0,600.0,600.0,0.58,600.0,600.0
10000_500_200_13_2,600.0,600.0,600.0,600.0,600.0,0.48,600.0,600.0
10000_500_200_13_3,600.0,600.0,600.0,600.0,600.0,0.47,600.0,600.0
10000_500_200_13_4,600.0,600.0,600.0,600.0,600.0,0.48,600.0,600.0
10000_500_200_13_5,600.0,600.0,600.0,600.0,600.0,0.45,600.0,600.0
10000_500_200_13_6,600.0,600.0,600.0,600.0,600.0,0.52,600.0,600.0
10000_500_200_13_7,600.0,600.0,600.0,600.0,600.0,0.51,600.0,600.0
10000_500_200_13_8,600.0,600.0,600.0,600.0,600.0,0.44,600.0,600.0
10000_500_200_13_9,600.0,600.0,600.0,600.0,600.0,0.52,600.0,600.0
1000_500_250_13_0,42.48,600.0,600.0,600.0,600.0,63.46,600.0,513.03
1000_500_250_13_1,33.33,600.0,600.0,600.0,600.0,1.16,600.0,240.42
1000_500_250_13_2,37.41,600.0,600.0,600.0,600.0,21.67,600.0,210.86
1000_500_250_13_3,38.85,600.0,600.0,600.0,537.82,5.92,600.0,166.88
1000_500_250_13_4,35.21,600.0,600.0,600.0,600.0,19.85,600.0,600.0
1000_500_250_13_5,31.94,600.0,600.0,600.0,600.0,113.96,600.0,214.49
1000_500_250_13_6,32.01,600.0,600.0,600.0,600.0,0.5,600.0,211.52
1000_500_250_13_7,30.22,600.0,600.0,600.0,353.31,12.7,600.0,140.32
1000_500_250_13_8,31.51,600.0,600.0,600.0,600.0,12.29,600.0,307.38
1000_500_250_13_9,34.4,600.0,600.0,600.0,600.0,145.91,600.0,288.6
500_250_100_13_0,6.69,600.0,600.0,600.0,47.82,0.09,68.85,23.35
500_250_100_13_1,7.9,600.0,600.0,600.0,78.01,0.17,69.75,29.11
500_250_100_13_2,13.48,600.0,600.0,600.0,127.25,9.37,125.67,78.62
500_250_100_13_3,18.22,600.0,600.0,600.0,87.63,2.14,73.12,38.67
500_250_100_13_4,14.44,600.0,600.0,600.0,100.21,30.26,109.28,80.99
500_250_100_13_5,13.65,600.0,600.0,600.0,96.97,0.19,82.52,36.17
500_250_100_13_6,13.54,600.0,600.0,600.0,116.3,1.86,141.46,33.46
500_250_100_13_7,13.36,600.0,600.0,600.0,134.5,7.84,116.49,101.61
500_250_100_13_8,10.78,600.0,600.0,600.0,69.71,0.14,74.15,25.54
500_250_100_13_9,12.1,600.0,600.0,600.0,60.19,0.06,98.67,28.07
100_75_50_13_0,1.52,600.0,574.92,600.0,1.38,0.2,1.46,0.87
100_75_50_13_1,1.22,600.0,34.81,600.0,1.51,0.03,1.72,0.28
100_75_50_13_2,1.28,600.0,178.65,600.0,1.49,0.13,1.11,0.34
100_75_50_13_3,1.31,600.0,27.51,600.0,1.06,0.01,1.61,0.24
100_75_50_13_4,1.58,600.0,457.26,600.0,1.39,0.34,1.34,0.74
100_75_50_13_5,1.11,600.0,18.39,600.0,1.49,0.01,1.4,0.28
100_75_50_13_6,1.03,600.0,29.83,600.0,1.72,0.02,2.59,0.4
100_75_50_13_7,1.25,600.0,20.31,600.0,1.03,0.02,1.18,0.24
100_75_50_13_8,1.16,600.0,33.65,600.0,1.73,0.0,2.09,0.28
100_75_50_13_9,1.24,600.0,47.6,600.0,1.32,0.01,1.78,0.51
10000_500_200_17_0,600.0,600.0,600.0,600.0,600.0,107.74,600.0,600.0
10000_500_200_17_1,600.0,600.0,600.0,600.0,600.0,9.26,600.0,600.0
10000_500_200_17_2,600.0,600.0,600.0,600.0,600.0,248.89,600.0,600.0
10000_500_200_17_3,600.0,600.0,600.0,600.0,600.0,106.95,600.0,600.0
10000_500_200_17_4,600.0,600.0,600.0,600.0,600.0,82.78,600.0,600.0
10000_500_200_17_5,600.0,600.0,600.0,600.0,600.0,192.45,600.0,600.0
10000_500_200_17_6,600.0,600.0,600.0,600.0,600.0,1.5,600.0,600.0
10000_500_200_17_7,600.0,600.0,600.0,600.0,600.0,206.38,600.0,600.0
10000_500_200_17_8,600.0,600.0,600.0,600.0,600.0,19.63,600.0,600.0
10000_500_200_17_9,600.0,600.0,600.0,600.0,600.0,14.94,600.0,600.0
1000_500_250_17_0,31.21,600.0,600.0,600.0,600.0,7.32,600.0,75.0
1000_500_250_17_1,34.78,600.0,600.0,600.0,600.0,91.92,600.0,52.53
1000_500_250_17_2,33.0,600.0,600.0,600.0,600.0,9.95,600.0,66.63
1000_500_250_17_3,27.99,600.0,600.0,600.0,600.0,20.53,600.0,58.38
1000_500_250_17_4,28.09,600.0,600.0,600.0,600.0,2.89,600.0,106.14
1000_500_250_17_5,26.0,600.0,600.0,600.0,259.39,6.6,263.9,70.24
1000_500_250_17_6,25.55,600.0,600.0,600.0,600.0,3.34,600.0,59.5
1000_500_250_17_7,20.91,600.0,600.0,600.0,600.0,12.82,600.0,65.81
1000_500_250_17_8,21.47,600.0,600.0,600.0,600.0,20.02,600.0,66.51
1000_500_250_17_9,19.9,600.0,600.0,600.0,600.0,24.09,600.0,68.16
500_250_100_17_0,5.15,600.0,600.0,600.0,453.28,7.93,220.64,10.62
500_250_100_17_1,10.21,600.0,600.0,600.0,147.57,3.34,97.99,11.59
500_250_100_17_2,9.72,600.0,600.0,600.0,159.95,0.6,164.92,18.19
500_250_100_17_3,9.6,600.0,600.0,600.0,48.3,0.04,141.22,10.02
500_250_100_17_4,9.53,600.0,600.0,600.0,172.44,4.32,170.65,13.32
500_250_100_17_5,9.24,600.0,600.0,600.0,140.75,20.95,198.1,21.2
500_250_100_17_6,9.26,600.0,600.0,600.0,285.48,1.79,103.33,8.72
500_250_100_17_7,7.56,600.0,600.0,600.0,353.33,12.47,241.71,13.93
500_250_100_17_8,10.2,600.0,600.0,600.0,107.72,11.02,109.08,8.48
500_250_100_17_9,8.05,600.0,600.0,600.0,111.01,2.42,237.84,13.82
100_75_50_17_0,0.95,600.0,311.85,600.0,3.21,0.26,13.95,0.47
100_75_50_17_1,0.99,600.0,203.68,600.0,2.61,0.24,5.03,0.41
100_75_50_17_2,0.97,600.0,166.23,600.0,8.43,0.36,5.47,0.58
100_75_50_17_3,1.01,600.0,260.31,600.0,3.45,0.15,2.93,0.37
100_75_50_17_4,1.1,600.0,271.54,600.0,1.09,0.27,2.66,0.3
100_75_50_17_5,0.96,600.0,256.19,600.0,3.64,0.19,10.6,0.43
100_75_50_17_6,1.02,600.0,148.12,600.0,6.38,0.25,2.01,0.97
100_75_50_17_7,1.04,467.34,95.38,600.0,2.84,0.01,1.48,0.32
100_75_50_17_8,1.05,600.0,198.91,600.0,10.67,0.35,6.0,0.59
100_75_50_17_9,0.97,571.35,269.7,600.0,3.88,0.46,4.03,0.24
10000_500_200_21_0,600.0,600.0,600.0,600.0,600.0,600.0,600.0,600.0
10000_500_200_21_1,600.0,600.0,600.0,600.0,600.0,322.69,600.0,600.0
10000_500_200_21_2,600.0,600.0,600.0,600.0,600.0,600.0,600.0,600.0
10000_500_200_21_3,600.0,600.0,600.0,600.0,600.0,146.21,600.0,600.0
10000_500_200_21_4,600.0,600.0,600.0,600.0,600.0,600.0,600.0,600.0
10000_500_200_21_5,600.0,600.0,600.0,600.0,600.0,600.0,600.0,600.0
10000_500_200_21_6,600.0,600.0,600.0,600.0,600.0,233.99,600.0,600.0
10000_500_200_21_7,600.0,600.0,600.0,600.0,600.0,600.0,600.0,600.0
10000_500_200_21_8,600.0,600.0,600.0,600.0,600.0,61.81,600.0,600.0
10000_500_200_21_9,600.0,600.0,600.0,600.0,600.0,600.0,600.0,600.0
1000_500_250_21_0,30.74,600.0,600.0,600.0,600.0,2.11,600.0,19.43
1000_500_250_21_1,29.79,600.0,600.0,600.0,600.0,41.58,600.0,64.97
1000_500_250_21_2,25.89,600.0,600.0,600.0,600.0,580.46,600.0,121.07
1000_500_250_21_3,22.06,600.0,600.0,600.0,600.0,307.83,600.0,43.88
1000_500_250_21_4,25.97,600.0,600.0,600.0,600.0,0.32,600.0,31.46
1000_500_250_21_5,23.75,600.0,600.0,600.0,600.0,198.72,600.0,61.25
1000_500_250_21_6,21.74,600.0,600.0,600.0,600.0,107.8,600.0,78.36
1000_500_250_21_7,20.3,600.0,600.0,600.0,600.0,292.65,600.0,97.41
1000_500_250_21_8,22.1,600.0,600.0,600.0,600.0,400.97,600.0,104.32
1000_500_250_21_9,21.05,600.0,600.0,600.0,600.0,253.51,600.0,71.9
500_250_100_21_0,9.26,600.0,600.0,600.0,54.41,0.47,54.67,5.37
500_250_100_21_1,8.57,600.0,600.0,600.0,147.43,2.84,600.0,14.95
500_250_100_21_2,9.39,600.0,600.0,600.0,190.16,74.26,258.38,32.1
500_250_100_21_3,8.91,600.0,600.0,600.0,291.78,37.9,301.77,13.04
500_250_100_21_4,9.02,600.0,600.0,600.0,236.4,0.09,241.45,6.26
500_250_100_21_5,10.68,600.0,600.0,600.0,348.03,47.38,137.15,31.63
500_250_100_21_6,9.4,600.0,600.0,600.0,146.0,0.18,154.96,7.51
500_250_100_21_7,9.82,600.0,600.0,600.0,564.79,49.63,285.29,42.71
500_250_100_21_8,9.16,600.0,600.0,600.0,301.34,0.06,92.3,5.19
500_250_100_21_9,7.81,600.0,600.0,600.0,223.1,92.47,114.04,38.1
100_75_50_21_0,0.73,470.61,206.11,600.0,0.41,0.07,0.93,0.48
100_75_50_21_1,0.69,436.16,241.6,600.0,0.73,0.02,5.62,0.34
100_75_50_21_2,0.52,435.61,233.04,600.0,3.54,0.14,3.98,0.64
100_75_50_21_3,0.8,380.17,140.27,600.0,1.36,0.08,1.58,0.46
100_75_50_21_4,0.58,460.14,217.97,600.0,2.95,0.05,4.75,0.2
100_75_50_21_5,0.53,332.46,103.99,600.0,11.3,0.03,4.89,0.26
100_75_50_21_6,0.66,301.16,47.59,600.0,2.08,0.04,6.04,0.33
100_75_50_21_7,0.73,355.71,242.24,600.0,1.28,0.2,1.26,0.59
100_75_50_21_8,0.68,352.03,177.49,600.0,2.11,0.15,9.44,0.46
100_75_50_21_9,0.72,420.28,94.2,600.0,14.45,0.12,8.2,0.67
10000_500_200_25_0,600.0,600.0,600.0,600.0,600.0,0.53,600.0,600.0
10000_500_200_25_1,600.0,600.0,600.0,600.0,600.0,0.45,600.0,600.0
10000_500_200_25_2,600.0,600.0,600.0,600.0,600.0,0.45,600.0,600.0
10000_500_200_25_3,600.0,600.0,600.0,600.0,600.0,0.49,600.0,600.0
10000_500_200_25_4,600.0,600.0,600.0,600.0,600.0,0.5,600.0,600.0
10000_500_200_25_5,600.0,600.0,600.0,600.0,600.0,0.48,600.0,600.0
10000_500_200_25_6,575.44,600.0,600.0,600.0,600.0,0.41,600.0,600.0
10000_500_200_25_7,578.0,600.0,600.0,600.0,600.0,0.42,600.0,600.0
10000_500_200_25_8,583.69,600.0,600.0,600.0,600.0,0.29,600.0,600.0
10000_500_200_25_9,581.67,600.0,600.0,600.0,600.0,0.29,600.0,600.0
1000_500_250_25_0,37.26,600.0,600.0,600.0,600.0,36.26,600.0,311.48
1000_500_250_25_1,29.9,600.0,600.0,600.0,600.0,0.7,600.0,148.42
1000_500_250_25_2,31.22,600.0,600.0,600.0,600.0,12.22,520.65,215.04
1000_500_250_25_3,32.51,600.0,600.0,600.0,563.69,6.91,600.0,175.09
1000_500_250_25_4,29.37,600.0,600.0,600.0,600.0,21.44,600.0,600.0
1000_500_250_25_5,28.87,600.0,600.0,600.0,600.0,121.02,600.0,209.85
1000_500_250_25_6,28.9,600.0,600.0,600.0,600.0,0.5,600.0,209.32
1000_500_250_25_7,27.2,600.0,600.0,600.0,354.91,11.99,600.0,140.41
1000_500_250_25_8,28.42,600.0,600.0,600.0,600.0,11.33,600.0,316.3
1000_500_250_25_9,54.94,600.0,600.0,600.0,600.0,139.56,600.0,288.04
500_250_100_25_0,10.71,600.0,600.0,600.0,45.57,0.08,67.26,22.56
500_250_100_25_1,14.67,600.0,600.0,600.0,71.97,0.16,67.4,27.64
500_250_100_25_2,15.18,600.0,600.0,600.0,114.76,10.15,121.54,78.87
500_250_100_25_3,16.52,600.0,600.0,600.0,74.37,1.98,75.1,37.85
500_250_100_25_4,16.98,600.0,600.0,600.0,91.03,28.33,93.91,79.37
500_250_100_25_5,10.71,600.0,600.0,600.0,87.21,0.11,75.58,33.91
500_250_100_25_6,12.13,600.0,600.0,600.0,103.87,1.53,125.16,30.15
500_250_100_25_7,10.63,600.0,600.0,600.0,112.3,7.97,99.94,87.39
500_250_100_25_8,13.33,600.0,600.0,600.0,57.91,0.14,65.73,22.81
500_250_100_25_9,9.93,600.0,600.0,600.0,49.19,0.06,88.08,25.56
100_75_50_25_0,0.9,600.0,437.63,600.0,0.9,0.18,1.48,0.96
100_75_50_25_1,0.89,600.0,25.54,600.0,1.29,0.01,1.01,0.21
100_75_50_25_2,1.28,600.0,125.02,600.0,1.52,0.08,1.07,0.33
100_75_50_25_3,1.07,580.1,20.76,600.0,1.18,0.0,1.71,0.25
100_75_50_25_4,1.36,600.0,294.33,600.0,1.39,0.3,1.8,0.67
100_75_50_25_5,0.74,600.0,12.85,600.0,1.97,0.01,1.6,0.31
100_75_50_25_6,0.68,600.0,18.54,600.0,2.01,0.02,2.52,0.38
100_75_50_25_7,0.84,506.24,12.51,600.0,1.24,0.01,1.31,0.3
100_75_50_25_8,0.81,600.0,33.54,600.0,2.17,0.0,2.06,0.23
100_75_50_25_9,1.15,600.0,47.87,600.0,1.29,0.0,2.06,0.47
10000_500_200_29_0,600.0,600.0,600.0,600.0,600.0,70.52,600.0,600.0
10000_500_200_29_1,600.0,600.0,600.0,600.0,600.0,5.51,600.0,600.0
10000_500_200_29_2,600.0,600.0,600.0,600.0,600.0,163.23,600.0,600.0
10000_500_200_29_3,600.0,600.0,600.0,600.0,600.0,68.98,600.0,600.0
10000_500_200_29_4,600.0,600.0,600.0,600.0,600.0,57.63,600.0,600.0
10000_500_200_29_5,600.0,600.0,600.0,600.0,600.0,147.48,600.0,600.0
10000_500_200_29_6,600.0,600.0,600.0,600.0,600.0,1.22,600.0,600.0
10000_500_200_29_7,600.0,600.0,600.0,600.0,600.0,104.48,600.0,600.0
10000_500_200_29_8,600.0,600.0,600.0,600.0,600.0,8.59,600.0,600.0
10000_500_200_29_9,600.0,600.0,600.0,600.0,600.0,6.32,600.0,600.0
1000_500_250_29_0,21.69,600.0,600.0,600.0,600.0,3.63,600.0,45.51
1000_500_250_29_1,20.46,600.0,600.0,600.0,600.0,50.97,553.11,32.29
1000_500_250_29_2,21.88,600.0,600.0,600.0,557.55,5.49,358.65,39.68
1000_500_250_29_3,20.65,600.0,600.0,600.0,600.0,10.92,600.0,59.42
1000_500_250_29_4,20.38,600.0,600.0,600.0,600.0,2.16,600.0,105.57
1000_500_250_29_5,19.82,600.0,600.0,600.0,252.6,7.06,262.99,70.51
1000_500_250_29_6,19.74,600.0,600.0,600.0,600.0,4.25,600.0,65.36
1000_500_250_29_7,32.77,600.0,600.0,600.0,600.0,12.92,600.0,67.97
1000_500_250_29_8,33.96,600.0,600.0,600.0,600.0,16.95,600.0,62.93
1000_500_250_29_9,35.08,600.0,600.0,600.0,600.0,19.95,600.0,55.05
500_250_100_29_0,8.51,600.0,600.0,600.0,325.5,5.53,178.49,8.22
500_250_100_29_1,7.44,600.0,600.0,600.0,109.22,2.26,75.72,8.74
500_250_100_29_2,7.44,600.0,600.0,600.0,108.44,0.57,112.31,12.56
500_250_100_29_3,8.77,600.0,600.0,600.0,37.73,0.02,89.32,6.81
500_250_100_29_4,9.45,600.0,600.0,600.0,101.78,2.61,106.09,8.41
500_250_100_29_5,9.76,600.0,600.0,600.0,79.78,13.38,119.5,13.7
500_250_100_29_6,7.06,600.0,600.0,600.0,178.48,1.06,61.22,6.09
500_250_100_29_7,7.68,600.0,600.0,600.0,216.85,7.84,150.61,9.44
500_250_100_29_8,7.16,600.0,600.0,600.0,63.65,6.81,64.74,5.53
500_250_100_29_9,5.73,600.0,600.0,600.0,66.46,1.56,142.12,8.36
100_75_50_29_0,0.94,481.11,218.45,600.0,1.83,0.15,8.25,0.26
100_75_50_29_1,0.67,408.03,152.54,600.0,1.34,0.12,2.51,0.21
100_75_50_29_2,0.57,372.64,98.55,600.0,4.6,0.19,2.76,0.3
100_75_50_29_3,0.67,420.35,163.03,600.0,2.0,0.08,1.69,0.21
100_75_50_29_4,0.68,386.39,161.72,600.0,1.15,0.28,2.69,0.15
100_75_50_29_5,0.61,453.18,164.69,600.0,3.04,0.21,12.79,0.48
100_75_50_29_6,0.65,600.0,93.35,600.0,6.95,0.29,1.98,0.86
100_75_50_29_7,1.05,484.35,95.68,600.0,2.92,0.0,1.03,0.2
100_75_50_29_8,1.23,600.0,226.49,600.0,9.21,0.5,5.82,0.65
100_75_50_29_9,0.99,600.0,316.1,600.0,3.6,0.45,3.37,0.2
10000_500_200_33_0,600.0,600.0,600.0,600.0,600.0,600.0,600.0,600.0
10000_500_200_33_1,600.0,600.0,600.0,600.0,600.0,177.67,600.0,600.0
10000_500_200_33_2,600.0,600.0,600.0,600.0,600.0,575.71,600.0,600.0
10000_500_200_33_3,600.0,600.0,600.0,600.0,600.0,81.01,600.0,600.0
10000_500_200_33_4,600.0,600.0,600.0,600.0,600.0,504.39,600.0,600.0
10000_500_200_33_5,600.0,600.0,600.0,600.0,600.0,382.15,600.0,600.0
10000_500_200_33_6,600.0,600.0,600.0,600.0,600.0,98.81,600.0,600.0
10000_500_200_33_7,600.0,600.0,600.0,600.0,600.0,600.0,600.0,600.0
10000_500_200_33_8,594.35,600.0,600.0,600.0,600.0,34.82,600.0,600.0
10000_500_200_33_9,588.42,600.0,600.0,600.0,600.0,600.0,600.0,600.0
1000_500_250_33_0,21.69,600.0,600.0,600.0,600.0,1.79,600.0,16.18
1000_500_250_33_1,20.84,600.0,600.0,600.0,600.0,34.78,600.0,34.35
1000_500_250_33_2,21.85,600.0,600.0,600.0,560.73,270.7,600.0,62.11
1000_500_250_33_3,20.5,600.0,600.0,600.0,600.0,144.06,600.0,23.54
1000_500_250_33_4,22.29,600.0,600.0,600.0,600.0,0.14,359.24,31.24
1000_500_250_33_5,21.16,600.0,600.0,600.0,600.0,204.14,600.0,63.07
1000_500_250_33_6,37.93,600.0,600.0,600.0,600.0,107.7,600.0,69.59
1000_500_250_33_7,36.33,600.0,600.0,600.0,600.0,270.0,600.0,96.54
1000_500_250_33_8,36.1,600.0,600.0,600.0,600.0,322.63,600.0,88.89
1000_500_250_33_9,33.1,600.0,600.0,600.0,600.0,147.83,600.0,46.63
500_250_100_33_0,9.11,600.0,600.0,600.0,32.5,0.25,33.28,3.14
500_250_100_33_1,8.48,600.0,600.0,600.0,92.43,1.69,405.41,9.43
500_250_100_33_2,9.29,600.0,600.0,600.0,112.23,43.72,155.21,20.5
500_250_100_33_3,5.76,600.0,600.0,600.0,185.09,22.17,182.04,7.42
500_250_100_33_4,6.32,600.0,600.0,600.0,139.52,0.06,144.54,4.16
500_250_100_33_5,7.81,600.0,600.0,600.0,208.61,29.92,85.41,19.34
500_250_100_33_6,5.89,600.0,600.0,600.0,84.21,0.1,97.4,4.87
500_250_100_33_7,6.01,600.0,600.0,600.0,336.32,30.45,168.24,24.93
500_250_100_33_8,6.9,600.0,600.0,600.0,178.35,0.05,58.82,3.53
500_250_100_33_9,5.29,600.0,600.0,600.0,134.0,54.18,68.34,23.43
100_75_50_33_0,0.47,270.85,118.89,600.0,0.23,0.05,0.47,0.27
100_75_50_33_1,0.46,255.9,132.98,600.0,0.54,0.01,3.42,0.19
100_75_50_33_2,0.46,269.13,148.5,600.0,1.84,0.07,2.28,0.34
100_75_50_33_3,0.47,251.66,91.25,600.0,0.91,0.05,0.87,0.22
100_75_50_33_4,0.47,318.37,147.53,600.0,2.03,0.03,2.61,0.14
100_75_50_33_5,0.45,444.55,130.44,600.0,11.6,0.01,5.8,0.17
100_75_50_33_6,0.74,392.3,59.94,600.0,2.42,0.07,6.33,0.38
100_75_50_33_7,0.78,473.86,297.4,600.0,1.49,0.21,1.53,0.77
100_75_50_33_8,0.71,516.5,246.45,600.0,1.98,0.16,9.64,0.48
100_75_50_33_9,0.71,412.22,92.86,600.0,17.84,0.12,8.73,0.86
Falkenauer_u120_03,0.55,106.44,5.95,187.12,0.08,0.0,0.2,0.03
Falkenauer_t501_05,4.35,600.0,600.0,600.0,172.64,60.84,178.76,0.95
Falkenauer_u120_07,1.1,145.81,4.9,209.79,0.09,0.0,0.09,0.02
Falkenauer_u1000_03,11.19,600.0,600.0,600.0,84.82,10.92,337.01,3.7
Falkenauer_u500_04,3.16,600.0,600.0,600.0,10.79,0.14,9.1,0.28
Falkenauer_u500_09,3.5,600.0,600.0,600.0,6.84,0.06,5.3,0.14
Falkenauer_u500_01,4.1,600.0,600.0,600.0,10.52,0.48,7.99,0.28
Falkenauer_u500_05,3.33,600.0,600.0,600.0,11.61,0.33,15.81,0.61
Falkenauer_u120_06,0.56,104.02,2.58,264.97,0.13,0.0,0.15,0.07
Falkenauer_u1000_08,11.5,600.0,600.0,600.0,69.26,3.2,116.16,2.08
Falkenauer_t120_06,0.89,600.0,600.0,600.0,1.35,0.45,1.68,0.05
Falkenauer_u1000_01,11.36,600.0,600.0,600.0,81.44,3.53,118.51,1.22
Falkenauer_u120_00,0.66,144.99,9.81,246.22,0.24,0.0,0.34,0.19
Falkenauer_u120_04,0.72,300.7,35.29,531.61,1.16,0.02,1.13,0.19
Falkenauer_t120_08,1.0,600.0,600.0,366.45,1.89,0.37,2.27,0.07
Falkenauer_u120_01,0.6,218.96,11.31,347.13,0.21,0.0,0.59,0.18
Falkenauer_t501_00,6.9,600.0,600.0,600.0,130.64,103.82,165.66,0.6
Falkenauer_u1000_05,11.51,600.0,600.0,600.0,78.55,10.86,285.54,0.45
Falkenauer_t501_01,4.48,600.0,600.0,600.0,147.75,57.34,132.23,0.41
Falkenauer_t120_07,0.69,600.0,600.0,482.98,1.21,0.41,0.9,0.01
Falkenauer_u500_03,2.98,600.0,600.0,600.0,6.56,0.29,9.09,0.14
Falkenauer_t120_01,0.72,600.0,600.0,358.56,1.14,0.27,1.47,0.08
Falkenauer_u500_02,2.47,600.0,522.19,600.0,13.3,0.43,15.85,0.74
Falkenauer_t501_02,9.46,600.0,600.0,600.0,175.08,124.96,174.38,0.17
Falkenauer_t120_05,0.48,435.48,600.0,411.45,2.55,0.42,1.44,0.08
Falkenauer_t501_04,8.84,600.0,600.0,600.0,68.54,41.72,81.93,0.43
Falkenauer_t501_09,8.6,600.0,600.0,600.0,281.19,124.61,290.49,0.48
Falkenauer_u120_02,0.54,181.73,10.01,248.46,0.18,0.0,0.29,0.05
Falkenauer_u1000_00,7.63,600.0,600.0,600.0,47.97,4.66,134.52,1.97
Falkenauer_t120_03,0.38,407.8,600.0,365.87,2.76,0.19,1.28,0.07
Falkenauer_t120_02,0.98,600.0,600.0,600.0,1.66,0.57,1.97,0.08
Falkenauer_t501_06,5.54,600.0,600.0,600.0,201.31,61.88,144.52,0.05
Falkenauer_u120_08,1.04,168.21,10.59,216.64,0.15,0.0,0.25,0.06
Falkenauer_u1000_06,9.75,600.0,600.0,600.0,77.31,5.6,128.33,3.8
Falkenauer_u1000_09,9.51,600.0,600.0,600.0,112.5,7.5,145.89,2.52
Falkenauer_u500_07,3.88,600.0,600.0,600.0,10.78,1.04,12.92,0.86
Falkenauer_u1000_07,9.75,600.0,600.0,600.0,53.11,1.44,73.3,1.81
Falkenauer_t501_03,5.26,600.0,600.0,600.0,110.24,50.29,113.13,0.33
Falkenauer_t120_00,0.65,600.0,600.0,530.44,2.98,0.36,2.97,0.02
Falkenauer_u1000_02,13.31,600.0,600.0,600.0,84.04,7.96,79.83,3.43
Falkenauer_t501_08,10.33,600.0,600.0,600.0,129.9,59.41,132.16,0.18
Falkenauer_u500_06,4.3,600.0,600.0,600.0,6.12,0.69,8.76,0.55
Falkenauer_u500_00,1.76,600.0,600.0,600.0,3.9,0.27,13.82,0.71
Falkenauer_t501_07,6.64,600.0,600.0,600.0,160.83,57.84,194.24,1.2
Falkenauer_u120_05,0.61,164.52,8.63,275.0,0.16,0.0,0.24,0.16
Falkenauer_u120_09,0.89,153.24,14.79,273.72,0.34,0.0,0.17,0.08
Falkenauer_t120_04,0.53,491.81,600.0,591.75,0.91,0.24,1.46,0.11
Falkenauer_t120_09,0.65,600.0,600.0,570.13,2.7,0.47,3.13,0.05
Falkenauer_u1000_04,6.83,600.0,600.0,600.0,87.3,4.35,116.02,3.03
Falkenauer_u500_08,4.41,600.0,600.0,600.0,7.62,0.11,8.34,0.29
