instances,GRASP,GRASP-Tabu,GRASP-VNS,Hybrid-GA,VNS
10000_500_200_1_0,600.29,1396.13,721.11,2073.19,772.13
10000_500_200_1_1,600.03,1287.85,726.58,2012.29,801.25
10000_500_200_1_2,600.32,1360.41,742.82,2021.53,719.67
10000_500_200_1_3,600.08,1426.31,732.13,2030.75,755.3
10000_500_200_1_4,600.56,1362.65,732.49,1948.68,722.38
10000_500_200_1_5,600.08,1387.82,746.87,1970.89,824.49
10000_500_200_1_6,600.1,1423.74,774.71,2006.68,839.99
10000_500_200_1_7,600.48,1542.66,824.31,1980.34,738.07
10000_500_200_1_8,600.22,1407.16,813.89,1979.44,740.24
10000_500_200_1_9,600.02,1348.71,841.5,2004.51,838.23
1000_500_250_1_0,60.47,616.72,601.58,719.93,603.57
1000_500_250_1_1,57.53,618.57,600.04,732.5,605.68
1000_500_250_1_2,55.54,605.47,600.48,727.72,604.17
1000_500_250_1_3,58.17,607.53,601.34,721.95,601.25
1000_500_250_1_4,56.27,618.68,600.27,738.48,606.39
1000_500_250_1_5,57.13,605.02,601.15,737.95,603.17
1000_500_250_1_6,51.32,618.41,600.34,731.59,606.24
1000_500_250_1_7,53.96,616.11,600.66,732.01,600.98
1000_500_250_1_8,57.15,602.71,600.98,733.04,604.31
1000_500_250_1_9,53.79,605.85,602.05,722.72,604.84
500_250_100_1_0,16.9,602.79,600.25,601.59,101.34
500_250_100_1_1,12.9,601.4,600.03,657.32,105.49
500_250_100_1_2,13.69,600.21,600.01,603.8,101.83
500_250_100_1_3,15.76,601.05,600.62,652.17,103.94
500_250_100_1_4,15.35,600.16,600.79,607.28,105.72
500_250_100_1_5,12.99,601.13,600.29,659.72,108.38
500_250_100_1_6,16.67,601.12,600.16,609.55,100.81
500_250_100_1_7,15.58,600.46,600.94,605.41,97.44
500_250_100_1_8,13.4,600.01,600.42,659.79,100.99
500_250_100_1_9,15.68,603.1,600.03,658.44,100.14
100_75_50_1_0,1.35,600.02,62.27,603.3,0.92
100_75_50_1_1,1.3,600.02,64.2,606.22,0.55
100_75_50_1_2,1.43,600.02,64.22,605.08,0.88
100_75_50_1_3,1.43,600.02,60.2,606.65,0.99
100_75_50_1_4,1.47,600.0,63.5,602.61,0.85
100_75_50_1_5,0.78,600.0,61.0,602.56,1.04
100_75_50_1_6,1.35,600.01,59.27,605.92,1.02
100_75_50_1_7,1.31,600.02,62.46,602.15,0.88
100_75_50_1_8,1.31,600.0,57.42,601.31,1.01
100_75_50_1_9,1.31,600.0,61.92,606.47,1.0
10000_500_200_5_0,600.09,680.34,601.19,628.46,605.2
10000_500_200_5_1,600.17,635.57,608.29,624.3,608.46
10000_500_200_5_2,600.29,721.63,603.76,602.42,608.4
10000_500_200_5_3,600.21,908.01,630.35,617.57,610.6
10000_500_200_5_4,600.34,851.7,603.05,637.16,602.5
10000_500_200_5_5,600.44,636.75,600.88,640.24,604.28
10000_500_200_5_6,600.14,797.2,647.6,630.96,611.69
10000_500_200_5_7,600.01,796.41,617.84,624.96,631.83
10000_500_200_5_8,600.3,731.35,604.65,611.22,600.81
10000_500_200_5_9,600.42,847.22,743.53,632.4,642.54
1000_500_250_5_0,33.72,602.47,600.38,732.68,602.31
1000_500_250_5_1,36.14,602.25,600.34,733.42,601.59
1000_500_250_5_2,32.39,607.31,600.58,731.04,600.18
1000_500_250_5_3,38.37,600.09,602.0,734.2,601.17
1000_500_250_5_4,34.42,604.95,600.02,752.43,600.56
1000_500_250_5_5,33.57,606.57,600.44,743.88,602.61
1000_500_250_5_6,31.43,602.76,600.33,735.67,601.81
1000_500_250_5_7,31.44,601.11,600.14,724.07,601.2
1000_500_250_5_8,26.2,602.89,600.24,751.13,602.03
1000_500_250_5_9,34.65,606.2,600.08,739.08,601.28
500_250_100_5_0,8.84,600.08,600.08,653.99,110.87
500_250_100_5_1,8.74,600.25,600.1,601.75,108.49
500_250_100_5_2,8.84,600.77,600.12,602.59,114.43
500_250_100_5_3,9.86,600.4,600.25,654.59,103.37
500_250_100_5_4,8.84,600.52,600.04,613.88,107.4
500_250_100_5_5,6.58,600.06,600.12,654.16,112.02
500_250_100_5_6,8.09,600.12,600.05,656.57,101.4
500_250_100_5_7,8.54,600.15,600.09,604.46,114.03
500_250_100_5_8,9.09,601.09,600.0,632.54,121.21
500_250_100_5_9,6.47,600.09,600.08,648.28,114.71
100_75_50_5_0,0.84,553.84,134.27,602.83,2.29
100_75_50_5_1,0.86,544.25,138.52,602.87,2.48
100_75_50_5_2,0.89,542.12,135.91,605.02,2.1
100_75_50_5_3,0.94,562.2,143.07,606.38,2.13
100_75_50_5_4,0.87,541.1,144.86,606.54,2.13
100_75_50_5_5,0.8,530.11,138.1,601.83,2.22
100_75_50_5_6,0.97,561.69,138.95,600.66,2.2
100_75_50_5_7,0.94,553.15,127.65,600.63,2.36
100_75_50_5_8,0.95,538.38,134.29,600.29,2.15
100_75_50_5_9,0.78,532.19,138.34,606.9,2.3
10000_500_200_9_0,600.17,1006.35,618.31,687.38,614.44
10000_500_200_9_1,600.43,848.74,607.27,639.99,615.65
10000_500_200_9_2,600.28,818.56,611.8,635.35,605.55
10000_500_200_9_3,600.23,896.41,614.49,624.58,603.36
10000_500_200_9_4,600.35,669.77,617.71,633.04,601.7
10000_500_200_9_5,600.13,661.47,611.48,650.27,607.52
10000_500_200_9_6,600.28,735.32,624.91,666.19,608.92
10000_500_200_9_7,600.23,809.61,605.07,669.71,615.96
10000_500_200_9_8,600.3,683.95,605.86,691.65,633.29
10000_500_200_9_9,600.2,894.59,620.78,650.65,615.77
1000_500_250_9_0,30.29,603.82,600.59,707.88,600.41
1000_500_250_9_1,39.42,604.24,600.69,725.37,600.03
1000_500_250_9_2,35.77,600.15,600.4,723.82,600.02
1000_500_250_9_3,34.26,603.34,600.34,729.12,600.26
1000_500_250_9_4,33.1,602.23,600.15,711.62,600.73
1000_500_250_9_5,34.46,602.09,600.39,716.71,600.11
1000_500_250_9_6,33.73,603.13,600.05,720.63,600.13
1000_500_250_9_7,40.15,600.19,601.29,730.52,600.44
1000_500_250_9_8,30.47,601.0,600.97,742.88,600.9
1000_500_250_9_9,30.79,600.85,600.38,735.01,601.43
500_250_100_9_0,7.91,600.07,600.37,652.11,121.14
500_250_100_9_1,9.14,600.39,600.15,613.58,126.68
500_250_100_9_2,8.65,600.7,600.11,648.12,128.09
500_250_100_9_3,8.97,600.31,600.01,643.54,128.22
500_250_100_9_4,8.0,600.29,600.24,651.11,123.16
500_250_100_9_5,9.12,600.75,600.22,657.74,129.16
500_250_100_9_6,10.1,600.18,600.13,649.48,129.12
500_250_100_9_7,8.82,600.13,600.45,606.5,112.29
500_250_100_9_8,7.11,600.41,600.12,648.22,112.17
500_250_100_9_9,8.94,600.11,600.45,648.82,126.79
100_75_50_9_0,0.74,432.3,234.13,602.06,1.51
100_75_50_9_1,0.77,443.45,244.55,605.81,1.73
100_75_50_9_2,0.82,411.7,228.5,605.55,1.74
100_75_50_9_3,0.71,435.42,241.79,605.44,1.54
100_75_50_9_4,0.72,429.36,232.76,602.39,1.54
100_75_50_9_5,0.8,432.7,247.02,604.54,1.65
100_75_50_9_6,0.74,433.3,247.64,602.22,1.61
100_75_50_9_7,0.73,430.51,229.43,600.58,1.08
100_75_50_9_8,0.52,427.71,235.81,600.86,0.89
100_75_50_9_9,0.74,426.06,243.42,602.27,1.41
10000_500_200_13_0,600.13,1383.07,745.02,2299.92,741.81
10000_500_200_13_1,600.24,1369.31,750.04,3051.64,801.49
10000_500_200_13_2,600.32,1351.94,809.88,2750.97,760.9
10000_500_200_13_3,600.38,1515.67,662.74,2140.78,763.66
10000_500_200_13_4,600.12,1460.33,798.79,2675.79,820.68
10000_500_200_13_5,600.51,1372.76,615.88,3600.0,863.18
10000_500_200_13_6,600.26,1272.25,714.32,1695.85,833.97
10000_500_200_13_7,600.46,1294.34,756.73,2317.46,840.29
10000_500_200_13_8,600.41,1247.82,729.52,2555.52,778.43
10000_500_200_13_9,600.15,1174.33,731.01,3600.0,738.62
1000_500_250_13_0,55.22,603.62,600.44,727.33,513.48
1000_500_250_13_1,49.97,602.96,600.23,727.14,519.01
1000_500_250_13_2,45.87,608.36,600.23,744.45,600.16
1000_500_250_13_3,46.9,602.87,600.99,719.85,600.07
1000_500_250_13_4,44.74,602.11,601.18,745.41,603.89
1000_500_250_13_5,41.43,603.15,600.52,746.7,603.02
1000_500_250_13_6,36.22,601.54,600.12,726.51,604.48
1000_500_250_13_7,36.09,602.88,600.44,733.03,603.5
1000_500_250_13_8,33.5,600.3,601.18,722.54,601.69
1000_500_250_13_9,33.58,602.41,601.21,734.04,600.72
500_250_100_13_0,12.17,600.3,600.03,618.9,77.54
500_250_100_13_1,14.15,600.73,600.46,657.16,65.55
500_250_100_13_2,13.8,600.31,600.57,603.09,77.5
500_250_100_13_3,12.52,602.38,600.81,660.02,79.45
500_250_100_13_4,13.88,600.79,600.55,609.25,76.58
500_250_100_13_5,13.92,602.14,600.32,638.05,79.03
500_250_100_13_6,13.1,600.78,600.28,640.68,79.79
500_250_100_13_7,14.32,601.51,600.22,619.66,73.49
500_250_100_13_8,14.24,601.12,600.62,638.92,74.55
500_250_100_13_9,14.55,601.21,600.03,605.73,62.49
100_75_50_13_0,1.23,600.02,201.7,601.71,1.17
100_75_50_13_1,1.26,600.03,200.45,601.0,1.3
100_75_50_13_2,1.24,600.01,204.09,605.51,1.11
100_75_50_13_3,1.26,600.02,200.36,603.42,1.13
100_75_50_13_4,1.32,600.03,213.39,601.59,1.27
100_75_50_13_5,1.24,600.03,201.32,602.08,1.26
100_75_50_13_6,1.26,600.02,212.71,604.94,1.14
100_75_50_13_7,1.22,600.0,210.79,602.08,1.17
100_75_50_13_8,1.24,600.0,213.53,603.12,1.29
100_75_50_13_9,1.3,600.02,198.88,605.53,1.26
10000_500_200_17_0,600.26,677.06,600.9,644.61,606.73
10000_500_200_17_1,600.25,653.59,602.41,622.36,622.18
10000_500_200_17_2,600.25,666.85,619.16,620.69,603.67
10000_500_200_17_3,600.3,860.23,616.22,615.74,606.89
10000_500_200_17_4,600.26,612.77,624.02,615.42,600.55
10000_500_200_17_5,600.48,657.8,605.73,892.05,603.31
10000_500_200_17_6,600.12,725.68,600.26,891.08,601.12
10000_500_200_17_7,600.38,625.78,600.39,890.66,600.37
10000_500_200_17_8,600.27,624.83,606.54,600.92,652.36
10000_500_200_17_9,600.09,620.7,611.1,601.65,639.17
1000_500_250_17_0,34.13,602.42,600.03,726.03,601.73
1000_500_250_17_1,35.68,600.0,600.53,733.94,601.44
1000_500_250_17_2,34.93,600.02,600.14,742.64,601.44
1000_500_250_17_3,30.54,604.75,600.08,714.14,600.03
1000_500_250_17_4,28.06,600.97,600.94,681.01,602.19
1000_500_250_17_5,32.6,600.06,600.58,702.14,601.4
1000_500_250_17_6,29.46,602.42,601.69,649.23,601.78
1000_500_250_17_7,29.62,603.04,600.24,636.95,601.25
1000_500_250_17_8,27.53,603.58,600.47,745.42,601.47
1000_500_250_17_9,26.16,603.21,600.25,734.67,602.06
500_250_100_17_0,6.17,600.46,600.1,647.3,117.39
500_250_100_17_1,9.5,600.02,600.12,602.81,123.24
500_250_100_17_2,9.35,600.51,600.11,601.27,116.42
500_250_100_17_3,8.08,600.85,600.15,605.73,118.79
500_250_100_17_4,9.25,600.02,600.1,606.29,115.76
500_250_100_17_5,9.59,600.43,600.23,655.97,117.56
500_250_100_17_6,9.8,600.68,600.12,649.92,101.84
500_250_100_17_7,9.32,600.52,600.12,655.66,108.28
500_250_100_17_8,10.19,600.73,600.03,609.56,88.69
500_250_100_17_9,9.4,600.78,600.07,655.01,89.86
100_75_50_17_0,0.95,600.0,274.9,601.67,3.29
100_75_50_17_1,1.01,600.0,274.48,604.69,3.4
100_75_50_17_2,1.02,600.0,281.13,602.64,3.31
100_75_50_17_3,0.88,600.0,271.76,605.88,1.99
100_75_50_17_4,0.89,600.0,276.0,601.78,2.21
100_75_50_17_5,0.87,600.04,257.18,600.82,3.45
100_75_50_17_6,0.64,600.0,280.18,604.7,3.45
100_75_50_17_7,0.86,600.04,262.84,602.76,3.71
100_75_50_17_8,0.91,600.0,272.36,605.31,3.68
100_75_50_17_9,0.89,600.0,273.8,605.42,3.75
10000_500_200_21_0,600.19,696.13,612.88,608.54,667.24
10000_500_200_21_1,600.29,771.27,605.15,639.84,628.1
10000_500_200_21_2,600.22,749.62,601.05,617.04,610.31
10000_500_200_21_3,600.4,722.46,611.32,613.27,601.21
10000_500_200_21_4,600.33,769.4,606.73,659.25,605.19
10000_500_200_21_5,600.05,617.89,611.33,661.1,632.5
10000_500_200_21_6,600.39,714.19,601.77,686.43,602.77
10000_500_200_21_7,600.14,694.95,615.13,670.97,607.54
10000_500_200_21_8,600.23,679.55,614.53,663.29,603.68
10000_500_200_21_9,600.09,733.41,609.64,638.51,610.99
1000_500_250_21_0,35.81,600.56,600.04,602.47,601.27
1000_500_250_21_1,34.18,602.01,600.49,613.14,601.65
1000_500_250_21_2,32.87,600.43,600.45,625.85,600.73
1000_500_250_21_3,29.65,606.02,601.5,619.69,600.3
1000_500_250_21_4,32.24,605.14,600.57,619.62,600.22
1000_500_250_21_5,30.88,600.68,600.13,612.52,600.23
1000_500_250_21_6,27.27,601.87,600.35,613.38,600.04
1000_500_250_21_7,29.19,604.18,600.68,605.46,600.92
1000_500_250_21_8,28.99,601.35,601.44,620.89,601.17
1000_500_250_21_9,22.56,603.49,600.04,613.34,600.11
500_250_100_21_0,5.69,600.8,600.2,649.5,600.39
500_250_100_21_1,5.24,602.52,600.32,647.48,600.04
500_250_100_21_2,9.09,600.39,600.05,650.37,600.33
500_250_100_21_3,10.57,600.43,600.13,646.46,600.33
500_250_100_21_4,9.0,601.72,600.04,644.14,600.37
500_250_100_21_5,8.11,601.0,600.04,601.91,600.09
500_250_100_21_6,10.26,601.63,600.16,640.28,600.11
500_250_100_21_7,8.2,600.03,600.04,611.4,600.23
500_250_100_21_8,9.3,600.43,600.08,614.63,600.08
500_250_100_21_9,9.26,600.64,600.13,651.01,560.92
100_75_50_21_0,0.75,472.41,212.02,600.36,1.54
100_75_50_21_1,0.74,474.55,220.05,602.19,1.51
100_75_50_21_2,0.72,460.48,218.54,601.6,3.03
100_75_50_21_3,0.71,477.21,217.27,606.64,2.82
100_75_50_21_4,0.47,490.28,232.05,604.85,3.18
100_75_50_21_5,0.71,464.12,214.11,600.24,2.83
100_75_50_21_6,0.71,459.74,223.76,603.27,2.19
100_75_50_21_7,0.73,459.1,224.28,604.44,2.77
100_75_50_21_8,0.71,469.43,221.47,603.3,2.91
100_75_50_21_9,0.7,453.53,213.66,600.74,2.98
10000_500_200_25_0,600.18,1198.39,723.42,1922.63,785.56
10000_500_200_25_1,600.46,1390.05,666.04,1904.2,839.31
10000_500_200_25_2,600.07,1465.05,631.0,1864.8,845.07
10000_500_200_25_3,600.38,1568.52,731.68,1907.55,853.35
10000_500_200_25_4,600.16,1368.78,817.74,1888.91,817.42
10000_500_200_25_5,600.48,1310.19,711.61,1942.7,775.08
10000_500_200_25_6,600.22,1264.14,738.79,1701.96,700.39
10000_500_200_25_7,600.41,1234.02,727.42,1505.68,647.94
10000_500_200_25_8,600.01,1149.65,723.37,1414.68,746.32
10000_500_200_25_9,600.46,1007.38,675.64,1224.79,702.64
1000_500_250_25_0,57.29,610.0,600.32,710.11,502.19
1000_500_250_25_1,47.72,601.16,600.32,659.49,493.48
1000_500_250_25_2,54.54,604.5,600.14,658.86,456.49
1000_500_250_25_3,48.13,601.6,600.52,657.43,600.08
1000_500_250_25_4,37.98,607.49,600.1,657.6,600.6
1000_500_250_25_5,37.94,610.51,600.27,725.02,600.19
1000_500_250_25_6,35.17,607.11,600.65,737.64,600.35
1000_500_250_25_7,35.24,608.66,600.01,738.41,600.09
1000_500_250_25_8,33.87,604.97,600.31,737.47,600.11
1000_500_250_25_9,31.74,605.9,600.32,733.2,600.42
500_250_100_25_0,6.82,601.06,600.03,612.58,360.62
500_250_100_25_1,6.79,600.58,600.02,659.92,359.2
500_250_100_25_2,13.93,600.86,600.0,606.77,368.71
500_250_100_25_3,13.86,602.62,600.44,608.24,352.09
500_250_100_25_4,12.12,602.48,600.33,654.63,321.8
500_250_100_25_5,13.29,600.76,600.08,611.06,299.47
500_250_100_25_6,11.46,600.24,600.42,652.64,268.69
500_250_100_25_7,13.7,600.24,600.24,660.08,260.3
500_250_100_25_8,13.39,602.0,600.27,658.01,247.53
500_250_100_25_9,9.88,600.04,600.02,611.8,277.01
100_75_50_25_0,1.31,600.02,136.08,604.88,1.77
100_75_50_25_1,1.23,600.01,143.12,606.3,1.74
100_75_50_25_2,1.23,600.01,145.38,600.27,1.78
100_75_50_25_3,1.2,600.0,137.73,601.77,3.05
100_75_50_25_4,1.23,600.0,140.18,605.55,2.05
100_75_50_25_5,1.21,600.01,143.81,603.89,2.97
100_75_50_25_6,1.08,600.0,129.95,606.14,2.93
100_75_50_25_7,1.33,600.01,138.98,602.13,3.05
100_75_50_25_8,1.22,600.0,136.91,602.8,2.42
100_75_50_25_9,1.19,600.01,140.96,602.63,3.0
10000_500_200_29_0,600.3,626.76,618.87,851.62,602.81
10000_500_200_29_1,600.14,838.77,603.76,627.98,663.29
10000_500_200_29_2,600.4,943.87,602.98,608.35,634.41
10000_500_200_29_3,600.28,801.28,683.36,621.33,644.45
10000_500_200_29_4,600.06,811.69,615.96,905.14,665.79
10000_500_200_29_5,600.4,785.46,659.89,899.26,615.39
10000_500_200_29_6,600.16,703.84,608.07,886.73,649.14
10000_500_200_29_7,600.35,664.05,615.62,608.87,624.69
10000_500_200_29_8,600.29,673.29,600.28,602.85,601.6
10000_500_200_29_9,600.28,686.91,647.09,603.19,614.82
1000_500_250_29_0,32.79,605.95,601.37,731.79,600.08
1000_500_250_29_1,31.33,602.81,600.04,739.45,601.09
1000_500_250_29_2,33.83,600.77,601.06,733.17,600.02
1000_500_250_29_3,28.91,601.71,600.64,716.44,600.46
1000_500_250_29_4,29.45,603.2,600.09,735.11,600.35
1000_500_250_29_5,25.52,601.95,600.36,742.11,600.98
1000_500_250_29_6,24.04,602.59,600.56,702.29,600.89
1000_500_250_29_7,24.07,600.26,600.01,679.74,600.14
1000_500_250_29_8,28.95,600.08,600.02,698.14,602.22
1000_500_250_29_9,20.7,602.3,601.11,634.46,600.17
500_250_100_29_0,5.62,600.42,600.13,606.23,66.06
500_250_100_29_1,5.22,600.26,600.03,647.81,64.99
500_250_100_29_2,5.2,600.92,600.22,605.44,67.23
500_250_100_29_3,8.51,600.67,600.05,610.77,59.84
500_250_100_29_4,8.23,600.65,600.29,619.24,57.42
500_250_100_29_5,9.15,600.57,600.18,620.37,51.0
500_250_100_29_6,10.58,600.72,600.11,603.83,49.66
500_250_100_29_7,7.3,600.1,600.38,611.25,50.63
500_250_100_29_8,7.72,600.85,600.2,615.2,52.6
500_250_100_29_9,9.67,600.95,600.02,604.42,45.05
100_75_50_29_0,0.95,600.01,225.65,604.33,1.61
100_75_50_29_1,1.06,600.01,211.68,604.97,1.01
100_75_50_29_2,0.89,600.01,262.65,603.58,2.27
100_75_50_29_3,1.08,600.0,277.92,602.37,2.21
100_75_50_29_4,1.06,600.0,269.14,604.68,2.35
100_75_50_29_5,1.05,600.0,276.98,606.57,2.4
100_75_50_29_6,1.13,600.0,271.07,602.49,2.28
100_75_50_29_7,0.65,600.01,249.58,600.17,2.38
100_75_50_29_8,1.05,600.0,254.84,600.06,2.27
100_75_50_29_9,1.08,600.0,265.97,606.69,2.43
10000_500_200_33_0,600.45,629.81,602.14,626.24,605.4
10000_500_200_33_1,600.31,655.42,601.67,639.65,603.09
10000_500_200_33_2,600.06,632.13,602.04,632.38,605.49
10000_500_200_33_3,600.25,629.08,612.83,888.03,605.21
10000_500_200_33_4,600.49,759.66,613.79,830.13,608.82
10000_500_200_33_5,600.39,679.9,610.51,783.07,610.92
10000_500_200_33_6,600.18,769.55,601.75,776.3,605.71
10000_500_200_33_7,600.07,688.8,602.94,675.86,607.47
10000_500_200_33_8,600.3,739.8,609.34,644.65,601.51
10000_500_200_33_9,600.21,681.37,600.07,601.57,602.91
1000_500_250_33_0,36.94,600.55,600.41,668.26,600.78
1000_500_250_33_1,35.57,603.31,600.01,667.84,601.31
1000_500_250_33_2,37.47,600.88,600.42,737.02,600.42
1000_500_250_33_3,30.18,602.77,600.68,723.24,600.71
1000_500_250_33_4,31.2,604.24,600.12,714.76,600.04
1000_500_250_33_5,29.69,603.46,600.06,740.84,600.41
1000_500_250_33_6,25.0,600.3,600.27,735.59,600.54
1000_500_250_33_7,29.43,601.88,600.24,727.59,600.65
1000_500_250_33_8,30.46,601.33,601.05,735.68,600.93
1000_500_250_33_9,31.97,602.99,600.43,723.4,600.61
500_250_100_33_0,5.76,600.32,600.2,645.74,373.56
500_250_100_33_1,5.33,600.37,600.03,651.49,351.09
500_250_100_33_2,5.35,600.27,600.06,650.47,321.23
500_250_100_33_3,5.33,600.79,600.16,640.35,319.67
500_250_100_33_4,9.7,601.63,600.74,656.88,290.94
500_250_100_33_5,9.38,600.79,600.14,648.0,262.19
500_250_100_33_6,9.35,600.27,600.4,620.52,258.22
500_250_100_33_7,9.28,601.18,600.16,606.28,250.0
500_250_100_33_8,9.13,600.21,600.11,615.41,231.3
500_250_100_33_9,9.3,600.06,600.01,622.85,250.17
100_75_50_33_0,0.47,600.0,261.53,601.06,3.45
100_75_50_33_1,0.68,600.0,259.46,600.4,3.45
100_75_50_33_2,0.73,600.01,256.34,600.16,3.21
100_75_50_33_3,0.7,600.02,244.9,602.03,3.21
100_75_50_33_4,0.67,600.05,248.17,604.51,3.22
100_75_50_33_5,0.67,600.02,244.7,602.16,6.07
100_75_50_33_6,0.72,567.81,231.53,604.49,5.98
100_75_50_33_7,0.65,519.8,238.75,602.56,5.98
100_75_50_33_8,0.68,498.72,215.08,600.49,5.97
100_75_50_33_9,0.67,485.63,199.25,601.51,5.11
Falkenauer_u120_03,0.55,106.44,5.95,256.83,0.12
Falkenauer_t501_05,4.35,600.29,600.15,600.46,174.01
Falkenauer_u120_07,1.1,145.81,4.9,293.52,0.04
Falkenauer_u1000_03,11.19,600.05,600.01,618.14,46.65
Falkenauer_u500_04,3.16,600.0,600.01,603.24,10.53
Falkenauer_u500_09,3.5,600.01,600.0,601.16,3.89
Falkenauer_u500_01,4.1,600.0,600.0,604.03,7.35
Falkenauer_u500_05,3.33,600.0,600.0,600.24,7.98
Falkenauer_u120_06,0.56,104.02,2.58,279.6,0.13
Falkenauer_u1000_08,11.5,600.03,600.09,609.31,55.67
Falkenauer_t120_06,0.89,600.01,600.01,601.4,1.48
Falkenauer_u1000_01,11.36,600.13,600.16,611.42,57.17
Falkenauer_u120_00,0.66,144.99,9.81,273.88,0.14
Falkenauer_u120_04,0.72,300.7,35.29,483.38,1.2
Falkenauer_t120_08,1.0,600.04,600.01,480.96,1.34
Falkenauer_u120_01,0.6,218.96,11.31,442.58,0.13
Falkenauer_t501_00,6.9,600.76,601.1,603.12,98.4
Falkenauer_u1000_05,11.51,600.39,600.04,615.02,67.46
Falkenauer_t501_01,4.48,600.92,600.06,604.05,152.49
Falkenauer_t120_07,0.69,600.02,600.0,600.26,0.91
Falkenauer_u500_03,2.98,600.04,600.0,603.31,5.25
Falkenauer_t120_01,0.72,600.01,600.01,465.12,1.05
Falkenauer_u500_02,2.47,600.0,522.19,600.69,7.52
Falkenauer_t501_02,9.46,603.91,601.19,611.41,114.03
Falkenauer_t120_05,0.48,435.48,600.0,567.86,2.5
Falkenauer_t501_04,8.84,601.26,600.25,604.11,51.3
Falkenauer_t501_09,8.6,602.75,601.86,629.66,205.85
Falkenauer_u120_02,0.54,181.73,10.01,275.68,0.21
Falkenauer_u1000_00,7.63,600.06,600.0,614.36,51.61
Falkenauer_t120_03,0.38,407.8,600.0,474.38,2.03
Falkenauer_t120_02,0.98,600.02,600.01,603.27,1.7
Falkenauer_t501_06,5.54,600.5,600.06,609.29,175.53
Falkenauer_u120_08,1.04,168.21,10.59,173.17,0.08
Falkenauer_u1000_06,9.75,600.02,600.05,611.43,82.02
Falkenauer_u1000_09,9.51,600.1,600.17,603.93,65.34
Falkenauer_u500_07,3.88,600.01,600.05,602.07,7.34
Falkenauer_u1000_07,9.75,600.03,600.05,604.99,34.4
Falkenauer_t501_03,5.26,600.08,600.01,602.1,85.13
Falkenauer_t120_00,0.65,600.0,600.0,447.79,2.32
Falkenauer_u1000_02,13.31,600.04,600.07,608.91,45.48
Falkenauer_t501_08,10.33,601.47,600.08,602.59,73.95
Falkenauer_u500_06,4.3,600.01,600.0,601.1,4.35
Falkenauer_u500_00,1.76,600.0,600.01,604.6,2.32
Falkenauer_t501_07,6.64,600.52,600.09,609.22,82.08
Falkenauer_u120_05,0.61,164.52,8.63,379.96,0.13
Falkenauer_u120_09,0.89,153.24,14.79,275.96,0.34
Falkenauer_t120_04,0.53,491.81,600.01,602.14,1.39
Falkenauer_t120_09,0.65,600.0,600.0,515.15,2.62
Falkenauer_u1000_04,6.83,600.01,600.04,608.89,81.79
Falkenauer_u500_08,4.41,600.01,600.01,602.97,3.98
