instances,Heuristica-MINSPACE,PLI
10000_500_200_1,15998.0,19732.0
10000_500_200_2,4032.0,4023.0
10000_500_200_3,10660.0,10666.0
1000_250_125_1,1980.0,1988.0
1000_250_125_2,824.0,805.0
1000_250_125_3,2130.0,2125.0
1000_500_250_1,2007.0,2041.0
1000_500_250_2,422.0,404.0
1000_500_250_3,1065.0,1063.0
100_50_40_1,319.0,308.0
100_50_40_2,403.0,398.0
100_50_40_3,973.0,971.0
100_75_50_1,278.0,276.0
100_75_50_2,275.0,264.0
100_75_50_3,651.0,649.0
200_100_50_1,404.0,394.0
200_100_50_2,402.0,385.0
200_100_50_3,1032.0,1023.0
200_50_40_1,654.0,646.0
200_50_40_2,776.0,771.0
200_50_40_3,2054.0,2046.0
400_100_50_1,798.0,784.0
400_100_50_2,807.0,795.0
400_100_50_3,2093.0,2091.0
400_150_75_1,815.0,803.0
400_150_75_2,540.0,529.0
400_150_75_3,1402.0,1394.0
400_200_100_1,829.0,805.0
400_200_100_2,415.0,395.0
400_200_100_3,1047.0,1048.0
500_125_50_1,778.0,769.0
500_125_50_2,812.0,802.0
500_125_50_3,2025.0,2024.0
500_250_100_1,793.0,790.0
500_250_100_2,425.0,402.0
500_250_100_3,1013.0,1012.0
10000_500_200_4,3995.0,3992.0
1000_500_250_4,396.0,396.0
1000_250_125_4,792.0,791.0
500_250_100_4,408.0,402.0
500_125_50_4,807.0,800.0
400_200_100_4,411.0,404.0
400_150_75_4,543.0,538.0
400_100_50_4,814.0,808.0
200_100_50_4,397.0,394.0
200_50_40_4,793.0,788.0
100_75_50_4,277.0,274.0
100_50_40_4,410.0,409.0
10000_500_200_5,884.0,882.0
1000_500_250_5,93.0,87.0
1000_250_125_5,178.0,174.0
500_250_100_5,91.0,86.0
500_125_50_5,177.0,173.0
400_200_100_5,90.0,86.0
400_150_75_5,120.0,115.0
400_100_50_5,175.0,173.0
200_100_50_5,92.0,88.0
200_50_40_5,178.0,177.0
100_75_50_5,62.0,59.0
100_50_40_5,93.0,88.0
10000_500_200_6,16078.0,20124.0
1000_500_250_6,1989.0,2018.0
1000_250_125_6,1983.0,1988.0
500_250_100_6,838.0,814.0
500_125_50_6,800.0,787.0
400_200_100_6,802.0,812.0
400_150_75_6,826.0,814.0
400_100_50_6,782.0,782.0
200_100_50_6,399.0,387.0
200_50_40_6,637.0,626.0
100_75_50_6,262.0,259.0
100_50_40_6,323.0,312.0
10000_500_200_7,15990.0,16001.0
1000_500_250_7,2085.0,2036.0
1000_250_125_7,2027.0,2017.0
500_250_100_7,825.0,795.0
500_125_50_7,803.0,790.0
400_200_100_7,809.0,784.0
400_150_75_7,825.0,803.0
400_100_50_7,792.0,786.0
200_100_50_7,411.0,397.0
200_50_40_7,628.0,624.0
100_75_50_7,271.0,260.0
100_50_40_7,316.0,308.0
10000_500_200_8,30865.0,36262.0
1000_500_250_8,3947.0,3917.0
1000_250_125_8,3888.0,3879.0
500_250_100_8,1582.0,1565.0
500_125_50_8,1542.0,1536.0
400_200_100_8,1526.0,1517.0
400_150_75_8,1535.0,1533.0
400_100_50_8,1509.0,1495.0
200_100_50_8,759.0,754.0
200_50_40_8,1192.0,1184.0
100_75_50_8,527.0,514.0
100_50_40_8,623.0,619.0
10000_500_200_9,15952.0,19053.0
1000_500_250_9,2087.0,2043.0
1000_250_125_9,2028.0,2008.0
500_250_100_9,786.0,789.0
500_125_50_9,778.0,774.0
400_200_100_9,791.0,798.0
400_150_75_9,805.0,793.0
400_100_50_9,775.0,775.0
200_100_50_9,408.0,396.0
200_50_40_9,654.0,644.0
100_75_50_9,269.0,262.0
100_50_40_9,314.0,310.0
10000_500_200_10,15967.0,15939.0
1000_500_250_10,2062.0,2014.0
1000_250_125_10,1969.0,1952.0
500_250_100_10,814.0,795.0
500_125_50_10,799.0,790.0
400_200_100_10,812.0,798.0
400_150_75_10,809.0,795.0
400_100_50_10,792.0,780.0
200_100_50_10,389.0,382.0
200_50_40_10,631.0,625.0
100_75_50_10,275.0,260.0
100_50_40_10,331.0,322.0
