iteration 0 sol 313571.00
iteration 1 sol 311026.00
iteration 2 sol 316030.00
iteration 3 sol 320101.00
iteration 4 sol 318511.00
iteration 5 sol 318674.00
iteration 6 sol 314726.00
iteration 7 sol 316650.00
iteration 8 sol 314311.00
iteration 9 sol 320151.00
iteration 10 sol 319951.00
iteration 11 sol 308843.00
iteration 12 sol 319406.00
iteration 13 sol 316563.00
iteration 14 sol 311895.00
iteration 15 sol 319687.00
iteration 16 sol 315799.00
iteration 17 sol 315394.00
iteration 18 sol 317772.00
iteration 19 sol 319847.00
iteration 20 sol 313632.00
iteration 21 sol 317404.00
iteration 22 sol 320728.00
iteration 23 sol 314479.00
iteration 24 sol 311292.00
iteration 25 sol 317549.00
iteration 26 sol 320799.00
iteration 27 sol 320415.00
iteration 28 sol 318403.00
iteration 29 sol 315492.00
iteration 30 sol 308708.00
iteration 31 sol 320101.00
iteration 32 sol 317148.00
iteration 33 sol 318440.00
iteration 34 sol 319884.00
iteration 35 sol 313487.00
iteration 36 sol 318328.00
iteration 37 sol 307529.00
iteration 38 sol 313741.00
iteration 39 sol 313182.00
iteration 40 sol 312206.00
iteration 41 sol 317091.00
iteration 42 sol 318227.00
iteration 43 sol 318758.00
iteration 44 sol 320974.00
iteration 45 sol 312980.00
iteration 46 sol 314254.00
iteration 47 sol 318249.00
iteration 48 sol 318567.00
iteration 49 sol 316418.00
iteration 50 sol 315323.00
iteration 51 sol 315480.00
iteration 52 sol 321053.00
iteration 53 sol 313037.00
iteration 54 sol 314790.00
iteration 55 sol 313227.00
iteration 56 sol 317022.00
iteration 57 sol 318290.00
iteration 58 sol 314970.00
iteration 59 sol 315650.00
iteration 60 sol 316948.00
iteration 61 sol 318178.00
iteration 62 sol 309417.00
iteration 63 sol 314210.00
iteration 64 sol 316744.00
iteration 65 sol 319426.00
iteration 66 sol 317255.00
iteration 67 sol 314472.00
iteration 68 sol 317346.00
iteration 69 sol 316936.00
iteration 70 sol 320121.00
iteration 71 sol 315419.00
iteration 72 sol 321242.00
iteration 73 sol 318440.00
iteration 74 sol 312877.00
iteration 75 sol 306594.00
iteration 76 sol 314448.00
iteration 77 sol 317502.00
iteration 78 sol 318096.00
iteration 79 sol 307990.00
iteration 80 sol 320807.00
iteration 81 sol 318628.00
iteration 82 sol 317071.00
iteration 83 sol 316836.00
iteration 84 sol 314106.00
iteration 85 sol 317886.00
iteration 86 sol 314448.00
iteration 87 sol 313024.00
iteration 88 sol 316248.00
iteration 89 sol 314243.00
iteration 90 sol 318905.00
iteration 91 sol 319716.00
iteration 92 sol 314617.00
iteration 93 sol 321009.00
iteration 94 sol 319856.00
iteration 95 sol 307294.00
iteration 96 sol 319700.00
iteration 97 sol 315526.00
iteration 98 sol 314158.00
iteration 99 sol 316018.00
iteration 100 sol 312917.00
iteration 101 sol 316755.00
iteration 102 sol 318954.00
iteration 103 sol 314596.00
iteration 104 sol 317126.00
iteration 105 sol 318685.00
iteration 106 sol 318550.00
iteration 107 sol 318823.00
iteration 108 sol 316177.00
iteration 109 sol 318797.00
iteration 110 sol 307240.00
iteration 111 sol 318722.00
iteration 112 sol 318772.00
iteration 113 sol 314720.00
iteration 114 sol 314758.00
iteration 115 sol 316159.00
iteration 116 sol 320511.00
iteration 117 sol 318048.00
iteration 118 sol 312161.00
iteration 119 sol 316281.00
iteration 120 sol 311724.00
iteration 121 sol 315345.00
iteration 122 sol 320572.00
iteration 123 sol 314207.00
iteration 124 sol 314044.00
iteration 125 sol 320023.00
iteration 126 sol 316840.00
iteration 127 sol 316676.00
iteration 128 sol 320942.00
iteration 129 sol 315844.00
iteration 130 sol 316919.00
iteration 131 sol 309602.00
iteration 132 sol 317843.00
iteration 133 sol 311482.00
iteration 134 sol 319193.00
iteration 135 sol 317897.00
iteration 136 sol 317844.00
iteration 137 sol 314068.00
iteration 138 sol 313675.00
iteration 139 sol 313310.00
iteration 140 sol 317981.00
iteration 141 sol 317309.00
iteration 142 sol 316108.00
iteration 143 sol 315744.00
iteration 144 sol 318512.00
iteration 145 sol 320432.00
iteration 146 sol 319013.00
iteration 147 sol 310128.00
iteration 148 sol 316931.00
iteration 149 sol 321219.00
iteration 150 sol 316564.00
iteration 151 sol 318488.00
iteration 152 sol 318685.00
iteration 153 sol 306880.00
iteration 154 sol 314760.00
iteration 155 sol 319119.00
iteration 156 sol 319603.00
iteration 157 sol 319021.00
iteration 158 sol 317053.00
iteration 159 sol 317871.00
iteration 160 sol 315305.00
iteration 161 sol 314649.00
iteration 162 sol 318780.00
iteration 163 sol 320544.00
iteration 164 sol 316887.00
iteration 165 sol 312458.00
iteration 166 sol 320277.00
iteration 167 sol 315364.00
iteration 168 sol 312708.00
iteration 169 sol 312511.00
iteration 170 sol 318230.00
iteration 171 sol 318583.00
iteration 172 sol 314882.00
iteration 173 sol 308713.00
iteration 174 sol 315282.00
iteration 175 sol 319010.00
iteration 176 sol 314190.00
iteration 177 sol 318311.00
iteration 178 sol 317989.00
iteration 179 sol 316806.00
iteration 180 sol 317088.00
iteration 181 sol 316762.00
iteration 182 sol 315500.00
iteration 183 sol 309034.00
iteration 184 sol 317226.00
iteration 185 sol 315001.00
iteration 186 sol 318394.00
iteration 187 sol 312506.00
iteration 188 sol 312186.00
iteration 189 sol 320125.00
iteration 190 sol 319950.00
iteration 191 sol 318146.00
iteration 192 sol 317425.00
iteration 193 sol 314494.00
iteration 194 sol 320264.00
iteration 195 sol 319486.00
iteration 196 sol 311766.00
iteration 197 sol 306966.00
iteration 198 sol 312362.00
iteration 199 sol 319688.00
iteration 200 sol 311029.00
iteration 201 sol 312957.00
iteration 202 sol 310378.00
iteration 203 sol 315313.00
iteration 204 sol 315981.00
iteration 205 sol 319606.00
iteration 206 sol 317652.00
iteration 207 sol 318433.00
iteration 208 sol 319984.00
iteration 209 sol 319459.00
iteration 210 sol 315410.00
iteration 211 sol 314967.00
iteration 212 sol 312865.00
iteration 213 sol 315011.00
iteration 214 sol 316019.00
iteration 215 sol 317084.00
iteration 216 sol 318547.00
iteration 217 sol 316036.00
iteration 218 sol 316008.00
iteration 219 sol 319932.00
iteration 220 sol 320374.00
iteration 221 sol 315529.00
iteration 222 sol 319980.00
iteration 223 sol 317496.00
iteration 224 sol 319763.00
iteration 225 sol 314221.00
iteration 226 sol 316514.00
iteration 227 sol 317971.00
iteration 228 sol 317325.00
iteration 229 sol 319144.00
iteration 230 sol 311652.00
iteration 231 sol 318993.00
iteration 232 sol 315395.00
iteration 233 sol 319453.00
iteration 234 sol 312716.00
iteration 235 sol 314712.00
iteration 236 sol 317084.00
iteration 237 sol 317612.00
iteration 238 sol 316293.00
iteration 239 sol 319630.00
iteration 240 sol 318172.00
iteration 241 sol 315606.00
iteration 242 sol 313721.00
iteration 243 sol 318672.00
iteration 244 sol 314011.00
iteration 245 sol 319770.00
iteration 246 sol 316684.00
iteration 247 sol 320307.00
iteration 248 sol 320657.00
iteration 249 sol 305856.00
iteration 250 sol 315216.00
iteration 251 sol 320415.00
iteration 252 sol 316490.00
iteration 253 sol 315169.00
iteration 254 sol 313835.00
iteration 255 sol 313884.00
iteration 256 sol 318976.00
iteration 257 sol 318010.00
iteration 258 sol 318596.00
iteration 259 sol 318062.00
iteration 260 sol 313266.00
iteration 261 sol 318488.00
iteration 262 sol 320128.00
iteration 263 sol 320059.00
iteration 264 sol 320916.00
iteration 265 sol 319429.00
iteration 266 sol 310640.00
iteration 267 sol 316212.00
iteration 268 sol 319274.00
iteration 269 sol 319598.00
iteration 270 sol 320876.00
iteration 271 sol 317704.00
iteration 272 sol 320790.00
iteration 273 sol 318729.00
Calls to change | Calls removed by BIT 
187208794 | 186978783
Calls to add | Calls removed by BIT 
1130090 | 0
Number of iterations = 274
Best Solution was found in iteration = 72
Time used by neighbor | Times each neighbor was used | Improvements
N_1 = 14.96 | 1706 | 1133
N_2 = 565.53 | 1706 | 1061
N_3 = 0.07 | 1706 | 522
N_4 = 0.86 | 1706 | 306
N_5 = 16.33 | 1706 | 0
Time to find the best solution = 164.45
Solution = 321242.00
Time = 600.84
