iteration 0 sol 1135203.00
iteration 1 sol 1112959.00
iteration 2 sol 1127105.00
iteration 3 sol 1148502.00
iteration 4 sol 1131966.00
iteration 5 sol 1096294.00
iteration 6 sol 1177210.00
iteration 7 sol 1168347.00
iteration 8 sol 1129253.00
iteration 9 sol 1129250.00
iteration 10 sol 1169883.00
iteration 11 sol 1163736.00
iteration 12 sol 1176837.00
iteration 13 sol 1057575.00
iteration 14 sol 1153575.00
iteration 15 sol 1155072.00
iteration 16 sol 1141777.00
iteration 17 sol 1137019.00
iteration 18 sol 1153411.00
iteration 19 sol 1160722.00
iteration 20 sol 1182011.00
iteration 21 sol 1122389.00
iteration 22 sol 1160957.00
iteration 23 sol 1139699.00
iteration 24 sol 1142134.00
iteration 25 sol 1131740.00
iteration 26 sol 1139330.00
iteration 27 sol 1168258.00
iteration 28 sol 1123412.00
iteration 29 sol 1163606.00
iteration 30 sol 1151914.00
iteration 31 sol 1177270.00
iteration 32 sol 1150574.00
iteration 33 sol 1151228.00
iteration 34 sol 1113181.00
iteration 35 sol 1146134.00
iteration 36 sol 1163988.00
iteration 37 sol 1170323.00
iteration 38 sol 1139088.00
iteration 39 sol 1165287.00
iteration 40 sol 1163409.00
iteration 41 sol 1165201.00
iteration 42 sol 1167178.00
iteration 43 sol 1131027.00
iteration 44 sol 1160888.00
iteration 45 sol 1128631.00
iteration 46 sol 1079814.00
iteration 47 sol 1172433.00
iteration 48 sol 1137498.00
iteration 49 sol 1103399.00
iteration 50 sol 1122867.00
iteration 51 sol 1149032.00
iteration 52 sol 1152609.00
iteration 53 sol 1087133.00
iteration 54 sol 1134242.00
iteration 55 sol 1156765.00
iteration 56 sol 1160745.00
iteration 57 sol 1101378.00
iteration 58 sol 1098587.00
iteration 59 sol 1120427.00
iteration 60 sol 1059944.00
iteration 61 sol 1117395.00
iteration 62 sol 1095387.00
iteration 63 sol 1137220.00
iteration 64 sol 1164567.00
iteration 65 sol 1155764.00
iteration 66 sol 1152118.00
iteration 67 sol 1115826.00
iteration 68 sol 1152777.00
iteration 69 sol 1111020.00
iteration 70 sol 1116608.00
iteration 71 sol 1124733.00
iteration 72 sol 1121689.00
iteration 73 sol 1174989.00
iteration 74 sol 1158841.00
iteration 75 sol 1172393.00
iteration 76 sol 1150231.00
iteration 77 sol 1126359.00
iteration 78 sol 1135723.00
iteration 79 sol 1102761.00
iteration 80 sol 1122806.00
iteration 81 sol 1130651.00
iteration 82 sol 1138400.00
iteration 83 sol 1109315.00
iteration 84 sol 1104742.00
iteration 85 sol 1170983.00
iteration 86 sol 1115089.00
iteration 87 sol 1163328.00
iteration 88 sol 1164189.00
iteration 89 sol 1102699.00
iteration 90 sol 1092162.00
iteration 91 sol 1109938.00
iteration 92 sol 1165628.00
iteration 93 sol 1156504.00
iteration 94 sol 1173289.00
iteration 95 sol 1137300.00
iteration 96 sol 1163448.00
iteration 97 sol 1165797.00
iteration 98 sol 1171847.00
iteration 99 sol 1083930.00
iteration 100 sol 1090524.00
iteration 101 sol 1167861.00
iteration 102 sol 1155856.00
Calls to change | Calls removed by BIT 
1999946493 | 939103416
Calls to add | Calls removed by BIT 
31691176 | 7389836
Number of iterations = 103
Best Solution was found in iteration = 20
Time used by neighbor | Times each neighbor was used | Improvements
N_1 = 8.58 | 748 | 646
N_2 = 235.89 | 748 | 617
N_3 = 0.10 | 748 | 216
N_4 = 1.00 | 748 | 99
N_5 = 316.76 | 748 | 0
Time to find the best solution = 124.34
Solution = 1182011.00
Time = 603.53
