iteration 0 sol 327811.00
iteration 1 sol 325870.00
iteration 2 sol 319353.00
iteration 3 sol 320175.00
iteration 4 sol 325292.00
iteration 5 sol 324377.00
iteration 6 sol 323662.00
iteration 7 sol 327639.00
iteration 8 sol 326173.00
iteration 9 sol 321297.00
iteration 10 sol 328060.00
iteration 11 sol 329022.00
iteration 12 sol 317199.00
iteration 13 sol 324350.00
iteration 14 sol 326120.00
iteration 15 sol 317995.00
iteration 16 sol 320752.00
iteration 17 sol 323836.00
iteration 18 sol 323348.00
iteration 19 sol 322458.00
iteration 20 sol 326649.00
iteration 21 sol 328101.00
iteration 22 sol 319872.00
iteration 23 sol 322756.00
iteration 24 sol 327617.00
iteration 25 sol 325352.00
iteration 26 sol 324713.00
iteration 27 sol 326184.00
iteration 28 sol 320774.00
iteration 29 sol 326785.00
iteration 30 sol 320326.00
iteration 31 sol 321313.00
iteration 32 sol 328842.00
iteration 33 sol 326098.00
iteration 34 sol 324520.00
iteration 35 sol 316930.00
iteration 36 sol 322921.00
iteration 37 sol 323772.00
iteration 38 sol 324677.00
iteration 39 sol 325386.00
iteration 40 sol 319181.00
iteration 41 sol 315873.00
iteration 42 sol 326683.00
iteration 43 sol 321641.00
iteration 44 sol 325003.00
iteration 45 sol 314526.00
iteration 46 sol 318296.00
iteration 47 sol 325801.00
iteration 48 sol 321315.00
iteration 49 sol 323621.00
iteration 50 sol 321245.00
iteration 51 sol 323703.00
iteration 52 sol 326213.00
iteration 53 sol 324979.00
iteration 54 sol 326982.00
iteration 55 sol 326338.00
iteration 56 sol 326203.00
iteration 57 sol 327800.00
iteration 58 sol 324713.00
iteration 59 sol 323749.00
iteration 60 sol 322569.00
iteration 61 sol 327534.00
iteration 62 sol 324924.00
iteration 63 sol 327449.00
iteration 64 sol 328062.00
iteration 65 sol 318880.00
iteration 66 sol 325409.00
iteration 67 sol 325183.00
iteration 68 sol 329350.00
iteration 69 sol 325949.00
iteration 70 sol 324325.00
iteration 71 sol 327037.00
iteration 72 sol 317868.00
iteration 73 sol 324509.00
iteration 74 sol 323570.00
iteration 75 sol 324320.00
iteration 76 sol 327102.00
iteration 77 sol 317255.00
iteration 78 sol 326837.00
iteration 79 sol 317357.00
iteration 80 sol 323238.00
iteration 81 sol 323655.00
iteration 82 sol 323271.00
iteration 83 sol 327495.00
iteration 84 sol 321403.00
iteration 85 sol 325051.00
iteration 86 sol 319357.00
iteration 87 sol 328332.00
iteration 88 sol 324637.00
iteration 89 sol 323486.00
iteration 90 sol 326836.00
iteration 91 sol 316816.00
iteration 92 sol 327042.00
iteration 93 sol 323297.00
iteration 94 sol 328458.00
iteration 95 sol 325000.00
iteration 96 sol 323664.00
iteration 97 sol 326889.00
iteration 98 sol 328395.00
iteration 99 sol 327229.00
iteration 100 sol 328331.00
iteration 101 sol 327708.00
iteration 102 sol 318116.00
iteration 103 sol 324261.00
iteration 104 sol 320327.00
iteration 105 sol 327742.00
iteration 106 sol 317588.00
iteration 107 sol 325542.00
iteration 108 sol 323806.00
iteration 109 sol 327055.00
iteration 110 sol 328334.00
iteration 111 sol 326176.00
iteration 112 sol 322148.00
iteration 113 sol 325724.00
iteration 114 sol 328081.00
iteration 115 sol 328014.00
iteration 116 sol 325805.00
iteration 117 sol 323412.00
iteration 118 sol 320461.00
iteration 119 sol 324053.00
iteration 120 sol 323115.00
iteration 121 sol 319765.00
iteration 122 sol 325388.00
iteration 123 sol 325670.00
iteration 124 sol 318327.00
iteration 125 sol 328639.00
iteration 126 sol 327270.00
iteration 127 sol 327751.00
iteration 128 sol 326330.00
iteration 129 sol 322737.00
iteration 130 sol 317387.00
iteration 131 sol 326989.00
iteration 132 sol 328070.00
iteration 133 sol 327030.00
iteration 134 sol 323321.00
iteration 135 sol 323684.00
iteration 136 sol 325742.00
iteration 137 sol 326942.00
iteration 138 sol 326037.00
iteration 139 sol 324301.00
iteration 140 sol 324744.00
iteration 141 sol 322166.00
iteration 142 sol 327436.00
iteration 143 sol 327497.00
iteration 144 sol 328747.00
iteration 145 sol 326786.00
iteration 146 sol 326004.00
iteration 147 sol 324938.00
iteration 148 sol 327469.00
iteration 149 sol 323598.00
iteration 150 sol 322195.00
iteration 151 sol 325398.00
iteration 152 sol 326600.00
iteration 153 sol 319693.00
iteration 154 sol 329306.00
iteration 155 sol 324424.00
iteration 156 sol 321109.00
iteration 157 sol 326781.00
iteration 158 sol 327798.00
iteration 159 sol 327739.00
iteration 160 sol 325718.00
iteration 161 sol 325328.00
iteration 162 sol 327465.00
iteration 163 sol 322057.00
iteration 164 sol 317421.00
iteration 165 sol 326611.00
iteration 166 sol 328272.00
iteration 167 sol 324675.00
iteration 168 sol 323897.00
iteration 169 sol 325310.00
iteration 170 sol 326872.00
iteration 171 sol 325209.00
iteration 172 sol 317408.00
iteration 173 sol 321363.00
iteration 174 sol 328483.00
iteration 175 sol 322023.00
iteration 176 sol 317363.00
iteration 177 sol 325864.00
iteration 178 sol 326721.00
iteration 179 sol 322325.00
iteration 180 sol 326835.00
iteration 181 sol 318989.00
iteration 182 sol 328332.00
iteration 183 sol 323671.00
iteration 184 sol 327347.00
iteration 185 sol 329048.00
iteration 186 sol 328400.00
iteration 187 sol 322585.00
iteration 188 sol 328064.00
iteration 189 sol 320829.00
iteration 190 sol 322497.00
iteration 191 sol 324463.00
iteration 192 sol 327104.00
iteration 193 sol 323701.00
iteration 194 sol 318154.00
iteration 195 sol 321372.00
iteration 196 sol 328292.00
iteration 197 sol 323218.00
iteration 198 sol 320312.00
iteration 199 sol 328857.00
iteration 200 sol 320852.00
iteration 201 sol 325853.00
iteration 202 sol 326439.00
iteration 203 sol 317063.00
iteration 204 sol 327751.00
iteration 205 sol 317650.00
iteration 206 sol 325444.00
iteration 207 sol 315296.00
iteration 208 sol 329833.00
iteration 209 sol 322021.00
iteration 210 sol 320368.00
iteration 211 sol 326814.00
iteration 212 sol 326335.00
iteration 213 sol 325531.00
iteration 214 sol 324599.00
iteration 215 sol 329177.00
iteration 216 sol 328349.00
iteration 217 sol 322601.00
iteration 218 sol 324606.00
iteration 219 sol 321763.00
iteration 220 sol 324070.00
iteration 221 sol 329579.00
iteration 222 sol 324961.00
iteration 223 sol 324846.00
iteration 224 sol 324188.00
iteration 225 sol 323984.00
iteration 226 sol 321124.00
iteration 227 sol 324955.00
iteration 228 sol 326152.00
iteration 229 sol 327343.00
iteration 230 sol 326630.00
iteration 231 sol 328807.00
iteration 232 sol 317801.00
iteration 233 sol 324406.00
iteration 234 sol 322850.00
iteration 235 sol 324662.00
iteration 236 sol 326426.00
iteration 237 sol 327732.00
iteration 238 sol 329201.00
iteration 239 sol 325963.00
iteration 240 sol 322058.00
iteration 241 sol 323301.00
iteration 242 sol 325205.00
iteration 243 sol 325419.00
iteration 244 sol 327122.00
iteration 245 sol 317601.00
iteration 246 sol 327746.00
iteration 247 sol 328157.00
iteration 248 sol 319824.00
iteration 249 sol 326475.00
iteration 250 sol 318634.00
iteration 251 sol 326083.00
iteration 252 sol 326691.00
iteration 253 sol 326608.00
iteration 254 sol 327487.00
iteration 255 sol 326405.00
iteration 256 sol 327975.00
iteration 257 sol 322654.00
iteration 258 sol 316456.00
iteration 259 sol 320055.00
iteration 260 sol 325420.00
iteration 261 sol 324606.00
iteration 262 sol 329392.00
iteration 263 sol 327534.00
iteration 264 sol 326996.00
iteration 265 sol 315395.00
iteration 266 sol 323024.00
iteration 267 sol 321619.00
iteration 268 sol 317590.00
iteration 269 sol 325459.00
iteration 270 sol 316353.00
iteration 271 sol 329515.00
iteration 272 sol 321326.00
iteration 273 sol 323135.00
iteration 274 sol 317850.00
iteration 275 sol 321062.00
iteration 276 sol 321620.00
iteration 277 sol 324711.00
iteration 278 sol 326062.00
iteration 279 sol 325453.00
iteration 280 sol 320154.00
iteration 281 sol 326430.00
iteration 282 sol 329158.00
iteration 283 sol 326353.00
iteration 284 sol 324951.00
iteration 285 sol 320537.00
iteration 286 sol 325329.00
iteration 287 sol 324512.00
iteration 288 sol 324702.00
iteration 289 sol 324061.00
iteration 290 sol 327481.00
iteration 291 sol 328906.00
iteration 292 sol 322654.00
iteration 293 sol 328043.00
iteration 294 sol 327459.00
iteration 295 sol 326145.00
iteration 296 sol 319926.00
iteration 297 sol 323631.00
iteration 298 sol 326447.00
iteration 299 sol 328160.00
iteration 300 sol 324481.00
iteration 301 sol 326154.00
iteration 302 sol 326816.00
iteration 303 sol 328844.00
iteration 304 sol 328313.00
iteration 305 sol 317924.00
iteration 306 sol 329059.00
iteration 307 sol 323888.00
iteration 308 sol 325631.00
iteration 309 sol 321888.00
Calls to change | Calls removed by BIT 
193776143 | 193134295
Calls to add | Calls removed by BIT 
1682735 | 0
Number of iterations = 310
Best Solution was found in iteration = 208
Time used by neighbor | Times each neighbor was used | Improvements
N_1 = 15.30 | 1979 | 1453
N_2 = 565.24 | 1979 | 1297
N_3 = 0.06 | 1979 | 621
N_4 = 0.87 | 1979 | 268
N_5 = 17.20 | 1979 | 0
Time to find the best solution = 375.58
Solution = 329833.00
Time = 602.01
