iteration 0 sol 99956.00
iteration 1 sol 99938.00
iteration 2 sol 99943.00
iteration 3 sol 99917.00
iteration 4 sol 99965.00
iteration 5 sol 99928.00
iteration 6 sol 99929.00
iteration 7 sol 99967.00
iteration 8 sol 99952.00
iteration 9 sol 99964.00
iteration 10 sol 99937.00
iteration 11 sol 99949.00
iteration 12 sol 99933.00
iteration 13 sol 99964.00
iteration 14 sol 99913.00
iteration 15 sol 99957.00
iteration 16 sol 99945.00
iteration 17 sol 99975.00
iteration 18 sol 99944.00
iteration 19 sol 99968.00
iteration 20 sol 99925.00
iteration 21 sol 99915.00
iteration 22 sol 99960.00
iteration 23 sol 99960.00
iteration 24 sol 99958.00
iteration 25 sol 99975.00
iteration 26 sol 99978.00
iteration 27 sol 99937.00
iteration 28 sol 99951.00
iteration 29 sol 99961.00
iteration 30 sol 99953.00
iteration 31 sol 99986.00
iteration 32 sol 99993.00
iteration 33 sol 99903.00
iteration 34 sol 99957.00
iteration 35 sol 99952.00
iteration 36 sol 99968.00
iteration 37 sol 99967.00
iteration 38 sol 99950.00
iteration 39 sol 99965.00
iteration 40 sol 99910.00
iteration 41 sol 99952.00
iteration 42 sol 99939.00
iteration 43 sol 99992.00
iteration 44 sol 99944.00
iteration 45 sol 99954.00
iteration 46 sol 99951.00
iteration 47 sol 99964.00
iteration 48 sol 99994.00
iteration 49 sol 99985.00
iteration 50 sol 99916.00
iteration 51 sol 99946.00
iteration 52 sol 99936.00
iteration 53 sol 99971.00
iteration 54 sol 99963.00
iteration 55 sol 99971.00
iteration 56 sol 99933.00
iteration 57 sol 99974.00
iteration 58 sol 99950.00
iteration 59 sol 99969.00
iteration 60 sol 99951.00
iteration 61 sol 99974.00
iteration 62 sol 99945.00
iteration 63 sol 99955.00
iteration 64 sol 99938.00
iteration 65 sol 99964.00
iteration 66 sol 99959.00
iteration 67 sol 99975.00
iteration 68 sol 99957.00
iteration 69 sol 99947.00
iteration 70 sol 99905.00
iteration 71 sol 99896.00
iteration 72 sol 99955.00
iteration 73 sol 99956.00
iteration 74 sol 99941.00
iteration 75 sol 99890.00
iteration 76 sol 99966.00
iteration 77 sol 99963.00
iteration 78 sol 99979.00
iteration 79 sol 99950.00
iteration 80 sol 99930.00
iteration 81 sol 99952.00
iteration 82 sol 99988.00
iteration 83 sol 99906.00
iteration 84 sol 99983.00
iteration 85 sol 99975.00
iteration 86 sol 99956.00
iteration 87 sol 99949.00
iteration 88 sol 99969.00
iteration 89 sol 99963.00
iteration 90 sol 99947.00
iteration 91 sol 99958.00
iteration 92 sol 99961.00
iteration 93 sol 99944.00
iteration 94 sol 99991.00
iteration 95 sol 99976.00
iteration 96 sol 99945.00
iteration 97 sol 99970.00
iteration 98 sol 99953.00
iteration 99 sol 99963.00
iteration 100 sol 99966.00
iteration 101 sol 99965.00
iteration 102 sol 99951.00
iteration 103 sol 99953.00
iteration 104 sol 99977.00
iteration 105 sol 99970.00
iteration 106 sol 99966.00
iteration 107 sol 99968.00
iteration 108 sol 99961.00
iteration 109 sol 99941.00
iteration 110 sol 99943.00
iteration 111 sol 99956.00
iteration 112 sol 99983.00
iteration 113 sol 99925.00
iteration 114 sol 99988.00
iteration 115 sol 99939.00
iteration 116 sol 99985.00
iteration 117 sol 99943.00
iteration 118 sol 99981.00
iteration 119 sol 99929.00
iteration 120 sol 99938.00
iteration 121 sol 99987.00
iteration 122 sol 99980.00
iteration 123 sol 99934.00
iteration 124 sol 99959.00
iteration 125 sol 99933.00
iteration 126 sol 99964.00
iteration 127 sol 99977.00
iteration 128 sol 99956.00
iteration 129 sol 99959.00
iteration 130 sol 99947.00
iteration 131 sol 99964.00
iteration 132 sol 99942.00
iteration 133 sol 99931.00
iteration 134 sol 99960.00
iteration 135 sol 99973.00
iteration 136 sol 99932.00
iteration 137 sol 99931.00
iteration 138 sol 99958.00
iteration 139 sol 99972.00
iteration 140 sol 99951.00
iteration 141 sol 99953.00
iteration 142 sol 99982.00
iteration 143 sol 99945.00
iteration 144 sol 99975.00
iteration 145 sol 99956.00
iteration 146 sol 99958.00
iteration 147 sol 99983.00
iteration 148 sol 99939.00
iteration 149 sol 99953.00
iteration 150 sol 99940.00
iteration 151 sol 99967.00
iteration 152 sol 99948.00
iteration 153 sol 99959.00
iteration 154 sol 99968.00
iteration 155 sol 99885.00
iteration 156 sol 99977.00
iteration 157 sol 99972.00
iteration 158 sol 99962.00
iteration 159 sol 99969.00
iteration 160 sol 99957.00
iteration 161 sol 99945.00
iteration 162 sol 99992.00
iteration 163 sol 99947.00
iteration 164 sol 99962.00
iteration 165 sol 99955.00
iteration 166 sol 99933.00
iteration 167 sol 99952.00
iteration 168 sol 99985.00
iteration 169 sol 99988.00
iteration 170 sol 99972.00
iteration 171 sol 99950.00
iteration 172 sol 99973.00
iteration 173 sol 99901.00
iteration 174 sol 99923.00
iteration 175 sol 99953.00
iteration 176 sol 99942.00
iteration 177 sol 99965.00
iteration 178 sol 99951.00
iteration 179 sol 99956.00
iteration 180 sol 99965.00
iteration 181 sol 99964.00
iteration 182 sol 99950.00
iteration 183 sol 99990.00
iteration 184 sol 99959.00
iteration 185 sol 99945.00
iteration 186 sol 99993.00
iteration 187 sol 99963.00
iteration 188 sol 99892.00
iteration 189 sol 99967.00
iteration 190 sol 99965.00
iteration 191 sol 99953.00
iteration 192 sol 99937.00
iteration 193 sol 99966.00
iteration 194 sol 99959.00
iteration 195 sol 99950.00
iteration 196 sol 99965.00
iteration 197 sol 99907.00
iteration 198 sol 99941.00
iteration 199 sol 99903.00
iteration 200 sol 99963.00
iteration 201 sol 99948.00
iteration 202 sol 99962.00
iteration 203 sol 99967.00
iteration 204 sol 99941.00
iteration 205 sol 99981.00
iteration 206 sol 99961.00
iteration 207 sol 99922.00
iteration 208 sol 99942.00
iteration 209 sol 99962.00
iteration 210 sol 99951.00
iteration 211 sol 99980.00
iteration 212 sol 99967.00
iteration 213 sol 99900.00
iteration 214 sol 99972.00
iteration 215 sol 99971.00
iteration 216 sol 99937.00
iteration 217 sol 99961.00
iteration 218 sol 99942.00
iteration 219 sol 99956.00
iteration 220 sol 99973.00
iteration 221 sol 99983.00
iteration 222 sol 99955.00
iteration 223 sol 99955.00
iteration 224 sol 99954.00
iteration 225 sol 99983.00
iteration 226 sol 99910.00
iteration 227 sol 99963.00
iteration 228 sol 99933.00
iteration 229 sol 99947.00
iteration 230 sol 99984.00
iteration 231 sol 99965.00
iteration 232 sol 99986.00
iteration 233 sol 99933.00
iteration 234 sol 99969.00
iteration 235 sol 99964.00
iteration 236 sol 99960.00
iteration 237 sol 99927.00
iteration 238 sol 99957.00
iteration 239 sol 99935.00
iteration 240 sol 99963.00
iteration 241 sol 99953.00
iteration 242 sol 99901.00
iteration 243 sol 99974.00
iteration 244 sol 99926.00
iteration 245 sol 99901.00
iteration 246 sol 99944.00
iteration 247 sol 99964.00
iteration 248 sol 99901.00
iteration 249 sol 99985.00
iteration 250 sol 99980.00
iteration 251 sol 99977.00
iteration 252 sol 99953.00
iteration 253 sol 99985.00
iteration 254 sol 99950.00
iteration 255 sol 99878.00
iteration 256 sol 99955.00
iteration 257 sol 99944.00
iteration 258 sol 99914.00
iteration 259 sol 99918.00
iteration 260 sol 99943.00
iteration 261 sol 99959.00
iteration 262 sol 99955.00
iteration 263 sol 99898.00
iteration 264 sol 99949.00
iteration 265 sol 99956.00
iteration 266 sol 99979.00
iteration 267 sol 99914.00
iteration 268 sol 99915.00
iteration 269 sol 99944.00
iteration 270 sol 99880.00
iteration 271 sol 99982.00
iteration 272 sol 99965.00
iteration 273 sol 99953.00
iteration 274 sol 99955.00
iteration 275 sol 99993.00
iteration 276 sol 99925.00
iteration 277 sol 99892.00
iteration 278 sol 99946.00
iteration 279 sol 99926.00
iteration 280 sol 99956.00
iteration 281 sol 99993.00
iteration 282 sol 99964.00
iteration 283 sol 99960.00
iteration 284 sol 99973.00
iteration 285 sol 99961.00
iteration 286 sol 99938.00
iteration 287 sol 99957.00
iteration 288 sol 99981.00
iteration 289 sol 99972.00
iteration 290 sol 99924.00
iteration 291 sol 99946.00
iteration 292 sol 99965.00
iteration 293 sol 99952.00
iteration 294 sol 99953.00
iteration 295 sol 99955.00
iteration 296 sol 99946.00
iteration 297 sol 99993.00
iteration 298 sol 99973.00
iteration 299 sol 99906.00
iteration 300 sol 99940.00
iteration 301 sol 99900.00
iteration 302 sol 99949.00
iteration 303 sol 99957.00
iteration 304 sol 99962.00
iteration 305 sol 99972.00
iteration 306 sol 99991.00
iteration 307 sol 99996.00
iteration 308 sol 99992.00
iteration 309 sol 99931.00
iteration 310 sol 99950.00
iteration 311 sol 99964.00
iteration 312 sol 99972.00
iteration 313 sol 99958.00
iteration 314 sol 99920.00
iteration 315 sol 99955.00
iteration 316 sol 99934.00
iteration 317 sol 99958.00
iteration 318 sol 99963.00
iteration 319 sol 99968.00
iteration 320 sol 99970.00
iteration 321 sol 99912.00
iteration 322 sol 99929.00
iteration 323 sol 99952.00
iteration 324 sol 99948.00
iteration 325 sol 99930.00
iteration 326 sol 99966.00
iteration 327 sol 99965.00
iteration 328 sol 99994.00
iteration 329 sol 99941.00
iteration 330 sol 99889.00
iteration 331 sol 99973.00
iteration 332 sol 99956.00
iteration 333 sol 99917.00
iteration 334 sol 99955.00
iteration 335 sol 99971.00
iteration 336 sol 99990.00
iteration 337 sol 99952.00
iteration 338 sol 99955.00
iteration 339 sol 99942.00
iteration 340 sol 99952.00
iteration 341 sol 99976.00
iteration 342 sol 99946.00
iteration 343 sol 99959.00
iteration 344 sol 99904.00
iteration 345 sol 99957.00
iteration 346 sol 99978.00
iteration 347 sol 99950.00
iteration 348 sol 99987.00
iteration 349 sol 99995.00
iteration 350 sol 99969.00
iteration 351 sol 99975.00
iteration 352 sol 99956.00
iteration 353 sol 99992.00
iteration 354 sol 99978.00
iteration 355 sol 99933.00
iteration 356 sol 99948.00
iteration 357 sol 99947.00
iteration 358 sol 99971.00
iteration 359 sol 99977.00
iteration 360 sol 99964.00
iteration 361 sol 99939.00
iteration 362 sol 99963.00
iteration 363 sol 99979.00
iteration 364 sol 99972.00
iteration 365 sol 99932.00
iteration 366 sol 99955.00
iteration 367 sol 99984.00
iteration 368 sol 99917.00
iteration 369 sol 99951.00
iteration 370 sol 99961.00
iteration 371 sol 99908.00
iteration 372 sol 99960.00
iteration 373 sol 99984.00
iteration 374 sol 99927.00
iteration 375 sol 99983.00
iteration 376 sol 99988.00
iteration 377 sol 99980.00
iteration 378 sol 99901.00
iteration 379 sol 99951.00
iteration 380 sol 99958.00
iteration 381 sol 99949.00
iteration 382 sol 99956.00
iteration 383 sol 99959.00
iteration 384 sol 99940.00
iteration 385 sol 99934.00
iteration 386 sol 99983.00
iteration 387 sol 99944.00
iteration 388 sol 99956.00
iteration 389 sol 99960.00
iteration 390 sol 99949.00
iteration 391 sol 99923.00
iteration 392 sol 99950.00
iteration 393 sol 99949.00
iteration 394 sol 99951.00
iteration 395 sol 99922.00
iteration 396 sol 99945.00
iteration 397 sol 99933.00
iteration 398 sol 99995.00
iteration 399 sol 99954.00
iteration 400 sol 99945.00
iteration 401 sol 99974.00
iteration 402 sol 99940.00
iteration 403 sol 99951.00
iteration 404 sol 99934.00
iteration 405 sol 99938.00
iteration 406 sol 99961.00
iteration 407 sol 99925.00
iteration 408 sol 99951.00
iteration 409 sol 99970.00
iteration 410 sol 99948.00
iteration 411 sol 99934.00
iteration 412 sol 99988.00
iteration 413 sol 99946.00
iteration 414 sol 99972.00
iteration 415 sol 99966.00
iteration 416 sol 99980.00
iteration 417 sol 99963.00
iteration 418 sol 99964.00
iteration 419 sol 99929.00
iteration 420 sol 99954.00
iteration 421 sol 99954.00
iteration 422 sol 99942.00
iteration 423 sol 99959.00
iteration 424 sol 99939.00
iteration 425 sol 99931.00
iteration 426 sol 99952.00
iteration 427 sol 99965.00
iteration 428 sol 99959.00
iteration 429 sol 99939.00
iteration 430 sol 99952.00
iteration 431 sol 99955.00
iteration 432 sol 99948.00
iteration 433 sol 99970.00
iteration 434 sol 99955.00
iteration 435 sol 99987.00
iteration 436 sol 99965.00
iteration 437 sol 99957.00
iteration 438 sol 99914.00
iteration 439 sol 99952.00
iteration 440 sol 99924.00
iteration 441 sol 99955.00
iteration 442 sol 99983.00
iteration 443 sol 99975.00
iteration 444 sol 99961.00
iteration 445 sol 99955.00
iteration 446 sol 99928.00
iteration 447 sol 99969.00
iteration 448 sol 99926.00
iteration 449 sol 99959.00
iteration 450 sol 99974.00
iteration 451 sol 99973.00
iteration 452 sol 99987.00
iteration 453 sol 99924.00
iteration 454 sol 99988.00
iteration 455 sol 99944.00
iteration 456 sol 99954.00
iteration 457 sol 99914.00
iteration 458 sol 99961.00
iteration 459 sol 99960.00
iteration 460 sol 99990.00
iteration 461 sol 99935.00
iteration 462 sol 99930.00
iteration 463 sol 99967.00
iteration 464 sol 99945.00
iteration 465 sol 99938.00
iteration 466 sol 99967.00
iteration 467 sol 99927.00
iteration 468 sol 99946.00
iteration 469 sol 99950.00
iteration 470 sol 99922.00
iteration 471 sol 99967.00
iteration 472 sol 99985.00
iteration 473 sol 99946.00
iteration 474 sol 99946.00
iteration 475 sol 99938.00
iteration 476 sol 99922.00
iteration 477 sol 99957.00
iteration 478 sol 99968.00
iteration 479 sol 99903.00
iteration 480 sol 99958.00
iteration 481 sol 99975.00
iteration 482 sol 99951.00
iteration 483 sol 99949.00
iteration 484 sol 99954.00
iteration 485 sol 99952.00
iteration 486 sol 99958.00
iteration 487 sol 99971.00
iteration 488 sol 99919.00
iteration 489 sol 99922.00
iteration 490 sol 99970.00
iteration 491 sol 99966.00
iteration 492 sol 99976.00
iteration 493 sol 99979.00
iteration 494 sol 99972.00
iteration 495 sol 99961.00
iteration 496 sol 99910.00
iteration 497 sol 99941.00
iteration 498 sol 99986.00
iteration 499 sol 99946.00
iteration 500 sol 99961.00
iteration 501 sol 99957.00
iteration 502 sol 99982.00
iteration 503 sol 99975.00
iteration 504 sol 99930.00
iteration 505 sol 99947.00
iteration 506 sol 99977.00
iteration 507 sol 99964.00
iteration 508 sol 99952.00
iteration 509 sol 99963.00
iteration 510 sol 99977.00
iteration 511 sol 99958.00
iteration 512 sol 99962.00
iteration 513 sol 99992.00
iteration 514 sol 99972.00
iteration 515 sol 99955.00
iteration 516 sol 99966.00
iteration 517 sol 99970.00
iteration 518 sol 99979.00
iteration 519 sol 99960.00
iteration 520 sol 99920.00
iteration 521 sol 99951.00
iteration 522 sol 99963.00
iteration 523 sol 99957.00
iteration 524 sol 99953.00
iteration 525 sol 99928.00
iteration 526 sol 99966.00
iteration 527 sol 99992.00
iteration 528 sol 99974.00
iteration 529 sol 99973.00
iteration 530 sol 99950.00
iteration 531 sol 99966.00
iteration 532 sol 99948.00
iteration 533 sol 99969.00
iteration 534 sol 99997.00
iteration 535 sol 99964.00
iteration 536 sol 99924.00
iteration 537 sol 99946.00
iteration 538 sol 99993.00
iteration 539 sol 99957.00
iteration 540 sol 99950.00
iteration 541 sol 99971.00
iteration 542 sol 99966.00
iteration 543 sol 99955.00
iteration 544 sol 99964.00
iteration 545 sol 99945.00
iteration 546 sol 99974.00
iteration 547 sol 99936.00
iteration 548 sol 99898.00
iteration 549 sol 99967.00
iteration 550 sol 99957.00
iteration 551 sol 99959.00
iteration 552 sol 99965.00
iteration 553 sol 99981.00
iteration 554 sol 99927.00
iteration 555 sol 99925.00
iteration 556 sol 99979.00
iteration 557 sol 99964.00
iteration 558 sol 99949.00
iteration 559 sol 99929.00
iteration 560 sol 99950.00
iteration 561 sol 99969.00
iteration 562 sol 99967.00
iteration 563 sol 99967.00
iteration 564 sol 99985.00
iteration 565 sol 99970.00
iteration 566 sol 99958.00
iteration 567 sol 99979.00
iteration 568 sol 99921.00
iteration 569 sol 99955.00
iteration 570 sol 99929.00
iteration 571 sol 99984.00
iteration 572 sol 99906.00
iteration 573 sol 99957.00
iteration 574 sol 99930.00
iteration 575 sol 99945.00
iteration 576 sol 99936.00
iteration 577 sol 99958.00
iteration 578 sol 99940.00
iteration 579 sol 99912.00
iteration 580 sol 99933.00
iteration 581 sol 99953.00
iteration 582 sol 99955.00
iteration 583 sol 99950.00
iteration 584 sol 99960.00
iteration 585 sol 99951.00
iteration 586 sol 99965.00
iteration 587 sol 99956.00
iteration 588 sol 99965.00
iteration 589 sol 99967.00
iteration 590 sol 99991.00
iteration 591 sol 99974.00
iteration 592 sol 99940.00
iteration 593 sol 99944.00
iteration 594 sol 99950.00
iteration 595 sol 99942.00
iteration 596 sol 99977.00
iteration 597 sol 99947.00
iteration 598 sol 99969.00
iteration 599 sol 99951.00
iteration 600 sol 99936.00
iteration 601 sol 99964.00
iteration 602 sol 99929.00
iteration 603 sol 99910.00
iteration 604 sol 99959.00
iteration 605 sol 99984.00
iteration 606 sol 99942.00
iteration 607 sol 99953.00
iteration 608 sol 99933.00
iteration 609 sol 99942.00
iteration 610 sol 99980.00
iteration 611 sol 99888.00
iteration 612 sol 99924.00
iteration 613 sol 99949.00
iteration 614 sol 99966.00
iteration 615 sol 99960.00
iteration 616 sol 99923.00
iteration 617 sol 99917.00
iteration 618 sol 99935.00
iteration 619 sol 99956.00
iteration 620 sol 99972.00
iteration 621 sol 99905.00
iteration 622 sol 99958.00
iteration 623 sol 99960.00
iteration 624 sol 99970.00
iteration 625 sol 99959.00
iteration 626 sol 99922.00
iteration 627 sol 99967.00
iteration 628 sol 99949.00
iteration 629 sol 99949.00
iteration 630 sol 99959.00
iteration 631 sol 99963.00
iteration 632 sol 99917.00
iteration 633 sol 99934.00
iteration 634 sol 99951.00
iteration 635 sol 99986.00
iteration 636 sol 99983.00
iteration 637 sol 99958.00
iteration 638 sol 99939.00
iteration 639 sol 99978.00
iteration 640 sol 99965.00
iteration 641 sol 99968.00
iteration 642 sol 99919.00
iteration 643 sol 99949.00
iteration 644 sol 99961.00
iteration 645 sol 99967.00
iteration 646 sol 99928.00
iteration 647 sol 99958.00
iteration 648 sol 99965.00
iteration 649 sol 99941.00
iteration 650 sol 99982.00
iteration 651 sol 99932.00
iteration 652 sol 99982.00
iteration 653 sol 99943.00
iteration 654 sol 99981.00
iteration 655 sol 99964.00
iteration 656 sol 99966.00
iteration 657 sol 99954.00
iteration 658 sol 99964.00
iteration 659 sol 99977.00
iteration 660 sol 99928.00
iteration 661 sol 99956.00
iteration 662 sol 99943.00
iteration 663 sol 99949.00
iteration 664 sol 99923.00
iteration 665 sol 99963.00
iteration 666 sol 99947.00
iteration 667 sol 99958.00
iteration 668 sol 99951.00
iteration 669 sol 99956.00
iteration 670 sol 99954.00
iteration 671 sol 99920.00
iteration 672 sol 99935.00
iteration 673 sol 99962.00
iteration 674 sol 99970.00
iteration 675 sol 99960.00
iteration 676 sol 99959.00
iteration 677 sol 99957.00
iteration 678 sol 99962.00
iteration 679 sol 99961.00
iteration 680 sol 99950.00
iteration 681 sol 99961.00
iteration 682 sol 99988.00
iteration 683 sol 99939.00
iteration 684 sol 99991.00
iteration 685 sol 99971.00
iteration 686 sol 99987.00
iteration 687 sol 99906.00
iteration 688 sol 99959.00
iteration 689 sol 99957.00
iteration 690 sol 99947.00
iteration 691 sol 99984.00
iteration 692 sol 99911.00
iteration 693 sol 99965.00
iteration 694 sol 99965.00
iteration 695 sol 99928.00
iteration 696 sol 99984.00
iteration 697 sol 99976.00
iteration 698 sol 99933.00
iteration 699 sol 99943.00
iteration 700 sol 99953.00
iteration 701 sol 99943.00
iteration 702 sol 99965.00
iteration 703 sol 99969.00
iteration 704 sol 99989.00
iteration 705 sol 99950.00
iteration 706 sol 99987.00
iteration 707 sol 99946.00
iteration 708 sol 99971.00
iteration 709 sol 99930.00
iteration 710 sol 99974.00
iteration 711 sol 99964.00
iteration 712 sol 99971.00
iteration 713 sol 99931.00
iteration 714 sol 99955.00
iteration 715 sol 99953.00
iteration 716 sol 99928.00
iteration 717 sol 99969.00
iteration 718 sol 99954.00
iteration 719 sol 99958.00
iteration 720 sol 99962.00
iteration 721 sol 99924.00
iteration 722 sol 99990.00
iteration 723 sol 99933.00
iteration 724 sol 99963.00
iteration 725 sol 99917.00
iteration 726 sol 99976.00
iteration 727 sol 99974.00
iteration 728 sol 99957.00
iteration 729 sol 99934.00
iteration 730 sol 99953.00
iteration 731 sol 99954.00
iteration 732 sol 99955.00
iteration 733 sol 99979.00
iteration 734 sol 99951.00
iteration 735 sol 99955.00
iteration 736 sol 99901.00
iteration 737 sol 99968.00
iteration 738 sol 99973.00
iteration 739 sol 99954.00
iteration 740 sol 99959.00
iteration 741 sol 99916.00
iteration 742 sol 99984.00
iteration 743 sol 99941.00
iteration 744 sol 99949.00
iteration 745 sol 99970.00
iteration 746 sol 99971.00
iteration 747 sol 99925.00
iteration 748 sol 99880.00
iteration 749 sol 99938.00
iteration 750 sol 99991.00
iteration 751 sol 99958.00
iteration 752 sol 99968.00
iteration 753 sol 99972.00
iteration 754 sol 99986.00
iteration 755 sol 99974.00
iteration 756 sol 99986.00
iteration 757 sol 99950.00
iteration 758 sol 99974.00
iteration 759 sol 99955.00
iteration 760 sol 99924.00
iteration 761 sol 99925.00
iteration 762 sol 99989.00
iteration 763 sol 99947.00
iteration 764 sol 99962.00
iteration 765 sol 99957.00
iteration 766 sol 99959.00
iteration 767 sol 99981.00
iteration 768 sol 99979.00
iteration 769 sol 99957.00
iteration 770 sol 99937.00
iteration 771 sol 99945.00
iteration 772 sol 99955.00
iteration 773 sol 99951.00
iteration 774 sol 99963.00
iteration 775 sol 99996.00
iteration 776 sol 99986.00
iteration 777 sol 99982.00
iteration 778 sol 99971.00
iteration 779 sol 99946.00
iteration 780 sol 99991.00
iteration 781 sol 99953.00
iteration 782 sol 99914.00
iteration 783 sol 99943.00
iteration 784 sol 99948.00
iteration 785 sol 99987.00
iteration 786 sol 99945.00
iteration 787 sol 99992.00
iteration 788 sol 99944.00
iteration 789 sol 99981.00
iteration 790 sol 99959.00
iteration 791 sol 99962.00
iteration 792 sol 99950.00
Calls to change | Calls removed by BIT 
1504250286 | 746197123
Calls to add | Calls removed by BIT 
32871718 | 29633379
Number of iterations = 793
Best Solution was found in iteration = 534
Time used by neighbor | Times each neighbor was used | Improvements
N_1 = 5.53 | 2395 | 728
N_2 = 68.13 | 2395 | 338
N_3 = 0.73 | 2395 | 360
N_4 = 1.67 | 2395 | 79
N_5 = 308.25 | 2395 | 18
Time to find the best solution = 424.67
Solution = 99997.00
Time = 600.54
