iteration 0 sol 122223.00
iteration 1 sol 123008.00
iteration 2 sol 120760.00
iteration 3 sol 121437.00
iteration 4 sol 122562.00
iteration 5 sol 122194.00
iteration 6 sol 122726.00
iteration 7 sol 123051.00
iteration 8 sol 122924.00
iteration 9 sol 121507.00
iteration 10 sol 123079.00
iteration 11 sol 122478.00
iteration 12 sol 121578.00
iteration 13 sol 121828.00
iteration 14 sol 122734.00
iteration 15 sol 122867.00
iteration 16 sol 122486.00
iteration 17 sol 122725.00
iteration 18 sol 122394.00
iteration 19 sol 121768.00
iteration 20 sol 122330.00
iteration 21 sol 122489.00
iteration 22 sol 122643.00
iteration 23 sol 123387.00
iteration 24 sol 123153.00
iteration 25 sol 122708.00
iteration 26 sol 122495.00
iteration 27 sol 123033.00
iteration 28 sol 122069.00
iteration 29 sol 122374.00
iteration 30 sol 123298.00
iteration 31 sol 123135.00
iteration 32 sol 122407.00
iteration 33 sol 123208.00
iteration 34 sol 122243.00
iteration 35 sol 123199.00
iteration 36 sol 122360.00
iteration 37 sol 122045.00
iteration 38 sol 121856.00
iteration 39 sol 121944.00
iteration 40 sol 121853.00
iteration 41 sol 123334.00
iteration 42 sol 121893.00
iteration 43 sol 122605.00
iteration 44 sol 122624.00
iteration 45 sol 122765.00
iteration 46 sol 121924.00
iteration 47 sol 123098.00
iteration 48 sol 122773.00
iteration 49 sol 122198.00
iteration 50 sol 122420.00
iteration 51 sol 122291.00
iteration 52 sol 122016.00
iteration 53 sol 122838.00
iteration 54 sol 122585.00
iteration 55 sol 122728.00
iteration 56 sol 122616.00
iteration 57 sol 122310.00
iteration 58 sol 123393.00
iteration 59 sol 121412.00
iteration 60 sol 122498.00
iteration 61 sol 121913.00
iteration 62 sol 121646.00
iteration 63 sol 123083.00
iteration 64 sol 122692.00
iteration 65 sol 123048.00
iteration 66 sol 123148.00
iteration 67 sol 122716.00
iteration 68 sol 121830.00
iteration 69 sol 121326.00
iteration 70 sol 121990.00
iteration 71 sol 122863.00
iteration 72 sol 122281.00
iteration 73 sol 122379.00
iteration 74 sol 122354.00
iteration 75 sol 122796.00
iteration 76 sol 122642.00
iteration 77 sol 121732.00
iteration 78 sol 122720.00
iteration 79 sol 121742.00
iteration 80 sol 122179.00
iteration 81 sol 122690.00
iteration 82 sol 123089.00
iteration 83 sol 122091.00
iteration 84 sol 122108.00
iteration 85 sol 121211.00
iteration 86 sol 122289.00
iteration 87 sol 122325.00
iteration 88 sol 122102.00
iteration 89 sol 122677.00
iteration 90 sol 122481.00
iteration 91 sol 122751.00
iteration 92 sol 122318.00
iteration 93 sol 121350.00
iteration 94 sol 121424.00
iteration 95 sol 122569.00
iteration 96 sol 122348.00
iteration 97 sol 123212.00
iteration 98 sol 121027.00
iteration 99 sol 122141.00
iteration 100 sol 122464.00
iteration 101 sol 121201.00
iteration 102 sol 123178.00
iteration 103 sol 122915.00
iteration 104 sol 121778.00
iteration 105 sol 121086.00
iteration 106 sol 122881.00
iteration 107 sol 123305.00
iteration 108 sol 123106.00
iteration 109 sol 122697.00
iteration 110 sol 121783.00
iteration 111 sol 123418.00
iteration 112 sol 121513.00
iteration 113 sol 122362.00
iteration 114 sol 123152.00
iteration 115 sol 123181.00
iteration 116 sol 122549.00
iteration 117 sol 121728.00
iteration 118 sol 122783.00
iteration 119 sol 121779.00
iteration 120 sol 122350.00
iteration 121 sol 122281.00
iteration 122 sol 122660.00
iteration 123 sol 122492.00
iteration 124 sol 122213.00
iteration 125 sol 123026.00
iteration 126 sol 122807.00
iteration 127 sol 122191.00
iteration 128 sol 122841.00
iteration 129 sol 122542.00
iteration 130 sol 122858.00
iteration 131 sol 122255.00
iteration 132 sol 122935.00
iteration 133 sol 122288.00
iteration 134 sol 122125.00
iteration 135 sol 122573.00
iteration 136 sol 122602.00
iteration 137 sol 123088.00
iteration 138 sol 122040.00
iteration 139 sol 122495.00
iteration 140 sol 122372.00
iteration 141 sol 122124.00
iteration 142 sol 123226.00
iteration 143 sol 122013.00
iteration 144 sol 120853.00
iteration 145 sol 122281.00
iteration 146 sol 122602.00
iteration 147 sol 123562.00
iteration 148 sol 122138.00
iteration 149 sol 122936.00
iteration 150 sol 122125.00
iteration 151 sol 121854.00
iteration 152 sol 122780.00
iteration 153 sol 122481.00
iteration 154 sol 122523.00
iteration 155 sol 121799.00
iteration 156 sol 121900.00
iteration 157 sol 121963.00
iteration 158 sol 122577.00
iteration 159 sol 121830.00
iteration 160 sol 122441.00
iteration 161 sol 123150.00
iteration 162 sol 121047.00
iteration 163 sol 121647.00
iteration 164 sol 123285.00
iteration 165 sol 122540.00
iteration 166 sol 123121.00
iteration 167 sol 121992.00
iteration 168 sol 121793.00
iteration 169 sol 122269.00
iteration 170 sol 122509.00
iteration 171 sol 121569.00
iteration 172 sol 122331.00
iteration 173 sol 122597.00
iteration 174 sol 122920.00
iteration 175 sol 121954.00
iteration 176 sol 121487.00
iteration 177 sol 121751.00
iteration 178 sol 122278.00
iteration 179 sol 121899.00
iteration 180 sol 122547.00
iteration 181 sol 122743.00
iteration 182 sol 121710.00
iteration 183 sol 122675.00
iteration 184 sol 121595.00
iteration 185 sol 120830.00
iteration 186 sol 121003.00
iteration 187 sol 122550.00
iteration 188 sol 123127.00
iteration 189 sol 122180.00
iteration 190 sol 123069.00
iteration 191 sol 122741.00
iteration 192 sol 122382.00
iteration 193 sol 122217.00
iteration 194 sol 122994.00
iteration 195 sol 121783.00
iteration 196 sol 121500.00
iteration 197 sol 122933.00
iteration 198 sol 122489.00
iteration 199 sol 121622.00
iteration 200 sol 121578.00
iteration 201 sol 122742.00
iteration 202 sol 123365.00
iteration 203 sol 123836.00
iteration 204 sol 120883.00
iteration 205 sol 121589.00
iteration 206 sol 121031.00
iteration 207 sol 122768.00
iteration 208 sol 122176.00
iteration 209 sol 122698.00
iteration 210 sol 123208.00
iteration 211 sol 122667.00
iteration 212 sol 122093.00
iteration 213 sol 122393.00
iteration 214 sol 122673.00
iteration 215 sol 122674.00
iteration 216 sol 121946.00
iteration 217 sol 121101.00
iteration 218 sol 122272.00
iteration 219 sol 122374.00
iteration 220 sol 121305.00
iteration 221 sol 122511.00
iteration 222 sol 121531.00
iteration 223 sol 122046.00
iteration 224 sol 122442.00
iteration 225 sol 122285.00
iteration 226 sol 121446.00
iteration 227 sol 122643.00
iteration 228 sol 122566.00
iteration 229 sol 122867.00
iteration 230 sol 123579.00
iteration 231 sol 121719.00
iteration 232 sol 122080.00
iteration 233 sol 121705.00
iteration 234 sol 123106.00
iteration 235 sol 121109.00
iteration 236 sol 122335.00
iteration 237 sol 121987.00
iteration 238 sol 121473.00
iteration 239 sol 122421.00
iteration 240 sol 122774.00
iteration 241 sol 122317.00
iteration 242 sol 122285.00
iteration 243 sol 123261.00
iteration 244 sol 123021.00
iteration 245 sol 122015.00
iteration 246 sol 122406.00
iteration 247 sol 123024.00
iteration 248 sol 122679.00
iteration 249 sol 123268.00
iteration 250 sol 122386.00
iteration 251 sol 122015.00
iteration 252 sol 122279.00
iteration 253 sol 122207.00
iteration 254 sol 122844.00
iteration 255 sol 122553.00
iteration 256 sol 122488.00
iteration 257 sol 122259.00
iteration 258 sol 121866.00
iteration 259 sol 122907.00
iteration 260 sol 122689.00
iteration 261 sol 121773.00
iteration 262 sol 121740.00
iteration 263 sol 121751.00
iteration 264 sol 122788.00
iteration 265 sol 121942.00
iteration 266 sol 122299.00
iteration 267 sol 122864.00
iteration 268 sol 122705.00
iteration 269 sol 122466.00
iteration 270 sol 122888.00
iteration 271 sol 122250.00
iteration 272 sol 121891.00
iteration 273 sol 122058.00
iteration 274 sol 122630.00
iteration 275 sol 122131.00
iteration 276 sol 122003.00
iteration 277 sol 121925.00
iteration 278 sol 121353.00
iteration 279 sol 122670.00
iteration 280 sol 122269.00
iteration 281 sol 122319.00
iteration 282 sol 121984.00
iteration 283 sol 122160.00
iteration 284 sol 122642.00
iteration 285 sol 122684.00
iteration 286 sol 123084.00
iteration 287 sol 122844.00
iteration 288 sol 121713.00
iteration 289 sol 122506.00
iteration 290 sol 121112.00
iteration 291 sol 123100.00
iteration 292 sol 121327.00
iteration 293 sol 121997.00
iteration 294 sol 122939.00
iteration 295 sol 122597.00
iteration 296 sol 122270.00
iteration 297 sol 123349.00
iteration 298 sol 121450.00
iteration 299 sol 122381.00
iteration 300 sol 121953.00
iteration 301 sol 122354.00
iteration 302 sol 121866.00
iteration 303 sol 121921.00
iteration 304 sol 122552.00
iteration 305 sol 123164.00
iteration 306 sol 122264.00
iteration 307 sol 122152.00
iteration 308 sol 121728.00
iteration 309 sol 122911.00
iteration 310 sol 123233.00
iteration 311 sol 121686.00
iteration 312 sol 123089.00
iteration 313 sol 122045.00
iteration 314 sol 123575.00
iteration 315 sol 122119.00
iteration 316 sol 121625.00
iteration 317 sol 121481.00
iteration 318 sol 123166.00
iteration 319 sol 122040.00
iteration 320 sol 122636.00
iteration 321 sol 121989.00
iteration 322 sol 122381.00
iteration 323 sol 123040.00
iteration 324 sol 122846.00
iteration 325 sol 122069.00
iteration 326 sol 122241.00
iteration 327 sol 121975.00
iteration 328 sol 121846.00
iteration 329 sol 122414.00
iteration 330 sol 122678.00
iteration 331 sol 123007.00
iteration 332 sol 123033.00
iteration 333 sol 122694.00
iteration 334 sol 123477.00
iteration 335 sol 122907.00
iteration 336 sol 122455.00
iteration 337 sol 122415.00
iteration 338 sol 121557.00
iteration 339 sol 123157.00
iteration 340 sol 123269.00
iteration 341 sol 122742.00
iteration 342 sol 122704.00
iteration 343 sol 122519.00
iteration 344 sol 122770.00
iteration 345 sol 122855.00
iteration 346 sol 121841.00
iteration 347 sol 122066.00
iteration 348 sol 121243.00
iteration 349 sol 122157.00
iteration 350 sol 122029.00
iteration 351 sol 121907.00
iteration 352 sol 121819.00
iteration 353 sol 123382.00
iteration 354 sol 122958.00
iteration 355 sol 121456.00
iteration 356 sol 122070.00
iteration 357 sol 121029.00
iteration 358 sol 122419.00
iteration 359 sol 122750.00
iteration 360 sol 122217.00
iteration 361 sol 122856.00
iteration 362 sol 121869.00
iteration 363 sol 121741.00
iteration 364 sol 122907.00
iteration 365 sol 122561.00
iteration 366 sol 122900.00
iteration 367 sol 123076.00
iteration 368 sol 122194.00
iteration 369 sol 123184.00
iteration 370 sol 121751.00
iteration 371 sol 122103.00
iteration 372 sol 122683.00
iteration 373 sol 123673.00
iteration 374 sol 121810.00
iteration 375 sol 122006.00
iteration 376 sol 121663.00
iteration 377 sol 122493.00
iteration 378 sol 121891.00
iteration 379 sol 122243.00
iteration 380 sol 122610.00
iteration 381 sol 122181.00
iteration 382 sol 121645.00
iteration 383 sol 122087.00
iteration 384 sol 123639.00
iteration 385 sol 123167.00
iteration 386 sol 122082.00
iteration 387 sol 122278.00
iteration 388 sol 122547.00
iteration 389 sol 122105.00
iteration 390 sol 122545.00
iteration 391 sol 123149.00
iteration 392 sol 122353.00
iteration 393 sol 122640.00
iteration 394 sol 122945.00
iteration 395 sol 122572.00
iteration 396 sol 122192.00
iteration 397 sol 122716.00
iteration 398 sol 122532.00
iteration 399 sol 121265.00
iteration 400 sol 123269.00
iteration 401 sol 122215.00
iteration 402 sol 122221.00
iteration 403 sol 122717.00
iteration 404 sol 122455.00
iteration 405 sol 121959.00
iteration 406 sol 122093.00
iteration 407 sol 121632.00
iteration 408 sol 122087.00
iteration 409 sol 122030.00
iteration 410 sol 122853.00
iteration 411 sol 122266.00
iteration 412 sol 122573.00
iteration 413 sol 122906.00
iteration 414 sol 123029.00
iteration 415 sol 123346.00
iteration 416 sol 123025.00
iteration 417 sol 122175.00
iteration 418 sol 121597.00
iteration 419 sol 121952.00
iteration 420 sol 122592.00
iteration 421 sol 122515.00
iteration 422 sol 122227.00
iteration 423 sol 121586.00
iteration 424 sol 122293.00
iteration 425 sol 123836.00
iteration 426 sol 122756.00
iteration 427 sol 123214.00
iteration 428 sol 123270.00
iteration 429 sol 122322.00
iteration 430 sol 122703.00
iteration 431 sol 122142.00
iteration 432 sol 122692.00
iteration 433 sol 122900.00
iteration 434 sol 122340.00
iteration 435 sol 121407.00
iteration 436 sol 122288.00
iteration 437 sol 121981.00
iteration 438 sol 123502.00
iteration 439 sol 121874.00
iteration 440 sol 122969.00
iteration 441 sol 123350.00
iteration 442 sol 122873.00
iteration 443 sol 122737.00
iteration 444 sol 121420.00
iteration 445 sol 122416.00
iteration 446 sol 122762.00
iteration 447 sol 122023.00
iteration 448 sol 122577.00
iteration 449 sol 123464.00
iteration 450 sol 123165.00
iteration 451 sol 121918.00
iteration 452 sol 122463.00
iteration 453 sol 122696.00
iteration 454 sol 122198.00
iteration 455 sol 123225.00
iteration 456 sol 121795.00
iteration 457 sol 123183.00
iteration 458 sol 122949.00
iteration 459 sol 123009.00
iteration 460 sol 122291.00
iteration 461 sol 123139.00
iteration 462 sol 122263.00
iteration 463 sol 123161.00
iteration 464 sol 123119.00
iteration 465 sol 121652.00
iteration 466 sol 121884.00
iteration 467 sol 123108.00
iteration 468 sol 122539.00
iteration 469 sol 122837.00
iteration 470 sol 123016.00
iteration 471 sol 123192.00
iteration 472 sol 122251.00
iteration 473 sol 122975.00
iteration 474 sol 123160.00
iteration 475 sol 122515.00
iteration 476 sol 122187.00
iteration 477 sol 122374.00
iteration 478 sol 121581.00
iteration 479 sol 122724.00
iteration 480 sol 122800.00
iteration 481 sol 123182.00
iteration 482 sol 122113.00
iteration 483 sol 122305.00
iteration 484 sol 122039.00
iteration 485 sol 121163.00
iteration 486 sol 122553.00
iteration 487 sol 122645.00
iteration 488 sol 122608.00
iteration 489 sol 121702.00
iteration 490 sol 122367.00
iteration 491 sol 121852.00
iteration 492 sol 121972.00
iteration 493 sol 122591.00
iteration 494 sol 122956.00
iteration 495 sol 121912.00
iteration 496 sol 121603.00
iteration 497 sol 121889.00
iteration 498 sol 122919.00
iteration 499 sol 121392.00
iteration 500 sol 122595.00
iteration 501 sol 122907.00
iteration 502 sol 121855.00
iteration 503 sol 122473.00
iteration 504 sol 122814.00
iteration 505 sol 122463.00
iteration 506 sol 122511.00
iteration 507 sol 122060.00
iteration 508 sol 122809.00
iteration 509 sol 121825.00
iteration 510 sol 123505.00
iteration 511 sol 121940.00
iteration 512 sol 122754.00
iteration 513 sol 121296.00
iteration 514 sol 122469.00
iteration 515 sol 123191.00
iteration 516 sol 123377.00
iteration 517 sol 122091.00
iteration 518 sol 121676.00
iteration 519 sol 122991.00
iteration 520 sol 122476.00
iteration 521 sol 121824.00
iteration 522 sol 121448.00
iteration 523 sol 122830.00
iteration 524 sol 122721.00
iteration 525 sol 123211.00
iteration 526 sol 122862.00
iteration 527 sol 122749.00
iteration 528 sol 123088.00
iteration 529 sol 123112.00
iteration 530 sol 120755.00
iteration 531 sol 123266.00
iteration 532 sol 122474.00
iteration 533 sol 121901.00
iteration 534 sol 122190.00
iteration 535 sol 121402.00
iteration 536 sol 123041.00
iteration 537 sol 122807.00
iteration 538 sol 122208.00
iteration 539 sol 122661.00
iteration 540 sol 123234.00
iteration 541 sol 122839.00
iteration 542 sol 121309.00
iteration 543 sol 123008.00
iteration 544 sol 122945.00
iteration 545 sol 123114.00
iteration 546 sol 121295.00
iteration 547 sol 122302.00
iteration 548 sol 122492.00
iteration 549 sol 121739.00
iteration 550 sol 122447.00
iteration 551 sol 123060.00
iteration 552 sol 122084.00
iteration 553 sol 123496.00
iteration 554 sol 123042.00
iteration 555 sol 121434.00
iteration 556 sol 121971.00
iteration 557 sol 121736.00
iteration 558 sol 122090.00
iteration 559 sol 122744.00
iteration 560 sol 122651.00
iteration 561 sol 122880.00
iteration 562 sol 122115.00
iteration 563 sol 123595.00
iteration 564 sol 122631.00
iteration 565 sol 121231.00
iteration 566 sol 122871.00
iteration 567 sol 122519.00
iteration 568 sol 121698.00
iteration 569 sol 121936.00
iteration 570 sol 121525.00
iteration 571 sol 121688.00
iteration 572 sol 122782.00
iteration 573 sol 122279.00
iteration 574 sol 122694.00
iteration 575 sol 121662.00
iteration 576 sol 121909.00
iteration 577 sol 122313.00
iteration 578 sol 123084.00
iteration 579 sol 123057.00
iteration 580 sol 122270.00
iteration 581 sol 122849.00
iteration 582 sol 122736.00
iteration 583 sol 121624.00
iteration 584 sol 122979.00
iteration 585 sol 121992.00
iteration 586 sol 123323.00
iteration 587 sol 120893.00
iteration 588 sol 122248.00
iteration 589 sol 122001.00
iteration 590 sol 122692.00
iteration 591 sol 123489.00
iteration 592 sol 122589.00
iteration 593 sol 122553.00
iteration 594 sol 123445.00
iteration 595 sol 123145.00
iteration 596 sol 123096.00
iteration 597 sol 123544.00
iteration 598 sol 121929.00
iteration 599 sol 122802.00
iteration 600 sol 121843.00
iteration 601 sol 121860.00
iteration 602 sol 121868.00
iteration 603 sol 122089.00
iteration 604 sol 123038.00
iteration 605 sol 122521.00
iteration 606 sol 123022.00
iteration 607 sol 123198.00
iteration 608 sol 122707.00
iteration 609 sol 122653.00
iteration 610 sol 123354.00
iteration 611 sol 122664.00
iteration 612 sol 122819.00
iteration 613 sol 122558.00
iteration 614 sol 121682.00
iteration 615 sol 122260.00
iteration 616 sol 122434.00
iteration 617 sol 122474.00
iteration 618 sol 122149.00
iteration 619 sol 122076.00
iteration 620 sol 122625.00
iteration 621 sol 121705.00
iteration 622 sol 122242.00
iteration 623 sol 122597.00
iteration 624 sol 122000.00
iteration 625 sol 122501.00
iteration 626 sol 121114.00
iteration 627 sol 123251.00
iteration 628 sol 121804.00
iteration 629 sol 122669.00
iteration 630 sol 122003.00
iteration 631 sol 122187.00
iteration 632 sol 122130.00
iteration 633 sol 122269.00
iteration 634 sol 122809.00
iteration 635 sol 122725.00
iteration 636 sol 123432.00
iteration 637 sol 122072.00
iteration 638 sol 122472.00
iteration 639 sol 122144.00
iteration 640 sol 122543.00
iteration 641 sol 121718.00
iteration 642 sol 122647.00
iteration 643 sol 122687.00
iteration 644 sol 122304.00
iteration 645 sol 122452.00
iteration 646 sol 121758.00
iteration 647 sol 122118.00
iteration 648 sol 122578.00
iteration 649 sol 122318.00
iteration 650 sol 122432.00
iteration 651 sol 122944.00
iteration 652 sol 122688.00
iteration 653 sol 122396.00
iteration 654 sol 121833.00
iteration 655 sol 121574.00
iteration 656 sol 122610.00
iteration 657 sol 122745.00
iteration 658 sol 122312.00
iteration 659 sol 122483.00
iteration 660 sol 122882.00
iteration 661 sol 122194.00
iteration 662 sol 122334.00
iteration 663 sol 122671.00
iteration 664 sol 123001.00
iteration 665 sol 122685.00
iteration 666 sol 122459.00
iteration 667 sol 122494.00
iteration 668 sol 121880.00
iteration 669 sol 122143.00
iteration 670 sol 122701.00
iteration 671 sol 121892.00
iteration 672 sol 122740.00
iteration 673 sol 122738.00
iteration 674 sol 122275.00
iteration 675 sol 122187.00
iteration 676 sol 121886.00
iteration 677 sol 122623.00
iteration 678 sol 122052.00
iteration 679 sol 122803.00
iteration 680 sol 121923.00
iteration 681 sol 122593.00
iteration 682 sol 123170.00
iteration 683 sol 121934.00
iteration 684 sol 122667.00
iteration 685 sol 123468.00
iteration 686 sol 123386.00
iteration 687 sol 120684.00
iteration 688 sol 122626.00
iteration 689 sol 122407.00
iteration 690 sol 122056.00
iteration 691 sol 122734.00
iteration 692 sol 122263.00
iteration 693 sol 122939.00
iteration 694 sol 121942.00
iteration 695 sol 121721.00
iteration 696 sol 122062.00
iteration 697 sol 122773.00
iteration 698 sol 122723.00
iteration 699 sol 123273.00
iteration 700 sol 122105.00
iteration 701 sol 121993.00
iteration 702 sol 120900.00
iteration 703 sol 121245.00
iteration 704 sol 122103.00
iteration 705 sol 122148.00
iteration 706 sol 121659.00
iteration 707 sol 122789.00
iteration 708 sol 122232.00
iteration 709 sol 123075.00
iteration 710 sol 121970.00
iteration 711 sol 121863.00
iteration 712 sol 122732.00
iteration 713 sol 122346.00
iteration 714 sol 122248.00
iteration 715 sol 122893.00
iteration 716 sol 122557.00
iteration 717 sol 121494.00
iteration 718 sol 123785.00
iteration 719 sol 122929.00
iteration 720 sol 122284.00
iteration 721 sol 122344.00
iteration 722 sol 122985.00
iteration 723 sol 122285.00
iteration 724 sol 121361.00
iteration 725 sol 122452.00
iteration 726 sol 121962.00
iteration 727 sol 122346.00
iteration 728 sol 121717.00
iteration 729 sol 122746.00
iteration 730 sol 121452.00
iteration 731 sol 121527.00
iteration 732 sol 122893.00
iteration 733 sol 122704.00
iteration 734 sol 121452.00
iteration 735 sol 122650.00
iteration 736 sol 123103.00
iteration 737 sol 122580.00
iteration 738 sol 122982.00
iteration 739 sol 123201.00
iteration 740 sol 122414.00
iteration 741 sol 121890.00
iteration 742 sol 121691.00
iteration 743 sol 122946.00
iteration 744 sol 121736.00
iteration 745 sol 122379.00
iteration 746 sol 122388.00
iteration 747 sol 121998.00
iteration 748 sol 122611.00
iteration 749 sol 122390.00
iteration 750 sol 122497.00
iteration 751 sol 122627.00
iteration 752 sol 121518.00
iteration 753 sol 122216.00
iteration 754 sol 122471.00
iteration 755 sol 122594.00
iteration 756 sol 121501.00
iteration 757 sol 122860.00
iteration 758 sol 122605.00
iteration 759 sol 122738.00
iteration 760 sol 122238.00
iteration 761 sol 121854.00
iteration 762 sol 122645.00
iteration 763 sol 122476.00
iteration 764 sol 122632.00
iteration 765 sol 123004.00
iteration 766 sol 121457.00
iteration 767 sol 121940.00
iteration 768 sol 122286.00
iteration 769 sol 122453.00
iteration 770 sol 122327.00
iteration 771 sol 123097.00
iteration 772 sol 122098.00
iteration 773 sol 122186.00
iteration 774 sol 122634.00
iteration 775 sol 122289.00
iteration 776 sol 122619.00
iteration 777 sol 122443.00
iteration 778 sol 122264.00
iteration 779 sol 122263.00
iteration 780 sol 122388.00
iteration 781 sol 121445.00
iteration 782 sol 121894.00
iteration 783 sol 122111.00
iteration 784 sol 123112.00
iteration 785 sol 122573.00
iteration 786 sol 122612.00
iteration 787 sol 123180.00
iteration 788 sol 122839.00
iteration 789 sol 122935.00
iteration 790 sol 122788.00
iteration 791 sol 121928.00
iteration 792 sol 122010.00
iteration 793 sol 121277.00
iteration 794 sol 121392.00
iteration 795 sol 122722.00
iteration 796 sol 122379.00
iteration 797 sol 121968.00
iteration 798 sol 121562.00
iteration 799 sol 121978.00
iteration 800 sol 123026.00
iteration 801 sol 122523.00
iteration 802 sol 122203.00
iteration 803 sol 123078.00
iteration 804 sol 123151.00
iteration 805 sol 122506.00
iteration 806 sol 122696.00
iteration 807 sol 122354.00
iteration 808 sol 121179.00
iteration 809 sol 122878.00
iteration 810 sol 122722.00
iteration 811 sol 122270.00
iteration 812 sol 122890.00
iteration 813 sol 122176.00
iteration 814 sol 122121.00
iteration 815 sol 122437.00
iteration 816 sol 121766.00
iteration 817 sol 123603.00
iteration 818 sol 123216.00
iteration 819 sol 122843.00
iteration 820 sol 121844.00
iteration 821 sol 121628.00
iteration 822 sol 121847.00
iteration 823 sol 122263.00
iteration 824 sol 122387.00
iteration 825 sol 122549.00
iteration 826 sol 122369.00
iteration 827 sol 120990.00
iteration 828 sol 121962.00
iteration 829 sol 122732.00
iteration 830 sol 123090.00
iteration 831 sol 123025.00
iteration 832 sol 122005.00
iteration 833 sol 122233.00
iteration 834 sol 121451.00
iteration 835 sol 122487.00
iteration 836 sol 122801.00
iteration 837 sol 122993.00
iteration 838 sol 122921.00
iteration 839 sol 121995.00
iteration 840 sol 122447.00
iteration 841 sol 122881.00
iteration 842 sol 123141.00
iteration 843 sol 122456.00
iteration 844 sol 122260.00
iteration 845 sol 122919.00
iteration 846 sol 122258.00
iteration 847 sol 121549.00
iteration 848 sol 122103.00
iteration 849 sol 121978.00
iteration 850 sol 122917.00
iteration 851 sol 122584.00
iteration 852 sol 122751.00
iteration 853 sol 123493.00
iteration 854 sol 121246.00
iteration 855 sol 122737.00
iteration 856 sol 123208.00
iteration 857 sol 122762.00
iteration 858 sol 122574.00
iteration 859 sol 121281.00
iteration 860 sol 122951.00
iteration 861 sol 122484.00
iteration 862 sol 122928.00
iteration 863 sol 123112.00
iteration 864 sol 122501.00
iteration 865 sol 122015.00
iteration 866 sol 121384.00
iteration 867 sol 120744.00
iteration 868 sol 122168.00
iteration 869 sol 122258.00
iteration 870 sol 123689.00
iteration 871 sol 123264.00
iteration 872 sol 122352.00
iteration 873 sol 122062.00
iteration 874 sol 122322.00
iteration 875 sol 122929.00
iteration 876 sol 122743.00
iteration 877 sol 122789.00
iteration 878 sol 122065.00
iteration 879 sol 122791.00
iteration 880 sol 122631.00
iteration 881 sol 121937.00
iteration 882 sol 121664.00
iteration 883 sol 122207.00
iteration 884 sol 121781.00
iteration 885 sol 122902.00
iteration 886 sol 123061.00
iteration 887 sol 122443.00
iteration 888 sol 122124.00
iteration 889 sol 121349.00
iteration 890 sol 122202.00
iteration 891 sol 122593.00
iteration 892 sol 122325.00
iteration 893 sol 122860.00
iteration 894 sol 123208.00
iteration 895 sol 121463.00
iteration 896 sol 122250.00
iteration 897 sol 121907.00
iteration 898 sol 123054.00
iteration 899 sol 122027.00
iteration 900 sol 121907.00
iteration 901 sol 123693.00
iteration 902 sol 123157.00
iteration 903 sol 122540.00
iteration 904 sol 122890.00
iteration 905 sol 122951.00
iteration 906 sol 122956.00
iteration 907 sol 122926.00
iteration 908 sol 121949.00
iteration 909 sol 122718.00
iteration 910 sol 122430.00
iteration 911 sol 122863.00
iteration 912 sol 122772.00
iteration 913 sol 122089.00
iteration 914 sol 121788.00
iteration 915 sol 122766.00
iteration 916 sol 121589.00
iteration 917 sol 122570.00
iteration 918 sol 122136.00
iteration 919 sol 122649.00
iteration 920 sol 121769.00
iteration 921 sol 122168.00
iteration 922 sol 122254.00
iteration 923 sol 122139.00
iteration 924 sol 123380.00
iteration 925 sol 123497.00
iteration 926 sol 122134.00
iteration 927 sol 122316.00
iteration 928 sol 121412.00
iteration 929 sol 122501.00
iteration 930 sol 122207.00
iteration 931 sol 122061.00
iteration 932 sol 122182.00
iteration 933 sol 122055.00
iteration 934 sol 122077.00
iteration 935 sol 122356.00
iteration 936 sol 121983.00
iteration 937 sol 122890.00
iteration 938 sol 122658.00
iteration 939 sol 122701.00
iteration 940 sol 121371.00
iteration 941 sol 122345.00
iteration 942 sol 122259.00
iteration 943 sol 122345.00
iteration 944 sol 122571.00
iteration 945 sol 122962.00
iteration 946 sol 122835.00
iteration 947 sol 122769.00
iteration 948 sol 121324.00
iteration 949 sol 122551.00
iteration 950 sol 120452.00
iteration 951 sol 122510.00
iteration 952 sol 122607.00
iteration 953 sol 122250.00
iteration 954 sol 121353.00
iteration 955 sol 123200.00
iteration 956 sol 122406.00
iteration 957 sol 121643.00
iteration 958 sol 122462.00
iteration 959 sol 122042.00
iteration 960 sol 121776.00
iteration 961 sol 122624.00
iteration 962 sol 120977.00
iteration 963 sol 121431.00
iteration 964 sol 123072.00
iteration 965 sol 122071.00
iteration 966 sol 122325.00
iteration 967 sol 122847.00
iteration 968 sol 123048.00
iteration 969 sol 121526.00
iteration 970 sol 123069.00
iteration 971 sol 122290.00
iteration 972 sol 123209.00
iteration 973 sol 121723.00
iteration 974 sol 122888.00
iteration 975 sol 122703.00
iteration 976 sol 123320.00
iteration 977 sol 122275.00
iteration 978 sol 121989.00
iteration 979 sol 121711.00
iteration 980 sol 122273.00
iteration 981 sol 122470.00
iteration 982 sol 122024.00
iteration 983 sol 122809.00
iteration 984 sol 122951.00
iteration 985 sol 123049.00
iteration 986 sol 122643.00
iteration 987 sol 122316.00
iteration 988 sol 122431.00
iteration 989 sol 121505.00
iteration 990 sol 122635.00
iteration 991 sol 122786.00
iteration 992 sol 121715.00
iteration 993 sol 122755.00
iteration 994 sol 122894.00
iteration 995 sol 123197.00
iteration 996 sol 122755.00
iteration 997 sol 122526.00
iteration 998 sol 122171.00
iteration 999 sol 122572.00
iteration 1000 sol 122361.00
iteration 1001 sol 122284.00
iteration 1002 sol 122464.00
iteration 1003 sol 123287.00
iteration 1004 sol 122411.00
iteration 1005 sol 122155.00
iteration 1006 sol 122738.00
iteration 1007 sol 122831.00
iteration 1008 sol 122311.00
iteration 1009 sol 122632.00
iteration 1010 sol 122310.00
iteration 1011 sol 121683.00
iteration 1012 sol 121902.00
iteration 1013 sol 122651.00
iteration 1014 sol 122264.00
iteration 1015 sol 121305.00
iteration 1016 sol 122976.00
iteration 1017 sol 121551.00
iteration 1018 sol 122867.00
iteration 1019 sol 122621.00
iteration 1020 sol 122655.00
iteration 1021 sol 122484.00
iteration 1022 sol 122937.00
iteration 1023 sol 122527.00
iteration 1024 sol 122877.00
iteration 1025 sol 122779.00
iteration 1026 sol 123011.00
iteration 1027 sol 121164.00
iteration 1028 sol 121631.00
iteration 1029 sol 122138.00
iteration 1030 sol 122975.00
iteration 1031 sol 121581.00
iteration 1032 sol 122860.00
iteration 1033 sol 122110.00
iteration 1034 sol 122901.00
iteration 1035 sol 122661.00
iteration 1036 sol 122622.00
iteration 1037 sol 122526.00
iteration 1038 sol 123115.00
iteration 1039 sol 122145.00
iteration 1040 sol 122332.00
iteration 1041 sol 122272.00
iteration 1042 sol 122686.00
iteration 1043 sol 122080.00
iteration 1044 sol 121942.00
iteration 1045 sol 123125.00
iteration 1046 sol 122284.00
iteration 1047 sol 123077.00
iteration 1048 sol 122284.00
iteration 1049 sol 122546.00
iteration 1050 sol 121101.00
iteration 1051 sol 121878.00
iteration 1052 sol 121592.00
iteration 1053 sol 121882.00
iteration 1054 sol 122195.00
iteration 1055 sol 122697.00
iteration 1056 sol 122035.00
iteration 1057 sol 121948.00
iteration 1058 sol 122677.00
iteration 1059 sol 122467.00
iteration 1060 sol 121560.00
iteration 1061 sol 121664.00
iteration 1062 sol 122050.00
iteration 1063 sol 123002.00
iteration 1064 sol 123240.00
iteration 1065 sol 122460.00
iteration 1066 sol 123202.00
iteration 1067 sol 121793.00
iteration 1068 sol 122900.00
iteration 1069 sol 122907.00
iteration 1070 sol 121747.00
iteration 1071 sol 122301.00
iteration 1072 sol 121023.00
iteration 1073 sol 122445.00
iteration 1074 sol 121165.00
iteration 1075 sol 122907.00
iteration 1076 sol 122686.00
iteration 1077 sol 123184.00
iteration 1078 sol 121592.00
iteration 1079 sol 122688.00
iteration 1080 sol 122901.00
iteration 1081 sol 121799.00
iteration 1082 sol 122223.00
iteration 1083 sol 121949.00
iteration 1084 sol 122419.00
iteration 1085 sol 123025.00
iteration 1086 sol 122847.00
iteration 1087 sol 122308.00
iteration 1088 sol 121905.00
iteration 1089 sol 122470.00
iteration 1090 sol 122594.00
iteration 1091 sol 122450.00
iteration 1092 sol 122240.00
iteration 1093 sol 121845.00
iteration 1094 sol 122513.00
iteration 1095 sol 122718.00
iteration 1096 sol 122412.00
iteration 1097 sol 122266.00
iteration 1098 sol 122447.00
iteration 1099 sol 122372.00
iteration 1100 sol 121901.00
iteration 1101 sol 122675.00
iteration 1102 sol 121926.00
iteration 1103 sol 122920.00
iteration 1104 sol 122213.00
iteration 1105 sol 122224.00
iteration 1106 sol 122212.00
iteration 1107 sol 122393.00
iteration 1108 sol 122637.00
iteration 1109 sol 121996.00
iteration 1110 sol 123363.00
iteration 1111 sol 122870.00
iteration 1112 sol 123000.00
iteration 1113 sol 122558.00
iteration 1114 sol 121486.00
iteration 1115 sol 121555.00
iteration 1116 sol 122329.00
iteration 1117 sol 121924.00
iteration 1118 sol 121803.00
iteration 1119 sol 121851.00
iteration 1120 sol 122425.00
iteration 1121 sol 121766.00
iteration 1122 sol 122621.00
iteration 1123 sol 123216.00
iteration 1124 sol 122383.00
iteration 1125 sol 122483.00
iteration 1126 sol 122413.00
iteration 1127 sol 122172.00
iteration 1128 sol 123482.00
iteration 1129 sol 122278.00
iteration 1130 sol 122417.00
iteration 1131 sol 122386.00
iteration 1132 sol 121848.00
iteration 1133 sol 121166.00
iteration 1134 sol 121545.00
iteration 1135 sol 121831.00
iteration 1136 sol 122442.00
iteration 1137 sol 122796.00
iteration 1138 sol 122735.00
iteration 1139 sol 121620.00
iteration 1140 sol 122938.00
iteration 1141 sol 122481.00
iteration 1142 sol 122897.00
iteration 1143 sol 121259.00
iteration 1144 sol 121915.00
iteration 1145 sol 123404.00
iteration 1146 sol 121881.00
iteration 1147 sol 122682.00
iteration 1148 sol 122883.00
iteration 1149 sol 121674.00
iteration 1150 sol 122426.00
iteration 1151 sol 122322.00
iteration 1152 sol 122128.00
iteration 1153 sol 123225.00
iteration 1154 sol 123020.00
iteration 1155 sol 122528.00
iteration 1156 sol 122459.00
iteration 1157 sol 122673.00
iteration 1158 sol 121862.00
iteration 1159 sol 122389.00
iteration 1160 sol 122005.00
iteration 1161 sol 121563.00
iteration 1162 sol 121960.00
iteration 1163 sol 123122.00
iteration 1164 sol 122728.00
iteration 1165 sol 122223.00
iteration 1166 sol 121662.00
iteration 1167 sol 122343.00
iteration 1168 sol 122919.00
iteration 1169 sol 122549.00
iteration 1170 sol 122842.00
iteration 1171 sol 122328.00
iteration 1172 sol 123619.00
iteration 1173 sol 121787.00
iteration 1174 sol 122966.00
iteration 1175 sol 122422.00
iteration 1176 sol 122436.00
iteration 1177 sol 121873.00
iteration 1178 sol 121596.00
iteration 1179 sol 122984.00
iteration 1180 sol 122759.00
iteration 1181 sol 121736.00
iteration 1182 sol 122508.00
iteration 1183 sol 123228.00
iteration 1184 sol 123094.00
iteration 1185 sol 121808.00
iteration 1186 sol 122728.00
iteration 1187 sol 123070.00
iteration 1188 sol 122877.00
iteration 1189 sol 123411.00
iteration 1190 sol 121402.00
iteration 1191 sol 123165.00
iteration 1192 sol 122423.00
iteration 1193 sol 121943.00
iteration 1194 sol 122894.00
iteration 1195 sol 122898.00
iteration 1196 sol 122971.00
iteration 1197 sol 122285.00
iteration 1198 sol 121373.00
iteration 1199 sol 122588.00
iteration 1200 sol 121489.00
iteration 1201 sol 122889.00
iteration 1202 sol 122463.00
iteration 1203 sol 122893.00
iteration 1204 sol 122779.00
iteration 1205 sol 122158.00
iteration 1206 sol 123208.00
iteration 1207 sol 122015.00
iteration 1208 sol 122005.00
iteration 1209 sol 122938.00
iteration 1210 sol 122659.00
iteration 1211 sol 122745.00
iteration 1212 sol 121840.00
iteration 1213 sol 122839.00
iteration 1214 sol 122686.00
iteration 1215 sol 122104.00
iteration 1216 sol 122182.00
iteration 1217 sol 122476.00
iteration 1218 sol 122079.00
iteration 1219 sol 121865.00
iteration 1220 sol 121828.00
iteration 1221 sol 121724.00
iteration 1222 sol 121488.00
iteration 1223 sol 121736.00
iteration 1224 sol 123239.00
iteration 1225 sol 122547.00
iteration 1226 sol 122958.00
iteration 1227 sol 123044.00
iteration 1228 sol 122661.00
iteration 1229 sol 122067.00
iteration 1230 sol 122921.00
iteration 1231 sol 122015.00
iteration 1232 sol 122871.00
iteration 1233 sol 121591.00
iteration 1234 sol 122859.00
iteration 1235 sol 122302.00
Calls to change | Calls removed by BIT 
257202903 | 80651586
Calls to add | Calls removed by BIT 
29117216 | 7207159
Number of iterations = 1236
Best Solution was found in iteration = 203
Time used by neighbor | Times each neighbor was used | Improvements
N_1 = 32.84 | 10666 | 10511
N_2 = 397.41 | 10666 | 10484
N_3 = 0.22 | 10666 | 4245
N_4 = 1.49 | 10666 | 1744
N_5 = 146.79 | 10666 | 72
Time to find the best solution = 100.90
Solution = 123836.00
Time = 600.08
