iteration 0 sol 123589.00
iteration 1 sol 124046.00
iteration 2 sol 123859.00
iteration 3 sol 124120.00
iteration 4 sol 123534.00
iteration 5 sol 124385.00
iteration 6 sol 123204.00
iteration 7 sol 123944.00
iteration 8 sol 124244.00
iteration 9 sol 124156.00
iteration 10 sol 123927.00
iteration 11 sol 123535.00
iteration 12 sol 124117.00
iteration 13 sol 123844.00
iteration 14 sol 123948.00
iteration 15 sol 123877.00
iteration 16 sol 123440.00
iteration 17 sol 123786.00
iteration 18 sol 123744.00
iteration 19 sol 122795.00
iteration 20 sol 123432.00
iteration 21 sol 123053.00
iteration 22 sol 123435.00
iteration 23 sol 124067.00
iteration 24 sol 124231.00
iteration 25 sol 123917.00
iteration 26 sol 123597.00
iteration 27 sol 124166.00
iteration 28 sol 123530.00
iteration 29 sol 124274.00
iteration 30 sol 123751.00
iteration 31 sol 124224.00
iteration 32 sol 123971.00
iteration 33 sol 124339.00
iteration 34 sol 123816.00
iteration 35 sol 124359.00
iteration 36 sol 123604.00
iteration 37 sol 124437.00
iteration 38 sol 124037.00
iteration 39 sol 122819.00
iteration 40 sol 123761.00
iteration 41 sol 124011.00
iteration 42 sol 124192.00
iteration 43 sol 123923.00
iteration 44 sol 123648.00
iteration 45 sol 123218.00
iteration 46 sol 123285.00
iteration 47 sol 123628.00
iteration 48 sol 123754.00
iteration 49 sol 123458.00
iteration 50 sol 123067.00
iteration 51 sol 123849.00
iteration 52 sol 124010.00
iteration 53 sol 123104.00
iteration 54 sol 123630.00
iteration 55 sol 124072.00
iteration 56 sol 123646.00
iteration 57 sol 123463.00
iteration 58 sol 123472.00
iteration 59 sol 123737.00
iteration 60 sol 123302.00
iteration 61 sol 123372.00
iteration 62 sol 124229.00
iteration 63 sol 123685.00
iteration 64 sol 123985.00
iteration 65 sol 123651.00
iteration 66 sol 123650.00
iteration 67 sol 123251.00
iteration 68 sol 124065.00
iteration 69 sol 123275.00
iteration 70 sol 123905.00
iteration 71 sol 123975.00
iteration 72 sol 123755.00
iteration 73 sol 123237.00
iteration 74 sol 123399.00
iteration 75 sol 123726.00
iteration 76 sol 124200.00
iteration 77 sol 124603.00
iteration 78 sol 124094.00
iteration 79 sol 124069.00
iteration 80 sol 124064.00
iteration 81 sol 123685.00
iteration 82 sol 123279.00
iteration 83 sol 123763.00
iteration 84 sol 124642.00
iteration 85 sol 124036.00
iteration 86 sol 124111.00
iteration 87 sol 124262.00
iteration 88 sol 123308.00
iteration 89 sol 123713.00
iteration 90 sol 123112.00
iteration 91 sol 123458.00
iteration 92 sol 123082.00
iteration 93 sol 124381.00
iteration 94 sol 123206.00
iteration 95 sol 124021.00
iteration 96 sol 123633.00
iteration 97 sol 124286.00
iteration 98 sol 123909.00
iteration 99 sol 124145.00
iteration 100 sol 123456.00
iteration 101 sol 124007.00
iteration 102 sol 123842.00
iteration 103 sol 124555.00
iteration 104 sol 123471.00
iteration 105 sol 123867.00
iteration 106 sol 123811.00
iteration 107 sol 123670.00
iteration 108 sol 123476.00
iteration 109 sol 123914.00
iteration 110 sol 123757.00
iteration 111 sol 124354.00
iteration 112 sol 123889.00
iteration 113 sol 123835.00
iteration 114 sol 123939.00
iteration 115 sol 123785.00
iteration 116 sol 124105.00
iteration 117 sol 124024.00
iteration 118 sol 123644.00
iteration 119 sol 124295.00
iteration 120 sol 123756.00
iteration 121 sol 123731.00
iteration 122 sol 123757.00
iteration 123 sol 123847.00
iteration 124 sol 123235.00
iteration 125 sol 123643.00
iteration 126 sol 122599.00
iteration 127 sol 124262.00
iteration 128 sol 123550.00
iteration 129 sol 124031.00
iteration 130 sol 123322.00
iteration 131 sol 123996.00
iteration 132 sol 123959.00
iteration 133 sol 123058.00
iteration 134 sol 124407.00
iteration 135 sol 124265.00
iteration 136 sol 124200.00
iteration 137 sol 123181.00
iteration 138 sol 124553.00
iteration 139 sol 124014.00
iteration 140 sol 123324.00
iteration 141 sol 123553.00
iteration 142 sol 124075.00
iteration 143 sol 123018.00
iteration 144 sol 123349.00
iteration 145 sol 123704.00
iteration 146 sol 123701.00
iteration 147 sol 123567.00
iteration 148 sol 123298.00
iteration 149 sol 124057.00
iteration 150 sol 123903.00
iteration 151 sol 124450.00
iteration 152 sol 124028.00
iteration 153 sol 123881.00
iteration 154 sol 123745.00
iteration 155 sol 123372.00
iteration 156 sol 123841.00
iteration 157 sol 123644.00
iteration 158 sol 123744.00
iteration 159 sol 123088.00
iteration 160 sol 123626.00
iteration 161 sol 124084.00
iteration 162 sol 123909.00
iteration 163 sol 123474.00
iteration 164 sol 123039.00
iteration 165 sol 124170.00
iteration 166 sol 124157.00
iteration 167 sol 123046.00
iteration 168 sol 123827.00
iteration 169 sol 123538.00
iteration 170 sol 124123.00
iteration 171 sol 123156.00
iteration 172 sol 122681.00
iteration 173 sol 122940.00
iteration 174 sol 123879.00
iteration 175 sol 123355.00
iteration 176 sol 123878.00
iteration 177 sol 122552.00
iteration 178 sol 123440.00
iteration 179 sol 123717.00
iteration 180 sol 123860.00
iteration 181 sol 123356.00
iteration 182 sol 123583.00
iteration 183 sol 123749.00
iteration 184 sol 123637.00
iteration 185 sol 124039.00
iteration 186 sol 123729.00
iteration 187 sol 123992.00
iteration 188 sol 123770.00
iteration 189 sol 124395.00
iteration 190 sol 123840.00
iteration 191 sol 123177.00
iteration 192 sol 123951.00
iteration 193 sol 123334.00
iteration 194 sol 123715.00
iteration 195 sol 123897.00
iteration 196 sol 124078.00
iteration 197 sol 123608.00
iteration 198 sol 124075.00
iteration 199 sol 123105.00
iteration 200 sol 123898.00
iteration 201 sol 124041.00
iteration 202 sol 123930.00
iteration 203 sol 123956.00
iteration 204 sol 124409.00
iteration 205 sol 123297.00
iteration 206 sol 123336.00
iteration 207 sol 123412.00
iteration 208 sol 123361.00
iteration 209 sol 123934.00
iteration 210 sol 122980.00
iteration 211 sol 123679.00
iteration 212 sol 122998.00
iteration 213 sol 123794.00
iteration 214 sol 124272.00
iteration 215 sol 123898.00
iteration 216 sol 122741.00
iteration 217 sol 123721.00
iteration 218 sol 123773.00
iteration 219 sol 123398.00
iteration 220 sol 123740.00
iteration 221 sol 124147.00
iteration 222 sol 123212.00
iteration 223 sol 123309.00
iteration 224 sol 124098.00
iteration 225 sol 123713.00
iteration 226 sol 123271.00
iteration 227 sol 123681.00
iteration 228 sol 124249.00
iteration 229 sol 123825.00
iteration 230 sol 123635.00
iteration 231 sol 123771.00
iteration 232 sol 123652.00
iteration 233 sol 123736.00
iteration 234 sol 123168.00
iteration 235 sol 123625.00
iteration 236 sol 123457.00
iteration 237 sol 123756.00
iteration 238 sol 123916.00
iteration 239 sol 123931.00
iteration 240 sol 123604.00
iteration 241 sol 123695.00
iteration 242 sol 123800.00
iteration 243 sol 123775.00
iteration 244 sol 124150.00
iteration 245 sol 123526.00
iteration 246 sol 123904.00
iteration 247 sol 123270.00
iteration 248 sol 123485.00
iteration 249 sol 123910.00
iteration 250 sol 123020.00
iteration 251 sol 123353.00
iteration 252 sol 123862.00
iteration 253 sol 124148.00
iteration 254 sol 123603.00
iteration 255 sol 124489.00
iteration 256 sol 124093.00
iteration 257 sol 123414.00
iteration 258 sol 124363.00
iteration 259 sol 123887.00
iteration 260 sol 123804.00
iteration 261 sol 124252.00
iteration 262 sol 124156.00
iteration 263 sol 123721.00
iteration 264 sol 124105.00
iteration 265 sol 123653.00
iteration 266 sol 124347.00
iteration 267 sol 123710.00
iteration 268 sol 123425.00
iteration 269 sol 123572.00
iteration 270 sol 123201.00
iteration 271 sol 123667.00
iteration 272 sol 123551.00
iteration 273 sol 124099.00
iteration 274 sol 123744.00
iteration 275 sol 123435.00
iteration 276 sol 123009.00
iteration 277 sol 123917.00
iteration 278 sol 124144.00
iteration 279 sol 123046.00
iteration 280 sol 124029.00
iteration 281 sol 124013.00
iteration 282 sol 122942.00
iteration 283 sol 123748.00
iteration 284 sol 123735.00
iteration 285 sol 124297.00
iteration 286 sol 123225.00
iteration 287 sol 124082.00
iteration 288 sol 124211.00
iteration 289 sol 124031.00
iteration 290 sol 123610.00
iteration 291 sol 123572.00
iteration 292 sol 124069.00
iteration 293 sol 123684.00
iteration 294 sol 123660.00
iteration 295 sol 123118.00
iteration 296 sol 123686.00
iteration 297 sol 124093.00
iteration 298 sol 123763.00
iteration 299 sol 123421.00
iteration 300 sol 124086.00
iteration 301 sol 123694.00
iteration 302 sol 123411.00
iteration 303 sol 123661.00
iteration 304 sol 124374.00
iteration 305 sol 124184.00
iteration 306 sol 122971.00
iteration 307 sol 123052.00
iteration 308 sol 123923.00
iteration 309 sol 124263.00
iteration 310 sol 123956.00
iteration 311 sol 124084.00
iteration 312 sol 122979.00
iteration 313 sol 123433.00
iteration 314 sol 123942.00
iteration 315 sol 124165.00
iteration 316 sol 123030.00
iteration 317 sol 123090.00
iteration 318 sol 123872.00
iteration 319 sol 123854.00
iteration 320 sol 123205.00
iteration 321 sol 123731.00
iteration 322 sol 122760.00
iteration 323 sol 123927.00
iteration 324 sol 123946.00
iteration 325 sol 123474.00
iteration 326 sol 123657.00
iteration 327 sol 123186.00
iteration 328 sol 123675.00
iteration 329 sol 123584.00
iteration 330 sol 123594.00
iteration 331 sol 123979.00
iteration 332 sol 123749.00
iteration 333 sol 123727.00
iteration 334 sol 123405.00
iteration 335 sol 124079.00
iteration 336 sol 124145.00
iteration 337 sol 124448.00
iteration 338 sol 124243.00
iteration 339 sol 123960.00
iteration 340 sol 124267.00
iteration 341 sol 123463.00
iteration 342 sol 123877.00
iteration 343 sol 123614.00
iteration 344 sol 124232.00
iteration 345 sol 123287.00
iteration 346 sol 123803.00
iteration 347 sol 123334.00
iteration 348 sol 123900.00
iteration 349 sol 124207.00
iteration 350 sol 123507.00
iteration 351 sol 123369.00
iteration 352 sol 124219.00
iteration 353 sol 124240.00
iteration 354 sol 124127.00
iteration 355 sol 123938.00
iteration 356 sol 123962.00
iteration 357 sol 123521.00
iteration 358 sol 124129.00
iteration 359 sol 123114.00
iteration 360 sol 124085.00
iteration 361 sol 123092.00
iteration 362 sol 124054.00
iteration 363 sol 124332.00
iteration 364 sol 123478.00
iteration 365 sol 123620.00
iteration 366 sol 123482.00
iteration 367 sol 123360.00
iteration 368 sol 124212.00
iteration 369 sol 123185.00
iteration 370 sol 123850.00
iteration 371 sol 123611.00
iteration 372 sol 124329.00
iteration 373 sol 124141.00
iteration 374 sol 123535.00
iteration 375 sol 123408.00
iteration 376 sol 123984.00
iteration 377 sol 123255.00
iteration 378 sol 123205.00
iteration 379 sol 123863.00
iteration 380 sol 123925.00
iteration 381 sol 123532.00
iteration 382 sol 123645.00
iteration 383 sol 123543.00
iteration 384 sol 124026.00
iteration 385 sol 123609.00
iteration 386 sol 124146.00
iteration 387 sol 123861.00
iteration 388 sol 124178.00
iteration 389 sol 124042.00
iteration 390 sol 124252.00
iteration 391 sol 123628.00
iteration 392 sol 123867.00
iteration 393 sol 123876.00
iteration 394 sol 123206.00
iteration 395 sol 122835.00
iteration 396 sol 123698.00
iteration 397 sol 124060.00
iteration 398 sol 123519.00
iteration 399 sol 123791.00
iteration 400 sol 123810.00
iteration 401 sol 122951.00
iteration 402 sol 123076.00
iteration 403 sol 123262.00
iteration 404 sol 123409.00
iteration 405 sol 123868.00
iteration 406 sol 123745.00
iteration 407 sol 123433.00
iteration 408 sol 122933.00
iteration 409 sol 124044.00
iteration 410 sol 123378.00
iteration 411 sol 124144.00
iteration 412 sol 124238.00
iteration 413 sol 124557.00
iteration 414 sol 123866.00
iteration 415 sol 123601.00
iteration 416 sol 124129.00
iteration 417 sol 124119.00
iteration 418 sol 123350.00
iteration 419 sol 123420.00
iteration 420 sol 123483.00
iteration 421 sol 123005.00
iteration 422 sol 124234.00
iteration 423 sol 123357.00
iteration 424 sol 123375.00
iteration 425 sol 123880.00
iteration 426 sol 123020.00
iteration 427 sol 124029.00
iteration 428 sol 124270.00
iteration 429 sol 123423.00
iteration 430 sol 124243.00
iteration 431 sol 123494.00
iteration 432 sol 123507.00
iteration 433 sol 123040.00
iteration 434 sol 123480.00
iteration 435 sol 123972.00
iteration 436 sol 123834.00
iteration 437 sol 123742.00
iteration 438 sol 123880.00
iteration 439 sol 123886.00
iteration 440 sol 123787.00
iteration 441 sol 123503.00
iteration 442 sol 124008.00
iteration 443 sol 123586.00
iteration 444 sol 124062.00
iteration 445 sol 124058.00
iteration 446 sol 124022.00
iteration 447 sol 124000.00
iteration 448 sol 124237.00
iteration 449 sol 123418.00
iteration 450 sol 124149.00
iteration 451 sol 124374.00
iteration 452 sol 123674.00
iteration 453 sol 123479.00
iteration 454 sol 123811.00
iteration 455 sol 123376.00
iteration 456 sol 124118.00
iteration 457 sol 123084.00
iteration 458 sol 123816.00
iteration 459 sol 123603.00
iteration 460 sol 123824.00
iteration 461 sol 122661.00
iteration 462 sol 123530.00
iteration 463 sol 122579.00
iteration 464 sol 123964.00
iteration 465 sol 123909.00
iteration 466 sol 123758.00
iteration 467 sol 124225.00
iteration 468 sol 123700.00
iteration 469 sol 124293.00
iteration 470 sol 123872.00
iteration 471 sol 123387.00
iteration 472 sol 123522.00
iteration 473 sol 123317.00
iteration 474 sol 122804.00
iteration 475 sol 123794.00
iteration 476 sol 123235.00
iteration 477 sol 123820.00
iteration 478 sol 124146.00
iteration 479 sol 123574.00
iteration 480 sol 123865.00
iteration 481 sol 123971.00
iteration 482 sol 123804.00
iteration 483 sol 123846.00
iteration 484 sol 123797.00
iteration 485 sol 123742.00
iteration 486 sol 123962.00
iteration 487 sol 123900.00
iteration 488 sol 123251.00
iteration 489 sol 123823.00
iteration 490 sol 123779.00
iteration 491 sol 124020.00
iteration 492 sol 123490.00
iteration 493 sol 123062.00
iteration 494 sol 124338.00
iteration 495 sol 123482.00
iteration 496 sol 123369.00
iteration 497 sol 122751.00
iteration 498 sol 123354.00
iteration 499 sol 124152.00
iteration 500 sol 124000.00
iteration 501 sol 123478.00
iteration 502 sol 123532.00
iteration 503 sol 123919.00
iteration 504 sol 123754.00
iteration 505 sol 122798.00
iteration 506 sol 123959.00
iteration 507 sol 123878.00
iteration 508 sol 124127.00
iteration 509 sol 123326.00
iteration 510 sol 123450.00
iteration 511 sol 124181.00
iteration 512 sol 123795.00
iteration 513 sol 123699.00
iteration 514 sol 124138.00
iteration 515 sol 123740.00
iteration 516 sol 123680.00
iteration 517 sol 123712.00
iteration 518 sol 123979.00
iteration 519 sol 123786.00
iteration 520 sol 123680.00
iteration 521 sol 123338.00
iteration 522 sol 123882.00
iteration 523 sol 123671.00
iteration 524 sol 123783.00
iteration 525 sol 123803.00
iteration 526 sol 123406.00
iteration 527 sol 123818.00
iteration 528 sol 123532.00
iteration 529 sol 123889.00
iteration 530 sol 123493.00
iteration 531 sol 123654.00
iteration 532 sol 123902.00
iteration 533 sol 123086.00
iteration 534 sol 123734.00
iteration 535 sol 123686.00
iteration 536 sol 124157.00
iteration 537 sol 122867.00
iteration 538 sol 124076.00
iteration 539 sol 123509.00
iteration 540 sol 123724.00
iteration 541 sol 123433.00
iteration 542 sol 124102.00
iteration 543 sol 123583.00
iteration 544 sol 123584.00
iteration 545 sol 123191.00
iteration 546 sol 123303.00
iteration 547 sol 123655.00
iteration 548 sol 124042.00
iteration 549 sol 123881.00
iteration 550 sol 124256.00
iteration 551 sol 123827.00
iteration 552 sol 123389.00
iteration 553 sol 123622.00
iteration 554 sol 124109.00
iteration 555 sol 123906.00
iteration 556 sol 123816.00
iteration 557 sol 124336.00
iteration 558 sol 123828.00
iteration 559 sol 123833.00
iteration 560 sol 123834.00
iteration 561 sol 123189.00
iteration 562 sol 123690.00
iteration 563 sol 123282.00
iteration 564 sol 124548.00
iteration 565 sol 123548.00
iteration 566 sol 124168.00
iteration 567 sol 124138.00
iteration 568 sol 123933.00
iteration 569 sol 124353.00
iteration 570 sol 124087.00
iteration 571 sol 124232.00
iteration 572 sol 123902.00
iteration 573 sol 123622.00
iteration 574 sol 124043.00
iteration 575 sol 124385.00
iteration 576 sol 124226.00
iteration 577 sol 123237.00
iteration 578 sol 124239.00
iteration 579 sol 124212.00
iteration 580 sol 123276.00
iteration 581 sol 123918.00
iteration 582 sol 124156.00
iteration 583 sol 124438.00
iteration 584 sol 123535.00
iteration 585 sol 123109.00
iteration 586 sol 123336.00
iteration 587 sol 123514.00
iteration 588 sol 123250.00
iteration 589 sol 123730.00
iteration 590 sol 123061.00
iteration 591 sol 123424.00
iteration 592 sol 123757.00
iteration 593 sol 124382.00
iteration 594 sol 124060.00
iteration 595 sol 123604.00
iteration 596 sol 123743.00
iteration 597 sol 123866.00
iteration 598 sol 124477.00
iteration 599 sol 124005.00
iteration 600 sol 123719.00
iteration 601 sol 123764.00
iteration 602 sol 123604.00
iteration 603 sol 123969.00
iteration 604 sol 123713.00
iteration 605 sol 123756.00
iteration 606 sol 124454.00
iteration 607 sol 123762.00
iteration 608 sol 123148.00
iteration 609 sol 123811.00
iteration 610 sol 123002.00
iteration 611 sol 123289.00
iteration 612 sol 123184.00
iteration 613 sol 123495.00
iteration 614 sol 123802.00
iteration 615 sol 123790.00
iteration 616 sol 123789.00
iteration 617 sol 123943.00
iteration 618 sol 123349.00
iteration 619 sol 123599.00
iteration 620 sol 123998.00
iteration 621 sol 123573.00
iteration 622 sol 123446.00
iteration 623 sol 122890.00
iteration 624 sol 124031.00
iteration 625 sol 124296.00
iteration 626 sol 123944.00
iteration 627 sol 123896.00
iteration 628 sol 123491.00
iteration 629 sol 123275.00
iteration 630 sol 123578.00
iteration 631 sol 123660.00
iteration 632 sol 123587.00
iteration 633 sol 123634.00
iteration 634 sol 123609.00
iteration 635 sol 123846.00
iteration 636 sol 123240.00
iteration 637 sol 124419.00
iteration 638 sol 123037.00
iteration 639 sol 124216.00
iteration 640 sol 123796.00
iteration 641 sol 123704.00
iteration 642 sol 124172.00
iteration 643 sol 124125.00
iteration 644 sol 123659.00
iteration 645 sol 123769.00
iteration 646 sol 123604.00
iteration 647 sol 123401.00
iteration 648 sol 123846.00
iteration 649 sol 123607.00
iteration 650 sol 123033.00
iteration 651 sol 123449.00
iteration 652 sol 123134.00
iteration 653 sol 123235.00
iteration 654 sol 124203.00
iteration 655 sol 123685.00
iteration 656 sol 123946.00
iteration 657 sol 123963.00
iteration 658 sol 123799.00
iteration 659 sol 124094.00
iteration 660 sol 123642.00
iteration 661 sol 124714.00
iteration 662 sol 124009.00
iteration 663 sol 124441.00
iteration 664 sol 123583.00
iteration 665 sol 123320.00
iteration 666 sol 124137.00
iteration 667 sol 123369.00
iteration 668 sol 123899.00
iteration 669 sol 123677.00
iteration 670 sol 123826.00
iteration 671 sol 123254.00
iteration 672 sol 123894.00
iteration 673 sol 123638.00
iteration 674 sol 123485.00
iteration 675 sol 124092.00
iteration 676 sol 123756.00
iteration 677 sol 123507.00
iteration 678 sol 122902.00
iteration 679 sol 123196.00
iteration 680 sol 123432.00
iteration 681 sol 124001.00
iteration 682 sol 123931.00
iteration 683 sol 122530.00
iteration 684 sol 123909.00
iteration 685 sol 123507.00
iteration 686 sol 124081.00
iteration 687 sol 124021.00
iteration 688 sol 123937.00
iteration 689 sol 123661.00
iteration 690 sol 123821.00
iteration 691 sol 124377.00
iteration 692 sol 123560.00
iteration 693 sol 124056.00
iteration 694 sol 124137.00
iteration 695 sol 123229.00
iteration 696 sol 123814.00
iteration 697 sol 123133.00
iteration 698 sol 123829.00
iteration 699 sol 124421.00
iteration 700 sol 124111.00
iteration 701 sol 124337.00
iteration 702 sol 123584.00
iteration 703 sol 123357.00
iteration 704 sol 123922.00
iteration 705 sol 123593.00
iteration 706 sol 123755.00
iteration 707 sol 123919.00
iteration 708 sol 123962.00
iteration 709 sol 123656.00
iteration 710 sol 124079.00
iteration 711 sol 123456.00
iteration 712 sol 124061.00
iteration 713 sol 123537.00
iteration 714 sol 123981.00
iteration 715 sol 123734.00
iteration 716 sol 123771.00
iteration 717 sol 123971.00
iteration 718 sol 123848.00
iteration 719 sol 123921.00
iteration 720 sol 122892.00
iteration 721 sol 124224.00
iteration 722 sol 124262.00
iteration 723 sol 124399.00
iteration 724 sol 124385.00
iteration 725 sol 123978.00
iteration 726 sol 123686.00
iteration 727 sol 124031.00
iteration 728 sol 124083.00
iteration 729 sol 123419.00
iteration 730 sol 123728.00
iteration 731 sol 123069.00
iteration 732 sol 123970.00
iteration 733 sol 123904.00
iteration 734 sol 124067.00
iteration 735 sol 123498.00
iteration 736 sol 123339.00
iteration 737 sol 124043.00
iteration 738 sol 123472.00
iteration 739 sol 123358.00
iteration 740 sol 123965.00
iteration 741 sol 123654.00
iteration 742 sol 123886.00
iteration 743 sol 124026.00
iteration 744 sol 123833.00
iteration 745 sol 123441.00
iteration 746 sol 123582.00
iteration 747 sol 123615.00
iteration 748 sol 123862.00
iteration 749 sol 123977.00
iteration 750 sol 124013.00
iteration 751 sol 122929.00
iteration 752 sol 123894.00
iteration 753 sol 123787.00
iteration 754 sol 123324.00
iteration 755 sol 123569.00
iteration 756 sol 124196.00
iteration 757 sol 123823.00
iteration 758 sol 123841.00
iteration 759 sol 124281.00
iteration 760 sol 123818.00
iteration 761 sol 124203.00
iteration 762 sol 124011.00
iteration 763 sol 124143.00
iteration 764 sol 123782.00
iteration 765 sol 124358.00
iteration 766 sol 123618.00
iteration 767 sol 123403.00
iteration 768 sol 123552.00
iteration 769 sol 123034.00
iteration 770 sol 123490.00
iteration 771 sol 123991.00
iteration 772 sol 123470.00
iteration 773 sol 123789.00
iteration 774 sol 123712.00
iteration 775 sol 123076.00
iteration 776 sol 123460.00
iteration 777 sol 123512.00
iteration 778 sol 124351.00
iteration 779 sol 124137.00
iteration 780 sol 123317.00
iteration 781 sol 124106.00
iteration 782 sol 124117.00
iteration 783 sol 123677.00
iteration 784 sol 123403.00
iteration 785 sol 123300.00
iteration 786 sol 124110.00
iteration 787 sol 124039.00
iteration 788 sol 124113.00
iteration 789 sol 123209.00
iteration 790 sol 123834.00
iteration 791 sol 124111.00
iteration 792 sol 123683.00
iteration 793 sol 123629.00
iteration 794 sol 124192.00
iteration 795 sol 124017.00
iteration 796 sol 123610.00
iteration 797 sol 124104.00
iteration 798 sol 123822.00
iteration 799 sol 123515.00
iteration 800 sol 124324.00
iteration 801 sol 123981.00
iteration 802 sol 123127.00
iteration 803 sol 123252.00
iteration 804 sol 123816.00
iteration 805 sol 124069.00
iteration 806 sol 124008.00
iteration 807 sol 123762.00
iteration 808 sol 123675.00
iteration 809 sol 123674.00
iteration 810 sol 123517.00
iteration 811 sol 124188.00
iteration 812 sol 122935.00
iteration 813 sol 123206.00
iteration 814 sol 124310.00
iteration 815 sol 124171.00
iteration 816 sol 124059.00
iteration 817 sol 123978.00
iteration 818 sol 123149.00
iteration 819 sol 123667.00
iteration 820 sol 123339.00
iteration 821 sol 123802.00
iteration 822 sol 124007.00
iteration 823 sol 123952.00
iteration 824 sol 124125.00
iteration 825 sol 124067.00
iteration 826 sol 123001.00
iteration 827 sol 122952.00
iteration 828 sol 123703.00
iteration 829 sol 123715.00
iteration 830 sol 124407.00
iteration 831 sol 123407.00
iteration 832 sol 123741.00
iteration 833 sol 123681.00
iteration 834 sol 124185.00
iteration 835 sol 124061.00
iteration 836 sol 124293.00
iteration 837 sol 123812.00
iteration 838 sol 123865.00
iteration 839 sol 123468.00
iteration 840 sol 123317.00
iteration 841 sol 123372.00
iteration 842 sol 123579.00
iteration 843 sol 123721.00
iteration 844 sol 123087.00
iteration 845 sol 123724.00
iteration 846 sol 124037.00
iteration 847 sol 123622.00
iteration 848 sol 124053.00
iteration 849 sol 123800.00
iteration 850 sol 123361.00
iteration 851 sol 123756.00
iteration 852 sol 123493.00
iteration 853 sol 123530.00
iteration 854 sol 124342.00
iteration 855 sol 123875.00
iteration 856 sol 123859.00
iteration 857 sol 123617.00
iteration 858 sol 123416.00
iteration 859 sol 123128.00
iteration 860 sol 122998.00
iteration 861 sol 123779.00
iteration 862 sol 123389.00
iteration 863 sol 124482.00
iteration 864 sol 123552.00
iteration 865 sol 123574.00
iteration 866 sol 124112.00
iteration 867 sol 123482.00
iteration 868 sol 123365.00
iteration 869 sol 123338.00
iteration 870 sol 124070.00
iteration 871 sol 123559.00
iteration 872 sol 124129.00
iteration 873 sol 123403.00
iteration 874 sol 123447.00
iteration 875 sol 123557.00
iteration 876 sol 124106.00
iteration 877 sol 123521.00
iteration 878 sol 124167.00
iteration 879 sol 123435.00
iteration 880 sol 123771.00
iteration 881 sol 123846.00
iteration 882 sol 123960.00
iteration 883 sol 123395.00
iteration 884 sol 122871.00
iteration 885 sol 123446.00
iteration 886 sol 123842.00
iteration 887 sol 124047.00
iteration 888 sol 123489.00
iteration 889 sol 123192.00
iteration 890 sol 123820.00
iteration 891 sol 123926.00
iteration 892 sol 123679.00
iteration 893 sol 123262.00
iteration 894 sol 124291.00
iteration 895 sol 123858.00
iteration 896 sol 123900.00
iteration 897 sol 124078.00
iteration 898 sol 123719.00
iteration 899 sol 124242.00
iteration 900 sol 124018.00
iteration 901 sol 124043.00
iteration 902 sol 123548.00
iteration 903 sol 123350.00
iteration 904 sol 124106.00
iteration 905 sol 123755.00
iteration 906 sol 123245.00
iteration 907 sol 123170.00
iteration 908 sol 123396.00
iteration 909 sol 123158.00
iteration 910 sol 123502.00
iteration 911 sol 123161.00
iteration 912 sol 123771.00
iteration 913 sol 123968.00
iteration 914 sol 123920.00
iteration 915 sol 124062.00
iteration 916 sol 122999.00
iteration 917 sol 123366.00
iteration 918 sol 123347.00
iteration 919 sol 123404.00
iteration 920 sol 123013.00
iteration 921 sol 123730.00
iteration 922 sol 124180.00
iteration 923 sol 122997.00
iteration 924 sol 123396.00
iteration 925 sol 124052.00
iteration 926 sol 123934.00
iteration 927 sol 123603.00
iteration 928 sol 123911.00
iteration 929 sol 124312.00
iteration 930 sol 123660.00
iteration 931 sol 123330.00
iteration 932 sol 123329.00
iteration 933 sol 123406.00
iteration 934 sol 123883.00
iteration 935 sol 123659.00
iteration 936 sol 123879.00
iteration 937 sol 123991.00
iteration 938 sol 124087.00
iteration 939 sol 123729.00
iteration 940 sol 123435.00
iteration 941 sol 123120.00
iteration 942 sol 123382.00
iteration 943 sol 124427.00
iteration 944 sol 123729.00
iteration 945 sol 123750.00
iteration 946 sol 123806.00
iteration 947 sol 123996.00
iteration 948 sol 124076.00
iteration 949 sol 123896.00
iteration 950 sol 123662.00
iteration 951 sol 123985.00
iteration 952 sol 123209.00
iteration 953 sol 122967.00
iteration 954 sol 123634.00
iteration 955 sol 123423.00
iteration 956 sol 123612.00
iteration 957 sol 123138.00
iteration 958 sol 123750.00
iteration 959 sol 123071.00
iteration 960 sol 124524.00
iteration 961 sol 123889.00
iteration 962 sol 123735.00
iteration 963 sol 123643.00
iteration 964 sol 123649.00
iteration 965 sol 123570.00
iteration 966 sol 123847.00
iteration 967 sol 123352.00
iteration 968 sol 124252.00
iteration 969 sol 124029.00
iteration 970 sol 122888.00
iteration 971 sol 123551.00
iteration 972 sol 123560.00
iteration 973 sol 123609.00
iteration 974 sol 122747.00
iteration 975 sol 123560.00
iteration 976 sol 122891.00
iteration 977 sol 123219.00
iteration 978 sol 124129.00
iteration 979 sol 123515.00
iteration 980 sol 123617.00
iteration 981 sol 124239.00
iteration 982 sol 124105.00
iteration 983 sol 124239.00
iteration 984 sol 124065.00
iteration 985 sol 124032.00
iteration 986 sol 123102.00
iteration 987 sol 123151.00
iteration 988 sol 124012.00
iteration 989 sol 123489.00
iteration 990 sol 123550.00
iteration 991 sol 124129.00
iteration 992 sol 123804.00
iteration 993 sol 122976.00
iteration 994 sol 123845.00
iteration 995 sol 123667.00
iteration 996 sol 124406.00
iteration 997 sol 123559.00
iteration 998 sol 124003.00
iteration 999 sol 124016.00
iteration 1000 sol 124418.00
iteration 1001 sol 124322.00
iteration 1002 sol 123680.00
iteration 1003 sol 124034.00
iteration 1004 sol 124461.00
iteration 1005 sol 123405.00
iteration 1006 sol 123605.00
iteration 1007 sol 124318.00
iteration 1008 sol 124004.00
iteration 1009 sol 123693.00
iteration 1010 sol 123808.00
iteration 1011 sol 123784.00
iteration 1012 sol 123466.00
iteration 1013 sol 123723.00
iteration 1014 sol 124007.00
iteration 1015 sol 124042.00
iteration 1016 sol 123879.00
iteration 1017 sol 123523.00
iteration 1018 sol 123706.00
iteration 1019 sol 123489.00
iteration 1020 sol 123329.00
iteration 1021 sol 123506.00
iteration 1022 sol 123426.00
iteration 1023 sol 124011.00
iteration 1024 sol 124204.00
iteration 1025 sol 123917.00
iteration 1026 sol 124120.00
iteration 1027 sol 124253.00
iteration 1028 sol 123644.00
iteration 1029 sol 124325.00
iteration 1030 sol 123197.00
iteration 1031 sol 123441.00
iteration 1032 sol 123708.00
iteration 1033 sol 123370.00
iteration 1034 sol 123822.00
iteration 1035 sol 123518.00
iteration 1036 sol 123700.00
iteration 1037 sol 124058.00
iteration 1038 sol 123353.00
iteration 1039 sol 123365.00
iteration 1040 sol 124205.00
iteration 1041 sol 123845.00
iteration 1042 sol 123909.00
iteration 1043 sol 123249.00
iteration 1044 sol 123540.00
iteration 1045 sol 123735.00
iteration 1046 sol 124274.00
iteration 1047 sol 124110.00
iteration 1048 sol 123681.00
iteration 1049 sol 123278.00
iteration 1050 sol 123336.00
iteration 1051 sol 123590.00
iteration 1052 sol 123885.00
iteration 1053 sol 123828.00
iteration 1054 sol 123990.00
iteration 1055 sol 122867.00
iteration 1056 sol 123604.00
iteration 1057 sol 123380.00
iteration 1058 sol 123170.00
iteration 1059 sol 124016.00
iteration 1060 sol 123510.00
iteration 1061 sol 123776.00
iteration 1062 sol 123811.00
iteration 1063 sol 123534.00
iteration 1064 sol 122914.00
iteration 1065 sol 124128.00
iteration 1066 sol 123486.00
iteration 1067 sol 124379.00
iteration 1068 sol 123489.00
iteration 1069 sol 123712.00
iteration 1070 sol 123590.00
iteration 1071 sol 123224.00
iteration 1072 sol 124085.00
iteration 1073 sol 123629.00
iteration 1074 sol 123838.00
iteration 1075 sol 123635.00
iteration 1076 sol 123511.00
iteration 1077 sol 123532.00
iteration 1078 sol 123468.00
iteration 1079 sol 123670.00
iteration 1080 sol 123715.00
iteration 1081 sol 123804.00
iteration 1082 sol 122522.00
iteration 1083 sol 123406.00
iteration 1084 sol 123231.00
iteration 1085 sol 123348.00
iteration 1086 sol 123753.00
iteration 1087 sol 123826.00
iteration 1088 sol 123056.00
iteration 1089 sol 123266.00
iteration 1090 sol 123905.00
iteration 1091 sol 124073.00
iteration 1092 sol 123703.00
iteration 1093 sol 124680.00
iteration 1094 sol 123706.00
iteration 1095 sol 123611.00
iteration 1096 sol 123161.00
iteration 1097 sol 123720.00
iteration 1098 sol 122715.00
iteration 1099 sol 123887.00
iteration 1100 sol 123961.00
iteration 1101 sol 124171.00
iteration 1102 sol 124034.00
iteration 1103 sol 124302.00
iteration 1104 sol 123962.00
iteration 1105 sol 124100.00
iteration 1106 sol 123829.00
iteration 1107 sol 123509.00
iteration 1108 sol 124257.00
iteration 1109 sol 123806.00
iteration 1110 sol 123910.00
iteration 1111 sol 123364.00
iteration 1112 sol 123423.00
iteration 1113 sol 123790.00
iteration 1114 sol 123785.00
iteration 1115 sol 123548.00
iteration 1116 sol 123251.00
iteration 1117 sol 123462.00
iteration 1118 sol 123085.00
iteration 1119 sol 123883.00
iteration 1120 sol 123497.00
iteration 1121 sol 123609.00
iteration 1122 sol 124005.00
iteration 1123 sol 123621.00
iteration 1124 sol 123178.00
iteration 1125 sol 123597.00
iteration 1126 sol 122827.00
iteration 1127 sol 123868.00
iteration 1128 sol 124237.00
iteration 1129 sol 123948.00
iteration 1130 sol 123575.00
iteration 1131 sol 123457.00
iteration 1132 sol 123374.00
iteration 1133 sol 123784.00
iteration 1134 sol 123511.00
iteration 1135 sol 123068.00
iteration 1136 sol 124308.00
iteration 1137 sol 123411.00
iteration 1138 sol 123865.00
iteration 1139 sol 124312.00
iteration 1140 sol 122955.00
iteration 1141 sol 122794.00
iteration 1142 sol 124306.00
iteration 1143 sol 124151.00
iteration 1144 sol 124207.00
iteration 1145 sol 123754.00
iteration 1146 sol 123692.00
iteration 1147 sol 122575.00
iteration 1148 sol 123542.00
iteration 1149 sol 123101.00
iteration 1150 sol 123478.00
iteration 1151 sol 123481.00
iteration 1152 sol 123556.00
iteration 1153 sol 123981.00
iteration 1154 sol 123656.00
iteration 1155 sol 123845.00
iteration 1156 sol 123651.00
iteration 1157 sol 124175.00
iteration 1158 sol 123992.00
iteration 1159 sol 123405.00
iteration 1160 sol 123928.00
iteration 1161 sol 124081.00
iteration 1162 sol 122607.00
iteration 1163 sol 123659.00
iteration 1164 sol 123651.00
iteration 1165 sol 123232.00
iteration 1166 sol 123849.00
iteration 1167 sol 124114.00
iteration 1168 sol 123480.00
iteration 1169 sol 123447.00
iteration 1170 sol 123398.00
iteration 1171 sol 123910.00
iteration 1172 sol 123371.00
iteration 1173 sol 123635.00
iteration 1174 sol 124430.00
iteration 1175 sol 123661.00
iteration 1176 sol 123692.00
iteration 1177 sol 123681.00
iteration 1178 sol 123964.00
iteration 1179 sol 123342.00
iteration 1180 sol 123673.00
iteration 1181 sol 123836.00
iteration 1182 sol 123995.00
iteration 1183 sol 123481.00
iteration 1184 sol 123162.00
iteration 1185 sol 123399.00
iteration 1186 sol 123874.00
iteration 1187 sol 124184.00
iteration 1188 sol 123732.00
iteration 1189 sol 123596.00
iteration 1190 sol 123891.00
iteration 1191 sol 123050.00
iteration 1192 sol 123991.00
iteration 1193 sol 123342.00
iteration 1194 sol 124041.00
iteration 1195 sol 123942.00
iteration 1196 sol 124280.00
iteration 1197 sol 124158.00
iteration 1198 sol 123867.00
iteration 1199 sol 123577.00
iteration 1200 sol 123702.00
iteration 1201 sol 123283.00
iteration 1202 sol 123656.00
iteration 1203 sol 124552.00
iteration 1204 sol 123739.00
iteration 1205 sol 123156.00
iteration 1206 sol 123521.00
iteration 1207 sol 123387.00
iteration 1208 sol 123627.00
iteration 1209 sol 124094.00
iteration 1210 sol 123801.00
iteration 1211 sol 123996.00
iteration 1212 sol 123790.00
iteration 1213 sol 124190.00
iteration 1214 sol 123897.00
iteration 1215 sol 123738.00
iteration 1216 sol 124397.00
iteration 1217 sol 123839.00
iteration 1218 sol 123966.00
iteration 1219 sol 123020.00
iteration 1220 sol 124474.00
iteration 1221 sol 124045.00
iteration 1222 sol 123731.00
iteration 1223 sol 123655.00
iteration 1224 sol 123704.00
iteration 1225 sol 123648.00
iteration 1226 sol 123723.00
iteration 1227 sol 124091.00
iteration 1228 sol 123356.00
iteration 1229 sol 123034.00
iteration 1230 sol 123571.00
iteration 1231 sol 123905.00
iteration 1232 sol 123636.00
iteration 1233 sol 123235.00
iteration 1234 sol 123563.00
iteration 1235 sol 124378.00
iteration 1236 sol 123309.00
iteration 1237 sol 123853.00
iteration 1238 sol 123399.00
iteration 1239 sol 123660.00
iteration 1240 sol 123767.00
iteration 1241 sol 123437.00
iteration 1242 sol 124022.00
iteration 1243 sol 123947.00
iteration 1244 sol 124206.00
iteration 1245 sol 123636.00
iteration 1246 sol 123675.00
iteration 1247 sol 123440.00
iteration 1248 sol 123559.00
iteration 1249 sol 123575.00
iteration 1250 sol 123797.00
iteration 1251 sol 124335.00
iteration 1252 sol 124016.00
iteration 1253 sol 124081.00
iteration 1254 sol 123705.00
iteration 1255 sol 123900.00
iteration 1256 sol 123732.00
iteration 1257 sol 123457.00
iteration 1258 sol 122917.00
iteration 1259 sol 123915.00
iteration 1260 sol 123924.00
iteration 1261 sol 123634.00
iteration 1262 sol 124104.00
iteration 1263 sol 124038.00
iteration 1264 sol 123335.00
iteration 1265 sol 123889.00
iteration 1266 sol 123179.00
iteration 1267 sol 124278.00
iteration 1268 sol 123884.00
iteration 1269 sol 123769.00
iteration 1270 sol 124174.00
iteration 1271 sol 123501.00
iteration 1272 sol 123433.00
iteration 1273 sol 124192.00
iteration 1274 sol 123214.00
iteration 1275 sol 124211.00
iteration 1276 sol 123900.00
iteration 1277 sol 123983.00
iteration 1278 sol 122899.00
iteration 1279 sol 123754.00
iteration 1280 sol 124218.00
iteration 1281 sol 122917.00
iteration 1282 sol 123172.00
iteration 1283 sol 123708.00
iteration 1284 sol 123691.00
iteration 1285 sol 123681.00
iteration 1286 sol 123731.00
iteration 1287 sol 123692.00
iteration 1288 sol 124160.00
iteration 1289 sol 123428.00
iteration 1290 sol 123989.00
iteration 1291 sol 123560.00
iteration 1292 sol 123441.00
iteration 1293 sol 123863.00
iteration 1294 sol 124191.00
iteration 1295 sol 123391.00
iteration 1296 sol 123027.00
iteration 1297 sol 123093.00
iteration 1298 sol 123459.00
iteration 1299 sol 124172.00
iteration 1300 sol 123772.00
iteration 1301 sol 123664.00
iteration 1302 sol 124354.00
iteration 1303 sol 123664.00
iteration 1304 sol 123076.00
iteration 1305 sol 123936.00
iteration 1306 sol 123443.00
iteration 1307 sol 124062.00
iteration 1308 sol 124139.00
iteration 1309 sol 123453.00
iteration 1310 sol 123605.00
iteration 1311 sol 123823.00
iteration 1312 sol 124017.00
iteration 1313 sol 122933.00
iteration 1314 sol 124219.00
iteration 1315 sol 123884.00
iteration 1316 sol 123555.00
iteration 1317 sol 123294.00
iteration 1318 sol 123811.00
iteration 1319 sol 122850.00
iteration 1320 sol 123395.00
iteration 1321 sol 123688.00
iteration 1322 sol 123928.00
iteration 1323 sol 124121.00
iteration 1324 sol 123926.00
iteration 1325 sol 123899.00
iteration 1326 sol 123723.00
iteration 1327 sol 124436.00
iteration 1328 sol 123402.00
iteration 1329 sol 123950.00
iteration 1330 sol 123643.00
iteration 1331 sol 123868.00
iteration 1332 sol 123005.00
iteration 1333 sol 123747.00
iteration 1334 sol 123294.00
iteration 1335 sol 123937.00
iteration 1336 sol 123127.00
iteration 1337 sol 124110.00
iteration 1338 sol 123419.00
iteration 1339 sol 123647.00
iteration 1340 sol 123885.00
iteration 1341 sol 123349.00
iteration 1342 sol 123491.00
iteration 1343 sol 123463.00
iteration 1344 sol 123199.00
iteration 1345 sol 124307.00
iteration 1346 sol 123372.00
iteration 1347 sol 123964.00
iteration 1348 sol 123306.00
iteration 1349 sol 122614.00
iteration 1350 sol 123460.00
iteration 1351 sol 123334.00
iteration 1352 sol 124024.00
iteration 1353 sol 123510.00
iteration 1354 sol 124172.00
iteration 1355 sol 124043.00
iteration 1356 sol 123924.00
iteration 1357 sol 123245.00
iteration 1358 sol 124344.00
iteration 1359 sol 123852.00
iteration 1360 sol 123724.00
iteration 1361 sol 123967.00
iteration 1362 sol 124043.00
iteration 1363 sol 123770.00
iteration 1364 sol 123100.00
iteration 1365 sol 123395.00
iteration 1366 sol 124286.00
iteration 1367 sol 123986.00
iteration 1368 sol 123172.00
iteration 1369 sol 123430.00
iteration 1370 sol 123985.00
iteration 1371 sol 123754.00
iteration 1372 sol 123309.00
iteration 1373 sol 123365.00
iteration 1374 sol 123389.00
iteration 1375 sol 123528.00
iteration 1376 sol 123830.00
iteration 1377 sol 123661.00
iteration 1378 sol 124182.00
iteration 1379 sol 124165.00
iteration 1380 sol 123447.00
iteration 1381 sol 123900.00
iteration 1382 sol 123686.00
iteration 1383 sol 123802.00
iteration 1384 sol 123401.00
iteration 1385 sol 123907.00
iteration 1386 sol 123088.00
iteration 1387 sol 123268.00
iteration 1388 sol 123219.00
iteration 1389 sol 123938.00
iteration 1390 sol 123692.00
iteration 1391 sol 122700.00
iteration 1392 sol 123482.00
iteration 1393 sol 123637.00
iteration 1394 sol 123875.00
iteration 1395 sol 123280.00
iteration 1396 sol 123871.00
iteration 1397 sol 123452.00
iteration 1398 sol 123570.00
iteration 1399 sol 123918.00
iteration 1400 sol 123110.00
iteration 1401 sol 124365.00
iteration 1402 sol 123523.00
iteration 1403 sol 123533.00
iteration 1404 sol 124205.00
iteration 1405 sol 123730.00
iteration 1406 sol 123277.00
iteration 1407 sol 123846.00
iteration 1408 sol 124134.00
iteration 1409 sol 123649.00
iteration 1410 sol 123837.00
iteration 1411 sol 124115.00
iteration 1412 sol 123289.00
iteration 1413 sol 123406.00
iteration 1414 sol 123346.00
iteration 1415 sol 124215.00
iteration 1416 sol 123462.00
iteration 1417 sol 123389.00
iteration 1418 sol 123591.00
iteration 1419 sol 124350.00
iteration 1420 sol 124285.00
iteration 1421 sol 123637.00
iteration 1422 sol 124182.00
iteration 1423 sol 122866.00
iteration 1424 sol 123678.00
iteration 1425 sol 123917.00
iteration 1426 sol 123586.00
iteration 1427 sol 123458.00
iteration 1428 sol 124212.00
iteration 1429 sol 123563.00
iteration 1430 sol 123346.00
iteration 1431 sol 123621.00
iteration 1432 sol 124011.00
iteration 1433 sol 123741.00
iteration 1434 sol 123518.00
iteration 1435 sol 123864.00
iteration 1436 sol 124187.00
iteration 1437 sol 123760.00
iteration 1438 sol 123909.00
iteration 1439 sol 123340.00
iteration 1440 sol 124020.00
iteration 1441 sol 122907.00
iteration 1442 sol 124134.00
iteration 1443 sol 123789.00
iteration 1444 sol 123808.00
iteration 1445 sol 123545.00
iteration 1446 sol 123895.00
iteration 1447 sol 123733.00
iteration 1448 sol 123945.00
iteration 1449 sol 123593.00
iteration 1450 sol 123848.00
iteration 1451 sol 123872.00
iteration 1452 sol 124440.00
iteration 1453 sol 123324.00
iteration 1454 sol 124152.00
iteration 1455 sol 124530.00
iteration 1456 sol 124019.00
iteration 1457 sol 123319.00
iteration 1458 sol 123941.00
iteration 1459 sol 124184.00
iteration 1460 sol 123055.00
iteration 1461 sol 123966.00
iteration 1462 sol 123926.00
iteration 1463 sol 123313.00
iteration 1464 sol 123807.00
iteration 1465 sol 123320.00
iteration 1466 sol 123253.00
iteration 1467 sol 123923.00
iteration 1468 sol 123242.00
iteration 1469 sol 123842.00
iteration 1470 sol 123639.00
iteration 1471 sol 123212.00
iteration 1472 sol 123920.00
iteration 1473 sol 123338.00
iteration 1474 sol 123956.00
iteration 1475 sol 122978.00
iteration 1476 sol 124010.00
iteration 1477 sol 124010.00
iteration 1478 sol 123712.00
iteration 1479 sol 123022.00
iteration 1480 sol 123967.00
iteration 1481 sol 124041.00
iteration 1482 sol 124031.00
iteration 1483 sol 123786.00
iteration 1484 sol 123359.00
iteration 1485 sol 123449.00
iteration 1486 sol 123621.00
iteration 1487 sol 123672.00
iteration 1488 sol 124003.00
iteration 1489 sol 123109.00
iteration 1490 sol 124258.00
iteration 1491 sol 124267.00
iteration 1492 sol 124270.00
iteration 1493 sol 124369.00
iteration 1494 sol 123907.00
iteration 1495 sol 123457.00
iteration 1496 sol 123577.00
iteration 1497 sol 123477.00
iteration 1498 sol 123280.00
iteration 1499 sol 123848.00
iteration 1500 sol 124182.00
iteration 1501 sol 123704.00
iteration 1502 sol 123432.00
iteration 1503 sol 123669.00
iteration 1504 sol 124039.00
iteration 1505 sol 123890.00
iteration 1506 sol 123783.00
iteration 1507 sol 123377.00
iteration 1508 sol 124025.00
iteration 1509 sol 122909.00
iteration 1510 sol 124002.00
iteration 1511 sol 123818.00
iteration 1512 sol 123581.00
iteration 1513 sol 124040.00
iteration 1514 sol 124528.00
iteration 1515 sol 124026.00
iteration 1516 sol 123247.00
iteration 1517 sol 124074.00
iteration 1518 sol 123854.00
iteration 1519 sol 124377.00
iteration 1520 sol 124065.00
iteration 1521 sol 123486.00
iteration 1522 sol 123797.00
iteration 1523 sol 122847.00
iteration 1524 sol 123468.00
iteration 1525 sol 123783.00
iteration 1526 sol 124021.00
iteration 1527 sol 123875.00
iteration 1528 sol 123939.00
iteration 1529 sol 122856.00
iteration 1530 sol 124114.00
iteration 1531 sol 123816.00
iteration 1532 sol 124033.00
iteration 1533 sol 123631.00
iteration 1534 sol 123140.00
iteration 1535 sol 124030.00
iteration 1536 sol 123333.00
iteration 1537 sol 123768.00
iteration 1538 sol 123630.00
iteration 1539 sol 123703.00
iteration 1540 sol 123730.00
iteration 1541 sol 123513.00
iteration 1542 sol 124068.00
iteration 1543 sol 123901.00
iteration 1544 sol 123750.00
iteration 1545 sol 124317.00
iteration 1546 sol 123580.00
iteration 1547 sol 123228.00
iteration 1548 sol 123748.00
iteration 1549 sol 123136.00
iteration 1550 sol 124023.00
iteration 1551 sol 123961.00
iteration 1552 sol 124068.00
iteration 1553 sol 124083.00
iteration 1554 sol 123678.00
iteration 1555 sol 123897.00
iteration 1556 sol 124163.00
iteration 1557 sol 123984.00
iteration 1558 sol 122945.00
iteration 1559 sol 123373.00
iteration 1560 sol 124113.00
iteration 1561 sol 123703.00
iteration 1562 sol 124464.00
iteration 1563 sol 124315.00
iteration 1564 sol 123267.00
iteration 1565 sol 124233.00
iteration 1566 sol 123921.00
iteration 1567 sol 124211.00
iteration 1568 sol 124083.00
iteration 1569 sol 124014.00
iteration 1570 sol 124398.00
iteration 1571 sol 123706.00
iteration 1572 sol 123443.00
iteration 1573 sol 123221.00
iteration 1574 sol 123596.00
iteration 1575 sol 123586.00
iteration 1576 sol 123483.00
iteration 1577 sol 123722.00
iteration 1578 sol 124154.00
iteration 1579 sol 123663.00
iteration 1580 sol 123605.00
iteration 1581 sol 123213.00
iteration 1582 sol 123364.00
iteration 1583 sol 123102.00
iteration 1584 sol 122960.00
iteration 1585 sol 124129.00
iteration 1586 sol 123966.00
iteration 1587 sol 123154.00
iteration 1588 sol 122988.00
iteration 1589 sol 122763.00
iteration 1590 sol 123603.00
iteration 1591 sol 123977.00
iteration 1592 sol 123712.00
iteration 1593 sol 123795.00
iteration 1594 sol 123275.00
iteration 1595 sol 122672.00
iteration 1596 sol 123910.00
iteration 1597 sol 124447.00
iteration 1598 sol 124295.00
iteration 1599 sol 124208.00
iteration 1600 sol 123818.00
iteration 1601 sol 123026.00
iteration 1602 sol 123695.00
iteration 1603 sol 123044.00
iteration 1604 sol 124183.00
iteration 1605 sol 124321.00
iteration 1606 sol 124090.00
iteration 1607 sol 123981.00
iteration 1608 sol 123896.00
iteration 1609 sol 123893.00
iteration 1610 sol 123658.00
iteration 1611 sol 123290.00
iteration 1612 sol 123809.00
iteration 1613 sol 122932.00
iteration 1614 sol 122398.00
iteration 1615 sol 123669.00
iteration 1616 sol 123854.00
iteration 1617 sol 123327.00
iteration 1618 sol 122613.00
iteration 1619 sol 123819.00
iteration 1620 sol 123917.00
iteration 1621 sol 123947.00
iteration 1622 sol 123889.00
iteration 1623 sol 124421.00
iteration 1624 sol 124308.00
iteration 1625 sol 123564.00
iteration 1626 sol 123536.00
iteration 1627 sol 124022.00
iteration 1628 sol 123515.00
iteration 1629 sol 123748.00
iteration 1630 sol 123115.00
iteration 1631 sol 124141.00
iteration 1632 sol 123108.00
iteration 1633 sol 124055.00
iteration 1634 sol 123903.00
iteration 1635 sol 123383.00
iteration 1636 sol 123593.00
iteration 1637 sol 123462.00
iteration 1638 sol 123438.00
iteration 1639 sol 123519.00
iteration 1640 sol 123905.00
iteration 1641 sol 123501.00
iteration 1642 sol 123894.00
iteration 1643 sol 123840.00
iteration 1644 sol 123101.00
iteration 1645 sol 123534.00
iteration 1646 sol 124403.00
iteration 1647 sol 124091.00
iteration 1648 sol 123239.00
iteration 1649 sol 123721.00
iteration 1650 sol 124029.00
iteration 1651 sol 123746.00
iteration 1652 sol 123834.00
iteration 1653 sol 123849.00
iteration 1654 sol 123990.00
iteration 1655 sol 123418.00
iteration 1656 sol 123449.00
iteration 1657 sol 123856.00
iteration 1658 sol 123934.00
iteration 1659 sol 122834.00
iteration 1660 sol 123189.00
iteration 1661 sol 123044.00
iteration 1662 sol 123517.00
iteration 1663 sol 124448.00
iteration 1664 sol 124397.00
iteration 1665 sol 124520.00
iteration 1666 sol 123984.00
iteration 1667 sol 123670.00
iteration 1668 sol 123310.00
iteration 1669 sol 123168.00
iteration 1670 sol 123427.00
iteration 1671 sol 123892.00
iteration 1672 sol 123342.00
iteration 1673 sol 123246.00
iteration 1674 sol 123931.00
iteration 1675 sol 123526.00
iteration 1676 sol 123272.00
iteration 1677 sol 124006.00
iteration 1678 sol 123929.00
iteration 1679 sol 123993.00
iteration 1680 sol 124037.00
iteration 1681 sol 123548.00
iteration 1682 sol 123815.00
iteration 1683 sol 124012.00
iteration 1684 sol 123858.00
iteration 1685 sol 123647.00
iteration 1686 sol 123991.00
iteration 1687 sol 123603.00
iteration 1688 sol 124284.00
iteration 1689 sol 123444.00
iteration 1690 sol 123783.00
iteration 1691 sol 123834.00
iteration 1692 sol 123633.00
iteration 1693 sol 123873.00
iteration 1694 sol 123472.00
iteration 1695 sol 123051.00
iteration 1696 sol 123749.00
iteration 1697 sol 123309.00
iteration 1698 sol 123856.00
iteration 1699 sol 123576.00
iteration 1700 sol 123906.00
iteration 1701 sol 123898.00
iteration 1702 sol 123885.00
iteration 1703 sol 124072.00
iteration 1704 sol 123348.00
iteration 1705 sol 123568.00
iteration 1706 sol 123035.00
iteration 1707 sol 124300.00
iteration 1708 sol 123911.00
iteration 1709 sol 123767.00
iteration 1710 sol 124130.00
iteration 1711 sol 124182.00
iteration 1712 sol 124204.00
iteration 1713 sol 123813.00
iteration 1714 sol 124142.00
iteration 1715 sol 124568.00
iteration 1716 sol 124210.00
iteration 1717 sol 123975.00
iteration 1718 sol 123981.00
iteration 1719 sol 124079.00
iteration 1720 sol 123153.00
iteration 1721 sol 123623.00
iteration 1722 sol 123819.00
iteration 1723 sol 124091.00
iteration 1724 sol 123980.00
iteration 1725 sol 124444.00
iteration 1726 sol 124203.00
iteration 1727 sol 124100.00
iteration 1728 sol 122858.00
iteration 1729 sol 123165.00
iteration 1730 sol 123588.00
iteration 1731 sol 123834.00
iteration 1732 sol 123475.00
iteration 1733 sol 123708.00
iteration 1734 sol 123568.00
iteration 1735 sol 123950.00
iteration 1736 sol 123849.00
iteration 1737 sol 123703.00
iteration 1738 sol 123403.00
iteration 1739 sol 123657.00
iteration 1740 sol 123741.00
iteration 1741 sol 123930.00
iteration 1742 sol 123958.00
iteration 1743 sol 123507.00
iteration 1744 sol 123636.00
iteration 1745 sol 122928.00
iteration 1746 sol 124163.00
iteration 1747 sol 123382.00
iteration 1748 sol 123769.00
iteration 1749 sol 123261.00
iteration 1750 sol 124261.00
iteration 1751 sol 123558.00
iteration 1752 sol 124471.00
iteration 1753 sol 123437.00
iteration 1754 sol 123789.00
iteration 1755 sol 123245.00
iteration 1756 sol 124158.00
iteration 1757 sol 123736.00
iteration 1758 sol 123327.00
iteration 1759 sol 123252.00
iteration 1760 sol 123506.00
iteration 1761 sol 123846.00
iteration 1762 sol 123581.00
iteration 1763 sol 123901.00
iteration 1764 sol 123710.00
iteration 1765 sol 123566.00
iteration 1766 sol 123885.00
iteration 1767 sol 123396.00
iteration 1768 sol 123443.00
iteration 1769 sol 124173.00
iteration 1770 sol 123582.00
iteration 1771 sol 123864.00
iteration 1772 sol 123707.00
iteration 1773 sol 123392.00
iteration 1774 sol 123658.00
iteration 1775 sol 123658.00
iteration 1776 sol 123872.00
iteration 1777 sol 123426.00
iteration 1778 sol 123013.00
iteration 1779 sol 123287.00
iteration 1780 sol 123749.00
iteration 1781 sol 123918.00
iteration 1782 sol 123507.00
iteration 1783 sol 123746.00
iteration 1784 sol 123263.00
iteration 1785 sol 123963.00
iteration 1786 sol 123290.00
iteration 1787 sol 123957.00
iteration 1788 sol 123840.00
iteration 1789 sol 124030.00
iteration 1790 sol 123269.00
iteration 1791 sol 124200.00
iteration 1792 sol 123668.00
iteration 1793 sol 123714.00
iteration 1794 sol 123799.00
iteration 1795 sol 123241.00
iteration 1796 sol 124229.00
iteration 1797 sol 123976.00
iteration 1798 sol 123526.00
iteration 1799 sol 123718.00
iteration 1800 sol 124112.00
iteration 1801 sol 124051.00
iteration 1802 sol 124164.00
iteration 1803 sol 123616.00
iteration 1804 sol 122819.00
iteration 1805 sol 124137.00
iteration 1806 sol 123994.00
iteration 1807 sol 123359.00
iteration 1808 sol 123605.00
iteration 1809 sol 123825.00
iteration 1810 sol 123331.00
iteration 1811 sol 123940.00
iteration 1812 sol 123339.00
iteration 1813 sol 123204.00
iteration 1814 sol 124099.00
iteration 1815 sol 122802.00
iteration 1816 sol 123536.00
iteration 1817 sol 123298.00
iteration 1818 sol 123351.00
iteration 1819 sol 123534.00
iteration 1820 sol 123624.00
iteration 1821 sol 124003.00
iteration 1822 sol 124137.00
iteration 1823 sol 123968.00
iteration 1824 sol 123937.00
iteration 1825 sol 123865.00
iteration 1826 sol 124090.00
iteration 1827 sol 123843.00
iteration 1828 sol 123573.00
iteration 1829 sol 123893.00
iteration 1830 sol 123736.00
iteration 1831 sol 123713.00
iteration 1832 sol 122648.00
iteration 1833 sol 123742.00
iteration 1834 sol 124150.00
iteration 1835 sol 123261.00
iteration 1836 sol 123337.00
iteration 1837 sol 123607.00
iteration 1838 sol 124011.00
iteration 1839 sol 123528.00
iteration 1840 sol 123807.00
iteration 1841 sol 123464.00
iteration 1842 sol 123826.00
iteration 1843 sol 123639.00
iteration 1844 sol 123915.00
iteration 1845 sol 124081.00
iteration 1846 sol 123532.00
iteration 1847 sol 123273.00
iteration 1848 sol 124251.00
iteration 1849 sol 123773.00
iteration 1850 sol 123598.00
iteration 1851 sol 123955.00
iteration 1852 sol 124026.00
iteration 1853 sol 124110.00
iteration 1854 sol 123742.00
iteration 1855 sol 123625.00
iteration 1856 sol 124147.00
iteration 1857 sol 123669.00
iteration 1858 sol 124137.00
iteration 1859 sol 123557.00
iteration 1860 sol 123287.00
iteration 1861 sol 123736.00
iteration 1862 sol 124036.00
iteration 1863 sol 123836.00
iteration 1864 sol 123636.00
iteration 1865 sol 123922.00
iteration 1866 sol 123723.00
iteration 1867 sol 123919.00
iteration 1868 sol 123784.00
iteration 1869 sol 123629.00
iteration 1870 sol 123676.00
iteration 1871 sol 123300.00
iteration 1872 sol 124093.00
iteration 1873 sol 123815.00
iteration 1874 sol 124349.00
iteration 1875 sol 123911.00
iteration 1876 sol 123938.00
iteration 1877 sol 123974.00
iteration 1878 sol 123482.00
iteration 1879 sol 123357.00
iteration 1880 sol 124021.00
iteration 1881 sol 123907.00
iteration 1882 sol 123694.00
iteration 1883 sol 123064.00
iteration 1884 sol 123254.00
iteration 1885 sol 123584.00
iteration 1886 sol 123644.00
Calls to change | Calls removed by BIT 
530977467 | 221206680
Calls to add | Calls removed by BIT 
46196198 | 14262907
Number of iterations = 1887
Best Solution was found in iteration = 661
Time used by neighbor | Times each neighbor was used | Improvements
N_1 = 36.18 | 18697 | 18314
N_2 = 342.59 | 18697 | 18366
N_3 = 0.58 | 18697 | 8276
N_4 = 1.96 | 18697 | 3642
N_5 = 183.30 | 18697 | 41
Time to find the best solution = 215.08
Solution = 124714.00
Time = 600.04
