iteration 0 sol 37822.00
iteration 1 sol 35450.00
iteration 2 sol 39827.00
iteration 3 sol 38341.00
iteration 4 sol 37718.00
iteration 5 sol 39487.00
iteration 6 sol 41310.00
iteration 7 sol 38686.00
iteration 8 sol 41988.00
iteration 9 sol 41349.00
iteration 10 sol 39838.00
iteration 11 sol 35563.00
iteration 12 sol 37553.00
iteration 13 sol 35444.00
iteration 14 sol 39299.00
iteration 15 sol 41154.00
iteration 16 sol 37014.00
iteration 17 sol 38488.00
iteration 18 sol 38485.00
iteration 19 sol 35159.00
iteration 20 sol 38921.00
iteration 21 sol 40287.00
iteration 22 sol 36975.00
iteration 23 sol 43204.00
iteration 24 sol 40097.00
iteration 25 sol 41300.00
iteration 26 sol 35998.00
iteration 27 sol 38072.00
iteration 28 sol 39369.00
iteration 29 sol 40130.00
iteration 30 sol 39524.00
iteration 31 sol 38353.00
iteration 32 sol 40391.00
iteration 33 sol 38087.00
iteration 34 sol 35697.00
iteration 35 sol 39795.00
iteration 36 sol 35735.00
iteration 37 sol 38501.00
iteration 38 sol 36802.00
iteration 39 sol 38595.00
iteration 40 sol 37460.00
iteration 41 sol 40360.00
iteration 42 sol 38921.00
iteration 43 sol 37606.00
iteration 44 sol 38201.00
iteration 45 sol 38021.00
iteration 46 sol 35252.00
iteration 47 sol 40957.00
iteration 48 sol 37672.00
iteration 49 sol 42057.00
iteration 50 sol 38060.00
iteration 51 sol 38980.00
iteration 52 sol 37542.00
iteration 53 sol 38331.00
iteration 54 sol 39517.00
iteration 55 sol 41733.00
iteration 56 sol 39687.00
iteration 57 sol 39319.00
iteration 58 sol 40097.00
iteration 59 sol 36613.00
iteration 60 sol 37166.00
iteration 61 sol 40818.00
iteration 62 sol 39867.00
iteration 63 sol 42112.00
iteration 64 sol 37874.00
iteration 65 sol 35090.00
iteration 66 sol 38742.00
iteration 67 sol 38871.00
iteration 68 sol 42844.00
iteration 69 sol 39304.00
iteration 70 sol 36125.00
iteration 71 sol 42440.00
iteration 72 sol 38711.00
iteration 73 sol 38690.00
iteration 74 sol 39597.00
iteration 75 sol 39128.00
iteration 76 sol 41057.00
iteration 77 sol 39340.00
iteration 78 sol 41050.00
iteration 79 sol 39952.00
iteration 80 sol 40405.00
iteration 81 sol 41096.00
iteration 82 sol 38333.00
iteration 83 sol 43385.00
iteration 84 sol 37804.00
iteration 85 sol 40068.00
iteration 86 sol 40448.00
iteration 87 sol 36593.00
iteration 88 sol 39796.00
iteration 89 sol 37465.00
iteration 90 sol 38785.00
iteration 91 sol 37198.00
iteration 92 sol 37608.00
iteration 93 sol 39030.00
iteration 94 sol 41168.00
iteration 95 sol 35855.00
iteration 96 sol 36164.00
iteration 97 sol 36853.00
iteration 98 sol 38588.00
iteration 99 sol 37954.00
iteration 100 sol 35292.00
iteration 101 sol 38295.00
iteration 102 sol 39286.00
iteration 103 sol 42103.00
iteration 104 sol 38832.00
iteration 105 sol 37918.00
iteration 106 sol 32701.00
iteration 107 sol 38124.00
iteration 108 sol 41219.00
iteration 109 sol 39024.00
iteration 110 sol 39671.00
iteration 111 sol 39490.00
iteration 112 sol 39107.00
iteration 113 sol 38491.00
iteration 114 sol 37268.00
iteration 115 sol 40496.00
iteration 116 sol 36527.00
iteration 117 sol 41055.00
iteration 118 sol 42249.00
iteration 119 sol 37347.00
iteration 120 sol 39483.00
iteration 121 sol 37816.00
iteration 122 sol 38862.00
iteration 123 sol 39942.00
iteration 124 sol 40432.00
iteration 125 sol 40328.00
iteration 126 sol 38667.00
iteration 127 sol 40455.00
iteration 128 sol 40598.00
iteration 129 sol 39291.00
iteration 130 sol 38175.00
iteration 131 sol 39686.00
iteration 132 sol 38375.00
iteration 133 sol 39802.00
iteration 134 sol 35043.00
iteration 135 sol 37085.00
iteration 136 sol 36180.00
iteration 137 sol 39853.00
iteration 138 sol 37175.00
iteration 139 sol 38353.00
iteration 140 sol 42408.00
iteration 141 sol 38115.00
iteration 142 sol 40120.00
iteration 143 sol 40216.00
iteration 144 sol 41203.00
iteration 145 sol 37780.00
iteration 146 sol 38821.00
iteration 147 sol 39317.00
iteration 148 sol 39053.00
iteration 149 sol 40452.00
iteration 150 sol 37787.00
iteration 151 sol 40791.00
iteration 152 sol 39220.00
iteration 153 sol 35197.00
iteration 154 sol 37641.00
iteration 155 sol 36929.00
iteration 156 sol 36555.00
iteration 157 sol 40226.00
iteration 158 sol 36991.00
iteration 159 sol 40475.00
iteration 160 sol 40166.00
iteration 161 sol 41533.00
iteration 162 sol 38321.00
iteration 163 sol 38522.00
iteration 164 sol 39041.00
iteration 165 sol 39868.00
iteration 166 sol 38697.00
iteration 167 sol 40413.00
iteration 168 sol 40978.00
iteration 169 sol 41016.00
iteration 170 sol 41642.00
iteration 171 sol 36557.00
iteration 172 sol 39104.00
iteration 173 sol 39366.00
iteration 174 sol 37040.00
iteration 175 sol 41521.00
iteration 176 sol 39480.00
iteration 177 sol 40938.00
iteration 178 sol 42532.00
iteration 179 sol 39237.00
iteration 180 sol 42652.00
iteration 181 sol 42676.00
iteration 182 sol 37105.00
iteration 183 sol 36520.00
iteration 184 sol 39505.00
iteration 185 sol 38915.00
iteration 186 sol 39735.00
iteration 187 sol 39685.00
iteration 188 sol 38466.00
iteration 189 sol 40090.00
iteration 190 sol 35964.00
iteration 191 sol 40037.00
iteration 192 sol 40347.00
iteration 193 sol 39604.00
iteration 194 sol 38296.00
iteration 195 sol 40526.00
iteration 196 sol 37475.00
iteration 197 sol 38190.00
iteration 198 sol 36480.00
iteration 199 sol 38473.00
iteration 200 sol 36761.00
iteration 201 sol 36125.00
iteration 202 sol 37975.00
iteration 203 sol 37290.00
iteration 204 sol 40938.00
iteration 205 sol 40753.00
iteration 206 sol 41241.00
iteration 207 sol 37327.00
iteration 208 sol 38368.00
iteration 209 sol 37196.00
iteration 210 sol 37132.00
iteration 211 sol 37345.00
iteration 212 sol 39716.00
iteration 213 sol 40178.00
iteration 214 sol 38406.00
iteration 215 sol 40971.00
iteration 216 sol 38736.00
iteration 217 sol 38410.00
iteration 218 sol 37050.00
iteration 219 sol 38382.00
iteration 220 sol 35842.00
iteration 221 sol 38284.00
iteration 222 sol 35765.00
iteration 223 sol 36441.00
iteration 224 sol 37620.00
iteration 225 sol 37889.00
iteration 226 sol 38543.00
iteration 227 sol 37155.00
iteration 228 sol 39061.00
iteration 229 sol 40361.00
iteration 230 sol 39848.00
iteration 231 sol 36845.00
iteration 232 sol 36265.00
iteration 233 sol 39914.00
iteration 234 sol 37175.00
iteration 235 sol 41319.00
iteration 236 sol 36999.00
iteration 237 sol 38132.00
iteration 238 sol 39065.00
iteration 239 sol 38976.00
iteration 240 sol 37831.00
iteration 241 sol 38719.00
iteration 242 sol 39284.00
iteration 243 sol 39918.00
iteration 244 sol 37108.00
iteration 245 sol 40091.00
iteration 246 sol 36915.00
iteration 247 sol 38237.00
iteration 248 sol 40007.00
iteration 249 sol 38456.00
iteration 250 sol 41183.00
iteration 251 sol 36255.00
iteration 252 sol 41686.00
iteration 253 sol 39098.00
iteration 254 sol 40718.00
iteration 255 sol 39333.00
iteration 256 sol 37097.00
iteration 257 sol 38234.00
iteration 258 sol 41147.00
iteration 259 sol 37032.00
iteration 260 sol 37196.00
iteration 261 sol 39970.00
iteration 262 sol 38834.00
iteration 263 sol 39426.00
iteration 264 sol 38983.00
iteration 265 sol 38040.00
iteration 266 sol 41605.00
iteration 267 sol 38162.00
iteration 268 sol 40313.00
iteration 269 sol 38296.00
iteration 270 sol 39592.00
iteration 271 sol 39264.00
iteration 272 sol 37801.00
iteration 273 sol 40364.00
iteration 274 sol 39244.00
iteration 275 sol 36487.00
iteration 276 sol 41291.00
iteration 277 sol 38629.00
iteration 278 sol 37948.00
iteration 279 sol 35581.00
iteration 280 sol 37252.00
iteration 281 sol 38136.00
iteration 282 sol 41910.00
iteration 283 sol 36929.00
iteration 284 sol 38680.00
iteration 285 sol 38295.00
iteration 286 sol 36740.00
iteration 287 sol 38248.00
iteration 288 sol 41905.00
iteration 289 sol 37802.00
iteration 290 sol 38882.00
iteration 291 sol 40166.00
iteration 292 sol 37552.00
iteration 293 sol 41020.00
iteration 294 sol 42063.00
iteration 295 sol 38255.00
iteration 296 sol 39420.00
iteration 297 sol 39684.00
iteration 298 sol 39945.00
iteration 299 sol 39311.00
iteration 300 sol 37000.00
iteration 301 sol 39421.00
iteration 302 sol 36273.00
iteration 303 sol 37632.00
iteration 304 sol 40273.00
iteration 305 sol 40193.00
iteration 306 sol 38339.00
iteration 307 sol 39987.00
iteration 308 sol 39407.00
iteration 309 sol 40001.00
iteration 310 sol 42482.00
iteration 311 sol 40971.00
iteration 312 sol 42110.00
iteration 313 sol 38896.00
iteration 314 sol 38611.00
iteration 315 sol 35502.00
iteration 316 sol 39206.00
iteration 317 sol 39653.00
iteration 318 sol 40168.00
iteration 319 sol 41456.00
iteration 320 sol 39785.00
iteration 321 sol 38423.00
iteration 322 sol 38935.00
iteration 323 sol 37892.00
iteration 324 sol 37927.00
iteration 325 sol 36194.00
iteration 326 sol 40028.00
iteration 327 sol 37177.00
iteration 328 sol 38796.00
iteration 329 sol 39170.00
iteration 330 sol 32935.00
iteration 331 sol 40075.00
iteration 332 sol 38710.00
iteration 333 sol 37769.00
iteration 334 sol 38721.00
iteration 335 sol 38087.00
iteration 336 sol 38069.00
iteration 337 sol 39721.00
iteration 338 sol 40326.00
iteration 339 sol 41632.00
iteration 340 sol 35373.00
iteration 341 sol 38533.00
iteration 342 sol 39187.00
iteration 343 sol 42013.00
iteration 344 sol 36294.00
iteration 345 sol 41195.00
iteration 346 sol 39049.00
iteration 347 sol 33849.00
iteration 348 sol 39088.00
iteration 349 sol 35734.00
iteration 350 sol 38615.00
iteration 351 sol 40849.00
iteration 352 sol 37724.00
iteration 353 sol 37611.00
iteration 354 sol 38011.00
iteration 355 sol 38621.00
iteration 356 sol 38978.00
iteration 357 sol 39149.00
iteration 358 sol 36763.00
iteration 359 sol 38211.00
iteration 360 sol 38838.00
iteration 361 sol 38544.00
iteration 362 sol 39108.00
iteration 363 sol 39704.00
iteration 364 sol 42791.00
iteration 365 sol 37443.00
iteration 366 sol 38878.00
iteration 367 sol 39054.00
iteration 368 sol 34941.00
iteration 369 sol 38878.00
iteration 370 sol 36181.00
iteration 371 sol 38344.00
iteration 372 sol 36630.00
iteration 373 sol 36658.00
iteration 374 sol 39639.00
iteration 375 sol 38031.00
iteration 376 sol 38516.00
iteration 377 sol 39904.00
iteration 378 sol 39731.00
iteration 379 sol 38023.00
iteration 380 sol 37779.00
iteration 381 sol 39539.00
iteration 382 sol 41658.00
iteration 383 sol 38820.00
iteration 384 sol 38959.00
iteration 385 sol 40268.00
iteration 386 sol 34824.00
iteration 387 sol 38393.00
iteration 388 sol 38294.00
iteration 389 sol 38223.00
iteration 390 sol 39070.00
iteration 391 sol 39677.00
iteration 392 sol 36507.00
iteration 393 sol 36891.00
iteration 394 sol 40290.00
iteration 395 sol 36473.00
iteration 396 sol 39586.00
iteration 397 sol 40608.00
iteration 398 sol 39299.00
iteration 399 sol 41625.00
iteration 400 sol 38090.00
iteration 401 sol 38676.00
iteration 402 sol 39640.00
iteration 403 sol 38364.00
iteration 404 sol 41961.00
iteration 405 sol 39341.00
iteration 406 sol 38742.00
iteration 407 sol 40977.00
iteration 408 sol 36442.00
iteration 409 sol 38968.00
iteration 410 sol 38743.00
iteration 411 sol 38527.00
iteration 412 sol 39424.00
iteration 413 sol 38678.00
iteration 414 sol 37731.00
iteration 415 sol 39850.00
iteration 416 sol 42390.00
iteration 417 sol 41333.00
iteration 418 sol 38617.00
iteration 419 sol 37330.00
iteration 420 sol 39544.00
iteration 421 sol 40949.00
iteration 422 sol 41033.00
iteration 423 sol 41616.00
iteration 424 sol 40336.00
iteration 425 sol 37891.00
iteration 426 sol 37373.00
iteration 427 sol 41821.00
iteration 428 sol 38107.00
iteration 429 sol 39307.00
iteration 430 sol 37250.00
iteration 431 sol 42671.00
iteration 432 sol 38157.00
iteration 433 sol 38404.00
iteration 434 sol 37465.00
iteration 435 sol 36607.00
iteration 436 sol 38027.00
iteration 437 sol 38988.00
iteration 438 sol 37826.00
iteration 439 sol 35044.00
iteration 440 sol 38342.00
iteration 441 sol 37150.00
iteration 442 sol 37963.00
iteration 443 sol 36893.00
iteration 444 sol 37414.00
iteration 445 sol 36799.00
iteration 446 sol 37412.00
iteration 447 sol 39637.00
iteration 448 sol 39359.00
iteration 449 sol 35458.00
iteration 450 sol 40274.00
iteration 451 sol 36846.00
iteration 452 sol 40585.00
iteration 453 sol 41103.00
iteration 454 sol 40267.00
iteration 455 sol 40571.00
iteration 456 sol 38325.00
iteration 457 sol 37729.00
iteration 458 sol 36793.00
iteration 459 sol 39180.00
iteration 460 sol 40840.00
iteration 461 sol 40160.00
iteration 462 sol 37228.00
iteration 463 sol 38948.00
iteration 464 sol 39412.00
iteration 465 sol 37444.00
iteration 466 sol 39959.00
iteration 467 sol 39783.00
iteration 468 sol 40409.00
iteration 469 sol 37970.00
iteration 470 sol 39720.00
iteration 471 sol 36788.00
iteration 472 sol 36357.00
iteration 473 sol 40377.00
iteration 474 sol 39969.00
iteration 475 sol 38793.00
iteration 476 sol 37450.00
iteration 477 sol 39203.00
iteration 478 sol 39887.00
iteration 479 sol 40151.00
iteration 480 sol 36759.00
iteration 481 sol 38309.00
iteration 482 sol 38670.00
iteration 483 sol 38983.00
iteration 484 sol 39896.00
iteration 485 sol 39488.00
iteration 486 sol 37548.00
iteration 487 sol 39755.00
iteration 488 sol 41061.00
iteration 489 sol 37255.00
iteration 490 sol 39116.00
iteration 491 sol 38370.00
iteration 492 sol 37697.00
iteration 493 sol 39477.00
iteration 494 sol 38080.00
iteration 495 sol 38103.00
iteration 496 sol 37578.00
iteration 497 sol 37200.00
iteration 498 sol 41512.00
iteration 499 sol 40496.00
iteration 500 sol 40687.00
iteration 501 sol 41446.00
iteration 502 sol 37844.00
iteration 503 sol 41550.00
iteration 504 sol 40825.00
iteration 505 sol 39194.00
iteration 506 sol 39707.00
iteration 507 sol 38806.00
iteration 508 sol 36955.00
iteration 509 sol 39543.00
iteration 510 sol 40942.00
iteration 511 sol 38389.00
iteration 512 sol 39201.00
iteration 513 sol 38633.00
iteration 514 sol 34709.00
iteration 515 sol 37553.00
iteration 516 sol 38195.00
iteration 517 sol 37249.00
iteration 518 sol 37535.00
iteration 519 sol 38569.00
iteration 520 sol 38689.00
iteration 521 sol 38694.00
iteration 522 sol 39467.00
iteration 523 sol 39017.00
iteration 524 sol 41903.00
iteration 525 sol 40072.00
iteration 526 sol 37903.00
iteration 527 sol 38465.00
iteration 528 sol 40483.00
iteration 529 sol 38980.00
iteration 530 sol 37183.00
iteration 531 sol 38093.00
iteration 532 sol 34547.00
iteration 533 sol 38199.00
iteration 534 sol 37225.00
iteration 535 sol 40008.00
iteration 536 sol 38211.00
iteration 537 sol 37854.00
iteration 538 sol 42334.00
iteration 539 sol 38248.00
iteration 540 sol 40508.00
iteration 541 sol 37228.00
iteration 542 sol 39483.00
iteration 543 sol 41125.00
iteration 544 sol 37243.00
iteration 545 sol 37780.00
iteration 546 sol 40137.00
iteration 547 sol 39732.00
iteration 548 sol 38577.00
iteration 549 sol 35783.00
iteration 550 sol 41307.00
iteration 551 sol 40812.00
iteration 552 sol 37219.00
iteration 553 sol 39070.00
iteration 554 sol 38391.00
iteration 555 sol 40438.00
iteration 556 sol 41399.00
iteration 557 sol 37779.00
iteration 558 sol 38708.00
iteration 559 sol 38190.00
iteration 560 sol 41371.00
iteration 561 sol 41835.00
iteration 562 sol 36157.00
iteration 563 sol 38591.00
iteration 564 sol 38003.00
iteration 565 sol 40267.00
iteration 566 sol 39083.00
iteration 567 sol 37484.00
iteration 568 sol 38794.00
iteration 569 sol 42340.00
iteration 570 sol 37713.00
iteration 571 sol 40943.00
iteration 572 sol 37434.00
iteration 573 sol 37165.00
iteration 574 sol 37584.00
iteration 575 sol 40632.00
iteration 576 sol 39321.00
iteration 577 sol 39628.00
iteration 578 sol 39250.00
iteration 579 sol 36860.00
iteration 580 sol 39316.00
iteration 581 sol 37351.00
iteration 582 sol 38118.00
iteration 583 sol 37106.00
iteration 584 sol 39583.00
iteration 585 sol 37775.00
iteration 586 sol 41470.00
iteration 587 sol 39434.00
iteration 588 sol 40295.00
iteration 589 sol 39732.00
iteration 590 sol 38501.00
iteration 591 sol 38249.00
iteration 592 sol 40653.00
iteration 593 sol 38570.00
iteration 594 sol 38272.00
iteration 595 sol 40547.00
iteration 596 sol 37682.00
iteration 597 sol 38515.00
iteration 598 sol 38226.00
iteration 599 sol 40191.00
iteration 600 sol 40107.00
iteration 601 sol 40664.00
iteration 602 sol 39603.00
iteration 603 sol 38816.00
iteration 604 sol 35931.00
iteration 605 sol 39535.00
iteration 606 sol 35515.00
iteration 607 sol 38243.00
iteration 608 sol 36262.00
iteration 609 sol 37212.00
iteration 610 sol 36224.00
iteration 611 sol 39374.00
iteration 612 sol 42517.00
iteration 613 sol 37806.00
iteration 614 sol 44228.00
iteration 615 sol 37267.00
iteration 616 sol 36180.00
iteration 617 sol 36683.00
iteration 618 sol 41635.00
iteration 619 sol 38082.00
iteration 620 sol 39442.00
iteration 621 sol 38704.00
iteration 622 sol 39008.00
iteration 623 sol 36891.00
iteration 624 sol 38427.00
iteration 625 sol 40758.00
iteration 626 sol 36106.00
iteration 627 sol 40244.00
iteration 628 sol 38308.00
iteration 629 sol 38148.00
iteration 630 sol 38742.00
iteration 631 sol 38002.00
iteration 632 sol 36211.00
iteration 633 sol 37962.00
iteration 634 sol 39640.00
iteration 635 sol 38597.00
iteration 636 sol 41976.00
iteration 637 sol 39406.00
iteration 638 sol 39689.00
iteration 639 sol 40816.00
iteration 640 sol 39289.00
iteration 641 sol 33787.00
iteration 642 sol 37113.00
iteration 643 sol 40919.00
iteration 644 sol 40322.00
iteration 645 sol 38009.00
iteration 646 sol 37820.00
iteration 647 sol 39859.00
iteration 648 sol 41682.00
iteration 649 sol 38693.00
iteration 650 sol 41372.00
iteration 651 sol 39556.00
iteration 652 sol 38071.00
iteration 653 sol 39699.00
iteration 654 sol 38469.00
iteration 655 sol 42423.00
iteration 656 sol 37951.00
iteration 657 sol 42510.00
iteration 658 sol 39140.00
iteration 659 sol 41972.00
iteration 660 sol 40161.00
iteration 661 sol 39699.00
iteration 662 sol 37045.00
iteration 663 sol 37175.00
iteration 664 sol 42297.00
iteration 665 sol 37248.00
iteration 666 sol 35697.00
iteration 667 sol 38884.00
iteration 668 sol 42003.00
iteration 669 sol 36861.00
iteration 670 sol 41635.00
iteration 671 sol 38888.00
iteration 672 sol 37650.00
iteration 673 sol 36470.00
iteration 674 sol 40756.00
iteration 675 sol 37782.00
iteration 676 sol 38547.00
iteration 677 sol 37974.00
iteration 678 sol 37045.00
iteration 679 sol 34983.00
iteration 680 sol 36922.00
iteration 681 sol 41661.00
iteration 682 sol 38077.00
iteration 683 sol 38799.00
iteration 684 sol 38631.00
iteration 685 sol 40930.00
iteration 686 sol 39592.00
iteration 687 sol 39362.00
iteration 688 sol 40899.00
iteration 689 sol 41163.00
iteration 690 sol 40049.00
iteration 691 sol 37605.00
iteration 692 sol 40520.00
iteration 693 sol 38475.00
iteration 694 sol 39083.00
iteration 695 sol 39278.00
iteration 696 sol 39776.00
iteration 697 sol 37289.00
iteration 698 sol 40660.00
iteration 699 sol 36462.00
iteration 700 sol 37445.00
iteration 701 sol 40735.00
iteration 702 sol 39791.00
iteration 703 sol 36812.00
iteration 704 sol 38471.00
iteration 705 sol 37180.00
iteration 706 sol 38921.00
iteration 707 sol 38605.00
iteration 708 sol 35609.00
iteration 709 sol 36671.00
iteration 710 sol 39190.00
iteration 711 sol 40534.00
iteration 712 sol 38516.00
iteration 713 sol 36993.00
iteration 714 sol 38636.00
iteration 715 sol 36964.00
iteration 716 sol 38300.00
iteration 717 sol 41854.00
iteration 718 sol 40289.00
iteration 719 sol 40445.00
iteration 720 sol 40083.00
iteration 721 sol 38576.00
iteration 722 sol 40751.00
iteration 723 sol 37612.00
iteration 724 sol 37462.00
iteration 725 sol 38124.00
iteration 726 sol 40024.00
iteration 727 sol 39946.00
iteration 728 sol 37400.00
iteration 729 sol 41409.00
iteration 730 sol 34916.00
iteration 731 sol 37302.00
iteration 732 sol 39269.00
iteration 733 sol 41864.00
iteration 734 sol 37958.00
iteration 735 sol 35659.00
iteration 736 sol 37665.00
iteration 737 sol 41758.00
iteration 738 sol 38535.00
iteration 739 sol 36724.00
iteration 740 sol 39974.00
iteration 741 sol 38491.00
iteration 742 sol 35150.00
iteration 743 sol 39002.00
iteration 744 sol 39052.00
iteration 745 sol 39703.00
iteration 746 sol 37606.00
iteration 747 sol 37595.00
iteration 748 sol 39256.00
iteration 749 sol 38776.00
iteration 750 sol 40256.00
iteration 751 sol 38778.00
iteration 752 sol 40017.00
iteration 753 sol 36910.00
iteration 754 sol 41294.00
iteration 755 sol 39769.00
iteration 756 sol 41017.00
iteration 757 sol 36284.00
iteration 758 sol 40106.00
iteration 759 sol 37877.00
iteration 760 sol 38159.00
iteration 761 sol 35634.00
iteration 762 sol 40092.00
iteration 763 sol 37759.00
iteration 764 sol 38933.00
iteration 765 sol 36550.00
iteration 766 sol 40253.00
iteration 767 sol 37310.00
iteration 768 sol 41848.00
iteration 769 sol 40910.00
iteration 770 sol 37903.00
iteration 771 sol 38340.00
iteration 772 sol 40943.00
iteration 773 sol 37165.00
iteration 774 sol 37582.00
iteration 775 sol 35572.00
iteration 776 sol 39596.00
iteration 777 sol 39459.00
iteration 778 sol 39977.00
iteration 779 sol 40195.00
iteration 780 sol 41917.00
iteration 781 sol 35681.00
iteration 782 sol 39496.00
iteration 783 sol 37743.00
iteration 784 sol 38399.00
iteration 785 sol 38623.00
iteration 786 sol 40631.00
iteration 787 sol 37991.00
iteration 788 sol 39419.00
iteration 789 sol 40473.00
iteration 790 sol 38111.00
iteration 791 sol 36926.00
iteration 792 sol 39272.00
iteration 793 sol 40020.00
iteration 794 sol 39680.00
iteration 795 sol 37001.00
iteration 796 sol 39311.00
iteration 797 sol 40100.00
iteration 798 sol 38143.00
iteration 799 sol 40493.00
iteration 800 sol 39287.00
iteration 801 sol 37767.00
iteration 802 sol 37234.00
iteration 803 sol 37610.00
iteration 804 sol 41049.00
iteration 805 sol 37009.00
iteration 806 sol 39981.00
iteration 807 sol 41759.00
iteration 808 sol 39300.00
iteration 809 sol 37788.00
iteration 810 sol 38233.00
iteration 811 sol 37098.00
iteration 812 sol 38392.00
iteration 813 sol 35481.00
iteration 814 sol 39499.00
iteration 815 sol 40402.00
iteration 816 sol 37812.00
iteration 817 sol 38571.00
iteration 818 sol 35711.00
iteration 819 sol 36573.00
iteration 820 sol 37950.00
iteration 821 sol 38031.00
iteration 822 sol 40626.00
iteration 823 sol 40951.00
iteration 824 sol 37772.00
iteration 825 sol 35709.00
iteration 826 sol 33869.00
iteration 827 sol 38490.00
iteration 828 sol 38920.00
iteration 829 sol 40742.00
iteration 830 sol 40649.00
iteration 831 sol 37895.00
iteration 832 sol 37998.00
iteration 833 sol 38805.00
iteration 834 sol 37077.00
iteration 835 sol 39157.00
iteration 836 sol 36277.00
iteration 837 sol 35961.00
iteration 838 sol 39455.00
iteration 839 sol 36928.00
iteration 840 sol 36645.00
iteration 841 sol 39432.00
iteration 842 sol 37819.00
iteration 843 sol 41063.00
iteration 844 sol 37950.00
iteration 845 sol 39639.00
iteration 846 sol 36740.00
iteration 847 sol 36336.00
iteration 848 sol 37182.00
iteration 849 sol 38112.00
iteration 850 sol 41284.00
iteration 851 sol 40913.00
iteration 852 sol 36277.00
iteration 853 sol 40482.00
iteration 854 sol 37704.00
iteration 855 sol 40015.00
iteration 856 sol 37675.00
iteration 857 sol 37161.00
iteration 858 sol 39225.00
iteration 859 sol 41615.00
iteration 860 sol 41107.00
iteration 861 sol 39160.00
iteration 862 sol 37556.00
iteration 863 sol 40199.00
iteration 864 sol 37997.00
iteration 865 sol 42030.00
iteration 866 sol 42886.00
Calls to change | Calls removed by BIT 
105931724 | 105921528
Calls to add | Calls removed by BIT 
25989504 | 0
Number of iterations = 867
Best Solution was found in iteration = 614
Time used by neighbor | Times each neighbor was used | Improvements
N_1 = 1.38 | 1734 | 0
N_2 = 5.77 | 1734 | 0
N_3 = 0.09 | 1734 | 0
N_4 = 23.33 | 1734 | 0
N_5 = 205.34 | 1734 | 0
Time to find the best solution = 431.70
Solution = 44228.00
Time = 600.63
