iteration 0 sol 39182.00
iteration 1 sol 40379.00
iteration 2 sol 38491.00
iteration 3 sol 37001.00
iteration 4 sol 38035.00
iteration 5 sol 41193.00
iteration 6 sol 41059.00
iteration 7 sol 39925.00
iteration 8 sol 36139.00
iteration 9 sol 39544.00
iteration 10 sol 38996.00
iteration 11 sol 37870.00
iteration 12 sol 38035.00
iteration 13 sol 39828.00
iteration 14 sol 40418.00
iteration 15 sol 38254.00
iteration 16 sol 39979.00
iteration 17 sol 41516.00
iteration 18 sol 41170.00
iteration 19 sol 38330.00
iteration 20 sol 37949.00
iteration 21 sol 40224.00
iteration 22 sol 39990.00
iteration 23 sol 38855.00
iteration 24 sol 39866.00
iteration 25 sol 38704.00
iteration 26 sol 39685.00
iteration 27 sol 39133.00
iteration 28 sol 39766.00
iteration 29 sol 42455.00
iteration 30 sol 38462.00
iteration 31 sol 38706.00
iteration 32 sol 39644.00
iteration 33 sol 39732.00
iteration 34 sol 42252.00
iteration 35 sol 39696.00
iteration 36 sol 37640.00
iteration 37 sol 36716.00
iteration 38 sol 37180.00
iteration 39 sol 40317.00
iteration 40 sol 41425.00
iteration 41 sol 39930.00
iteration 42 sol 39104.00
iteration 43 sol 41608.00
iteration 44 sol 38293.00
iteration 45 sol 39009.00
iteration 46 sol 39210.00
iteration 47 sol 39880.00
iteration 48 sol 37931.00
iteration 49 sol 39031.00
iteration 50 sol 36887.00
iteration 51 sol 39004.00
iteration 52 sol 40208.00
iteration 53 sol 40221.00
iteration 54 sol 38356.00
iteration 55 sol 37571.00
iteration 56 sol 38830.00
iteration 57 sol 40142.00
iteration 58 sol 37613.00
iteration 59 sol 38574.00
iteration 60 sol 40369.00
iteration 61 sol 37145.00
iteration 62 sol 39850.00
iteration 63 sol 41878.00
iteration 64 sol 37485.00
iteration 65 sol 38365.00
iteration 66 sol 37664.00
iteration 67 sol 38942.00
iteration 68 sol 39847.00
iteration 69 sol 37866.00
iteration 70 sol 38013.00
iteration 71 sol 40159.00
iteration 72 sol 39665.00
iteration 73 sol 40324.00
iteration 74 sol 41259.00
iteration 75 sol 39716.00
iteration 76 sol 39813.00
iteration 77 sol 39137.00
iteration 78 sol 37628.00
iteration 79 sol 38896.00
iteration 80 sol 38297.00
iteration 81 sol 38467.00
iteration 82 sol 39144.00
iteration 83 sol 41053.00
iteration 84 sol 39503.00
iteration 85 sol 39219.00
iteration 86 sol 39181.00
iteration 87 sol 38404.00
iteration 88 sol 38122.00
iteration 89 sol 40375.00
iteration 90 sol 40889.00
iteration 91 sol 37916.00
iteration 92 sol 38291.00
iteration 93 sol 40782.00
iteration 94 sol 39402.00
iteration 95 sol 38857.00
iteration 96 sol 40172.00
iteration 97 sol 39067.00
iteration 98 sol 39097.00
iteration 99 sol 37858.00
iteration 100 sol 39545.00
iteration 101 sol 42192.00
iteration 102 sol 38602.00
iteration 103 sol 38310.00
iteration 104 sol 37535.00
iteration 105 sol 40077.00
iteration 106 sol 39809.00
iteration 107 sol 36852.00
iteration 108 sol 41018.00
iteration 109 sol 37979.00
iteration 110 sol 37949.00
iteration 111 sol 38793.00
iteration 112 sol 41853.00
iteration 113 sol 40233.00
iteration 114 sol 39640.00
iteration 115 sol 38794.00
iteration 116 sol 37861.00
iteration 117 sol 40998.00
iteration 118 sol 42143.00
iteration 119 sol 39538.00
iteration 120 sol 41580.00
iteration 121 sol 39280.00
iteration 122 sol 39680.00
iteration 123 sol 38236.00
iteration 124 sol 39922.00
iteration 125 sol 37863.00
iteration 126 sol 37918.00
iteration 127 sol 39964.00
iteration 128 sol 39626.00
iteration 129 sol 40610.00
iteration 130 sol 37978.00
iteration 131 sol 37760.00
iteration 132 sol 38402.00
iteration 133 sol 39968.00
iteration 134 sol 37716.00
iteration 135 sol 36380.00
iteration 136 sol 38815.00
iteration 137 sol 36916.00
iteration 138 sol 38912.00
iteration 139 sol 40317.00
iteration 140 sol 41228.00
iteration 141 sol 42199.00
iteration 142 sol 40874.00
iteration 143 sol 39498.00
iteration 144 sol 40113.00
iteration 145 sol 40166.00
iteration 146 sol 38010.00
iteration 147 sol 37249.00
iteration 148 sol 39478.00
iteration 149 sol 39210.00
iteration 150 sol 39662.00
iteration 151 sol 38257.00
iteration 152 sol 39014.00
iteration 153 sol 37405.00
iteration 154 sol 37858.00
iteration 155 sol 38762.00
iteration 156 sol 39027.00
iteration 157 sol 39106.00
iteration 158 sol 40166.00
iteration 159 sol 38705.00
iteration 160 sol 38746.00
iteration 161 sol 40169.00
iteration 162 sol 38617.00
iteration 163 sol 39187.00
iteration 164 sol 37723.00
iteration 165 sol 38688.00
iteration 166 sol 38822.00
iteration 167 sol 38081.00
iteration 168 sol 37958.00
iteration 169 sol 39081.00
iteration 170 sol 40219.00
iteration 171 sol 37131.00
iteration 172 sol 38072.00
iteration 173 sol 36876.00
iteration 174 sol 40907.00
iteration 175 sol 38560.00
iteration 176 sol 39923.00
iteration 177 sol 38708.00
iteration 178 sol 38505.00
iteration 179 sol 40214.00
iteration 180 sol 38298.00
iteration 181 sol 38619.00
iteration 182 sol 40706.00
iteration 183 sol 40545.00
iteration 184 sol 39096.00
iteration 185 sol 39417.00
iteration 186 sol 38604.00
iteration 187 sol 39879.00
iteration 188 sol 37973.00
iteration 189 sol 38541.00
iteration 190 sol 40663.00
iteration 191 sol 41119.00
iteration 192 sol 38434.00
iteration 193 sol 38749.00
iteration 194 sol 40855.00
iteration 195 sol 38201.00
iteration 196 sol 38453.00
iteration 197 sol 38527.00
iteration 198 sol 39397.00
iteration 199 sol 40582.00
iteration 200 sol 39942.00
iteration 201 sol 39138.00
iteration 202 sol 38562.00
iteration 203 sol 36225.00
iteration 204 sol 40750.00
iteration 205 sol 37397.00
iteration 206 sol 37045.00
iteration 207 sol 38418.00
iteration 208 sol 40043.00
iteration 209 sol 40286.00
iteration 210 sol 39938.00
iteration 211 sol 38413.00
iteration 212 sol 38338.00
iteration 213 sol 39036.00
iteration 214 sol 39594.00
iteration 215 sol 40195.00
iteration 216 sol 41370.00
iteration 217 sol 36371.00
iteration 218 sol 39679.00
iteration 219 sol 35787.00
iteration 220 sol 38344.00
iteration 221 sol 37875.00
iteration 222 sol 38702.00
iteration 223 sol 37698.00
iteration 224 sol 38824.00
iteration 225 sol 39763.00
iteration 226 sol 37658.00
iteration 227 sol 40574.00
iteration 228 sol 40582.00
iteration 229 sol 39592.00
iteration 230 sol 38557.00
iteration 231 sol 37859.00
iteration 232 sol 39936.00
iteration 233 sol 41412.00
iteration 234 sol 40444.00
iteration 235 sol 39048.00
iteration 236 sol 38268.00
iteration 237 sol 37741.00
iteration 238 sol 39619.00
iteration 239 sol 40507.00
iteration 240 sol 37522.00
iteration 241 sol 39123.00
iteration 242 sol 38179.00
iteration 243 sol 36628.00
iteration 244 sol 41603.00
iteration 245 sol 39233.00
iteration 246 sol 39509.00
iteration 247 sol 40100.00
iteration 248 sol 40817.00
iteration 249 sol 38900.00
iteration 250 sol 38859.00
iteration 251 sol 38329.00
iteration 252 sol 39995.00
iteration 253 sol 38485.00
iteration 254 sol 39438.00
iteration 255 sol 40070.00
iteration 256 sol 40796.00
iteration 257 sol 38835.00
iteration 258 sol 38904.00
iteration 259 sol 39055.00
iteration 260 sol 38139.00
iteration 261 sol 37720.00
iteration 262 sol 39503.00
iteration 263 sol 39183.00
iteration 264 sol 40591.00
iteration 265 sol 41140.00
iteration 266 sol 39513.00
iteration 267 sol 40838.00
iteration 268 sol 40661.00
iteration 269 sol 37223.00
iteration 270 sol 39084.00
iteration 271 sol 39394.00
iteration 272 sol 39700.00
iteration 273 sol 39642.00
iteration 274 sol 39047.00
iteration 275 sol 39999.00
iteration 276 sol 38968.00
iteration 277 sol 40790.00
iteration 278 sol 42226.00
iteration 279 sol 38550.00
iteration 280 sol 39750.00
iteration 281 sol 39094.00
iteration 282 sol 42449.00
iteration 283 sol 38955.00
iteration 284 sol 40303.00
iteration 285 sol 37980.00
iteration 286 sol 38409.00
iteration 287 sol 37904.00
iteration 288 sol 38143.00
iteration 289 sol 39222.00
iteration 290 sol 40620.00
iteration 291 sol 39279.00
iteration 292 sol 41431.00
iteration 293 sol 39560.00
iteration 294 sol 37366.00
iteration 295 sol 39752.00
iteration 296 sol 39534.00
iteration 297 sol 40464.00
iteration 298 sol 36792.00
iteration 299 sol 39306.00
iteration 300 sol 38578.00
iteration 301 sol 38162.00
iteration 302 sol 38909.00
iteration 303 sol 38274.00
iteration 304 sol 39620.00
iteration 305 sol 38689.00
iteration 306 sol 36497.00
iteration 307 sol 41308.00
iteration 308 sol 39710.00
iteration 309 sol 40056.00
iteration 310 sol 38798.00
iteration 311 sol 38249.00
iteration 312 sol 39771.00
iteration 313 sol 38721.00
iteration 314 sol 38082.00
iteration 315 sol 39230.00
iteration 316 sol 38848.00
iteration 317 sol 40501.00
iteration 318 sol 37877.00
iteration 319 sol 36864.00
iteration 320 sol 40278.00
iteration 321 sol 37507.00
iteration 322 sol 39541.00
iteration 323 sol 38921.00
iteration 324 sol 37830.00
iteration 325 sol 38806.00
iteration 326 sol 37424.00
iteration 327 sol 40843.00
iteration 328 sol 39516.00
iteration 329 sol 39599.00
iteration 330 sol 40064.00
iteration 331 sol 37283.00
iteration 332 sol 38528.00
iteration 333 sol 38785.00
iteration 334 sol 40211.00
iteration 335 sol 40213.00
iteration 336 sol 38774.00
iteration 337 sol 40018.00
iteration 338 sol 40220.00
iteration 339 sol 37182.00
iteration 340 sol 38780.00
iteration 341 sol 41750.00
iteration 342 sol 40392.00
iteration 343 sol 39827.00
iteration 344 sol 39547.00
iteration 345 sol 40514.00
iteration 346 sol 38470.00
iteration 347 sol 39553.00
iteration 348 sol 38323.00
iteration 349 sol 40254.00
iteration 350 sol 39552.00
iteration 351 sol 37334.00
iteration 352 sol 40877.00
iteration 353 sol 39686.00
iteration 354 sol 34890.00
iteration 355 sol 38006.00
iteration 356 sol 36885.00
iteration 357 sol 41601.00
iteration 358 sol 40054.00
iteration 359 sol 39679.00
iteration 360 sol 38950.00
iteration 361 sol 38472.00
iteration 362 sol 37639.00
iteration 363 sol 40736.00
iteration 364 sol 38877.00
iteration 365 sol 40312.00
iteration 366 sol 40848.00
iteration 367 sol 40408.00
iteration 368 sol 39975.00
iteration 369 sol 39126.00
iteration 370 sol 39288.00
iteration 371 sol 38476.00
iteration 372 sol 40442.00
iteration 373 sol 36916.00
iteration 374 sol 38377.00
iteration 375 sol 37961.00
iteration 376 sol 39442.00
iteration 377 sol 37506.00
iteration 378 sol 39687.00
iteration 379 sol 39385.00
iteration 380 sol 37835.00
iteration 381 sol 39006.00
iteration 382 sol 40303.00
iteration 383 sol 37770.00
iteration 384 sol 40109.00
iteration 385 sol 37770.00
iteration 386 sol 38655.00
iteration 387 sol 40252.00
iteration 388 sol 39290.00
iteration 389 sol 38735.00
iteration 390 sol 36253.00
iteration 391 sol 38283.00
iteration 392 sol 39279.00
iteration 393 sol 39501.00
iteration 394 sol 40391.00
iteration 395 sol 36507.00
iteration 396 sol 39448.00
iteration 397 sol 40318.00
iteration 398 sol 39945.00
iteration 399 sol 40311.00
iteration 400 sol 39463.00
iteration 401 sol 39110.00
iteration 402 sol 38571.00
iteration 403 sol 38067.00
iteration 404 sol 37291.00
iteration 405 sol 40222.00
iteration 406 sol 37198.00
iteration 407 sol 38507.00
iteration 408 sol 40218.00
iteration 409 sol 39406.00
iteration 410 sol 42894.00
iteration 411 sol 39921.00
iteration 412 sol 38582.00
iteration 413 sol 36459.00
iteration 414 sol 38549.00
iteration 415 sol 40816.00
iteration 416 sol 40136.00
iteration 417 sol 38353.00
iteration 418 sol 39093.00
iteration 419 sol 38273.00
iteration 420 sol 37343.00
iteration 421 sol 39998.00
iteration 422 sol 39853.00
iteration 423 sol 40622.00
iteration 424 sol 39136.00
iteration 425 sol 38820.00
iteration 426 sol 37645.00
iteration 427 sol 37097.00
iteration 428 sol 41228.00
iteration 429 sol 37833.00
iteration 430 sol 40750.00
iteration 431 sol 40745.00
iteration 432 sol 38579.00
iteration 433 sol 39703.00
iteration 434 sol 39041.00
iteration 435 sol 37022.00
iteration 436 sol 38883.00
iteration 437 sol 38996.00
iteration 438 sol 38606.00
iteration 439 sol 40512.00
iteration 440 sol 39223.00
iteration 441 sol 39244.00
iteration 442 sol 40392.00
iteration 443 sol 39258.00
iteration 444 sol 36860.00
iteration 445 sol 39596.00
iteration 446 sol 39105.00
iteration 447 sol 38906.00
iteration 448 sol 37564.00
iteration 449 sol 38942.00
iteration 450 sol 38680.00
iteration 451 sol 37266.00
iteration 452 sol 40125.00
iteration 453 sol 40859.00
iteration 454 sol 38704.00
iteration 455 sol 38376.00
iteration 456 sol 38924.00
iteration 457 sol 39356.00
iteration 458 sol 38283.00
iteration 459 sol 38328.00
iteration 460 sol 38479.00
iteration 461 sol 38160.00
iteration 462 sol 38942.00
iteration 463 sol 39355.00
iteration 464 sol 37746.00
iteration 465 sol 40181.00
iteration 466 sol 40103.00
iteration 467 sol 36633.00
iteration 468 sol 39559.00
iteration 469 sol 40237.00
iteration 470 sol 40004.00
iteration 471 sol 40186.00
iteration 472 sol 40618.00
iteration 473 sol 40581.00
iteration 474 sol 37792.00
iteration 475 sol 39674.00
iteration 476 sol 40536.00
iteration 477 sol 42303.00
iteration 478 sol 39963.00
iteration 479 sol 39653.00
iteration 480 sol 39864.00
iteration 481 sol 39827.00
iteration 482 sol 40586.00
iteration 483 sol 37398.00
iteration 484 sol 39702.00
iteration 485 sol 40902.00
iteration 486 sol 40398.00
iteration 487 sol 38921.00
iteration 488 sol 35326.00
iteration 489 sol 40524.00
iteration 490 sol 35255.00
iteration 491 sol 39368.00
iteration 492 sol 38397.00
iteration 493 sol 38438.00
iteration 494 sol 40218.00
iteration 495 sol 39711.00
iteration 496 sol 39653.00
iteration 497 sol 38000.00
iteration 498 sol 38571.00
iteration 499 sol 38631.00
iteration 500 sol 41318.00
iteration 501 sol 40729.00
iteration 502 sol 35863.00
iteration 503 sol 39911.00
iteration 504 sol 38090.00
iteration 505 sol 38751.00
iteration 506 sol 38353.00
iteration 507 sol 37753.00
iteration 508 sol 38652.00
iteration 509 sol 38259.00
iteration 510 sol 39459.00
iteration 511 sol 37532.00
iteration 512 sol 40385.00
iteration 513 sol 38445.00
iteration 514 sol 38082.00
iteration 515 sol 40593.00
iteration 516 sol 39262.00
iteration 517 sol 38685.00
iteration 518 sol 38113.00
iteration 519 sol 38678.00
iteration 520 sol 40717.00
iteration 521 sol 39016.00
iteration 522 sol 40251.00
iteration 523 sol 36555.00
iteration 524 sol 36560.00
iteration 525 sol 38760.00
iteration 526 sol 37397.00
iteration 527 sol 38362.00
iteration 528 sol 37676.00
iteration 529 sol 39047.00
iteration 530 sol 40137.00
iteration 531 sol 38969.00
iteration 532 sol 39864.00
iteration 533 sol 40636.00
iteration 534 sol 39119.00
iteration 535 sol 38656.00
iteration 536 sol 38400.00
iteration 537 sol 39851.00
iteration 538 sol 37599.00
iteration 539 sol 37494.00
iteration 540 sol 40525.00
iteration 541 sol 39414.00
iteration 542 sol 39933.00
iteration 543 sol 39151.00
iteration 544 sol 39260.00
iteration 545 sol 40264.00
iteration 546 sol 38910.00
iteration 547 sol 38015.00
iteration 548 sol 39706.00
iteration 549 sol 38885.00
iteration 550 sol 37569.00
iteration 551 sol 39968.00
iteration 552 sol 38073.00
iteration 553 sol 38985.00
iteration 554 sol 39629.00
iteration 555 sol 37734.00
iteration 556 sol 38814.00
iteration 557 sol 38570.00
iteration 558 sol 38411.00
iteration 559 sol 37793.00
iteration 560 sol 38386.00
iteration 561 sol 41005.00
iteration 562 sol 41292.00
iteration 563 sol 38518.00
iteration 564 sol 39287.00
iteration 565 sol 39697.00
iteration 566 sol 37427.00
iteration 567 sol 38064.00
iteration 568 sol 39745.00
iteration 569 sol 39910.00
iteration 570 sol 39859.00
iteration 571 sol 40638.00
iteration 572 sol 38885.00
iteration 573 sol 41570.00
iteration 574 sol 39562.00
iteration 575 sol 40576.00
iteration 576 sol 37795.00
iteration 577 sol 37866.00
iteration 578 sol 38059.00
iteration 579 sol 39179.00
iteration 580 sol 37677.00
iteration 581 sol 38631.00
iteration 582 sol 41638.00
iteration 583 sol 39675.00
iteration 584 sol 41140.00
iteration 585 sol 38956.00
iteration 586 sol 41789.00
iteration 587 sol 39375.00
iteration 588 sol 37586.00
iteration 589 sol 37843.00
iteration 590 sol 38225.00
iteration 591 sol 39514.00
iteration 592 sol 40901.00
iteration 593 sol 37897.00
iteration 594 sol 40147.00
iteration 595 sol 40535.00
iteration 596 sol 40596.00
iteration 597 sol 38773.00
iteration 598 sol 40961.00
iteration 599 sol 37349.00
iteration 600 sol 36741.00
iteration 601 sol 36979.00
iteration 602 sol 38267.00
iteration 603 sol 39162.00
iteration 604 sol 39205.00
iteration 605 sol 40015.00
iteration 606 sol 37143.00
iteration 607 sol 39615.00
iteration 608 sol 38346.00
iteration 609 sol 39344.00
iteration 610 sol 39854.00
iteration 611 sol 40518.00
iteration 612 sol 38837.00
iteration 613 sol 38738.00
iteration 614 sol 40942.00
iteration 615 sol 39765.00
iteration 616 sol 37575.00
iteration 617 sol 39960.00
iteration 618 sol 38939.00
iteration 619 sol 40014.00
iteration 620 sol 38359.00
iteration 621 sol 38586.00
iteration 622 sol 37278.00
iteration 623 sol 39268.00
iteration 624 sol 39722.00
iteration 625 sol 38205.00
iteration 626 sol 39492.00
iteration 627 sol 39344.00
iteration 628 sol 38310.00
iteration 629 sol 40850.00
iteration 630 sol 37229.00
iteration 631 sol 38716.00
iteration 632 sol 37623.00
iteration 633 sol 37963.00
iteration 634 sol 37442.00
iteration 635 sol 38702.00
iteration 636 sol 38947.00
iteration 637 sol 38367.00
iteration 638 sol 40157.00
iteration 639 sol 35704.00
iteration 640 sol 39535.00
iteration 641 sol 38959.00
iteration 642 sol 39332.00
iteration 643 sol 39116.00
iteration 644 sol 39222.00
iteration 645 sol 37329.00
iteration 646 sol 37912.00
iteration 647 sol 39513.00
iteration 648 sol 40191.00
iteration 649 sol 41697.00
iteration 650 sol 36311.00
iteration 651 sol 38195.00
iteration 652 sol 36763.00
iteration 653 sol 38344.00
iteration 654 sol 39651.00
iteration 655 sol 40086.00
iteration 656 sol 37965.00
iteration 657 sol 41373.00
iteration 658 sol 38304.00
iteration 659 sol 37977.00
iteration 660 sol 37496.00
iteration 661 sol 40427.00
iteration 662 sol 40117.00
iteration 663 sol 38304.00
iteration 664 sol 39365.00
iteration 665 sol 39574.00
iteration 666 sol 37803.00
iteration 667 sol 41382.00
iteration 668 sol 39183.00
iteration 669 sol 39645.00
iteration 670 sol 39182.00
iteration 671 sol 38506.00
iteration 672 sol 37808.00
iteration 673 sol 39824.00
iteration 674 sol 38122.00
iteration 675 sol 39277.00
iteration 676 sol 37907.00
iteration 677 sol 40751.00
iteration 678 sol 39188.00
iteration 679 sol 38387.00
iteration 680 sol 36013.00
iteration 681 sol 38170.00
iteration 682 sol 39431.00
iteration 683 sol 37060.00
iteration 684 sol 38428.00
iteration 685 sol 38798.00
iteration 686 sol 40677.00
iteration 687 sol 41592.00
iteration 688 sol 40806.00
iteration 689 sol 41060.00
iteration 690 sol 39420.00
iteration 691 sol 37411.00
iteration 692 sol 39920.00
iteration 693 sol 35957.00
iteration 694 sol 39178.00
iteration 695 sol 37622.00
iteration 696 sol 36838.00
iteration 697 sol 42059.00
iteration 698 sol 39089.00
iteration 699 sol 38222.00
iteration 700 sol 38476.00
iteration 701 sol 40851.00
iteration 702 sol 38316.00
iteration 703 sol 39602.00
iteration 704 sol 37742.00
iteration 705 sol 40039.00
iteration 706 sol 39843.00
iteration 707 sol 38399.00
iteration 708 sol 38528.00
iteration 709 sol 38827.00
iteration 710 sol 41832.00
iteration 711 sol 38802.00
iteration 712 sol 37626.00
iteration 713 sol 39838.00
iteration 714 sol 36940.00
iteration 715 sol 39893.00
iteration 716 sol 38664.00
iteration 717 sol 41759.00
iteration 718 sol 39016.00
iteration 719 sol 42540.00
iteration 720 sol 39554.00
iteration 721 sol 38125.00
iteration 722 sol 39425.00
iteration 723 sol 39278.00
iteration 724 sol 41477.00
iteration 725 sol 37757.00
iteration 726 sol 36750.00
iteration 727 sol 39376.00
iteration 728 sol 40904.00
iteration 729 sol 38533.00
iteration 730 sol 37863.00
iteration 731 sol 37388.00
iteration 732 sol 39223.00
iteration 733 sol 38190.00
iteration 734 sol 39379.00
iteration 735 sol 40392.00
iteration 736 sol 39017.00
iteration 737 sol 39205.00
iteration 738 sol 34923.00
iteration 739 sol 38538.00
iteration 740 sol 39274.00
iteration 741 sol 39474.00
iteration 742 sol 40848.00
iteration 743 sol 39135.00
iteration 744 sol 40110.00
iteration 745 sol 41741.00
iteration 746 sol 40340.00
iteration 747 sol 37256.00
iteration 748 sol 35770.00
iteration 749 sol 40379.00
iteration 750 sol 40329.00
iteration 751 sol 39178.00
iteration 752 sol 40223.00
iteration 753 sol 36359.00
iteration 754 sol 36298.00
iteration 755 sol 36731.00
iteration 756 sol 37111.00
iteration 757 sol 40007.00
iteration 758 sol 40177.00
iteration 759 sol 37628.00
iteration 760 sol 41594.00
iteration 761 sol 41971.00
iteration 762 sol 37826.00
iteration 763 sol 37004.00
iteration 764 sol 37313.00
iteration 765 sol 38203.00
iteration 766 sol 39237.00
iteration 767 sol 37632.00
iteration 768 sol 38068.00
iteration 769 sol 40660.00
iteration 770 sol 40110.00
iteration 771 sol 40663.00
iteration 772 sol 40100.00
iteration 773 sol 37429.00
iteration 774 sol 42065.00
iteration 775 sol 39766.00
iteration 776 sol 38645.00
iteration 777 sol 39951.00
iteration 778 sol 39627.00
iteration 779 sol 40141.00
iteration 780 sol 38195.00
iteration 781 sol 36768.00
iteration 782 sol 38518.00
iteration 783 sol 41710.00
iteration 784 sol 37157.00
iteration 785 sol 39008.00
iteration 786 sol 38815.00
iteration 787 sol 36859.00
iteration 788 sol 38534.00
iteration 789 sol 39665.00
iteration 790 sol 38960.00
iteration 791 sol 42286.00
iteration 792 sol 38774.00
iteration 793 sol 38693.00
iteration 794 sol 40045.00
iteration 795 sol 36876.00
iteration 796 sol 39402.00
iteration 797 sol 40725.00
iteration 798 sol 39760.00
iteration 799 sol 38560.00
iteration 800 sol 39951.00
iteration 801 sol 39670.00
iteration 802 sol 41119.00
iteration 803 sol 42309.00
iteration 804 sol 39025.00
iteration 805 sol 39279.00
iteration 806 sol 38600.00
iteration 807 sol 38612.00
iteration 808 sol 36872.00
iteration 809 sol 38990.00
iteration 810 sol 37517.00
iteration 811 sol 38055.00
iteration 812 sol 39036.00
iteration 813 sol 39359.00
iteration 814 sol 40321.00
iteration 815 sol 37920.00
iteration 816 sol 42206.00
iteration 817 sol 38939.00
iteration 818 sol 41478.00
iteration 819 sol 38782.00
iteration 820 sol 38829.00
iteration 821 sol 36912.00
iteration 822 sol 39883.00
iteration 823 sol 39647.00
iteration 824 sol 39706.00
iteration 825 sol 39105.00
iteration 826 sol 40125.00
iteration 827 sol 40826.00
iteration 828 sol 37180.00
iteration 829 sol 39837.00
iteration 830 sol 39421.00
iteration 831 sol 37679.00
iteration 832 sol 40531.00
iteration 833 sol 38815.00
iteration 834 sol 36709.00
iteration 835 sol 39159.00
iteration 836 sol 40258.00
iteration 837 sol 39931.00
iteration 838 sol 39004.00
iteration 839 sol 38883.00
iteration 840 sol 41546.00
iteration 841 sol 37446.00
iteration 842 sol 41505.00
iteration 843 sol 39530.00
iteration 844 sol 40658.00
iteration 845 sol 38614.00
iteration 846 sol 40374.00
iteration 847 sol 41224.00
iteration 848 sol 38235.00
iteration 849 sol 36267.00
iteration 850 sol 39524.00
iteration 851 sol 39217.00
iteration 852 sol 37814.00
iteration 853 sol 41917.00
iteration 854 sol 40091.00
iteration 855 sol 37937.00
iteration 856 sol 39190.00
iteration 857 sol 37458.00
iteration 858 sol 38395.00
iteration 859 sol 39558.00
iteration 860 sol 40175.00
Calls to change | Calls removed by BIT 
164658746 | 164642252
Calls to add | Calls removed by BIT 
25818744 | 0
Number of iterations = 861
Best Solution was found in iteration = 410
Time used by neighbor | Times each neighbor was used | Improvements
N_1 = 1.47 | 1724 | 0
N_2 = 6.69 | 1724 | 0
N_3 = 0.11 | 1724 | 0
N_4 = 24.34 | 1724 | 0
N_5 = 203.20 | 1724 | 2
Time to find the best solution = 290.88
Solution = 42894.00
Time = 600.67
