iteration 0 sol 974808.00
iteration 1 sol 992231.00
iteration 2 sol 942609.00
iteration 3 sol 982796.00
iteration 4 sol 996540.00
iteration 5 sol 993180.00
iteration 6 sol 990670.00
iteration 7 sol 983999.00
iteration 8 sol 978691.00
iteration 9 sol 994810.00
iteration 10 sol 981062.00
iteration 11 sol 995695.00
iteration 12 sol 990378.00
iteration 13 sol 982346.00
iteration 14 sol 989674.00
iteration 15 sol 977140.00
iteration 16 sol 980595.00
iteration 17 sol 997367.00
iteration 18 sol 921310.00
iteration 19 sol 939978.00
iteration 20 sol 988980.00
iteration 21 sol 970649.00
iteration 22 sol 996239.00
iteration 23 sol 993648.00
iteration 24 sol 992877.00
iteration 25 sol 990135.00
iteration 26 sol 994472.00
iteration 27 sol 972440.00
iteration 28 sol 995447.00
iteration 29 sol 945736.00
iteration 30 sol 960067.00
iteration 31 sol 991153.00
iteration 32 sol 918450.00
iteration 33 sol 950404.00
iteration 34 sol 965065.00
iteration 35 sol 987636.00
iteration 36 sol 985879.00
iteration 37 sol 957622.00
iteration 38 sol 989129.00
iteration 39 sol 966122.00
iteration 40 sol 986420.00
iteration 41 sol 996966.00
iteration 42 sol 969766.00
iteration 43 sol 958482.00
iteration 44 sol 996085.00
iteration 45 sol 996663.00
iteration 46 sol 990809.00
iteration 47 sol 990599.00
iteration 48 sol 971972.00
iteration 49 sol 966603.00
iteration 50 sol 945072.00
iteration 51 sol 996519.00
iteration 52 sol 973856.00
iteration 53 sol 989613.00
iteration 54 sol 992164.00
iteration 55 sol 981885.00
iteration 56 sol 984058.00
iteration 57 sol 994622.00
iteration 58 sol 984592.00
iteration 59 sol 951960.00
iteration 60 sol 974194.00
iteration 61 sol 965187.00
iteration 62 sol 922422.00
iteration 63 sol 981351.00
iteration 64 sol 1000996.00
iteration 65 sol 984235.00
iteration 66 sol 990340.00
iteration 67 sol 996823.00
iteration 68 sol 926615.00
iteration 69 sol 976577.00
iteration 70 sol 986375.00
iteration 71 sol 981724.00
iteration 72 sol 984679.00
iteration 73 sol 995923.00
iteration 74 sol 981854.00
iteration 75 sol 969103.00
iteration 76 sol 951085.00
Calls to change | Calls removed by BIT 
1129192877 | 1129181347
Calls to add | Calls removed by BIT 
2069930 | 1897766
Number of iterations = 77
Best Solution was found in iteration = 64
Time used by neighbor | Times each neighbor was used | Improvements
N_1 = 4.21 | 157 | 0
N_2 = 469.09 | 157 | 1
N_3 = 0.06 | 157 | 1
N_4 = 0.13 | 157 | 0
N_5 = 100.62 | 157 | 0
Time to find the best solution = 502.58
Solution = 1000996.00
Time = 600.83
