# 2021-03-29 16:22:20 -03: Estimating execution time using 2% of 604800 = 12096
# 2021-03-29 19:20:02 -03: Estimated execution time is 533.095 based on 4 configurations and 5 instances. Used time: 10661.9, remaining time: 594138.1, remaining budget (experiments): 1115
# 2021-03-29 19:20:02 -03: Initialization
# Elitist race
# Elitist new instances: 1
# Elitist limit: 2
# nbIterations: 3
# minNbSurvival: 3
# nbParameters: 2
# seed: 528437462
# confidence level: 0.95
# budget: 1115
# time budget: 594138.1
# mu: 5
# deterministic: FALSE

# 2021-03-29 19:20:02 -03: Iteration 1 of 3
# experimentsUsedSoFar: 20
# timeUsed: 10661.9
# boundEstimate: 533.095
# remainingBudget: 1115
# currentBudget: 371
# nbConfigurations: 61
# Markers:
     x No test is performed.
     c Configurations are discarded only due to capping.
     - The test is performed and some configurations are discarded.
     = The test is performed but no configuration is discarded.
     ! The test is performed and configurations could be discarded but elite configurations are preserved.
     . All alive configurations are elite and nothing is discarded

+-+-----------+-----------+-----------+---------------+-----------+--------+-----+----+------+
| |   Instance|      Alive|       Best|      Mean best| Exp so far|  W time|  rho|KenW|  Qvar|
+-+-----------+-----------+-----------+---------------+-----------+--------+-----+----+------+
|x|          1|         61|         10|   -1362915143.|         57|09:34:05|   NA|  NA|    NA|
|x|          3|         61|         58|   -678828439.5|        114|04:12:59|-0.21|0.39|1.2176|
|x|          5|         61|         25|   -452741506.7|        171|09:30:13|-0.11|0.26|1.0666|
|x|          4|         61|         17|   -339411863.5|        228|09:30:25|-0.07|0.20|1.0170|
|=|          2|         61|         25|   -271654896.2|        285|09:30:18|-0.03|0.17|0.9575|
|=|          6|         61|         57|   -226406864.7|        346|10:10:21|-0.03|0.14|0.9333|
+-+-----------+-----------+-----------+---------------+-----------+--------+-----+----+------+
Best-so-far configuration:          57    mean value:    -226406864.7
Description of the best-so-far configuration:
   .ID. alpha kmax .PARENT.
57   57   0.2    7       NA

# 2021-03-31 23:48:27 -03: Elite configurations (first number is the configuration ID; listed from best to worst according to the sum of ranks):
   alpha kmax
57   0.2    7
35   0.4    8
9    0.9    6
# 2021-03-31 23:48:27 -03: Iteration 2 of 3
# experimentsUsedSoFar: 366
# timeUsed: 199563.26
# boundEstimate: 545.254808743169
# remainingBudget: 743
# currentBudget: 371
# nbConfigurations: 55
# Markers:
     x No test is performed.
     c Configurations are discarded only due to capping.
     - The test is performed and some configurations are discarded.
     = The test is performed but no configuration is discarded.
     ! The test is performed and configurations could be discarded but elite configurations are preserved.
     . All alive configurations are elite and nothing is discarded

+-+-----------+-----------+-----------+---------------+-----------+--------+-----+----+------+
| |   Instance|      Alive|       Best|      Mean best| Exp so far|  W time|  rho|KenW|  Qvar|
+-+-----------+-----------+-----------+---------------+-----------+--------+-----+----+------+
|x|          7|         55|         99|   -10800571.00|         55|09:10:48|   NA|  NA|    NA|
|x|          1|         55|         90|   -683390872.5|        107|08:43:27|+0.11|0.56|0.3260|
|x|          5|         55|         57|   -456336785.0|        159|08:40:11|+0.01|0.34|0.8341|
|x|          6|         55|         57|   -342294266.5|        211|08:40:21|-0.00|0.25|0.9320|
|-|          2|         45|         57|   -273840412.6|        263|08:40:18|-0.08|0.13|0.9586|
|=|          4|         45|         92|   -227837238.2|        305|07:00:20|-0.12|0.07|1.0240|
|=|          3|         45|         92|   -195290342.7|        347|03:29:30|-0.07|0.08|1.0206|
+-+-----------+-----------+-----------+---------------+-----------+--------+-----+----+------+
Best-so-far configuration:          92    mean value:    -195290342.7
Description of the best-so-far configuration:
   .ID. alpha kmax .PARENT.
92   92   0.5    9       35

# 2021-04-03 06:13:24 -03: Elite configurations (first number is the configuration ID; listed from best to worst according to the sum of ranks):
   alpha kmax
92   0.5    9
98   0.5    9
70   0.4    9
# 2021-04-03 06:13:24 -03: Iteration 3 of 3
# experimentsUsedSoFar: 713
# timeUsed: 395457.62
# boundEstimate: 554.639018232819
# remainingBudget: 377
# currentBudget: 377
# nbConfigurations: 49
# Markers:
     x No test is performed.
     c Configurations are discarded only due to capping.
     - The test is performed and some configurations are discarded.
     = The test is performed but no configuration is discarded.
     ! The test is performed and configurations could be discarded but elite configurations are preserved.
     . All alive configurations are elite and nothing is discarded

+-+-----------+-----------+-----------+---------------+-----------+--------+-----+----+------+
| |   Instance|      Alive|       Best|      Mean best| Exp so far|  W time|  rho|KenW|  Qvar|
+-+-----------+-----------+-----------+---------------+-----------+--------+-----+----+------+
|x|          8|         49|         70|   -33999.00000|         49|08:10:00|   NA|  NA|    NA|
|x|          7|         49|        119|   -5416640.000|         95|07:40:41|-0.51|0.24|1.0535|
|x|          2|         49|        121|   -3619426.000|        141|07:40:14|-0.17|0.22|1.1438|
|x|          6|         49|        121|   -2756247.250|        187|07:40:28|-0.02|0.23|1.0233|
|=|          3|         49|         70|   -2206271.800|        233|04:46:47|-0.02|0.18|0.9727|
|=|          5|         49|        121|   -1843156.167|        279|07:40:11|-0.03|0.14|1.0397|
|=|          1|         49|         70|   -195529174.4|        325|07:42:49|+0.02|0.16|0.9869|
|-|          4|         39|        119|   -170883298.4|        371|07:40:15|-0.11|0.03|0.9998|
+-+-----------+-----------+-----------+---------------+-----------+--------+-----+----+------+
Best-so-far configuration:         119    mean value:    -170883298.4
Description of the best-so-far configuration:
    .ID. alpha kmax .PARENT.
119  119   0.5   10       98

# 2021-04-05 17:14:53 -03: Elite configurations (first number is the configuration ID; listed from best to worst according to the sum of ranks):
    alpha kmax
119   0.5   10
142   0.5   10
143   0.5   10
# 2021-04-05 17:14:53 -03: Stopped because budget is exhausted
# Iteration: 4
# nbIterations: 3
# experimentsUsedSoFar: 1084
# timeUsed: 607943.3
# remainingBudget: -6
# currentBudget: 377
# number of elites: 3
# nbConfigurations: 49
    .ID. alpha kmax .PARENT. .ALIVE. .RANK.  .WEIGHT.
119  119   0.5   10       98    TRUE  147.5 0.5000000
142  142   0.5   10       92    TRUE  147.5 0.3333333
143  143   0.5   10       70    TRUE  147.5 0.1666667
