Generation 1 of 300
59607.00
Generation 2 of 300
60821.00
Generation 3 of 300
62147.00
Generation 4 of 300
62872.00
Generation 5 of 300
64457.00
Generation 6 of 300
66798.00
Generation 7 of 300
68451.00
Generation 8 of 300
68451.00
Generation 9 of 300
69974.00
Generation 10 of 300
70525.00
Generation 11 of 300
72192.00
Generation 12 of 300
72382.00
Generation 13 of 300
75072.00
Generation 14 of 300
75072.00
Generation 15 of 300
76631.00
Generation 16 of 300
77869.00
Generation 17 of 300
78742.00
Generation 18 of 300
79100.00
Generation 19 of 300
80157.00
Generation 20 of 300
81460.00
Generation 21 of 300
82860.00
Generation 22 of 300
82860.00
Generation 23 of 300
83447.00
Generation 24 of 300
84160.00
Generation 25 of 300
84458.00
Generation 26 of 300
85336.00
Generation 27 of 300
86287.00
Generation 28 of 300
87280.00
Generation 29 of 300
87316.00
Generation 30 of 300
87909.00
Generation 31 of 300
88734.00
Generation 32 of 300
89057.00
Generation 33 of 300
89737.00
Generation 34 of 300
89944.00
Generation 35 of 300
90568.00
Generation 36 of 300
90999.00
Generation 37 of 300
91213.00
Generation 38 of 300
91495.00
Generation 39 of 300
92298.00
Generation 40 of 300
92298.00
Generation 41 of 300
92576.00
Generation 42 of 300
93514.00
Generation 43 of 300
93514.00
Generation 44 of 300
93514.00
Generation 45 of 300
93514.00
Generation 46 of 300
93788.00
Generation 47 of 300
94220.00
Generation 48 of 300
94220.00
Generation 49 of 300
94460.00
Generation 50 of 300
94499.00
Generation 51 of 300
95498.00
Generation 52 of 300
95498.00
Generation 53 of 300
95498.00
Generation 54 of 300
95549.00
Generation 55 of 300
96578.00
Generation 56 of 300
96578.00
Generation 57 of 300
96578.00
Generation 58 of 300
96578.00
Generation 59 of 300
96844.00
Generation 60 of 300
96844.00
Generation 61 of 300
96844.00
Generation 62 of 300
96844.00
Generation 63 of 300
97057.00
Generation 64 of 300
97270.00
Generation 65 of 300
97356.00
Generation 66 of 300
97356.00
Generation 67 of 300
97365.00
Generation 68 of 300
97367.00
Generation 69 of 300
97367.00
Generation 70 of 300
97912.00
Generation 71 of 300
97912.00
Generation 72 of 300
98088.00
Generation 73 of 300
98088.00
Generation 74 of 300
98100.00
Generation 75 of 300
98355.00
Generation 76 of 300
98355.00
Generation 77 of 300
98410.00
Generation 78 of 300
98657.00
Generation 79 of 300
98811.00
Generation 80 of 300
98892.00
Generation 81 of 300
99011.00
Generation 82 of 300
99011.00
Generation 83 of 300
99011.00
Generation 84 of 300
99296.00
Generation 85 of 300
99296.00
Generation 86 of 300
99296.00
Generation 87 of 300
99445.00
Generation 88 of 300
99445.00
Generation 89 of 300
99805.00
Generation 90 of 300
99805.00
Generation 91 of 300
99805.00
Generation 92 of 300
99805.00
TIMEOUT
Best solution found has objective value = 99805.00
Time = 3606.20
