iteration 0 sol 46799.00
Calls to change | Calls removed by BIT 
635904 | 635904
Calls to add | Calls removed by BIT 
29872 | 0
Number of iterations = 1
Best Solution was found in iteration = 0
Time used by neighbor | Times each neighbor was used | Improvements
N_1 = 0.00 | 1 | 0
N_2 = 0.00 | 2 | 0
N_3 = 0.00 | 2 | 0
N_4 = 0.00 | 2 | 0
N_5 = 0.00 | 1 | 0
Time to find the best solution = 1364.09
Solution = 46799.00
Time = 1364.09
