iteration 0 sol 711681.00
Calls to change | Calls removed by BIT 
11575104 | 11575104
Calls to add | Calls removed by BIT 
27328 | 18355
Number of iterations = 1
Best Solution was found in iteration = 0
Time used by neighbor | Times each neighbor was used | Improvements
N_1 = 0.00 | 1 | 0
N_2 = 0.00 | 2 | 0
N_3 = 0.00 | 2 | 0
N_4 = 0.00 | 2 | 0
N_5 = 0.00 | 1 | 0
Time to find the best solution = 24435.64
Solution = 711681.00
Time = 24435.65
