iteration 0 sol 499480.00
Calls to change | Calls removed by BIT 
0 | 0
Calls to add | Calls removed by BIT 
1000 | 0
Number of iterations = 1
Best Solution was found in iteration = 0
Time used by neighbor | Times each neighbor was used | Improvements
N_1 = 663.36 | 9 | 9
N_2 = 0.00 | 0 | 0
N_3 = 0.00 | 0 | 0
N_4 = 0.00 | 0 | 0
N_5 = 0.00 | 0 | 0
Time to find the best solution = 663.37
Solution = 499480.00
Time = 663.37
