iteration 0 sol 123072.00
Calls to change | Calls removed by BIT 
1011231 | 443251
Calls to add | Calls removed by BIT 
144274 | 3227
Number of iterations = 1
Best Solution was found in iteration = 0
Time used by neighbor | Times each neighbor was used | Improvements
N_1 = 304.30 | 164 | 163
N_2 = 59.84 | 102 | 101
N_3 = 0.00 | 2 | 0
N_4 = 0.00 | 2 | 1
N_5 = 247.08 | 9 | 9
Time to find the best solution = 611.25
Solution = 123072.00
Time = 611.25
