iteration 0 sol 121227.00
Calls to change | Calls removed by BIT 
0 | 0
Calls to add | Calls removed by BIT 
1000 | 559
Number of iterations = 1
Best Solution was found in iteration = 0
Time used by neighbor | Times each neighbor was used | Improvements
N_1 = 600.70 | 133 | 133
N_2 = 0.00 | 0 | 0
N_3 = 0.00 | 0 | 0
N_4 = 0.00 | 0 | 0
N_5 = 0.00 | 0 | 0
Time to find the best solution = 600.70
Solution = 121227.00
Time = 600.70
