iteration 0 sol 28988.00
iteration 1 sol 29634.00
iteration 2 sol 29044.00
iteration 3 sol 28982.00
iteration 4 sol 28439.00
iteration 5 sol 29382.00
iteration 6 sol 29447.00
iteration 7 sol 30420.00
iteration 8 sol 28237.00
iteration 9 sol 29122.00
iteration 10 sol 29972.00
iteration 11 sol 29635.00
iteration 12 sol 28834.00
iteration 13 sol 30339.00
iteration 14 sol 29686.00
iteration 15 sol 28439.00
iteration 16 sol 28468.00
iteration 17 sol 29586.00
iteration 18 sol 29551.00
iteration 19 sol 30046.00
iteration 20 sol 29620.00
iteration 21 sol 29313.00
iteration 22 sol 28805.00
iteration 23 sol 29634.00
iteration 24 sol 29749.00
iteration 25 sol 28912.00
iteration 26 sol 29714.00
iteration 27 sol 29378.00
iteration 28 sol 28854.00
iteration 29 sol 29534.00
iteration 30 sol 29137.00
iteration 31 sol 29275.00
iteration 32 sol 28935.00
iteration 33 sol 29506.00
iteration 34 sol 29224.00
iteration 35 sol 29029.00
iteration 36 sol 29016.00
iteration 37 sol 29091.00
iteration 38 sol 29026.00
iteration 39 sol 28627.00
iteration 40 sol 28577.00
iteration 41 sol 28530.00
iteration 42 sol 28979.00
iteration 43 sol 29586.00
iteration 44 sol 29160.00
iteration 45 sol 28935.00
iteration 46 sol 28950.00
iteration 47 sol 29082.00
iteration 48 sol 29609.00
iteration 49 sol 29697.00
iteration 50 sol 29736.00
iteration 51 sol 28982.00
iteration 52 sol 28627.00
iteration 53 sol 29675.00
iteration 54 sol 29389.00
iteration 55 sol 28457.00
iteration 56 sol 28982.00
iteration 57 sol 29095.00
iteration 58 sol 29381.00
iteration 59 sol 29042.00
iteration 60 sol 28766.00
iteration 61 sol 30153.00
iteration 62 sol 28982.00
iteration 63 sol 29450.00
iteration 64 sol 29100.00
iteration 65 sol 29082.00
iteration 66 sol 28751.00
iteration 67 sol 29321.00
iteration 68 sol 28361.00
iteration 69 sol 28805.00
iteration 70 sol 28069.00
iteration 71 sol 28582.00
iteration 72 sol 29236.00
iteration 73 sol 29122.00
iteration 74 sol 30339.00
iteration 75 sol 28954.00
iteration 76 sol 29328.00
iteration 77 sol 29095.00
iteration 78 sol 29846.00
iteration 79 sol 29983.00
iteration 80 sol 29122.00
iteration 81 sol 28935.00
iteration 82 sol 29095.00
iteration 83 sol 28982.00
iteration 84 sol 29697.00
iteration 85 sol 29533.00
iteration 86 sol 29504.00
iteration 87 sol 29160.00
iteration 88 sol 29534.00
iteration 89 sol 29378.00
iteration 90 sol 28751.00
iteration 91 sol 28882.00
iteration 92 sol 28954.00
iteration 93 sol 29275.00
iteration 94 sol 30132.00
iteration 95 sol 29478.00
iteration 96 sol 29044.00
iteration 97 sol 28882.00
iteration 98 sol 29458.00
iteration 99 sol 28530.00
iteration 100 sol 30019.00
iteration 101 sol 28725.00
iteration 102 sol 29898.00
iteration 103 sol 29098.00
iteration 104 sol 28870.00
iteration 105 sol 28361.00
iteration 106 sol 28832.00
iteration 107 sol 29132.00
iteration 108 sol 29029.00
iteration 109 sol 28361.00
iteration 110 sol 29137.00
iteration 111 sol 29236.00
iteration 112 sol 30204.00
iteration 113 sol 28360.00
iteration 114 sol 30204.00
iteration 115 sol 28912.00
iteration 116 sol 29236.00
iteration 117 sol 29533.00
iteration 118 sol 29634.00
iteration 119 sol 29167.00
iteration 120 sol 29450.00
iteration 121 sol 28805.00
iteration 122 sol 29659.00
iteration 123 sol 28719.00
iteration 124 sol 29533.00
iteration 125 sol 28981.00
iteration 126 sol 29137.00
iteration 127 sol 29519.00
iteration 128 sol 29284.00
iteration 129 sol 29469.00
iteration 130 sol 29659.00
iteration 131 sol 29614.00
iteration 132 sol 29659.00
iteration 133 sol 28440.00
iteration 134 sol 28360.00
iteration 135 sol 28929.00
iteration 136 sol 29506.00
iteration 137 sol 28954.00
iteration 138 sol 28483.00
iteration 139 sol 29447.00
iteration 140 sol 28728.00
iteration 141 sol 28832.00
iteration 142 sol 29095.00
iteration 143 sol 28751.00
iteration 144 sol 29948.00
iteration 145 sol 29185.00
iteration 146 sol 28440.00
iteration 147 sol 29447.00
iteration 148 sol 29167.00
iteration 149 sol 29533.00
iteration 150 sol 28439.00
iteration 151 sol 28982.00
iteration 152 sol 29125.00
iteration 153 sol 29214.00
iteration 154 sol 28698.00
iteration 155 sol 29376.00
iteration 156 sol 29062.00
iteration 157 sol 28457.00
iteration 158 sol 28751.00
iteration 159 sol 29381.00
iteration 160 sol 28577.00
iteration 161 sol 30526.00
iteration 162 sol 29506.00
iteration 163 sol 29920.00
iteration 164 sol 29167.00
iteration 165 sol 28751.00
iteration 166 sol 29290.00
iteration 167 sol 28719.00
iteration 168 sol 29378.00
iteration 169 sol 29551.00
iteration 170 sol 28751.00
iteration 171 sol 29284.00
iteration 172 sol 29284.00
iteration 173 sol 29694.00
iteration 174 sol 28513.00
iteration 175 sol 29091.00
iteration 176 sol 29586.00
iteration 177 sol 28855.00
iteration 178 sol 28676.00
iteration 179 sol 29236.00
iteration 180 sol 29167.00
iteration 181 sol 28954.00
iteration 182 sol 29586.00
iteration 183 sol 28541.00
iteration 184 sol 29381.00
iteration 185 sol 29236.00
iteration 186 sol 29284.00
iteration 187 sol 28725.00
iteration 188 sol 29122.00
iteration 189 sol 29035.00
iteration 190 sol 29394.00
iteration 191 sol 28378.00
iteration 192 sol 28805.00
iteration 193 sol 28387.00
iteration 194 sol 29551.00
iteration 195 sol 28582.00
iteration 196 sol 28751.00
iteration 197 sol 28432.00
iteration 198 sol 29701.00
iteration 199 sol 29044.00
iteration 200 sol 28578.00
iteration 201 sol 28440.00
iteration 202 sol 28766.00
iteration 203 sol 29694.00
iteration 204 sol 28988.00
iteration 205 sol 28190.00
iteration 206 sol 28577.00
iteration 207 sol 29503.00
iteration 208 sol 29511.00
iteration 209 sol 28751.00
iteration 210 sol 28360.00
iteration 211 sol 29447.00
iteration 212 sol 29962.00
iteration 213 sol 29809.00
iteration 214 sol 28785.00
iteration 215 sol 30025.00
iteration 216 sol 28912.00
iteration 217 sol 29551.00
iteration 218 sol 29137.00
iteration 219 sol 29338.00
iteration 220 sol 28835.00
Calls to change | Calls removed by BIT 
2754524 | 1035936
Calls to add | Calls removed by BIT 
482893 | 84638
Number of iterations = 221
Best Solution was found in iteration = 161
Time used by neighbor | Times each neighbor was used | Improvements
N_1 = 405.26 | 19791 | 18997
N_2 = 100.15 | 18064 | 17144
N_3 = 0.22 | 2240 | 753
N_4 = 0.02 | 1841 | 97
N_5 = 93.57 | 1121 | 201
Time to find the best solution = 447.46
Solution = 30526.00
Time = 600.05
