iteration 0 sol 22878.00
iteration 1 sol 22893.00
iteration 2 sol 23104.00
iteration 3 sol 23446.00
iteration 4 sol 23492.00
iteration 5 sol 23369.00
iteration 6 sol 23686.00
iteration 7 sol 23276.00
iteration 8 sol 23877.00
iteration 9 sol 23252.00
iteration 10 sol 23116.00
iteration 11 sol 23507.00
iteration 12 sol 23259.00
iteration 13 sol 22793.00
iteration 14 sol 23286.00
iteration 15 sol 22602.00
iteration 16 sol 23446.00
iteration 17 sol 23203.00
iteration 18 sol 23546.00
iteration 19 sol 23552.00
iteration 20 sol 22885.00
iteration 21 sol 23599.00
iteration 22 sol 22860.00
iteration 23 sol 22643.00
iteration 24 sol 23203.00
iteration 25 sol 23889.00
iteration 26 sol 23897.00
iteration 27 sol 22381.00
iteration 28 sol 22943.00
iteration 29 sol 22844.00
iteration 30 sol 23006.00
iteration 31 sol 23157.00
iteration 32 sol 23400.00
iteration 33 sol 23427.00
iteration 34 sol 23079.00
iteration 35 sol 22599.00
iteration 36 sol 23286.00
iteration 37 sol 23583.00
iteration 38 sol 23896.00
iteration 39 sol 23652.00
iteration 40 sol 22696.00
iteration 41 sol 22501.00
iteration 42 sol 22940.00
iteration 43 sol 22689.00
iteration 44 sol 22932.00
iteration 45 sol 22694.00
iteration 46 sol 23679.00
iteration 47 sol 23021.00
iteration 48 sol 22547.00
iteration 49 sol 23278.00
iteration 50 sol 23125.00
iteration 51 sol 23310.00
iteration 52 sol 23585.00
iteration 53 sol 23357.00
iteration 54 sol 22726.00
iteration 55 sol 23159.00
iteration 56 sol 23534.00
iteration 57 sol 23198.00
iteration 58 sol 22798.00
iteration 59 sol 23916.00
iteration 60 sol 22697.00
iteration 61 sol 22675.00
iteration 62 sol 23492.00
iteration 63 sol 22695.00
iteration 64 sol 23336.00
iteration 65 sol 23394.00
iteration 66 sol 22917.00
iteration 67 sol 23012.00
iteration 68 sol 23349.00
iteration 69 sol 22669.00
iteration 70 sol 22999.00
iteration 71 sol 23333.00
iteration 72 sol 23144.00
iteration 73 sol 23022.00
iteration 74 sol 23612.00
iteration 75 sol 22839.00
iteration 76 sol 22946.00
iteration 77 sol 23600.00
iteration 78 sol 23382.00
iteration 79 sol 23418.00
iteration 80 sol 23256.00
iteration 81 sol 23165.00
iteration 82 sol 23172.00
iteration 83 sol 22989.00
iteration 84 sol 23277.00
iteration 85 sol 22943.00
iteration 86 sol 23039.00
iteration 87 sol 23184.00
iteration 88 sol 23058.00
iteration 89 sol 23588.00
iteration 90 sol 22991.00
iteration 91 sol 23516.00
iteration 92 sol 23637.00
iteration 93 sol 22979.00
iteration 94 sol 23387.00
iteration 95 sol 23383.00
iteration 96 sol 23493.00
iteration 97 sol 23311.00
iteration 98 sol 23078.00
iteration 99 sol 23193.00
iteration 100 sol 23805.00
iteration 101 sol 23816.00
iteration 102 sol 23060.00
iteration 103 sol 23022.00
iteration 104 sol 23009.00
iteration 105 sol 23407.00
iteration 106 sol 23419.00
iteration 107 sol 23267.00
iteration 108 sol 23189.00
iteration 109 sol 23066.00
iteration 110 sol 23001.00
iteration 111 sol 22326.00
iteration 112 sol 22836.00
iteration 113 sol 22701.00
iteration 114 sol 23621.00
iteration 115 sol 23531.00
iteration 116 sol 22639.00
iteration 117 sol 22284.00
iteration 118 sol 23047.00
iteration 119 sol 23304.00
iteration 120 sol 23629.00
iteration 121 sol 23014.00
iteration 122 sol 22421.00
iteration 123 sol 23540.00
iteration 124 sol 23966.00
iteration 125 sol 23107.00
iteration 126 sol 23056.00
iteration 127 sol 22833.00
iteration 128 sol 23228.00
iteration 129 sol 23001.00
iteration 130 sol 23199.00
iteration 131 sol 23028.00
iteration 132 sol 23025.00
iteration 133 sol 23392.00
iteration 134 sol 24090.00
iteration 135 sol 22793.00
iteration 136 sol 23377.00
iteration 137 sol 23355.00
iteration 138 sol 23512.00
iteration 139 sol 23024.00
iteration 140 sol 23003.00
iteration 141 sol 23967.00
iteration 142 sol 23085.00
iteration 143 sol 23035.00
iteration 144 sol 22983.00
iteration 145 sol 23004.00
iteration 146 sol 23275.00
iteration 147 sol 23488.00
iteration 148 sol 23095.00
iteration 149 sol 22891.00
iteration 150 sol 23344.00
iteration 151 sol 23267.00
iteration 152 sol 23674.00
iteration 153 sol 22995.00
iteration 154 sol 23582.00
iteration 155 sol 22728.00
iteration 156 sol 22776.00
iteration 157 sol 23229.00
iteration 158 sol 23408.00
iteration 159 sol 22969.00
iteration 160 sol 22887.00
iteration 161 sol 23763.00
iteration 162 sol 22539.00
iteration 163 sol 23280.00
iteration 164 sol 23352.00
iteration 165 sol 23031.00
iteration 166 sol 22858.00
iteration 167 sol 23072.00
iteration 168 sol 22923.00
iteration 169 sol 22765.00
iteration 170 sol 23006.00
Calls to change | Calls removed by BIT 
3076900 | 2305792
Calls to add | Calls removed by BIT 
2730308 | 0
Number of iterations = 171
Best Solution was found in iteration = 134
Time used by neighbor | Times each neighbor was used | Improvements
N_1 = 0.00 | 265 | 0
N_2 = 0.00 | 682 | 0
N_3 = 0.00 | 682 | 0
N_4 = 0.00 | 682 | 0
N_5 = 307.51 | 455 | 115
Time to find the best solution = 469.09
Solution = 24090.00
Time = 600.14
