iteration 0 sol 22896.00
iteration 1 sol 22973.00
iteration 2 sol 22953.00
iteration 3 sol 22726.00
iteration 4 sol 22580.00
iteration 5 sol 22727.00
iteration 6 sol 22288.00
iteration 7 sol 22962.00
iteration 8 sol 22735.00
iteration 9 sol 22910.00
iteration 10 sol 22662.00
iteration 11 sol 22230.00
iteration 12 sol 23037.00
iteration 13 sol 22418.00
iteration 14 sol 22994.00
iteration 15 sol 22505.00
iteration 16 sol 22452.00
iteration 17 sol 22362.00
iteration 18 sol 23089.00
iteration 19 sol 22251.00
iteration 20 sol 22447.00
iteration 21 sol 23065.00
iteration 22 sol 23092.00
iteration 23 sol 22384.00
iteration 24 sol 23141.00
iteration 25 sol 23000.00
iteration 26 sol 22872.00
iteration 27 sol 23174.00
iteration 28 sol 22936.00
iteration 29 sol 22888.00
iteration 30 sol 22923.00
iteration 31 sol 22313.00
iteration 32 sol 22731.00
iteration 33 sol 23002.00
iteration 34 sol 22806.00
iteration 35 sol 22838.00
iteration 36 sol 22740.00
iteration 37 sol 22307.00
iteration 38 sol 22633.00
iteration 39 sol 22972.00
iteration 40 sol 22815.00
iteration 41 sol 22974.00
iteration 42 sol 22207.00
iteration 43 sol 22982.00
iteration 44 sol 22304.00
iteration 45 sol 23027.00
iteration 46 sol 22791.00
iteration 47 sol 22918.00
iteration 48 sol 22759.00
iteration 49 sol 22471.00
iteration 50 sol 22886.00
iteration 51 sol 21928.00
iteration 52 sol 22882.00
iteration 53 sol 23120.00
iteration 54 sol 23090.00
iteration 55 sol 22878.00
iteration 56 sol 22919.00
iteration 57 sol 22761.00
iteration 58 sol 22670.00
iteration 59 sol 22812.00
iteration 60 sol 22108.00
iteration 61 sol 23164.00
iteration 62 sol 22533.00
iteration 63 sol 23166.00
iteration 64 sol 22987.00
iteration 65 sol 22902.00
iteration 66 sol 22692.00
iteration 67 sol 22461.00
iteration 68 sol 22948.00
iteration 69 sol 22626.00
iteration 70 sol 22001.00
iteration 71 sol 22813.00
iteration 72 sol 22618.00
iteration 73 sol 23021.00
iteration 74 sol 22478.00
iteration 75 sol 23054.00
iteration 76 sol 22483.00
iteration 77 sol 22420.00
iteration 78 sol 22607.00
iteration 79 sol 22961.00
iteration 80 sol 22946.00
iteration 81 sol 23023.00
iteration 82 sol 23089.00
iteration 83 sol 22370.00
iteration 84 sol 22725.00
iteration 85 sol 23031.00
iteration 86 sol 22188.00
iteration 87 sol 22653.00
iteration 88 sol 22948.00
iteration 89 sol 23009.00
iteration 90 sol 22776.00
iteration 91 sol 22294.00
iteration 92 sol 22880.00
iteration 93 sol 21956.00
iteration 94 sol 22592.00
iteration 95 sol 22440.00
iteration 96 sol 22290.00
iteration 97 sol 22946.00
iteration 98 sol 22921.00
iteration 99 sol 22217.00
iteration 100 sol 22792.00
iteration 101 sol 22246.00
iteration 102 sol 22122.00
iteration 103 sol 22576.00
iteration 104 sol 22897.00
iteration 105 sol 23040.00
iteration 106 sol 22367.00
iteration 107 sol 22800.00
iteration 108 sol 22171.00
iteration 109 sol 22362.00
iteration 110 sol 23013.00
iteration 111 sol 22816.00
iteration 112 sol 23153.00
iteration 113 sol 22212.00
iteration 114 sol 22340.00
iteration 115 sol 23026.00
iteration 116 sol 22737.00
iteration 117 sol 22992.00
iteration 118 sol 22938.00
iteration 119 sol 22729.00
iteration 120 sol 22575.00
iteration 121 sol 22922.00
iteration 122 sol 22807.00
iteration 123 sol 22498.00
iteration 124 sol 23014.00
iteration 125 sol 22636.00
iteration 126 sol 22793.00
iteration 127 sol 22755.00
iteration 128 sol 22055.00
iteration 129 sol 22765.00
iteration 130 sol 22592.00
iteration 131 sol 22708.00
iteration 132 sol 22649.00
iteration 133 sol 22638.00
iteration 134 sol 23035.00
iteration 135 sol 22886.00
iteration 136 sol 22890.00
iteration 137 sol 22912.00
iteration 138 sol 22905.00
iteration 139 sol 22616.00
iteration 140 sol 23083.00
iteration 141 sol 22583.00
iteration 142 sol 22935.00
iteration 143 sol 22986.00
iteration 144 sol 22671.00
iteration 145 sol 22493.00
iteration 146 sol 22662.00
iteration 147 sol 22922.00
iteration 148 sol 22293.00
iteration 149 sol 22880.00
iteration 150 sol 22993.00
iteration 151 sol 22732.00
iteration 152 sol 22977.00
iteration 153 sol 22811.00
iteration 154 sol 22554.00
iteration 155 sol 22444.00
iteration 156 sol 22893.00
iteration 157 sol 22682.00
iteration 158 sol 22630.00
Calls to change | Calls removed by BIT 
4695034 | 4695034
Calls to add | Calls removed by BIT 
377456 | 0
Number of iterations = 159
Best Solution was found in iteration = 27
Time used by neighbor | Times each neighbor was used | Improvements
N_1 = 0.00 | 318 | 0
N_2 = 0.00 | 636 | 0
N_3 = 0.00 | 636 | 0
N_4 = 0.00 | 636 | 0
N_5 = 0.00 | 318 | 0
Time to find the best solution = 98.08
Solution = 23174.00
Time = 600.09
