iteration 0 sol 24806.00
iteration 1 sol 24823.00
iteration 2 sol 24800.00
iteration 3 sol 24802.00
iteration 4 sol 24763.00
iteration 5 sol 24782.00
iteration 6 sol 24616.00
Calls to change | Calls removed by BIT 
3298136 | 1537468
Calls to add | Calls removed by BIT 
37252 | 13714
Number of iterations = 7
Best Solution was found in iteration = 1
Time used by neighbor | Times each neighbor was used | Improvements
N_1 = 53.87 | 649 | 612
N_2 = 114.69 | 1084 | 1043
N_3 = 0.24 | 133 | 67
N_4 = 0.00 | 83 | 4
N_5 = 245.71 | 54 | 14
Time to find the best solution = 267.56
Solution = 24823.00
Time = 607.60
