iteration 0 sol 22101.00
iteration 1 sol 22492.00
iteration 2 sol 22283.00
iteration 3 sol 22102.00
iteration 4 sol 22305.00
iteration 5 sol 22440.00
iteration 6 sol 22620.00
iteration 7 sol 22348.00
iteration 8 sol 22384.00
iteration 9 sol 22425.00
iteration 10 sol 22350.00
iteration 11 sol 22308.00
iteration 12 sol 22294.00
iteration 13 sol 22404.00
iteration 14 sol 22471.00
iteration 15 sol 22417.00
iteration 16 sol 22664.00
iteration 17 sol 22043.00
iteration 18 sol 22281.00
iteration 19 sol 22025.00
iteration 20 sol 22062.00
iteration 21 sol 22311.00
iteration 22 sol 22175.00
iteration 23 sol 22291.00
iteration 24 sol 22269.00
iteration 25 sol 22251.00
iteration 26 sol 22308.00
iteration 27 sol 22169.00
iteration 28 sol 22248.00
iteration 29 sol 22265.00
iteration 30 sol 22178.00
iteration 31 sol 22284.00
iteration 32 sol 22294.00
iteration 33 sol 22158.00
iteration 34 sol 22153.00
iteration 35 sol 22294.00
iteration 36 sol 22431.00
iteration 37 sol 22329.00
iteration 38 sol 21917.00
iteration 39 sol 22185.00
iteration 40 sol 22604.00
iteration 41 sol 22478.00
iteration 42 sol 22383.00
iteration 43 sol 22547.00
iteration 44 sol 22088.00
iteration 45 sol 22159.00
iteration 46 sol 22374.00
iteration 47 sol 22480.00
iteration 48 sol 22155.00
iteration 49 sol 22251.00
iteration 50 sol 22458.00
iteration 51 sol 22427.00
iteration 52 sol 22584.00
iteration 53 sol 22354.00
iteration 54 sol 22294.00
iteration 55 sol 22014.00
iteration 56 sol 22270.00
iteration 57 sol 22267.00
iteration 58 sol 22189.00
iteration 59 sol 22269.00
iteration 60 sol 22173.00
iteration 61 sol 22394.00
iteration 62 sol 22476.00
iteration 63 sol 22251.00
iteration 64 sol 22441.00
iteration 65 sol 21922.00
iteration 66 sol 22362.00
iteration 67 sol 22115.00
iteration 68 sol 22232.00
iteration 69 sol 22567.00
iteration 70 sol 22280.00
iteration 71 sol 21901.00
iteration 72 sol 22275.00
iteration 73 sol 22217.00
iteration 74 sol 21999.00
iteration 75 sol 22713.00
iteration 76 sol 22221.00
iteration 77 sol 22185.00
iteration 78 sol 22418.00
iteration 79 sol 22352.00
iteration 80 sol 22646.00
iteration 81 sol 22130.00
iteration 82 sol 22634.00
iteration 83 sol 22529.00
iteration 84 sol 22449.00
iteration 85 sol 22174.00
iteration 86 sol 22530.00
iteration 87 sol 22384.00
iteration 88 sol 22213.00
iteration 89 sol 22504.00
iteration 90 sol 22462.00
iteration 91 sol 22531.00
iteration 92 sol 22338.00
iteration 93 sol 22452.00
iteration 94 sol 22223.00
iteration 95 sol 22430.00
iteration 96 sol 22381.00
iteration 97 sol 22481.00
iteration 98 sol 22303.00
iteration 99 sol 22334.00
iteration 100 sol 22468.00
iteration 101 sol 22512.00
iteration 102 sol 22354.00
iteration 103 sol 22316.00
iteration 104 sol 22500.00
iteration 105 sol 22406.00
iteration 106 sol 22314.00
iteration 107 sol 22228.00
iteration 108 sol 22188.00
iteration 109 sol 22722.00
iteration 110 sol 22443.00
iteration 111 sol 22409.00
iteration 112 sol 22095.00
iteration 113 sol 22171.00
iteration 114 sol 22291.00
iteration 115 sol 22250.00
iteration 116 sol 22250.00
iteration 117 sol 22084.00
iteration 118 sol 22256.00
iteration 119 sol 22353.00
iteration 120 sol 22495.00
iteration 121 sol 22456.00
iteration 122 sol 22433.00
iteration 123 sol 22486.00
iteration 124 sol 22157.00
iteration 125 sol 22214.00
iteration 126 sol 22290.00
iteration 127 sol 22107.00
iteration 128 sol 22450.00
iteration 129 sol 22132.00
iteration 130 sol 22395.00
iteration 131 sol 22696.00
iteration 132 sol 22411.00
iteration 133 sol 22491.00
iteration 134 sol 22295.00
iteration 135 sol 22166.00
Calls to change | Calls removed by BIT 
4882110 | 2290506
Calls to add | Calls removed by BIT 
318820 | 38149
Number of iterations = 136
Best Solution was found in iteration = 109
Time used by neighbor | Times each neighbor was used | Improvements
N_1 = 0.00 | 272 | 0
N_2 = 0.00 | 544 | 0
N_3 = 0.00 | 544 | 0
N_4 = 0.00 | 544 | 0
N_5 = 0.00 | 272 | 0
Time to find the best solution = 476.68
Solution = 22722.00
Time = 602.40
