iteration 0 sol 216722.00
Calls to change | Calls removed by BIT 
304895 | 113656
Calls to add | Calls removed by BIT 
47975 | 1014
Number of iterations = 1
Best Solution was found in iteration = 0
Time used by neighbor | Times each neighbor was used | Improvements
N_1 = 248.79 | 119 | 118
N_2 = 314.41 | 121 | 120
N_3 = 0.00 | 2 | 0
N_4 = 0.00 | 2 | 0
N_5 = 37.11 | 5 | 4
Time to find the best solution = 600.34
Solution = 216722.00
Time = 600.34
