instances,ADD,CHG,MV,RPCK,time(ADD),time(CHG),time(MV),time(RPCK),total(ADD),total(CHG),total(MV),total(RPCK)
10000_500_200_1_0,0,0,0,0,0.0,0.0,1377.51,0.0,2,2,1,3
10000_500_200_1_1,0,0,0,0,0.0,0.0,1346.43,0.0,1,1,1,2
10000_500_200_1_2,0,0,0,0,0.0,0.0,1329.1,0.0,2,2,1,4
10000_500_200_1_3,0,0,0,0,0.0,0.0,1256.38,0.0,1,1,1,3
10000_500_200_1_4,0,0,0,0,0.0,0.0,1240.57,0.0,2,2,1,4
10000_500_200_1_5,0,0,0,0,0.0,0.0,1308.6,0.0,1,1,1,2
10000_500_200_1_6,0,0,0,0,0.0,0.0,1368.71,0.0,2,2,1,3
10000_500_200_1_7,0,0,0,0,0.0,0.0,1284.28,0.0,2,2,1,3
10000_500_200_1_8,0,0,0,0,0.0,0.0,1327.63,0.0,2,3,1,5
10000_500_200_1_9,0,0,0,0,0.0,0.0,1383.71,0.0,2,2,1,3
1000_500_250_1_0,36,3,2,0,80.78,0.26,522.99,0.0,36,25,26,26
1000_500_250_1_1,12,0,9,0,2.07,0.0,598.91,0.0,37,28,28,26
1000_500_250_1_2,37,0,1,0,35.62,0.0,577.32,0.0,37,28,30,26
1000_500_250_1_3,33,0,5,0,12.96,0.0,596.24,0.0,37,32,30,29
1000_500_250_1_4,37,3,10,0,37.53,0.33,566.35,0.0,37,30,28,26
1000_500_250_1_5,31,0,0,0,108.38,0.0,502.18,0.0,31,25,25,24
1000_500_250_1_6,6,0,6,0,0.63,0.0,602.84,0.0,38,34,31,30
1000_500_250_1_7,37,0,1,0,21.1,0.0,596.31,0.0,37,28,29,27
1000_500_250_1_8,37,0,6,0,21.42,0.0,584.32,0.0,37,30,28,30
1000_500_250_1_9,32,0,0,0,114.04,0.0,495.48,0.0,32,26,25,25
500_250_100_1_0,21,0,0,0,1.25,0.0,598.33,0.0,206,212,199,229
500_250_100_1_1,53,0,5,0,5.65,0.0,595.34,0.0,224,224,214,248
500_250_100_1_2,199,2,4,0,113.38,0.07,488.44,0.0,199,195,178,210
500_250_100_1_3,165,1,7,0,30.93,0.01,571.37,0.0,218,211,199,232
500_250_100_1_4,161,14,5,0,157.39,2.31,443.01,0.0,161,148,146,168
500_250_100_1_5,92,1,3,0,29.52,0.04,572.73,0.0,215,213,200,227
500_250_100_1_6,169,0,2,0,130.11,0.0,472.41,0.0,190,188,169,201
500_250_100_1_7,194,5,2,0,98.39,0.41,501.24,0.0,194,187,167,199
500_250_100_1_8,16,0,7,0,0.62,0.0,599.55,0.0,224,216,205,232
500_250_100_1_9,19,0,1,0,1.03,0.0,600.64,0.0,206,203,193,226
100_75_50_1_0,8800,2550,102,0,228.77,37.11,332.52,0.0,10121,10287,10167,10128
100_75_50_1_1,2887,49,161,0,11.95,0.07,581.18,0.0,19370,19417,19398,19533
100_75_50_1_2,10317,43,140,0,126.63,0.12,468.37,0.0,18757,18785,18948,18879
100_75_50_1_3,1376,24,282,0,4.32,0.06,587.57,0.0,22222,22493,22264,22426
100_75_50_1_4,12106,190,371,0,234.38,0.87,362.31,0.0,13926,14102,13876,14032
100_75_50_1_5,866,0,105,0,2.26,0.0,591.19,0.0,18145,18353,18130,18255
100_75_50_1_6,1092,8,27,0,6.28,0.02,587.67,0.0,16208,16241,16293,16531
100_75_50_1_7,1239,4,111,0,4.16,0.01,587.68,0.0,21626,21754,21522,21820
100_75_50_1_8,2082,0,76,0,11.49,0.0,582.4,0.0,18239,18350,18239,18329
100_75_50_1_9,4032,16,90,0,24.07,0.04,569.47,0.0,18825,18810,18872,19031
10000_500_200_5_0,5,0,0,0,49.54,0.0,584.7,0.0,5,3,2,3
10000_500_200_5_1,4,1,1,0,8.43,1.38,661.96,0.0,4,2,2,2
10000_500_200_5_2,5,1,1,0,63.51,2.68,544.73,0.0,5,3,2,4
10000_500_200_5_3,4,2,2,0,26.81,9.61,690.24,0.0,4,2,2,3
10000_500_200_5_4,5,0,0,0,57.62,0.0,608.54,0.0,5,3,2,4
10000_500_200_5_5,4,2,2,0,40.69,12.23,711.45,0.0,4,2,2,2
10000_500_200_5_6,3,0,1,0,2.12,0.0,627.12,0.0,5,3,2,3
10000_500_200_5_7,5,1,2,0,94.82,6.93,736.51,0.0,5,3,2,3
10000_500_200_5_8,5,2,2,0,16.9,7.16,606.44,0.0,5,4,2,5
10000_500_200_5_9,5,1,2,0,17.17,2.21,627.97,0.0,5,3,2,3
1000_500_250_5_0,63,0,3,0,37.18,0.0,566.23,0.0,107,82,92,94
1000_500_250_5_1,82,2,5,0,122.69,0.49,479.51,0.0,83,67,75,80
1000_500_250_5_2,62,3,6,0,88.27,0.2,514.25,0.0,80,65,74,73
1000_500_250_5_3,57,6,14,0,22.18,0.41,581.5,0.0,108,82,93,97
1000_500_250_5_4,68,1,4,0,52.62,0.17,546.83,0.0,90,77,83,84
1000_500_250_5_5,71,3,6,0,73.52,3.63,522.64,0.0,83,65,77,79
1000_500_250_5_6,61,1,4,0,29.14,0.4,574.26,0.0,105,82,91,95
1000_500_250_5_7,82,3,6,0,56.68,0.69,544.66,0.0,88,72,80,84
1000_500_250_5_8,77,5,7,0,68.62,2.23,528.95,0.0,89,75,81,85
1000_500_250_5_9,76,6,7,0,133.33,3.64,466.27,0.0,76,64,68,69
500_250_100_5_0,242,15,45,1,68.01,3.14,528.5,0.0,501,539,528,528
500_250_100_5_1,160,7,36,0,31.5,0.43,567.31,0.0,576,610,607,600
500_250_100_5_2,250,16,47,0,97.36,2.12,499.73,0.0,502,523,522,524
500_250_100_5_3,285,15,32,0,84.41,2.2,512.84,0.0,601,614,610,602
500_250_100_5_4,266,21,30,1,67.24,3.89,528.03,0.0,545,547,538,551
500_250_100_5_5,239,26,31,1,82.22,7.36,509.86,0.0,469,483,481,484
500_250_100_5_6,249,17,34,0,68.88,2.37,528.01,0.0,523,564,544,552
500_250_100_5_7,201,8,32,0,67.22,1.57,530.53,0.0,460,482,476,479
500_250_100_5_8,294,18,39,0,112.62,3.1,483.94,0.0,469,484,483,485
500_250_100_5_9,225,14,47,0,56.8,1.68,540.56,0.0,534,553,547,561
100_75_50_5_0,9019,1470,2317,148,200.65,34.14,359.82,0.03,22551,22756,22568,22874
100_75_50_5_1,8136,2049,2380,93,134.24,32.61,425.7,0.02,28225,28229,28287,28358
100_75_50_5_2,6537,1411,2527,65,117.86,21.19,453.07,0.02,28532,28612,28676,28751
100_75_50_5_3,6224,2517,3543,75,83.68,47.9,461.54,0.02,25168,25476,25262,25349
100_75_50_5_4,9968,1468,2935,104,211.61,27.01,352.39,0.02,29863,30096,29987,30054
100_75_50_5_5,7824,1939,2951,100,122.89,32.12,438.98,0.03,25267,25498,25317,25409
100_75_50_5_6,4196,2142,3186,33,38.42,30.75,523.5,0.01,27452,27498,27567,27746
100_75_50_5_7,4700,1251,2497,40,73.62,15.61,350.11,0.01,29972,30025,29815,30188
100_75_50_5_8,8269,1552,2673,115,173.82,33.54,385.84,0.03,28316,28330,28395,28399
100_75_50_5_9,7882,1955,3124,138,112.94,30.39,449.49,0.03,27196,27181,27255,27478
10000_500_200_9_0,6,2,1,0,185.93,14.57,406.98,0.0,6,3,2,4
10000_500_200_9_1,5,3,3,0,58.36,13.64,579.77,0.0,5,3,3,4
10000_500_200_9_2,5,2,2,0,125.27,23.39,512.65,0.0,5,3,2,4
10000_500_200_9_3,5,1,1,0,48.93,7.27,552.97,0.0,5,3,3,5
10000_500_200_9_4,5,3,2,0,135.05,59.73,610.05,0.0,5,3,2,4
10000_500_200_9_5,4,2,2,0,34.45,57.81,740.19,0.0,4,2,2,2
10000_500_200_9_6,6,2,3,0,74.05,21.44,619.08,0.0,6,4,3,5
10000_500_200_9_7,5,3,2,0,76.09,92.12,677.69,0.0,5,3,2,3
10000_500_200_9_8,6,0,3,0,99.1,0.0,563.53,0.0,6,5,3,7
10000_500_200_9_9,5,3,2,0,169.6,67.11,591.58,0.0,5,3,2,3
1000_500_250_9_0,75,2,7,0,206.6,0.94,395.45,0.0,118,92,104,104
1000_500_250_9_1,92,14,22,0,188.21,22.51,392.52,0.0,110,84,93,98
1000_500_250_9_2,64,8,7,1,298.6,15.67,290.33,0.01,64,54,57,56
1000_500_250_9_3,74,7,10,0,296.72,7.39,298.67,0.0,74,61,66,70
1000_500_250_9_4,46,8,12,0,257.57,7.29,337.5,0.0,80,72,76,75
1000_500_250_9_5,54,9,15,0,272.6,12.82,316.97,0.0,80,62,72,70
1000_500_250_9_6,97,10,18,0,174.86,4.75,423.05,0.0,112,89,96,101
1000_500_250_9_7,75,15,19,0,261.94,28.99,309.59,0.0,75,61,68,70
1000_500_250_9_8,72,12,20,0,353.41,21.92,227.91,0.0,72,61,61,67
1000_500_250_9_9,79,17,22,0,256.83,20.6,323.45,0.0,111,89,93,99
500_250_100_9_0,501,67,130,0,219.01,15.05,365.45,0.0,715,735,747,719
500_250_100_9_1,427,38,93,0,213.33,6.85,379.08,0.0,893,914,915,893
500_250_100_9_2,407,42,100,2,208.48,14.28,376.49,0.0,820,824,853,819
500_250_100_9_3,389,38,48,1,247.67,18.55,333.4,0.0,594,609,602,602
500_250_100_9_4,337,59,92,1,236.19,29.44,334.11,0.0,466,470,465,473
500_250_100_9_5,353,43,67,3,290.69,32.49,276.55,0.01,385,388,367,394
500_250_100_9_6,347,41,86,0,266.04,14.96,319.21,0.0,433,464,450,454
500_250_100_9_7,359,51,78,1,215.27,25.27,359.66,0.0,429,442,428,439
500_250_100_9_8,323,30,54,1,245.54,11.7,342.84,0.0,470,486,484,486
500_250_100_9_9,294,33,67,1,210.3,11.81,377.22,0.0,595,615,615,606
100_75_50_9_0,4702,3161,3842,0,55.05,49.34,358.96,0.0,29807,30099,29873,30221
100_75_50_9_1,3148,3157,3333,0,22.74,51.85,356.54,0.0,29923,29950,30026,30101
100_75_50_9_2,3685,3736,3669,1,21.99,63.58,381.66,0.0,29880,29945,30068,30107
100_75_50_9_3,3143,2403,3155,0,22.85,35.56,384.03,0.0,29977,30068,29982,29973
100_75_50_9_4,9054,3198,4508,0,151.05,57.05,334.4,0.0,29863,30096,29987,30054
100_75_50_9_5,2965,2211,2992,0,24.25,28.12,384.86,0.0,29967,30067,29978,29988
100_75_50_9_6,1828,1441,2066,0,9.68,14.49,370.05,0.0,29895,29954,30011,30140
100_75_50_9_7,5144,3624,4153,0,50.9,78.63,356.31,0.0,29972,30025,29815,30188
100_75_50_9_8,6573,3235,3843,0,87.74,56.38,336.31,0.0,29978,29945,30041,30036
100_75_50_9_9,3494,2198,2959,0,21.9,25.94,345.06,0.0,29976,29898,30008,30118
10000_500_200_13_0,0,0,0,0,0.0,0.0,1265.31,0.0,2,2,1,3
10000_500_200_13_1,0,0,0,0,0.0,0.0,1359.41,0.0,1,1,1,2
10000_500_200_13_2,0,0,0,0,0.0,0.0,1280.59,0.0,2,2,1,4
10000_500_200_13_3,0,0,0,0,0.0,0.0,1431.56,0.0,1,1,1,3
10000_500_200_13_4,0,0,0,0,0.0,0.0,1273.8,0.0,2,2,1,4
10000_500_200_13_5,0,0,0,0,0.0,0.0,1272.77,0.0,1,1,1,2
10000_500_200_13_6,0,0,0,0,0.0,0.0,1328.41,0.0,2,2,1,3
10000_500_200_13_7,0,0,0,0,0.0,0.0,1145.25,0.0,2,2,1,3
10000_500_200_13_8,0,0,0,0,0.0,0.0,960.37,0.0,2,3,1,5
10000_500_200_13_9,0,0,0,0,0.0,0.0,842.34,0.0,2,2,1,3
1000_500_250_13_0,51,12,5,0,81.59,2.75,525.73,0.0,51,43,41,49
1000_500_250_13_1,28,0,10,0,3.85,0.0,599.07,0.0,53,43,46,48
1000_500_250_13_2,52,0,1,0,31.06,0.0,580.3,0.0,52,42,46,46
1000_500_250_13_3,52,0,6,0,10.26,0.0,596.41,0.0,56,49,51,52
1000_500_250_13_4,53,7,11,0,39.41,0.25,571.98,0.0,53,47,48,50
1000_500_250_13_5,50,0,4,0,119.98,0.0,484.32,0.0,50,40,41,46
1000_500_250_13_6,6,0,13,0,0.34,0.0,609.86,0.0,56,49,51,52
1000_500_250_13_7,56,0,8,0,23.25,0.0,587.13,0.0,56,47,50,49
1000_500_250_13_8,50,0,10,0,13.11,0.0,596.18,0.0,56,49,49,52
1000_500_250_13_9,50,0,2,0,75.36,0.0,532.63,0.0,54,45,45,48
500_250_100_13_0,30,0,0,0,0.94,0.0,598.94,0.0,343,359,335,358
500_250_100_13_1,85,1,13,0,5.12,0.01,595.42,0.0,373,388,369,397
500_250_100_13_2,194,2,4,0,112.99,0.07,488.36,0.0,194,191,174,206
500_250_100_13_3,174,1,7,0,30.53,0.01,570.97,0.0,227,216,205,236
500_250_100_13_4,161,14,5,0,154.16,2.23,444.07,0.0,161,151,149,168
500_250_100_13_5,88,1,3,0,27.85,0.04,573.78,0.0,211,206,193,221
500_250_100_13_6,158,0,1,0,119.79,0.0,480.81,0.0,179,183,163,194
500_250_100_13_7,196,5,2,0,99.99,0.42,499.64,0.0,196,188,167,200
500_250_100_13_8,16,0,7,0,0.64,0.0,600.92,0.0,224,216,205,232
500_250_100_13_9,19,0,1,0,0.82,0.0,600.57,0.0,206,203,193,226
100_75_50_13_0,9047,2622,104,0,229.36,36.76,332.33,0.0,10406,10572,10452,10400
100_75_50_13_1,2856,48,159,0,11.95,0.07,581.29,0.0,19093,19144,19126,19244
100_75_50_13_2,10064,41,139,0,129.04,0.12,466.12,0.0,18319,18360,18484,18446
100_75_50_13_3,1366,24,276,0,4.34,0.06,587.77,0.0,21944,22223,22038,22175
100_75_50_13_4,12078,190,370,0,234.17,0.88,362.52,0.0,13897,14086,13847,14002
100_75_50_13_5,855,0,103,0,2.22,0.0,591.38,0.0,18005,18214,17985,18141
100_75_50_13_6,1092,8,27,0,6.21,0.02,588.34,0.0,16195,16231,16278,16520
100_75_50_13_7,1257,4,111,0,4.23,0.01,587.91,0.0,21840,21997,21777,22078
100_75_50_13_8,2105,0,77,0,11.35,0.0,582.57,0.0,18525,18662,18565,18631
100_75_50_13_9,4126,17,92,0,23.94,0.04,569.89,0.0,19312,19349,19341,19558
10000_500_200_17_0,5,0,0,0,44.71,0.0,584.33,0.0,5,3,2,3
10000_500_200_17_1,5,1,1,0,8.36,0.93,859.57,0.0,5,3,3,4
10000_500_200_17_2,5,1,1,0,68.62,2.73,577.27,0.0,5,3,2,4
10000_500_200_17_3,4,2,2,0,33.02,9.04,686.57,0.0,4,2,2,3
10000_500_200_17_4,5,0,0,0,52.12,0.0,592.18,0.0,5,3,2,4
10000_500_200_17_5,4,2,2,0,40.09,10.57,719.96,0.0,4,2,2,2
10000_500_200_17_6,3,0,1,0,2.02,0.0,612.15,0.0,5,3,2,3
10000_500_200_17_7,5,1,2,0,80.93,5.94,685.42,0.0,5,3,2,3
10000_500_200_17_8,5,2,2,0,15.72,7.29,611.11,0.0,5,4,2,5
10000_500_200_17_9,6,1,2,0,16.68,1.79,858.61,0.0,6,4,3,5
1000_500_250_17_0,62,0,3,0,34.52,0.0,565.53,0.0,106,82,90,92
1000_500_250_17_1,90,2,5,0,114.22,0.34,487.63,0.0,91,72,83,84
1000_500_250_17_2,65,3,6,0,74.45,0.19,528.62,0.0,101,78,89,89
1000_500_250_17_3,67,6,14,0,22.0,0.25,577.9,0.0,128,101,119,121
1000_500_250_17_4,103,2,6,0,51.31,0.11,550.35,0.0,125,103,113,115
1000_500_250_17_5,116,3,8,0,106.94,2.18,490.99,0.0,128,95,111,112
1000_500_250_17_6,81,1,5,0,25.06,0.24,577.1,0.0,139,114,129,134
1000_500_250_17_7,120,3,10,0,73.25,0.38,527.01,0.0,134,105,126,131
1000_500_250_17_8,125,6,11,0,75.27,1.67,524.89,0.0,137,113,128,131
1000_500_250_17_9,124,6,11,0,97.85,1.91,500.41,0.0,139,118,131,134
500_250_100_17_0,378,24,73,1,57.14,2.2,540.14,0.0,874,892,913,867
500_250_100_17_1,170,7,41,0,33.55,0.45,565.24,0.0,591,619,623,614
500_250_100_17_2,247,16,45,0,99.74,2.28,497.03,0.0,499,516,515,519
500_250_100_17_3,272,15,32,0,89.06,2.74,507.38,0.0,542,552,544,558
500_250_100_17_4,266,21,30,1,63.8,3.93,531.42,0.0,556,561,557,567
500_250_100_17_5,242,29,33,1,78.11,7.12,514.18,0.0,484,497,491,498
500_250_100_17_6,246,17,34,0,71.02,2.45,525.84,0.0,520,563,541,552
500_250_100_17_7,187,8,32,0,72.42,1.72,525.01,0.0,445,466,456,455
500_250_100_17_8,299,18,41,0,112.55,3.14,484.47,0.0,474,489,487,492
500_250_100_17_9,223,14,44,0,59.87,1.75,537.35,0.0,510,535,527,539
100_75_50_17_0,9419,1531,2410,152,201.8,34.23,358.8,0.03,23441,23672,23471,23778
100_75_50_17_1,8206,2068,2398,93,135.42,32.74,425.11,0.02,28417,28421,28484,28576
100_75_50_17_2,6585,1421,2551,65,116.87,21.18,454.08,0.02,28828,28938,29028,29073
100_75_50_17_3,6448,2593,3673,79,83.45,48.01,462.34,0.02,26068,26318,26156,26204
100_75_50_17_4,9273,1370,2758,97,208.36,27.3,357.65,0.02,28181,28419,28264,28316
100_75_50_17_5,7456,1860,2824,95,119.87,31.93,442.39,0.03,24207,24445,24251,24387
100_75_50_17_6,4196,2142,3186,33,38.56,30.58,523.89,0.01,27454,27500,27570,27749
100_75_50_17_7,4700,1251,2497,40,77.39,16.09,365.93,0.01,29972,30025,29815,30188
100_75_50_17_8,8535,1606,2763,117,173.49,33.7,386.57,0.03,29153,29163,29282,29311
100_75_50_17_9,8605,2137,3417,151,107.31,28.76,428.99,0.03,29976,29898,30008,30118
10000_500_200_21_0,6,2,1,0,186.84,13.79,424.66,0.0,6,3,2,4
10000_500_200_21_1,5,3,3,0,58.31,15.15,609.95,0.0,5,3,3,4
10000_500_200_21_2,5,2,2,0,131.33,24.37,523.98,0.0,5,3,2,4
10000_500_200_21_3,5,1,1,0,49.99,7.17,594.53,0.0,5,3,3,5
10000_500_200_21_4,5,3,2,0,116.03,66.65,569.24,0.0,5,3,2,4
10000_500_200_21_5,4,2,2,0,33.35,57.43,865.64,0.0,4,2,2,2
10000_500_200_21_6,6,2,3,0,72.71,18.12,570.05,0.0,6,4,3,5
10000_500_200_21_7,5,3,2,0,80.82,86.99,651.31,0.0,5,3,2,3
10000_500_200_21_8,6,0,3,0,98.83,0.0,558.86,0.0,6,5,3,7
10000_500_200_21_9,5,3,2,0,147.85,57.28,507.16,0.0,5,3,2,3
1000_500_250_21_0,95,2,9,0,200.92,0.67,400.23,0.0,138,108,127,129
1000_500_250_21_1,101,14,23,0,219.99,20.33,364.51,0.0,119,91,108,108
1000_500_250_21_2,89,12,13,1,311.69,14.24,276.3,0.0,89,72,83,83
1000_500_250_21_3,108,8,20,0,262.64,7.08,332.91,0.0,116,92,107,109
1000_500_250_21_4,94,9,17,0,250.7,4.65,346.58,0.0,128,107,122,122
1000_500_250_21_5,94,12,21,0,241.35,8.09,352.51,0.0,138,103,125,126
1000_500_250_21_6,129,11,21,0,239.6,3.1,359.26,0.0,144,122,135,138
1000_500_250_21_7,117,21,28,0,256.59,19.63,326.28,0.0,124,97,111,113
1000_500_250_21_8,88,12,21,0,384.4,14.8,204.89,0.0,88,73,77,84
1000_500_250_21_9,64,9,12,0,312.23,22.37,267.34,0.0,64,54,53,55
500_250_100_21_0,351,54,93,0,233.74,17.25,348.82,0.0,476,509,500,499
500_250_100_21_1,299,27,72,0,234.07,6.11,360.37,0.0,597,622,628,617
500_250_100_21_2,307,30,71,2,226.83,16.09,356.66,0.0,543,564,562,565
500_250_100_21_3,384,36,47,1,248.47,16.23,334.41,0.0,589,607,600,599
500_250_100_21_4,341,59,92,1,236.46,27.92,335.44,0.0,470,473,471,477
500_250_100_21_5,332,40,64,3,289.24,33.75,277.24,0.01,364,366,347,372
500_250_100_21_6,352,42,91,0,264.87,15.28,319.45,0.0,438,469,455,456
500_250_100_21_7,371,52,78,1,212.58,24.95,362.15,0.0,441,460,450,450
500_250_100_21_8,327,30,54,1,249.9,11.75,338.99,0.0,474,489,486,492
500_250_100_21_9,287,33,65,1,210.43,11.84,376.69,0.0,588,614,607,606
100_75_50_21_0,4702,3161,3842,0,55.34,49.43,359.23,0.0,29807,30099,29873,30221
100_75_50_21_1,3148,3157,3333,0,22.46,51.99,355.04,0.0,29923,29950,30026,30101
100_75_50_21_2,3685,3736,3669,1,20.12,58.76,350.72,0.0,29880,29945,30068,30107
100_75_50_21_3,3143,2403,3155,0,19.88,30.57,323.75,0.0,29977,30068,29982,29973
100_75_50_21_4,9054,3198,4508,0,126.53,47.98,280.79,0.0,29863,30096,29987,30054
100_75_50_21_5,2965,2211,2992,0,18.4,21.33,287.72,0.0,29967,30067,29978,29988
100_75_50_21_6,1828,1441,2066,0,7.41,11.06,277.33,0.0,29895,29954,30011,30140
100_75_50_21_7,5144,3624,4153,0,36.87,56.37,257.78,0.0,29972,30025,29815,30188
100_75_50_21_8,6573,3235,3843,0,61.45,40.89,245.43,0.0,29978,29945,30041,30036
100_75_50_21_9,3494,2198,2959,0,23.25,27.27,362.5,0.0,29976,29898,30008,30118
10000_500_200_25_0,0,0,0,0,0.0,0.0,1304.01,0.0,2,2,1,3
10000_500_200_25_1,0,0,0,0,0.0,0.0,1289.62,0.0,1,1,1,2
10000_500_200_25_2,0,0,0,0,0.0,0.0,1118.68,0.0,2,2,1,4
10000_500_200_25_3,0,0,0,0,0.0,0.0,888.24,0.0,1,1,1,3
10000_500_200_25_4,0,0,0,0,0.0,0.0,852.6,0.0,2,2,1,4
10000_500_200_25_5,0,0,0,0,0.0,0.0,796.4,0.0,1,1,1,2
10000_500_200_25_6,0,0,0,0,0.0,0.0,735.97,0.0,2,2,1,3
10000_500_200_25_7,0,0,0,0,0.0,0.0,730.1,0.0,2,2,1,3
10000_500_200_25_8,0,0,0,0,0.0,0.0,720.32,0.0,2,3,1,5
10000_500_200_25_9,0,0,0,0,0.0,0.0,724.67,0.0,2,2,1,3
1000_500_250_25_0,53,12,5,0,78.22,2.36,521.96,0.0,53,43,45,49
1000_500_250_25_1,29,0,10,0,3.3,0.0,600.27,0.0,63,52,55,55
1000_500_250_25_2,62,0,1,0,28.33,0.0,579.14,0.0,62,51,55,54
1000_500_250_25_3,59,0,7,0,9.42,0.0,597.16,0.0,67,55,57,63
1000_500_250_25_4,60,7,11,0,41.19,0.23,558.49,0.0,60,51,52,53
1000_500_250_25_5,53,0,4,0,115.39,0.0,490.5,0.0,53,41,46,47
1000_500_250_25_6,6,0,13,0,0.31,0.0,603.27,0.0,63,55,56,59
1000_500_250_25_7,63,0,8,0,23.52,0.0,576.63,0.0,63,52,54,55
1000_500_250_25_8,37,0,7,0,19.82,0.0,585.72,0.0,37,33,29,30
1000_500_250_25_9,32,0,0,0,112.51,0.0,502.63,0.0,32,26,25,25
500_250_100_25_0,21,0,0,0,1.27,0.0,600.7,0.0,207,214,200,230
500_250_100_25_1,53,0,5,0,5.67,0.0,593.79,0.0,223,222,209,245
500_250_100_25_2,192,2,4,0,112.95,0.07,488.05,0.0,192,187,172,202
500_250_100_25_3,162,1,7,0,30.86,0.01,569.31,0.0,215,208,195,231
500_250_100_25_4,161,14,5,0,158.28,2.45,439.91,0.0,161,148,145,168
500_250_100_25_5,89,1,3,0,28.69,0.05,572.39,0.0,212,210,197,226
500_250_100_25_6,170,0,2,0,127.52,0.0,473.63,0.0,191,191,171,204
500_250_100_25_7,208,5,2,0,95.28,0.34,504.25,0.0,208,205,186,216
500_250_100_25_8,16,0,7,0,0.51,0.0,599.47,0.0,254,248,243,268
500_250_100_25_9,30,0,1,0,1.35,0.0,599.04,0.0,258,251,249,284
100_75_50_25_0,12209,3567,146,0,228.4,37.29,332.83,0.0,14081,14215,14118,14207
100_75_50_25_1,4333,73,251,0,11.76,0.07,581.82,0.0,29004,29001,29093,29183
100_75_50_25_2,15120,56,206,0,127.04,0.11,468.61,0.0,27292,27364,27411,27484
100_75_50_25_3,1795,34,388,0,3.95,0.06,568.93,0.0,29977,30068,29982,29973
100_75_50_25_4,17475,268,523,0,231.5,0.86,365.39,0.0,20053,20363,20169,20279
100_75_50_25_5,1409,0,161,0,2.24,0.0,591.59,0.0,29474,29547,29484,29510
100_75_50_25_6,1729,15,50,0,5.95,0.02,588.73,0.0,26125,26214,26273,26423
100_75_50_25_7,1762,5,157,0,3.65,0.01,496.26,0.0,29972,30025,29815,30188
100_75_50_25_8,2055,0,76,0,11.18,0.0,582.73,0.0,17925,18041,17918,18030
100_75_50_25_9,4146,17,92,0,24.03,0.04,569.85,0.0,19392,19447,19423,19657
10000_500_200_29_0,5,0,0,0,54.72,0.0,625.25,0.0,5,3,2,3
10000_500_200_29_1,5,1,1,0,7.67,0.99,840.33,0.0,5,3,3,4
10000_500_200_29_2,5,1,1,0,66.04,2.83,573.35,0.0,5,3,2,4
10000_500_200_29_3,4,2,2,0,29.72,7.46,693.72,0.0,4,2,2,3
10000_500_200_29_4,6,0,0,0,47.57,0.0,749.43,0.0,6,4,3,6
10000_500_200_29_5,5,2,2,0,29.79,7.11,727.74,0.0,5,3,3,4
10000_500_200_29_6,3,0,1,0,1.01,0.0,747.29,0.0,8,8,4,8
10000_500_200_29_7,6,1,2,0,52.82,5.25,557.18,0.0,6,4,3,5
10000_500_200_29_8,8,2,2,0,12.19,3.87,682.72,0.0,8,9,4,10
10000_500_200_29_9,8,1,2,0,11.98,1.02,660.25,0.0,8,8,4,8
1000_500_250_29_0,106,0,3,0,50.85,0.0,549.6,0.0,150,138,149,144
1000_500_250_29_1,131,4,8,0,95.27,0.92,507.04,0.0,142,121,134,135
1000_500_250_29_2,83,4,8,0,55.76,0.16,546.92,0.0,142,120,136,133
1000_500_250_29_3,91,7,17,0,22.19,0.25,577.39,0.0,155,151,161,165
1000_500_250_29_4,121,2,11,0,47.96,0.1,553.11,0.0,143,133,140,137
1000_500_250_29_5,128,3,10,0,107.37,2.02,492.12,0.0,140,105,127,128
1000_500_250_29_6,85,1,5,0,20.83,0.22,580.54,0.0,149,141,153,150
1000_500_250_29_7,82,3,6,0,57.3,0.64,542.62,0.0,88,72,80,84
1000_500_250_29_8,76,5,7,0,71.53,2.29,527.82,0.0,88,75,81,84
1000_500_250_29_9,78,6,7,0,132.24,3.41,468.86,0.0,78,67,70,71
500_250_100_29_0,242,15,45,1,66.29,2.95,530.11,0.0,516,550,534,541
500_250_100_29_1,169,7,41,0,33.01,0.42,565.62,0.0,587,615,618,604
500_250_100_29_2,250,16,47,0,98.62,2.21,498.2,0.0,502,517,520,522
500_250_100_29_3,272,15,32,0,90.12,2.74,506.51,0.0,542,552,547,560
500_250_100_29_4,277,25,32,1,70.05,4.68,524.58,0.0,575,587,579,587
500_250_100_29_5,246,29,36,1,71.72,5.37,522.43,0.0,548,569,562,568
500_250_100_29_6,289,25,44,0,66.21,2.17,531.27,0.0,683,718,724,698
500_250_100_29_7,257,13,41,0,61.49,2.1,536.23,0.0,608,632,631,619
500_250_100_29_8,397,26,51,0,103.32,2.77,493.18,0.0,681,696,709,676
500_250_100_29_9,348,23,65,0,58.14,1.48,539.41,0.0,789,793,816,791
100_75_50_29_0,11996,1939,3032,184,161.33,26.88,289.0,0.02,29807,30099,29873,30221
100_75_50_29_1,8556,2211,2534,95,88.79,22.58,292.29,0.01,29923,29950,30026,30101
100_75_50_29_2,6814,1463,2630,68,71.97,12.87,283.38,0.01,29880,29945,30068,30107
100_75_50_29_3,7292,2953,4212,86,56.74,32.91,326.49,0.01,29977,30068,29982,29973
100_75_50_29_4,9968,1468,2935,104,135.57,17.47,229.26,0.01,29863,30096,29987,30054
100_75_50_29_5,9326,2324,3546,119,92.12,24.17,332.83,0.02,29967,30067,29978,29988
100_75_50_29_6,4138,2116,3140,33,38.5,30.95,523.51,0.01,27066,27143,27187,27358
100_75_50_29_7,4700,1251,2497,40,81.33,16.92,377.73,0.01,29972,30025,29815,30188
100_75_50_29_8,7895,1461,2510,110,176.36,33.3,383.94,0.03,26575,26638,26637,26711
100_75_50_29_9,7928,1970,3149,139,113.93,30.3,449.09,0.03,27436,27398,27484,27701
10000_500_200_33_0,6,2,1,0,179.61,14.7,578.51,0.0,6,4,3,5
10000_500_200_33_1,5,3,3,0,53.99,13.81,566.48,0.0,5,3,3,4
10000_500_200_33_2,6,2,3,0,134.03,20.94,605.43,0.0,6,4,3,6
10000_500_200_33_3,7,1,1,0,46.68,6.35,639.22,0.0,7,7,5,8
10000_500_200_33_4,6,4,3,0,93.0,41.69,542.25,0.0,6,4,3,6
10000_500_200_33_5,6,5,3,0,31.16,37.67,535.04,0.0,6,5,3,5
10000_500_200_33_6,8,2,4,0,50.48,10.75,580.76,0.0,8,8,5,8
10000_500_200_33_7,6,4,3,0,56.73,46.62,518.33,0.0,6,4,3,5
10000_500_200_33_8,8,4,5,0,79.93,1.64,527.75,0.0,8,9,5,10
10000_500_200_33_9,6,4,3,0,115.27,36.14,459.53,0.0,6,4,3,5
1000_500_250_33_0,123,3,15,0,197.18,1.85,403.49,0.0,166,161,167,171
1000_500_250_33_1,120,17,27,0,254.54,15.09,331.17,0.0,138,110,128,131
1000_500_250_33_2,104,13,13,1,328.97,14.09,260.41,0.0,104,79,89,91
1000_500_250_33_3,135,8,22,0,246.99,5.13,348.64,0.0,143,126,139,138
1000_500_250_33_4,102,12,20,0,262.82,5.96,331.81,0.0,136,112,126,129
1000_500_250_33_5,106,12,24,0,258.54,6.72,337.74,0.0,150,131,146,142
1000_500_250_33_6,97,10,18,0,176.85,5.2,425.24,0.0,112,88,95,100
1000_500_250_33_7,68,13,16,0,291.0,29.25,280.23,0.0,68,56,57,63
1000_500_250_33_8,55,12,14,0,350.42,25.44,226.92,0.0,55,47,48,51
1000_500_250_33_9,70,10,15,0,300.64,18.83,283.11,0.0,76,64,65,69
500_250_100_33_0,390,57,100,0,213.51,18.92,367.11,0.0,574,610,601,591
500_250_100_33_1,371,31,85,0,217.73,5.02,376.63,0.0,796,814,829,814
500_250_100_33_2,355,38,86,2,215.6,16.72,366.74,0.0,711,730,744,714
500_250_100_33_3,539,61,88,1,240.52,19.34,339.77,0.0,844,829,862,827
500_250_100_33_4,473,78,124,3,244.23,28.73,326.7,0.0,608,612,612,613
500_250_100_33_5,495,69,94,3,288.31,30.74,281.07,0.01,527,542,530,539
500_250_100_33_6,535,87,139,0,216.51,22.18,360.81,0.0,756,789,797,767
500_250_100_33_7,554,80,114,3,211.27,26.9,361.93,0.0,648,671,672,656
500_250_100_33_8,517,49,93,1,248.89,11.86,338.84,0.0,829,825,858,815
500_250_100_33_9,544,69,107,2,218.68,17.56,362.91,0.0,937,943,945,922
100_75_50_33_0,4702,3161,3842,0,31.28,27.99,207.95,0.0,29807,30099,29873,30221
100_75_50_33_1,3148,3157,3333,0,12.93,29.48,209.75,0.0,29923,29950,30026,30101
100_75_50_33_2,3685,3736,3669,1,12.31,35.54,217.65,0.0,29880,29945,30068,30107
100_75_50_33_3,3143,2403,3155,0,12.92,19.85,215.16,0.0,29977,30068,29982,29973
100_75_50_33_4,9054,3198,4508,0,88.14,32.73,194.26,0.0,29863,30096,29987,30054
100_75_50_33_5,2965,2211,2992,0,25.04,28.73,383.72,0.0,29967,30067,29978,29988
100_75_50_33_6,1828,1441,2066,0,9.55,14.48,360.96,0.0,29895,29954,30011,30140
100_75_50_33_7,5144,3624,4153,0,48.52,75.72,343.08,0.0,29972,30025,29815,30188
100_75_50_33_8,6573,3235,3843,0,93.49,59.52,356.66,0.0,29978,29945,30041,30036
100_75_50_33_9,3494,2198,2959,0,22.97,26.92,355.31,0.0,29976,29898,30008,30118
Falkenauer_u120_03,9334,0,1684,0,3.13,0.0,102.49,0.0,29734,30027,29991,30248
Falkenauer_t501_05,343,16,20,0,598.98,0.32,0.86,0.0,343,394,391,396
Falkenauer_u120_07,8112,0,2382,0,3.64,0.0,140.41,0.0,29764,30170,30005,30061
Falkenauer_u1000_03,1978,47,82,9,513.62,1.38,84.07,0.0,1978,2005,1927,2012
Falkenauer_u500_04,17466,182,757,26,316.39,0.63,280.97,0.0,17697,18047,17856,17926
Falkenauer_u500_09,17178,174,791,43,274.71,0.69,322.23,0.0,17669,17684,17673,17903
Falkenauer_u500_01,13319,108,379,33,241.41,0.6,355.26,0.01,14099,14226,14087,14167
Falkenauer_u500_05,21663,232,1162,92,278.51,0.94,318.24,0.01,22441,22715,22478,22710
Falkenauer_u120_06,6017,0,2346,0,1.15,0.0,102.09,0.0,29769,30117,29940,30174
Falkenauer_u1000_08,2048,73,84,3,530.83,2.59,65.61,0.0,2048,2074,2006,2099
Falkenauer_t120_06,19705,285,809,107,565.81,0.67,32.29,0.01,19705,19774,19825,20147
Falkenauer_u1000_01,2664,83,144,10,489.81,2.67,106.41,0.0,2664,2666,2607,2664
Falkenauer_u120_00,8727,0,1024,0,4.5,0.0,139.3,0.0,29754,30061,29905,30280
Falkenauer_u120_04,13974,3,1060,22,21.07,0.0,277.64,0.0,29903,29998,29862,30237
Falkenauer_t120_08,21942,11,1052,1,494.8,0.02,103.94,0.0,21942,21955,21935,22140
Falkenauer_u120_01,6575,0,944,1,4.53,0.0,212.62,0.0,29970,29928,29943,30159
Falkenauer_t501_00,168,7,10,0,599.76,0.45,0.48,0.0,168,179,185,166
Falkenauer_u1000_05,1783,63,104,8,536.28,2.35,60.84,0.0,1783,1813,1744,1799
Falkenauer_t501_01,493,23,23,3,598.62,0.58,1.62,0.0,493,517,497,513
Falkenauer_t120_07,25690,150,727,1,583.34,0.26,14.98,0.0,25690,25742,25570,25722
Falkenauer_u500_03,11584,82,384,21,357.67,0.37,239.91,0.0,11728,11847,11796,11807
Falkenauer_t120_01,21472,125,515,27,548.17,0.32,50.27,0.0,21472,21664,21661,21497
Falkenauer_u500_02,22766,209,757,51,293.3,0.63,303.78,0.0,23431,23876,23559,23694
Falkenauer_t501_02,144,2,11,0,601.58,0.09,2.17,0.0,144,156,156,148
Falkenauer_t120_05,29718,86,328,12,388.44,0.1,46.04,0.0,29718,30223,29944,30115
Falkenauer_t501_04,373,20,36,2,598.88,0.56,1.7,0.0,373,400,407,409
Falkenauer_t501_09,144,10,10,0,599.49,0.8,2.39,0.0,144,158,158,150
Falkenauer_u120_02,8742,0,1314,0,4.24,0.0,176.33,0.0,29823,30069,29820,30288
Falkenauer_u1000_00,4042,132,181,15,499.45,3.14,96.19,0.0,4043,4129,3966,4095
Falkenauer_t120_03,29727,92,496,2,360.54,0.11,46.27,0.0,29727,30112,30122,30039
Falkenauer_t120_02,28332,83,669,16,551.58,0.15,47.12,0.0,28332,28434,28446,28840
Falkenauer_t501_06,475,13,28,2,598.38,0.21,1.81,0.0,475,476,498,490
Falkenauer_u120_08,9921,0,1582,0,5.24,0.0,161.76,0.0,29671,30174,29913,30242
Falkenauer_u1000_06,3288,103,173,7,520.1,2.18,76.65,0.0,3288,3324,3173,3310
Falkenauer_u1000_09,2106,64,113,13,524.41,2.51,72.27,0.0,2106,2104,2050,2150
Falkenauer_u500_07,9427,79,373,22,367.51,0.46,230.39,0.0,9445,9781,9621,9661
Falkenauer_u1000_07,2614,78,147,5,489.84,2.15,106.77,0.0,2614,2609,2560,2606
Falkenauer_t501_03,533,11,34,0,597.7,0.14,2.13,0.0,533,582,590,546
Falkenauer_t120_00,20034,497,783,239,558.97,1.37,38.54,0.02,20034,20075,20025,20295
Falkenauer_u1000_02,3321,96,153,19,488.63,2.71,107.49,0.0,3323,3363,3204,3348
Falkenauer_t501_08,290,9,26,0,598.69,0.44,2.22,0.0,290,313,321,323
Falkenauer_u500_06,15606,53,595,22,315.24,0.16,282.49,0.0,15798,15958,15858,16028
Falkenauer_u500_00,24964,196,867,16,324.44,0.52,272.58,0.0,25409,25653,25444,25677
Falkenauer_t501_07,359,11,16,1,598.99,0.22,1.2,0.0,359,415,382,410
Falkenauer_u120_05,7958,0,1254,0,3.78,0.0,159.49,0.0,29871,30076,29807,30246
Falkenauer_u120_09,12788,0,1639,0,9.07,0.0,142.45,0.0,29755,30112,29957,30176
Falkenauer_t120_04,29885,0,151,0,391.22,0.0,99.68,0.0,29885,29948,29952,30215
Falkenauer_t120_09,28073,92,322,3,567.21,0.14,31.44,0.0,28073,28502,28260,28472
Falkenauer_u1000_04,4643,169,245,13,501.22,3.66,93.91,0.0,4643,4673,4555,4716
Falkenauer_u500_08,17565,156,1085,63,296.08,0.83,300.18,0.01,18084,18124,18088,18329
