TIMEOUT
TIMEOUT
TIMEOUT
iteration 0 sol 12918041.00
Number of iterations = 1
Best Solution was found in iteration = 0
Time used by neighbor | Times each neighbor was used | Improvements
N_1 = 0.02 | 1 | 0
N_2 = 0.00 | 0 | 0
N_3 = 0.00 | 0 | 0
N_4 = 0.00 | 0 | 0
Time to find the best solution = 601.39
Solution = 12918041.00
Time = 601.39
