solucao atual 3745.00
solucao atual 3745.00
solucao atual 3745.00
solucao atual 3745.00
solucao atual 3745.00
solucao atual 3750.00
solucao atual 3750.00
solucao atual 3750.00
solucao atual 3750.00
solucao atual 3750.00
solucao atual 3750.00
solucao atual 3750.00
solucao atual 3750.00
solucao atual 3750.00
solucao atual 3750.00
solucao atual 3750.00
solucao atual 3750.00
solucao atual 3750.00
solucao atual 3750.00
iteration 0 sol 3750.00
solucao atual 3750.00
solucao atual 3750.00
solucao atual 3750.00
solucao atual 3750.00
solucao atual 3750.00
solucao atual 3750.00
solucao atual 3750.00
solucao atual 3750.00
solucao atual 3750.00
solucao atual 3750.00
solucao atual 3750.00
solucao atual 3750.00
solucao atual 3750.00
solucao atual 3750.00
iteration 1 sol 3750.00
solucao atual 3747.00
solucao atual 3747.00
solucao atual 3747.00
solucao atual 3747.00
solucao atual 3747.00
solucao atual 3747.00
solucao atual 3747.00
solucao atual 3747.00
solucao atual 3747.00
solucao atual 3747.00
solucao atual 3750.00
solucao atual 3750.00
solucao atual 3750.00
solucao atual 3750.00
solucao atual 3750.00
solucao atual 3750.00
solucao atual 3750.00
solucao atual 3750.00
solucao atual 3750.00
solucao atual 3750.00
solucao atual 3750.00
solucao atual 3750.00
solucao atual 3750.00
solucao atual 3750.00
iteration 2 sol 3750.00
solucao atual 3748.00
solucao atual 3748.00
solucao atual 3748.00
solucao atual 3748.00
solucao atual 3748.00
solucao atual 3749.00
solucao atual 3749.00
solucao atual 3749.00
solucao atual 3749.00
solucao atual 3749.00
solucao atual 3749.00
solucao atual 3749.00
solucao atual 3749.00
solucao atual 3749.00
solucao atual 3749.00
solucao atual 3749.00
solucao atual 3749.00
solucao atual 3749.00
solucao atual 3749.00
iteration 3 sol 3749.00
solucao atual 3749.00
solucao atual 3749.00
solucao atual 3749.00
solucao atual 3749.00
solucao atual 3749.00
solucao atual 3749.00
solucao atual 3749.00
solucao atual 3749.00
solucao atual 3749.00
solucao atual 3750.00
solucao atual 3750.00
solucao atual 3750.00
solucao atual 3750.00
solucao atual 3750.00
solucao atual 3750.00
solucao atual 3750.00
solucao atual 3750.00
solucao atual 3750.00
solucao atual 3750.00
solucao atual 3750.00
solucao atual 3750.00
solucao atual 3750.00
solucao atual 3750.00
iteration 4 sol 3750.00
solucao atual 3748.00
solucao atual 3748.00
solucao atual 3748.00
solucao atual 3748.00
solucao atual 3748.00
solucao atual 3748.00
solucao atual 3749.00
solucao atual 3749.00
solucao atual 3749.00
solucao atual 3749.00
solucao atual 3749.00
solucao atual 3749.00
solucao atual 3749.00
solucao atual 3749.00
solucao atual 3749.00
solucao atual 3749.00
solucao atual 3749.00
solucao atual 3749.00
solucao atual 3749.00
solucao atual 3749.00
iteration 5 sol 3749.00
solucao atual 3746.00
solucao atual 3746.00
solucao atual 3746.00
solucao atual 3746.00
solucao atual 3746.00
solucao atual 3746.00
solucao atual 3746.00
solucao atual 3746.00
solucao atual 3750.00
solucao atual 3750.00
solucao atual 3750.00
solucao atual 3750.00
solucao atual 3750.00
solucao atual 3750.00
solucao atual 3750.00
solucao atual 3750.00
solucao atual 3750.00
solucao atual 3750.00
solucao atual 3750.00
solucao atual 3750.00
solucao atual 3750.00
solucao atual 3750.00
iteration 6 sol 3750.00
solucao atual 3744.00
solucao atual 3744.00
solucao atual 3744.00
solucao atual 3744.00
solucao atual 3744.00
solucao atual 3744.00
solucao atual 3746.00
solucao atual 3746.00
solucao atual 3746.00
solucao atual 3746.00
solucao atual 3746.00
solucao atual 3750.00
solucao atual 3750.00
solucao atual 3750.00
solucao atual 3750.00
solucao atual 3750.00
solucao atual 3750.00
solucao atual 3750.00
solucao atual 3750.00
solucao atual 3750.00
solucao atual 3750.00
solucao atual 3750.00
solucao atual 3750.00
solucao atual 3750.00
solucao atual 3750.00
iteration 7 sol 3750.00
solucao atual 3750.00
solucao atual 3750.00
solucao atual 3750.00
solucao atual 3750.00
solucao atual 3750.00
solucao atual 3750.00
solucao atual 3750.00
solucao atual 3750.00
solucao atual 3750.00
solucao atual 3750.00
solucao atual 3750.00
solucao atual 3750.00
solucao atual 3750.00
solucao atual 3750.00
iteration 8 sol 3750.00
solucao atual 3746.00
solucao atual 3746.00
solucao atual 3746.00
solucao atual 3746.00
solucao atual 3746.00
solucao atual 3746.00
solucao atual 3746.00
solucao atual 3746.00
solucao atual 3746.00
solucao atual 3746.00
solucao atual 3746.00
solucao atual 3746.00
solucao atual 3746.00
solucao atual 3750.00
solucao atual 3750.00
solucao atual 3750.00
solucao atual 3750.00
solucao atual 3750.00
solucao atual 3750.00
solucao atual 3750.00
solucao atual 3750.00
solucao atual 3750.00
solucao atual 3750.00
solucao atual 3750.00
solucao atual 3750.00
solucao atual 3750.00
solucao atual 3750.00
iteration 9 sol 3750.00
solucao atual 3746.00
solucao atual 3746.00
solucao atual 3746.00
solucao atual 3746.00
solucao atual 3746.00
solucao atual 3746.00
solucao atual 3746.00
solucao atual 3748.00
solucao atual 3748.00
solucao atual 3748.00
solucao atual 3748.00
solucao atual 3748.00
solucao atual 3748.00
solucao atual 3748.00
solucao atual 3748.00
solucao atual 3748.00
solucao atual 3748.00
solucao atual 3748.00
solucao atual 3748.00
solucao atual 3748.00
solucao atual 3748.00
iteration 10 sol 3748.00
solucao atual 3750.00
solucao atual 3750.00
solucao atual 3750.00
solucao atual 3750.00
solucao atual 3750.00
solucao atual 3750.00
solucao atual 3750.00
solucao atual 3750.00
solucao atual 3750.00
solucao atual 3750.00
solucao atual 3750.00
solucao atual 3750.00
solucao atual 3750.00
solucao atual 3750.00
iteration 11 sol 3750.00
solucao atual 3743.00
solucao atual 3743.00
solucao atual 3743.00
solucao atual 3743.00
solucao atual 3750.00
solucao atual 3750.00
solucao atual 3750.00
solucao atual 3750.00
solucao atual 3750.00
solucao atual 3750.00
solucao atual 3750.00
solucao atual 3750.00
solucao atual 3750.00
solucao atual 3750.00
solucao atual 3750.00
solucao atual 3750.00
solucao atual 3750.00
solucao atual 3750.00
iteration 12 sol 3750.00
solucao atual 3742.00
solucao atual 3742.00
solucao atual 3742.00
solucao atual 3742.00
solucao atual 3742.00
solucao atual 3742.00
solucao atual 3750.00
solucao atual 3750.00
solucao atual 3750.00
solucao atual 3750.00
solucao atual 3750.00
solucao atual 3750.00
solucao atual 3750.00
solucao atual 3750.00
solucao atual 3750.00
solucao atual 3750.00
solucao atual 3750.00
solucao atual 3750.00
solucao atual 3750.00
solucao atual 3750.00
iteration 13 sol 3750.00
solucao atual 3746.00
solucao atual 3746.00
solucao atual 3746.00
solucao atual 3746.00
solucao atual 3746.00
solucao atual 3747.00
solucao atual 3747.00
solucao atual 3747.00
solucao atual 3747.00
solucao atual 3747.00
solucao atual 3747.00
solucao atual 3747.00
solucao atual 3747.00
solucao atual 3747.00
solucao atual 3747.00
solucao atual 3747.00
solucao atual 3747.00
solucao atual 3747.00
solucao atual 3747.00
iteration 14 sol 3747.00
solucao atual 3748.00
solucao atual 3748.00
solucao atual 3748.00
solucao atual 3748.00
solucao atual 3748.00
solucao atual 3748.00
solucao atual 3748.00
solucao atual 3748.00
solucao atual 3748.00
solucao atual 3748.00
solucao atual 3748.00
solucao atual 3748.00
solucao atual 3748.00
solucao atual 3748.00
iteration 15 sol 3748.00
solucao atual 3748.00
solucao atual 3748.00
solucao atual 3748.00
solucao atual 3748.00
solucao atual 3748.00
solucao atual 3748.00
solucao atual 3748.00
solucao atual 3748.00
solucao atual 3749.00
solucao atual 3749.00
solucao atual 3749.00
solucao atual 3749.00
solucao atual 3749.00
solucao atual 3749.00
solucao atual 3749.00
solucao atual 3749.00
solucao atual 3749.00
solucao atual 3749.00
solucao atual 3749.00
solucao atual 3749.00
solucao atual 3749.00
solucao atual 3749.00
iteration 16 sol 3749.00
solucao atual 3746.00
solucao atual 3746.00
solucao atual 3746.00
solucao atual 3746.00
solucao atual 3746.00
solucao atual 3750.00
solucao atual 3750.00
solucao atual 3750.00
solucao atual 3750.00
solucao atual 3750.00
solucao atual 3750.00
solucao atual 3750.00
solucao atual 3750.00
solucao atual 3750.00
solucao atual 3750.00
solucao atual 3750.00
solucao atual 3750.00
solucao atual 3750.00
solucao atual 3750.00
iteration 17 sol 3750.00
solucao atual 3745.00
solucao atual 3745.00
solucao atual 3745.00
solucao atual 3745.00
solucao atual 3745.00
solucao atual 3745.00
solucao atual 3745.00
solucao atual 3745.00
solucao atual 3745.00
solucao atual 3745.00
solucao atual 3747.00
solucao atual 3747.00
solucao atual 3747.00
solucao atual 3747.00
solucao atual 3747.00
solucao atual 3747.00
solucao atual 3747.00
solucao atual 3747.00
solucao atual 3747.00
solucao atual 3747.00
solucao atual 3747.00
solucao atual 3747.00
solucao atual 3747.00
solucao atual 3747.00
iteration 18 sol 3747.00
solucao atual 3741.00
solucao atual 3741.00
solucao atual 3741.00
solucao atual 3741.00
solucao atual 3744.00
solucao atual 3744.00
solucao atual 3744.00
solucao atual 3744.00
solucao atual 3744.00
solucao atual 3744.00
solucao atual 3744.00
solucao atual 3744.00
solucao atual 3744.00
solucao atual 3744.00
solucao atual 3744.00
solucao atual 3744.00
solucao atual 3744.00
solucao atual 3744.00
iteration 19 sol 3744.00
solucao atual 3745.00
solucao atual 3745.00
solucao atual 3745.00
solucao atual 3745.00
solucao atual 3745.00
solucao atual 3745.00
solucao atual 3745.00
solucao atual 3749.00
solucao atual 3749.00
solucao atual 3749.00
solucao atual 3749.00
solucao atual 3749.00
solucao atual 3749.00
solucao atual 3749.00
solucao atual 3749.00
solucao atual 3749.00
solucao atual 3749.00
solucao atual 3749.00
solucao atual 3749.00
solucao atual 3749.00
solucao atual 3749.00
iteration 20 sol 3749.00
solucao atual 3744.00
solucao atual 3744.00
solucao atual 3744.00
solucao atual 3744.00
solucao atual 3744.00
solucao atual 3744.00
solucao atual 3744.00
solucao atual 3748.00
solucao atual 3748.00
solucao atual 3748.00
solucao atual 3748.00
solucao atual 3748.00
solucao atual 3748.00
solucao atual 3748.00
solucao atual 3748.00
solucao atual 3748.00
solucao atual 3748.00
solucao atual 3748.00
solucao atual 3748.00
solucao atual 3748.00
solucao atual 3748.00
iteration 21 sol 3748.00
solucao atual 3749.00
solucao atual 3749.00
solucao atual 3749.00
solucao atual 3749.00
solucao atual 3749.00
solucao atual 3750.00
solucao atual 3750.00
solucao atual 3750.00
solucao atual 3750.00
solucao atual 3750.00
solucao atual 3750.00
solucao atual 3750.00
solucao atual 3750.00
solucao atual 3750.00
solucao atual 3750.00
solucao atual 3750.00
solucao atual 3750.00
solucao atual 3750.00
solucao atual 3750.00
iteration 22 sol 3750.00
solucao atual 3750.00
solucao atual 3750.00
solucao atual 3750.00
solucao atual 3750.00
solucao atual 3750.00
solucao atual 3750.00
solucao atual 3750.00
solucao atual 3750.00
solucao atual 3750.00
solucao atual 3750.00
solucao atual 3750.00
TIMEOUT
TIMEOUT
TIMEOUT
iteration 23 sol 3750.00
Number of iterations = 24
Best Solution was found in iteration = 0
Time used by neighbor | Times each neighbor was used | Improvements
N_1 = 1.70 | 68 | 24
N_2 = 0.12 | 44 | 0
N_3 = 0.00 | 44 | 0
N_4 = 0.49 | 44 | 20
Time to find the best solution = 15.17
Solution = 3750.00
Time = 600.11
