solucao atual 81096.00
solucao atual 81096.00
solucao atual 81096.00
solucao atual 81096.00
solucao atual 81096.00
solucao atual 81096.00
solucao atual 81096.00
solucao atual 81096.00
solucao atual 81096.00
solucao atual 81096.00
solucao atual 81096.00
solucao atual 81096.00
solucao atual 81096.00
solucao atual 81096.00
iteration 0 sol 81096.00
solucao atual 81162.00
solucao atual 81162.00
solucao atual 81162.00
solucao atual 81162.00
solucao atual 81162.00
solucao atual 81162.00
solucao atual 81162.00
solucao atual 81162.00
solucao atual 81162.00
solucao atual 81162.00
solucao atual 81162.00
solucao atual 81162.00
solucao atual 81162.00
solucao atual 81162.00
iteration 1 sol 81162.00
solucao atual 81094.00
solucao atual 81094.00
solucao atual 81094.00
solucao atual 81094.00
solucao atual 81095.00
solucao atual 81095.00
solucao atual 81095.00
solucao atual 81095.00
solucao atual 81095.00
solucao atual 81095.00
solucao atual 81095.00
solucao atual 81095.00
solucao atual 81095.00
solucao atual 81095.00
solucao atual 81095.00
solucao atual 81095.00
solucao atual 81095.00
solucao atual 81095.00
iteration 2 sol 81095.00
solucao atual 81091.00
solucao atual 81091.00
solucao atual 81091.00
solucao atual 81091.00
solucao atual 81091.00
solucao atual 81091.00
solucao atual 81091.00
solucao atual 81091.00
solucao atual 81091.00
solucao atual 81091.00
solucao atual 81091.00
solucao atual 81091.00
solucao atual 81091.00
solucao atual 81091.00
iteration 3 sol 81091.00
solucao atual 81062.00
solucao atual 81062.00
solucao atual 81062.00
solucao atual 81062.00
solucao atual 81062.00
solucao atual 81062.00
solucao atual 81062.00
solucao atual 81062.00
solucao atual 81062.00
solucao atual 81062.00
solucao atual 81062.00
solucao atual 81062.00
solucao atual 81062.00
solucao atual 81062.00
iteration 4 sol 81062.00
solucao atual 81084.00
solucao atual 81084.00
solucao atual 81084.00
solucao atual 81084.00
solucao atual 81084.00
solucao atual 81084.00
solucao atual 81084.00
solucao atual 81084.00
solucao atual 81084.00
solucao atual 81084.00
solucao atual 81084.00
solucao atual 81084.00
solucao atual 81084.00
solucao atual 81084.00
iteration 5 sol 81084.00
solucao atual 81003.00
solucao atual 81003.00
solucao atual 81003.00
solucao atual 81003.00
solucao atual 81003.00
solucao atual 81011.00
solucao atual 81011.00
solucao atual 81011.00
solucao atual 81011.00
solucao atual 81011.00
solucao atual 81011.00
solucao atual 81011.00
solucao atual 81011.00
solucao atual 81034.00
solucao atual 81034.00
solucao atual 81034.00
solucao atual 81034.00
solucao atual 81034.00
solucao atual 81034.00
solucao atual 81034.00
solucao atual 81034.00
solucao atual 81034.00
solucao atual 81034.00
solucao atual 81034.00
solucao atual 81034.00
solucao atual 81034.00
solucao atual 81034.00
iteration 6 sol 81034.00
solucao atual 81080.00
solucao atual 81080.00
solucao atual 81080.00
solucao atual 81080.00
solucao atual 81080.00
solucao atual 81080.00
solucao atual 81080.00
solucao atual 81080.00
solucao atual 81080.00
solucao atual 81080.00
solucao atual 81080.00
solucao atual 81080.00
solucao atual 81080.00
solucao atual 81080.00
iteration 7 sol 81080.00
solucao atual 81047.00
solucao atual 81047.00
solucao atual 81047.00
solucao atual 81047.00
solucao atual 81047.00
solucao atual 81049.00
solucao atual 81049.00
solucao atual 81049.00
solucao atual 81049.00
solucao atual 81049.00
solucao atual 81049.00
solucao atual 81049.00
solucao atual 81049.00
solucao atual 81049.00
solucao atual 81049.00
solucao atual 81049.00
solucao atual 81049.00
solucao atual 81049.00
solucao atual 81049.00
iteration 8 sol 81049.00
solucao atual 81072.00
solucao atual 81072.00
solucao atual 81072.00
solucao atual 81072.00
solucao atual 81072.00
solucao atual 81084.00
solucao atual 81084.00
solucao atual 81084.00
solucao atual 81084.00
solucao atual 81084.00
solucao atual 81084.00
solucao atual 81084.00
solucao atual 81084.00
solucao atual 81084.00
solucao atual 81084.00
solucao atual 81084.00
solucao atual 81084.00
solucao atual 81084.00
solucao atual 81084.00
iteration 9 sol 81084.00
solucao atual 81131.00
solucao atual 81131.00
solucao atual 81131.00
solucao atual 81131.00
solucao atual 81131.00
solucao atual 81131.00
solucao atual 81131.00
solucao atual 81131.00
solucao atual 81131.00
solucao atual 81131.00
solucao atual 81131.00
solucao atual 81131.00
solucao atual 81131.00
solucao atual 81131.00
iteration 10 sol 81131.00
solucao atual 81077.00
solucao atual 81077.00
solucao atual 81077.00
solucao atual 81077.00
solucao atual 81077.00
solucao atual 81077.00
solucao atual 81077.00
solucao atual 81077.00
solucao atual 81077.00
solucao atual 81077.00
solucao atual 81077.00
solucao atual 81077.00
solucao atual 81077.00
solucao atual 81077.00
iteration 11 sol 81077.00
solucao atual 81059.00
solucao atual 81059.00
solucao atual 81059.00
solucao atual 81059.00
solucao atual 81059.00
solucao atual 81059.00
solucao atual 81059.00
solucao atual 81059.00
solucao atual 81059.00
solucao atual 81078.00
solucao atual 81078.00
solucao atual 81078.00
solucao atual 81078.00
solucao atual 81078.00
solucao atual 81078.00
solucao atual 81078.00
solucao atual 81078.00
solucao atual 81078.00
solucao atual 81078.00
solucao atual 81078.00
solucao atual 81078.00
solucao atual 81078.00
solucao atual 81078.00
iteration 12 sol 81078.00
solucao atual 81103.00
solucao atual 81103.00
solucao atual 81103.00
solucao atual 81103.00
solucao atual 81107.00
solucao atual 81107.00
solucao atual 81107.00
solucao atual 81107.00
solucao atual 81107.00
solucao atual 81107.00
solucao atual 81107.00
solucao atual 81107.00
solucao atual 81107.00
solucao atual 81107.00
solucao atual 81107.00
solucao atual 81107.00
solucao atual 81107.00
solucao atual 81107.00
iteration 13 sol 81107.00
solucao atual 81057.00
solucao atual 81057.00
solucao atual 81057.00
solucao atual 81057.00
solucao atual 81057.00
solucao atual 81057.00
solucao atual 81057.00
solucao atual 81057.00
solucao atual 81057.00
solucao atual 81057.00
solucao atual 81057.00
solucao atual 81067.00
solucao atual 81067.00
solucao atual 81067.00
solucao atual 81067.00
solucao atual 81067.00
solucao atual 81067.00
solucao atual 81067.00
solucao atual 81067.00
solucao atual 81067.00
solucao atual 81067.00
solucao atual 81067.00
solucao atual 81067.00
solucao atual 81067.00
solucao atual 81067.00
iteration 14 sol 81067.00
solucao atual 81080.00
solucao atual 81080.00
solucao atual 81080.00
solucao atual 81080.00
solucao atual 81080.00
solucao atual 81080.00
solucao atual 81080.00
solucao atual 81080.00
solucao atual 81080.00
solucao atual 81080.00
solucao atual 81080.00
solucao atual 81080.00
solucao atual 81080.00
solucao atual 81080.00
iteration 15 sol 81080.00
solucao atual 81027.00
solucao atual 81027.00
solucao atual 81027.00
solucao atual 81027.00
solucao atual 81027.00
solucao atual 81027.00
solucao atual 81027.00
solucao atual 81027.00
solucao atual 81027.00
solucao atual 81027.00
solucao atual 81027.00
solucao atual 81027.00
solucao atual 81027.00
solucao atual 81027.00
iteration 16 sol 81027.00
solucao atual 81087.00
solucao atual 81087.00
solucao atual 81087.00
solucao atual 81087.00
solucao atual 81087.00
solucao atual 81087.00
solucao atual 81087.00
solucao atual 81087.00
solucao atual 81087.00
solucao atual 81087.00
solucao atual 81087.00
solucao atual 81087.00
solucao atual 81087.00
solucao atual 81087.00
iteration 17 sol 81087.00
solucao atual 81137.00
solucao atual 81137.00
solucao atual 81137.00
solucao atual 81137.00
solucao atual 81137.00
solucao atual 81137.00
solucao atual 81137.00
solucao atual 81137.00
solucao atual 81137.00
solucao atual 81137.00
solucao atual 81137.00
solucao atual 81137.00
solucao atual 81137.00
solucao atual 81137.00
iteration 18 sol 81137.00
solucao atual 81069.00
solucao atual 81069.00
solucao atual 81069.00
solucao atual 81069.00
solucao atual 81069.00
solucao atual 81069.00
solucao atual 81069.00
solucao atual 81069.00
solucao atual 81069.00
solucao atual 81069.00
solucao atual 81069.00
solucao atual 81069.00
solucao atual 81069.00
solucao atual 81069.00
iteration 19 sol 81069.00
solucao atual 81089.00
solucao atual 81089.00
solucao atual 81089.00
solucao atual 81089.00
solucao atual 81089.00
solucao atual 81089.00
solucao atual 81089.00
solucao atual 81089.00
solucao atual 81089.00
solucao atual 81089.00
solucao atual 81089.00
solucao atual 81089.00
solucao atual 81089.00
solucao atual 81089.00
iteration 20 sol 81089.00
solucao atual 81083.00
solucao atual 81083.00
solucao atual 81083.00
solucao atual 81083.00
solucao atual 81083.00
solucao atual 81083.00
solucao atual 81083.00
solucao atual 81083.00
solucao atual 81083.00
solucao atual 81083.00
solucao atual 81083.00
solucao atual 81083.00
solucao atual 81083.00
solucao atual 81083.00
iteration 21 sol 81083.00
solucao atual 81043.00
solucao atual 81043.00
solucao atual 81043.00
solucao atual 81043.00
solucao atual 81043.00
solucao atual 81043.00
solucao atual 81043.00
solucao atual 81043.00
solucao atual 81043.00
solucao atual 81043.00
solucao atual 81060.00
solucao atual 81060.00
solucao atual 81060.00
solucao atual 81060.00
solucao atual 81060.00
solucao atual 81060.00
solucao atual 81060.00
solucao atual 81060.00
solucao atual 81060.00
solucao atual 81060.00
solucao atual 81060.00
solucao atual 81060.00
solucao atual 81060.00
solucao atual 81060.00
iteration 22 sol 81060.00
solucao atual 81051.00
solucao atual 81051.00
solucao atual 81051.00
solucao atual 81051.00
solucao atual 81051.00
solucao atual 81051.00
solucao atual 81051.00
solucao atual 81051.00
solucao atual 81051.00
solucao atual 81051.00
solucao atual 81051.00
solucao atual 81051.00
solucao atual 81051.00
solucao atual 81051.00
iteration 23 sol 81051.00
solucao atual 81071.00
solucao atual 81071.00
solucao atual 81071.00
solucao atual 81071.00
solucao atual 81071.00
solucao atual 81071.00
solucao atual 81071.00
solucao atual 81071.00
solucao atual 81071.00
solucao atual 81071.00
solucao atual 81071.00
solucao atual 81086.00
solucao atual 81086.00
solucao atual 81086.00
solucao atual 81086.00
solucao atual 81086.00
solucao atual 81086.00
solucao atual 81086.00
solucao atual 81086.00
solucao atual 81086.00
solucao atual 81086.00
solucao atual 81086.00
solucao atual 81086.00
solucao atual 81086.00
solucao atual 81086.00
iteration 24 sol 81086.00
solucao atual 81137.00
solucao atual 81137.00
solucao atual 81137.00
solucao atual 81137.00
solucao atual 81137.00
solucao atual 81137.00
solucao atual 81137.00
solucao atual 81137.00
solucao atual 81137.00
solucao atual 81137.00
solucao atual 81137.00
solucao atual 81137.00
solucao atual 81137.00
solucao atual 81137.00
iteration 25 sol 81137.00
solucao atual 81088.00
solucao atual 81088.00
solucao atual 81088.00
solucao atual 81088.00
solucao atual 81088.00
solucao atual 81088.00
solucao atual 81088.00
solucao atual 81088.00
solucao atual 81088.00
solucao atual 81088.00
solucao atual 81088.00
solucao atual 81088.00
solucao atual 81088.00
solucao atual 81088.00
iteration 26 sol 81088.00
solucao atual 81124.00
solucao atual 81124.00
solucao atual 81124.00
solucao atual 81124.00
solucao atual 81124.00
solucao atual 81124.00
solucao atual 81124.00
solucao atual 81124.00
solucao atual 81124.00
solucao atual 81124.00
solucao atual 81124.00
solucao atual 81124.00
solucao atual 81124.00
solucao atual 81124.00
iteration 27 sol 81124.00
solucao atual 81051.00
solucao atual 81051.00
solucao atual 81051.00
solucao atual 81051.00
solucao atual 81051.00
solucao atual 81051.00
solucao atual 81051.00
solucao atual 81051.00
solucao atual 81051.00
solucao atual 81051.00
solucao atual 81051.00
solucao atual 81051.00
solucao atual 81051.00
solucao atual 81051.00
iteration 28 sol 81051.00
solucao atual 81073.00
solucao atual 81073.00
solucao atual 81073.00
solucao atual 81073.00
solucao atual 81073.00
solucao atual 81073.00
solucao atual 81073.00
solucao atual 81073.00
solucao atual 81073.00
solucao atual 81073.00
solucao atual 81073.00
solucao atual 81073.00
solucao atual 81073.00
solucao atual 81073.00
iteration 29 sol 81073.00
solucao atual 81071.00
solucao atual 81071.00
solucao atual 81071.00
solucao atual 81071.00
solucao atual 81071.00
solucao atual 81071.00
solucao atual 81071.00
solucao atual 81071.00
solucao atual 81085.00
solucao atual 81085.00
solucao atual 81085.00
solucao atual 81085.00
solucao atual 81085.00
solucao atual 81085.00
solucao atual 81085.00
solucao atual 81085.00
solucao atual 81086.00
solucao atual 81086.00
solucao atual 81086.00
solucao atual 81086.00
solucao atual 81086.00
solucao atual 81086.00
solucao atual 81086.00
solucao atual 81086.00
solucao atual 81086.00
solucao atual 81086.00
solucao atual 81086.00
solucao atual 81086.00
solucao atual 81086.00
solucao atual 81086.00
iteration 30 sol 81086.00
solucao atual 81082.00
solucao atual 81082.00
solucao atual 81082.00
solucao atual 81082.00
solucao atual 81082.00
solucao atual 81082.00
solucao atual 81082.00
solucao atual 81082.00
solucao atual 81082.00
solucao atual 81082.00
solucao atual 81082.00
solucao atual 81101.00
solucao atual 81101.00
solucao atual 81101.00
solucao atual 81101.00
solucao atual 81101.00
solucao atual 81101.00
solucao atual 81101.00
solucao atual 81101.00
solucao atual 81101.00
solucao atual 81101.00
solucao atual 81101.00
solucao atual 81101.00
solucao atual 81101.00
solucao atual 81101.00
iteration 31 sol 81101.00
solucao atual 81097.00
solucao atual 81097.00
solucao atual 81097.00
solucao atual 81097.00
solucao atual 81097.00
solucao atual 81097.00
solucao atual 81097.00
solucao atual 81097.00
solucao atual 81097.00
solucao atual 81097.00
solucao atual 81097.00
solucao atual 81097.00
solucao atual 81097.00
solucao atual 81097.00
iteration 32 sol 81097.00
solucao atual 81072.00
solucao atual 81072.00
solucao atual 81072.00
solucao atual 81072.00
solucao atual 81072.00
solucao atual 81072.00
solucao atual 81072.00
solucao atual 81072.00
solucao atual 81092.00
solucao atual 81092.00
solucao atual 81092.00
solucao atual 81092.00
solucao atual 81092.00
solucao atual 81092.00
solucao atual 81092.00
solucao atual 81092.00
solucao atual 81092.00
solucao atual 81092.00
solucao atual 81092.00
solucao atual 81092.00
solucao atual 81092.00
solucao atual 81092.00
iteration 33 sol 81092.00
solucao atual 81099.00
solucao atual 81099.00
solucao atual 81099.00
solucao atual 81099.00
solucao atual 81099.00
solucao atual 81099.00
solucao atual 81099.00
solucao atual 81099.00
solucao atual 81099.00
solucao atual 81099.00
solucao atual 81099.00
solucao atual 81099.00
solucao atual 81099.00
solucao atual 81099.00
iteration 34 sol 81099.00
solucao atual 81074.00
solucao atual 81074.00
solucao atual 81074.00
solucao atual 81074.00
solucao atual 81074.00
solucao atual 81074.00
solucao atual 81074.00
solucao atual 81074.00
solucao atual 81074.00
solucao atual 81074.00
solucao atual 81074.00
solucao atual 81074.00
solucao atual 81074.00
solucao atual 81074.00
iteration 35 sol 81074.00
solucao atual 81075.00
solucao atual 81075.00
solucao atual 81075.00
solucao atual 81075.00
solucao atual 81075.00
solucao atual 81075.00
solucao atual 81075.00
solucao atual 81075.00
solucao atual 81075.00
solucao atual 81075.00
solucao atual 81075.00
solucao atual 81075.00
solucao atual 81075.00
solucao atual 81075.00
iteration 36 sol 81075.00
solucao atual 81081.00
solucao atual 81081.00
solucao atual 81081.00
solucao atual 81081.00
solucao atual 81081.00
solucao atual 81081.00
solucao atual 81081.00
solucao atual 81081.00
solucao atual 81081.00
solucao atual 81081.00
solucao atual 81081.00
solucao atual 81081.00
solucao atual 81081.00
solucao atual 81081.00
iteration 37 sol 81081.00
solucao atual 81112.00
solucao atual 81112.00
solucao atual 81112.00
solucao atual 81112.00
solucao atual 81112.00
solucao atual 81112.00
solucao atual 81112.00
solucao atual 81112.00
solucao atual 81112.00
solucao atual 81112.00
solucao atual 81112.00
solucao atual 81112.00
solucao atual 81112.00
solucao atual 81112.00
iteration 38 sol 81112.00
solucao atual 81098.00
solucao atual 81098.00
solucao atual 81098.00
solucao atual 81098.00
solucao atual 81098.00
solucao atual 81098.00
solucao atual 81098.00
solucao atual 81098.00
solucao atual 81098.00
solucao atual 81098.00
solucao atual 81098.00
solucao atual 81098.00
solucao atual 81098.00
solucao atual 81098.00
iteration 39 sol 81098.00
solucao atual 81079.00
solucao atual 81079.00
solucao atual 81079.00
solucao atual 81079.00
solucao atual 81079.00
solucao atual 81079.00
solucao atual 81079.00
solucao atual 81079.00
solucao atual 81079.00
solucao atual 81079.00
solucao atual 81079.00
solucao atual 81079.00
solucao atual 81079.00
solucao atual 81079.00
iteration 40 sol 81079.00
solucao atual 81103.00
solucao atual 81103.00
solucao atual 81103.00
solucao atual 81103.00
solucao atual 81103.00
solucao atual 81103.00
solucao atual 81103.00
solucao atual 81103.00
solucao atual 81103.00
solucao atual 81103.00
solucao atual 81103.00
solucao atual 81103.00
solucao atual 81103.00
solucao atual 81103.00
iteration 41 sol 81103.00
solucao atual 81082.00
solucao atual 81082.00
solucao atual 81082.00
solucao atual 81082.00
solucao atual 81082.00
solucao atual 81082.00
solucao atual 81082.00
solucao atual 81082.00
solucao atual 81082.00
solucao atual 81082.00
solucao atual 81082.00
solucao atual 81082.00
solucao atual 81082.00
solucao atual 81082.00
iteration 42 sol 81082.00
solucao atual 81120.00
solucao atual 81120.00
solucao atual 81120.00
solucao atual 81120.00
solucao atual 81120.00
solucao atual 81120.00
solucao atual 81120.00
solucao atual 81120.00
solucao atual 81120.00
solucao atual 81120.00
solucao atual 81120.00
solucao atual 81120.00
solucao atual 81120.00
solucao atual 81120.00
iteration 43 sol 81120.00
solucao atual 81084.00
solucao atual 81084.00
solucao atual 81084.00
solucao atual 81084.00
solucao atual 81084.00
solucao atual 81084.00
solucao atual 81084.00
solucao atual 81084.00
solucao atual 81084.00
solucao atual 81084.00
solucao atual 81084.00
solucao atual 81084.00
solucao atual 81084.00
solucao atual 81084.00
iteration 44 sol 81084.00
solucao atual 81043.00
solucao atual 81043.00
solucao atual 81043.00
solucao atual 81043.00
solucao atual 81043.00
solucao atual 81043.00
solucao atual 81043.00
solucao atual 81043.00
solucao atual 81043.00
solucao atual 81043.00
solucao atual 81043.00
solucao atual 81043.00
solucao atual 81043.00
solucao atual 81043.00
iteration 45 sol 81043.00
solucao atual 81155.00
solucao atual 81155.00
solucao atual 81155.00
solucao atual 81155.00
solucao atual 81155.00
solucao atual 81155.00
solucao atual 81155.00
solucao atual 81155.00
solucao atual 81155.00
solucao atual 81155.00
solucao atual 81155.00
solucao atual 81155.00
solucao atual 81165.00
solucao atual 81165.00
solucao atual 81165.00
solucao atual 81165.00
solucao atual 81165.00
solucao atual 81165.00
solucao atual 81165.00
solucao atual 81165.00
solucao atual 81165.00
solucao atual 81165.00
solucao atual 81165.00
solucao atual 81165.00
solucao atual 81165.00
solucao atual 81165.00
iteration 46 sol 81165.00
solucao atual 81067.00
solucao atual 81067.00
solucao atual 81067.00
solucao atual 81067.00
solucao atual 81067.00
solucao atual 81067.00
solucao atual 81067.00
solucao atual 81067.00
solucao atual 81067.00
solucao atual 81067.00
solucao atual 81067.00
solucao atual 81067.00
solucao atual 81067.00
solucao atual 81067.00
iteration 47 sol 81067.00
solucao atual 81128.00
solucao atual 81128.00
solucao atual 81128.00
solucao atual 81128.00
solucao atual 81128.00
solucao atual 81128.00
solucao atual 81128.00
solucao atual 81128.00
solucao atual 81128.00
solucao atual 81128.00
solucao atual 81128.00
solucao atual 81128.00
solucao atual 81128.00
solucao atual 81128.00
iteration 48 sol 81128.00
solucao atual 81111.00
solucao atual 81111.00
solucao atual 81111.00
solucao atual 81111.00
solucao atual 81111.00
solucao atual 81111.00
solucao atual 81111.00
solucao atual 81111.00
solucao atual 81111.00
solucao atual 81111.00
solucao atual 81111.00
solucao atual 81111.00
solucao atual 81111.00
solucao atual 81111.00
iteration 49 sol 81111.00
solucao atual 81061.00
solucao atual 81061.00
solucao atual 81061.00
solucao atual 81061.00
solucao atual 81061.00
solucao atual 81061.00
solucao atual 81061.00
solucao atual 81061.00
solucao atual 81061.00
solucao atual 81061.00
solucao atual 81061.00
solucao atual 81061.00
solucao atual 81061.00
solucao atual 81061.00
iteration 50 sol 81061.00
solucao atual 81095.00
solucao atual 81095.00
solucao atual 81095.00
solucao atual 81095.00
solucao atual 81095.00
solucao atual 81095.00
solucao atual 81095.00
solucao atual 81095.00
solucao atual 81095.00
solucao atual 81095.00
solucao atual 81095.00
solucao atual 81095.00
solucao atual 81095.00
solucao atual 81095.00
iteration 51 sol 81095.00
solucao atual 81034.00
solucao atual 81034.00
solucao atual 81034.00
solucao atual 81034.00
solucao atual 81034.00
solucao atual 81034.00
solucao atual 81034.00
solucao atual 81034.00
solucao atual 81034.00
solucao atual 81034.00
solucao atual 81034.00
solucao atual 81034.00
solucao atual 81034.00
solucao atual 81034.00
iteration 52 sol 81034.00
solucao atual 81122.00
solucao atual 81122.00
solucao atual 81122.00
solucao atual 81122.00
solucao atual 81122.00
solucao atual 81122.00
solucao atual 81122.00
solucao atual 81122.00
solucao atual 81122.00
solucao atual 81122.00
solucao atual 81122.00
solucao atual 81122.00
solucao atual 81122.00
solucao atual 81122.00
iteration 53 sol 81122.00
solucao atual 81059.00
solucao atual 81059.00
solucao atual 81059.00
solucao atual 81059.00
solucao atual 81059.00
solucao atual 81066.00
solucao atual 81066.00
solucao atual 81066.00
solucao atual 81066.00
solucao atual 81066.00
solucao atual 81066.00
solucao atual 81066.00
solucao atual 81066.00
solucao atual 81066.00
solucao atual 81066.00
solucao atual 81066.00
solucao atual 81066.00
solucao atual 81066.00
solucao atual 81066.00
iteration 54 sol 81066.00
solucao atual 81105.00
solucao atual 81105.00
solucao atual 81105.00
solucao atual 81105.00
solucao atual 81105.00
solucao atual 81105.00
solucao atual 81105.00
solucao atual 81105.00
solucao atual 81105.00
solucao atual 81105.00
solucao atual 81105.00
solucao atual 81105.00
solucao atual 81105.00
solucao atual 81105.00
iteration 55 sol 81105.00
TIMEOUT
TIMEOUT
TIMEOUT
iteration 56 sol 80923.00
Number of iterations = 57
Best Solution was found in iteration = 46
Time used by neighbor | Times each neighbor was used | Improvements
N_1 = 0.05 | 129 | 56
N_2 = 0.01 | 72 | 0
N_3 = 0.00 | 72 | 0
N_4 = 1.94 | 72 | 16
Time to find the best solution = 513.89
Solution = 81165.00
Time = 600.02
