solucao atual 23905.00
solucao atual 23905.00
solucao atual 23905.00
solucao atual 23905.00
solucao atual 23905.00
solucao atual 23905.00
solucao atual 23905.00
solucao atual 23908.00
solucao atual 23908.00
solucao atual 23908.00
solucao atual 23908.00
solucao atual 23917.00
solucao atual 23917.00
solucao atual 23917.00
solucao atual 23917.00
solucao atual 23921.00
solucao atual 23921.00
solucao atual 23921.00
solucao atual 23921.00
solucao atual 23921.00
solucao atual 23921.00
solucao atual 23921.00
solucao atual 23921.00
solucao atual 23921.00
solucao atual 23921.00
solucao atual 23921.00
solucao atual 23921.00
solucao atual 23921.00
solucao atual 23921.00
iteration 0 sol 23921.00
solucao atual 23962.00
solucao atual 23962.00
solucao atual 23962.00
solucao atual 23967.00
solucao atual 23967.00
solucao atual 23967.00
solucao atual 23967.00
solucao atual 23967.00
solucao atual 23967.00
solucao atual 23967.00
solucao atual 23967.00
solucao atual 23967.00
solucao atual 23967.00
solucao atual 23967.00
solucao atual 23967.00
solucao atual 23967.00
solucao atual 23967.00
iteration 1 sol 23967.00
solucao atual 23874.00
solucao atual 23874.00
solucao atual 23874.00
solucao atual 23874.00
solucao atual 23874.00
solucao atual 23874.00
solucao atual 23874.00
solucao atual 23874.00
solucao atual 23897.00
solucao atual 23897.00
solucao atual 23897.00
solucao atual 23897.00
solucao atual 23897.00
solucao atual 23897.00
solucao atual 23917.00
solucao atual 23917.00
solucao atual 23917.00
solucao atual 23917.00
solucao atual 23917.00
solucao atual 23917.00
solucao atual 23917.00
solucao atual 23917.00
solucao atual 23934.00
solucao atual 23934.00
solucao atual 23934.00
solucao atual 23934.00
solucao atual 23934.00
solucao atual 23934.00
solucao atual 23934.00
solucao atual 23942.00
solucao atual 23942.00
solucao atual 23942.00
solucao atual 23942.00
solucao atual 23942.00
solucao atual 23942.00
solucao atual 23942.00
solucao atual 23942.00
solucao atual 23942.00
solucao atual 23942.00
solucao atual 23942.00
solucao atual 23942.00
solucao atual 23942.00
solucao atual 23942.00
iteration 2 sol 23942.00
solucao atual 23953.00
solucao atual 23953.00
solucao atual 23953.00
solucao atual 23953.00
solucao atual 23953.00
solucao atual 23961.00
solucao atual 23961.00
solucao atual 23961.00
solucao atual 23961.00
solucao atual 23961.00
solucao atual 23964.00
solucao atual 23964.00
solucao atual 23964.00
solucao atual 23964.00
solucao atual 23964.00
solucao atual 23964.00
solucao atual 23964.00
solucao atual 23964.00
solucao atual 23964.00
solucao atual 23964.00
solucao atual 23964.00
solucao atual 23964.00
solucao atual 23964.00
solucao atual 23964.00
iteration 3 sol 23964.00
TIMEOUT
TIMEOUT
TIMEOUT
iteration 4 sol 21996.00
Number of iterations = 5
Best Solution was found in iteration = 1
Time used by neighbor | Times each neighbor was used | Improvements
N_1 = 0.01 | 19 | 4
N_2 = 0.02 | 14 | 0
N_3 = 0.01 | 14 | 0
N_4 = 18.05 | 14 | 10
Time to find the best solution = 269.31
Solution = 23967.00
Time = 601.10
