solucao atual 24991.00
solucao atual 24991.00
solucao atual 24991.00
solucao atual 24991.00
solucao atual 24991.00
solucao atual 24991.00
solucao atual 24991.00
solucao atual 24991.00
solucao atual 24991.00
solucao atual 24991.00
solucao atual 24991.00
solucao atual 24991.00
TIMEOUT
TIMEOUT
TIMEOUT
iteration 0 sol 24991.00
Number of iterations = 1
Best Solution was found in iteration = 0
Time used by neighbor | Times each neighbor was used | Improvements
N_1 = 0.09 | 2 | 1
N_2 = 0.01 | 1 | 0
N_3 = 0.00 | 1 | 0
N_4 = 0.66 | 1 | 0
Time to find the best solution = 600.06
Solution = 24991.00
Time = 600.06
