solucao atual 3852209.00
solucao atual 3852209.00
solucao atual 3852209.00
solucao atual 3852209.00
TIMEOUT
TIMEOUT
TIMEOUT
iteration 0 sol 3852209.00
Number of iterations = 1
Best Solution was found in iteration = 0
Time used by neighbor | Times each neighbor was used | Improvements
N_1 = 0.01 | 2 | 1
N_2 = 0.00 | 1 | 0
N_3 = 0.00 | 1 | 0
N_4 = 0.97 | 1 | 0
Time to find the best solution = 601.24
Solution = 3852209.00
Time = 601.25
