solucao atual 4363801.00
solucao atual 4363801.00
solucao atual 4363801.00
solucao atual 4363801.00
solucao atual 4363801.00
TIMEOUT
TIMEOUT
TIMEOUT
iteration 0 sol 4363801.00
Number of iterations = 1
Best Solution was found in iteration = 0
Time used by neighbor | Times each neighbor was used | Improvements
N_1 = 0.04 | 2 | 1
N_2 = 0.00 | 1 | 0
N_3 = 0.00 | 1 | 0
N_4 = 1.01 | 1 | 0
Time to find the best solution = 600.36
Solution = 4363801.00
Time = 600.36
