solucao atual 222542014.00
solucao atual 222542014.00
solucao atual 222542014.00
solucao atual 222542014.00
solucao atual 222542014.00
solucao atual 222542014.00
solucao atual 222542014.00
TIMEOUT
TIMEOUT
TIMEOUT
iteration 0 sol 222542014.00
Number of iterations = 1
Best Solution was found in iteration = 0
Time used by neighbor | Times each neighbor was used | Improvements
N_1 = 0.88 | 2 | 1
N_2 = 0.02 | 1 | 0
N_3 = 0.00 | 1 | 0
N_4 = 0.48 | 1 | 0
Time to find the best solution = 600.08
Solution = 222542014.00
Time = 600.08
