solucao atual 371131797.00
solucao atual 371131797.00
solucao atual 371131797.00
solucao atual 371131797.00
solucao atual 371131797.00
solucao atual 371131797.00
solucao atual 371131797.00
solucao atual 371131797.00
solucao atual 371131797.00
solucao atual 371131797.00
solucao atual 371131797.00
solucao atual 371131797.00
solucao atual 371131797.00
solucao atual 371131797.00
solucao atual 371131797.00
solucao atual 371131797.00
solucao atual 371131797.00
solucao atual 371131797.00
solucao atual 371131797.00
solucao atual 371131797.00
solucao atual 371131797.00
solucao atual 371131797.00
solucao atual 371131797.00
TIMEOUT
TIMEOUT
TIMEOUT
iteration 0 sol 371131797.00
Number of iterations = 1
Best Solution was found in iteration = 0
Time used by neighbor | Times each neighbor was used | Improvements
N_1 = 0.00 | 4 | 1
N_2 = 2.85 | 3 | 2
N_3 = 0.00 | 1 | 0
N_4 = 0.08 | 1 | 0
Time to find the best solution = 601.30
Solution = 371131797.00
Time = 601.30
