TIMEOUT
TIMEOUT
TIMEOUT
iteration 0 sol 1384205130.00
Number of iterations = 1
Best Solution was found in iteration = 0
Time used by neighbor | Times each neighbor was used | Improvements
N_1 = 6.88 | 1 | 0
N_2 = 0.00 | 0 | 0
N_3 = 0.00 | 0 | 0
N_4 = 0.00 | 0 | 0
Time to find the best solution = 603.45
Solution = 1384205130.00
Time = 603.45
