solucao atual 32842.00
solucao atual 32842.00
solucao atual 32842.00
solucao atual 32842.00
solucao atual 32842.00
solucao atual 32849.00
solucao atual 32849.00
solucao atual 32849.00
solucao atual 32849.00
solucao atual 32849.00
solucao atual 32849.00
solucao atual 32849.00
solucao atual 32849.00
solucao atual 32849.00
solucao atual 32849.00
solucao atual 32849.00
solucao atual 32849.00
solucao atual 32849.00
solucao atual 32849.00
iteration 0 sol 32849.00
solucao atual 32834.00
solucao atual 32834.00
solucao atual 32834.00
solucao atual 32858.00
solucao atual 32858.00
solucao atual 32858.00
solucao atual 32858.00
solucao atual 32864.00
solucao atual 32864.00
solucao atual 32864.00
solucao atual 32864.00
solucao atual 32864.00
solucao atual 32864.00
solucao atual 32864.00
solucao atual 32864.00
solucao atual 32864.00
solucao atual 32864.00
solucao atual 32864.00
solucao atual 32864.00
solucao atual 32864.00
solucao atual 32864.00
iteration 1 sol 32864.00
solucao atual 32853.00
solucao atual 32853.00
solucao atual 32853.00
solucao atual 32853.00
solucao atual 32853.00
solucao atual 32853.00
solucao atual 32853.00
solucao atual 32853.00
solucao atual 32853.00
solucao atual 32853.00
solucao atual 32853.00
solucao atual 32853.00
solucao atual 32853.00
iteration 2 sol 32853.00
solucao atual 32866.00
solucao atual 32866.00
solucao atual 32866.00
solucao atual 32866.00
solucao atual 32866.00
solucao atual 32877.00
solucao atual 32877.00
solucao atual 32877.00
solucao atual 32877.00
solucao atual 32877.00
solucao atual 32877.00
solucao atual 32877.00
solucao atual 32877.00
solucao atual 32877.00
solucao atual 32877.00
solucao atual 32877.00
solucao atual 32877.00
solucao atual 32877.00
solucao atual 32877.00
iteration 3 sol 32877.00
solucao atual 32916.00
solucao atual 32916.00
solucao atual 32916.00
solucao atual 32916.00
solucao atual 32916.00
solucao atual 32916.00
solucao atual 32916.00
solucao atual 32916.00
solucao atual 32916.00
solucao atual 32916.00
solucao atual 32916.00
solucao atual 32916.00
solucao atual 32916.00
iteration 4 sol 32916.00
solucao atual 32884.00
solucao atual 32884.00
solucao atual 32884.00
solucao atual 32884.00
solucao atual 32884.00
solucao atual 32884.00
solucao atual 32884.00
solucao atual 32884.00
solucao atual 32884.00
solucao atual 32884.00
solucao atual 32884.00
solucao atual 32884.00
solucao atual 32884.00
iteration 5 sol 32884.00
solucao atual 32859.00
solucao atual 32859.00
solucao atual 32859.00
solucao atual 32859.00
solucao atual 32859.00
solucao atual 32859.00
solucao atual 32859.00
solucao atual 32859.00
solucao atual 32859.00
solucao atual 32899.00
solucao atual 32899.00
solucao atual 32899.00
solucao atual 32899.00
solucao atual 32899.00
solucao atual 32899.00
solucao atual 32899.00
solucao atual 32899.00
solucao atual 32899.00
solucao atual 32899.00
solucao atual 32899.00
solucao atual 32899.00
solucao atual 32899.00
solucao atual 32899.00
iteration 6 sol 32899.00
solucao atual 32854.00
solucao atual 32854.00
solucao atual 32854.00
solucao atual 32854.00
solucao atual 32854.00
solucao atual 32854.00
solucao atual 32854.00
solucao atual 32854.00
solucao atual 32854.00
solucao atual 32854.00
solucao atual 32854.00
solucao atual 32854.00
solucao atual 32854.00
solucao atual 32854.00
iteration 7 sol 32854.00
solucao atual 32901.00
solucao atual 32901.00
solucao atual 32901.00
solucao atual 32901.00
solucao atual 32901.00
solucao atual 32901.00
solucao atual 32901.00
solucao atual 32901.00
solucao atual 32901.00
solucao atual 32901.00
solucao atual 32901.00
solucao atual 32901.00
solucao atual 32901.00
solucao atual 32901.00
iteration 8 sol 32901.00
solucao atual 32855.00
solucao atual 32855.00
solucao atual 32855.00
solucao atual 32855.00
solucao atual 32857.00
solucao atual 32857.00
solucao atual 32857.00
solucao atual 32857.00
solucao atual 32857.00
solucao atual 32857.00
solucao atual 32857.00
solucao atual 32857.00
solucao atual 32876.00
solucao atual 32876.00
solucao atual 32876.00
solucao atual 32876.00
solucao atual 32876.00
solucao atual 32878.00
solucao atual 32878.00
solucao atual 32878.00
solucao atual 32878.00
solucao atual 32878.00
solucao atual 32878.00
solucao atual 32878.00
solucao atual 32878.00
solucao atual 32878.00
solucao atual 32878.00
solucao atual 32878.00
solucao atual 32878.00
solucao atual 32878.00
solucao atual 32878.00
iteration 9 sol 32878.00
solucao atual 32857.00
solucao atual 32857.00
solucao atual 32857.00
solucao atual 32857.00
solucao atual 32857.00
solucao atual 32857.00
solucao atual 32857.00
solucao atual 32857.00
solucao atual 32857.00
solucao atual 32857.00
solucao atual 32857.00
solucao atual 32857.00
solucao atual 32857.00
iteration 10 sol 32857.00
solucao atual 32861.00
solucao atual 32861.00
solucao atual 32861.00
solucao atual 32861.00
solucao atual 32861.00
solucao atual 32861.00
solucao atual 32861.00
solucao atual 32861.00
solucao atual 32861.00
solucao atual 32861.00
solucao atual 32861.00
solucao atual 32861.00
solucao atual 32861.00
iteration 11 sol 32861.00
solucao atual 32875.00
solucao atual 32875.00
solucao atual 32875.00
solucao atual 32875.00
solucao atual 32875.00
solucao atual 32875.00
solucao atual 32875.00
solucao atual 32875.00
solucao atual 32875.00
solucao atual 32875.00
solucao atual 32875.00
solucao atual 32875.00
solucao atual 32875.00
solucao atual 32875.00
iteration 12 sol 32875.00
solucao atual 32848.00
solucao atual 32848.00
solucao atual 32848.00
solucao atual 32848.00
solucao atual 32848.00
solucao atual 32855.00
solucao atual 32855.00
solucao atual 32855.00
solucao atual 32855.00
solucao atual 32855.00
solucao atual 32855.00
solucao atual 32855.00
solucao atual 32855.00
solucao atual 32855.00
solucao atual 32859.00
solucao atual 32859.00
solucao atual 32859.00
solucao atual 32859.00
solucao atual 32859.00
solucao atual 32859.00
solucao atual 32859.00
solucao atual 32859.00
solucao atual 32859.00
solucao atual 32859.00
solucao atual 32859.00
solucao atual 32859.00
solucao atual 32859.00
solucao atual 32859.00
iteration 13 sol 32859.00
solucao atual 32868.00
solucao atual 32868.00
solucao atual 32868.00
solucao atual 32877.00
solucao atual 32877.00
solucao atual 32877.00
solucao atual 32877.00
solucao atual 32877.00
solucao atual 32877.00
solucao atual 32877.00
solucao atual 32877.00
solucao atual 32877.00
solucao atual 32877.00
solucao atual 32877.00
solucao atual 32877.00
solucao atual 32877.00
solucao atual 32877.00
iteration 14 sol 32877.00
solucao atual 32899.00
solucao atual 32899.00
solucao atual 32899.00
solucao atual 32899.00
solucao atual 32899.00
solucao atual 32899.00
solucao atual 32905.00
solucao atual 32905.00
solucao atual 32905.00
solucao atual 32905.00
solucao atual 32905.00
solucao atual 32905.00
solucao atual 32905.00
solucao atual 32905.00
solucao atual 32905.00
solucao atual 32905.00
solucao atual 32905.00
solucao atual 32905.00
solucao atual 32905.00
solucao atual 32905.00
iteration 15 sol 32905.00
solucao atual 32842.00
solucao atual 32842.00
solucao atual 32842.00
solucao atual 32865.00
solucao atual 32865.00
solucao atual 32865.00
solucao atual 32865.00
solucao atual 32865.00
solucao atual 32865.00
solucao atual 32865.00
solucao atual 32865.00
solucao atual 32865.00
solucao atual 32865.00
solucao atual 32865.00
solucao atual 32865.00
solucao atual 32865.00
solucao atual 32865.00
iteration 16 sol 32865.00
solucao atual 32878.00
solucao atual 32878.00
solucao atual 32878.00
solucao atual 32878.00
solucao atual 32878.00
solucao atual 32878.00
solucao atual 32878.00
solucao atual 32878.00
solucao atual 32878.00
solucao atual 32878.00
solucao atual 32878.00
solucao atual 32886.00
solucao atual 32886.00
solucao atual 32886.00
solucao atual 32886.00
solucao atual 32886.00
solucao atual 32886.00
solucao atual 32886.00
solucao atual 32886.00
solucao atual 32886.00
solucao atual 32886.00
solucao atual 32886.00
solucao atual 32886.00
solucao atual 32886.00
solucao atual 32888.00
solucao atual 32888.00
solucao atual 32888.00
solucao atual 32888.00
solucao atual 32888.00
solucao atual 32888.00
solucao atual 32888.00
solucao atual 32888.00
solucao atual 32888.00
solucao atual 32888.00
solucao atual 32888.00
solucao atual 32888.00
solucao atual 32888.00
solucao atual 32888.00
iteration 17 sol 32888.00
solucao atual 32820.00
solucao atual 32820.00
solucao atual 32820.00
solucao atual 32880.00
solucao atual 32880.00
solucao atual 32880.00
solucao atual 32880.00
solucao atual 32880.00
solucao atual 32880.00
solucao atual 32880.00
solucao atual 32880.00
solucao atual 32887.00
solucao atual 32887.00
solucao atual 32887.00
solucao atual 32887.00
solucao atual 32887.00
solucao atual 32887.00
solucao atual 32887.00
solucao atual 32887.00
solucao atual 32887.00
solucao atual 32887.00
solucao atual 32887.00
solucao atual 32887.00
solucao atual 32887.00
solucao atual 32887.00
iteration 18 sol 32887.00
solucao atual 32836.00
solucao atual 32836.00
solucao atual 32836.00
solucao atual 32841.00
solucao atual 32841.00
solucao atual 32841.00
solucao atual 32841.00
solucao atual 32893.00
solucao atual 32893.00
solucao atual 32893.00
solucao atual 32893.00
solucao atual 32893.00
solucao atual 32893.00
solucao atual 32893.00
solucao atual 32893.00
solucao atual 32893.00
solucao atual 32893.00
solucao atual 32893.00
solucao atual 32893.00
solucao atual 32893.00
solucao atual 32893.00
iteration 19 sol 32893.00
solucao atual 32861.00
solucao atual 32861.00
solucao atual 32861.00
solucao atual 32861.00
solucao atual 32861.00
solucao atual 32861.00
solucao atual 32861.00
solucao atual 32864.00
solucao atual 32864.00
solucao atual 32864.00
solucao atual 32864.00
solucao atual 32864.00
solucao atual 32864.00
solucao atual 32864.00
solucao atual 32864.00
solucao atual 32864.00
solucao atual 32864.00
solucao atual 32864.00
solucao atual 32864.00
solucao atual 32864.00
solucao atual 32864.00
iteration 20 sol 32864.00
solucao atual 32875.00
solucao atual 32875.00
solucao atual 32875.00
solucao atual 32875.00
solucao atual 32875.00
solucao atual 32875.00
solucao atual 32875.00
solucao atual 32875.00
solucao atual 32875.00
solucao atual 32875.00
solucao atual 32875.00
solucao atual 32875.00
solucao atual 32875.00
iteration 21 sol 32875.00
solucao atual 32887.00
solucao atual 32887.00
solucao atual 32887.00
solucao atual 32887.00
solucao atual 32887.00
solucao atual 32887.00
solucao atual 32887.00
solucao atual 32887.00
solucao atual 32887.00
solucao atual 32887.00
solucao atual 32887.00
solucao atual 32887.00
solucao atual 32887.00
iteration 22 sol 32887.00
solucao atual 32867.00
solucao atual 32867.00
solucao atual 32867.00
solucao atual 32867.00
solucao atual 32867.00
solucao atual 32867.00
solucao atual 32867.00
solucao atual 32867.00
solucao atual 32867.00
solucao atual 32867.00
solucao atual 32867.00
solucao atual 32867.00
solucao atual 32867.00
iteration 23 sol 32867.00
solucao atual 32893.00
solucao atual 32893.00
solucao atual 32893.00
solucao atual 32893.00
solucao atual 32893.00
solucao atual 32893.00
solucao atual 32893.00
solucao atual 32893.00
solucao atual 32893.00
solucao atual 32893.00
solucao atual 32893.00
solucao atual 32893.00
solucao atual 32893.00
solucao atual 32893.00
iteration 24 sol 32893.00
solucao atual 32869.00
solucao atual 32869.00
solucao atual 32869.00
solucao atual 32869.00
solucao atual 32869.00
solucao atual 32869.00
solucao atual 32869.00
solucao atual 32869.00
solucao atual 32869.00
solucao atual 32879.00
solucao atual 32879.00
solucao atual 32879.00
solucao atual 32879.00
solucao atual 32879.00
solucao atual 32879.00
solucao atual 32879.00
solucao atual 32879.00
solucao atual 32879.00
solucao atual 32879.00
solucao atual 32879.00
solucao atual 32879.00
solucao atual 32890.00
solucao atual 32890.00
solucao atual 32890.00
solucao atual 32890.00
solucao atual 32890.00
solucao atual 32890.00
solucao atual 32890.00
solucao atual 32890.00
solucao atual 32890.00
solucao atual 32890.00
solucao atual 32890.00
solucao atual 32890.00
solucao atual 32890.00
solucao atual 32898.00
solucao atual 32898.00
solucao atual 32898.00
solucao atual 32898.00
solucao atual 32898.00
solucao atual 32898.00
solucao atual 32898.00
solucao atual 32898.00
solucao atual 32898.00
solucao atual 32898.00
solucao atual 32898.00
solucao atual 32898.00
solucao atual 32898.00
solucao atual 32898.00
iteration 25 sol 32898.00
solucao atual 32835.00
solucao atual 32835.00
solucao atual 32835.00
solucao atual 32835.00
solucao atual 32835.00
solucao atual 32835.00
solucao atual 32835.00
solucao atual 32873.00
solucao atual 32873.00
solucao atual 32873.00
solucao atual 32873.00
solucao atual 32873.00
solucao atual 32873.00
solucao atual 32873.00
solucao atual 32891.00
solucao atual 32891.00
solucao atual 32891.00
solucao atual 32891.00
solucao atual 32891.00
solucao atual 32891.00
solucao atual 32891.00
solucao atual 32891.00
solucao atual 32891.00
solucao atual 32891.00
solucao atual 32891.00
solucao atual 32891.00
solucao atual 32891.00
solucao atual 32891.00
iteration 26 sol 32891.00
solucao atual 32836.00
solucao atual 32836.00
solucao atual 32836.00
solucao atual 32836.00
solucao atual 32836.00
solucao atual 32851.00
solucao atual 32851.00
solucao atual 32851.00
solucao atual 32851.00
solucao atual 32851.00
solucao atual 32851.00
solucao atual 32851.00
solucao atual 32856.00
solucao atual 32856.00
solucao atual 32856.00
solucao atual 32856.00
solucao atual 32856.00
solucao atual 32856.00
solucao atual 32856.00
solucao atual 32856.00
solucao atual 32856.00
solucao atual 32856.00
solucao atual 32856.00
solucao atual 32856.00
solucao atual 32856.00
solucao atual 32856.00
iteration 27 sol 32856.00
solucao atual 32832.00
solucao atual 32832.00
solucao atual 32832.00
solucao atual 32832.00
solucao atual 32838.00
solucao atual 32838.00
solucao atual 32838.00
solucao atual 32838.00
solucao atual 32838.00
solucao atual 32838.00
solucao atual 32838.00
solucao atual 32838.00
solucao atual 32838.00
solucao atual 32838.00
solucao atual 32838.00
solucao atual 32851.00
solucao atual 32851.00
solucao atual 32851.00
solucao atual 32851.00
solucao atual 32851.00
solucao atual 32851.00
solucao atual 32851.00
solucao atual 32851.00
solucao atual 32858.00
solucao atual 32858.00
solucao atual 32858.00
solucao atual 32858.00
solucao atual 32858.00
solucao atual 32858.00
solucao atual 32858.00
solucao atual 32858.00
solucao atual 32858.00
solucao atual 32858.00
solucao atual 32858.00
solucao atual 32858.00
solucao atual 32858.00
solucao atual 32858.00
iteration 28 sol 32858.00
solucao atual 32824.00
solucao atual 32824.00
solucao atual 32824.00
solucao atual 32824.00
solucao atual 32846.00
solucao atual 32846.00
solucao atual 32846.00
solucao atual 32846.00
solucao atual 32874.00
solucao atual 32874.00
solucao atual 32874.00
solucao atual 32874.00
solucao atual 32874.00
solucao atual 32874.00
solucao atual 32877.00
solucao atual 32877.00
solucao atual 32877.00
solucao atual 32877.00
solucao atual 32877.00
solucao atual 32877.00
solucao atual 32888.00
solucao atual 32888.00
solucao atual 32888.00
solucao atual 32888.00
solucao atual 32888.00
solucao atual 32888.00
solucao atual 32888.00
solucao atual 32888.00
solucao atual 32888.00
solucao atual 32888.00
solucao atual 32888.00
solucao atual 32888.00
solucao atual 32888.00
solucao atual 32904.00
solucao atual 32904.00
solucao atual 32904.00
solucao atual 32904.00
solucao atual 32904.00
solucao atual 32904.00
solucao atual 32904.00
solucao atual 32904.00
solucao atual 32904.00
solucao atual 32904.00
solucao atual 32904.00
solucao atual 32904.00
solucao atual 32904.00
solucao atual 32904.00
iteration 29 sol 32904.00
solucao atual 32842.00
solucao atual 32842.00
solucao atual 32842.00
solucao atual 32842.00
solucao atual 32842.00
solucao atual 32842.00
solucao atual 32842.00
solucao atual 32842.00
solucao atual 32846.00
solucao atual 32846.00
solucao atual 32846.00
solucao atual 32846.00
solucao atual 32846.00
solucao atual 32846.00
solucao atual 32846.00
solucao atual 32849.00
solucao atual 32849.00
solucao atual 32849.00
solucao atual 32849.00
solucao atual 32849.00
solucao atual 32849.00
solucao atual 32849.00
solucao atual 32867.00
solucao atual 32867.00
solucao atual 32867.00
solucao atual 32867.00
solucao atual 32867.00
solucao atual 32867.00
solucao atual 32867.00
solucao atual 32867.00
solucao atual 32867.00
solucao atual 32867.00
solucao atual 32867.00
solucao atual 32867.00
solucao atual 32867.00
solucao atual 32867.00
iteration 30 sol 32867.00
solucao atual 32804.00
solucao atual 32804.00
solucao atual 32804.00
solucao atual 32804.00
solucao atual 32811.00
solucao atual 32811.00
solucao atual 32811.00
solucao atual 32811.00
solucao atual 32830.00
solucao atual 32830.00
solucao atual 32830.00
solucao atual 32830.00
solucao atual 32833.00
solucao atual 32833.00
solucao atual 32833.00
solucao atual 32833.00
solucao atual 32833.00
solucao atual 32833.00
solucao atual 32833.00
solucao atual 32833.00
solucao atual 32833.00
solucao atual 32833.00
solucao atual 32833.00
solucao atual 32833.00
solucao atual 32833.00
solucao atual 32833.00
iteration 31 sol 32833.00
solucao atual 32882.00
solucao atual 32882.00
solucao atual 32882.00
solucao atual 32882.00
solucao atual 32882.00
solucao atual 32882.00
solucao atual 32882.00
solucao atual 32882.00
solucao atual 32882.00
solucao atual 32882.00
solucao atual 32882.00
solucao atual 32882.00
solucao atual 32882.00
iteration 32 sol 32882.00
solucao atual 32885.00
solucao atual 32885.00
solucao atual 32885.00
solucao atual 32885.00
solucao atual 32885.00
solucao atual 32885.00
solucao atual 32885.00
solucao atual 32885.00
solucao atual 32885.00
solucao atual 32885.00
solucao atual 32885.00
solucao atual 32885.00
solucao atual 32885.00
iteration 33 sol 32885.00
solucao atual 32879.00
solucao atual 32879.00
solucao atual 32879.00
solucao atual 32879.00
solucao atual 32879.00
solucao atual 32879.00
solucao atual 32879.00
solucao atual 32879.00
solucao atual 32879.00
solucao atual 32879.00
solucao atual 32879.00
solucao atual 32879.00
solucao atual 32879.00
solucao atual 32879.00
iteration 34 sol 32879.00
solucao atual 32891.00
solucao atual 32891.00
solucao atual 32891.00
solucao atual 32891.00
solucao atual 32891.00
solucao atual 32891.00
solucao atual 32891.00
solucao atual 32891.00
solucao atual 32891.00
solucao atual 32891.00
solucao atual 32891.00
solucao atual 32891.00
solucao atual 32891.00
iteration 35 sol 32891.00
solucao atual 32865.00
solucao atual 32865.00
solucao atual 32865.00
solucao atual 32865.00
solucao atual 32865.00
solucao atual 32865.00
solucao atual 32865.00
solucao atual 32865.00
solucao atual 32865.00
solucao atual 32865.00
solucao atual 32865.00
solucao atual 32865.00
solucao atual 32865.00
solucao atual 32865.00
iteration 36 sol 32865.00
solucao atual 32829.00
solucao atual 32829.00
solucao atual 32829.00
solucao atual 32829.00
solucao atual 32842.00
solucao atual 32842.00
solucao atual 32842.00
solucao atual 32842.00
solucao atual 32852.00
solucao atual 32852.00
solucao atual 32852.00
solucao atual 32852.00
solucao atual 32852.00
solucao atual 32852.00
solucao atual 32856.00
solucao atual 32856.00
solucao atual 32856.00
solucao atual 32856.00
solucao atual 32856.00
solucao atual 32856.00
solucao atual 32856.00
solucao atual 32863.00
solucao atual 32863.00
solucao atual 32863.00
solucao atual 32863.00
solucao atual 32863.00
solucao atual 32863.00
solucao atual 32863.00
solucao atual 32863.00
solucao atual 32863.00
solucao atual 32863.00
solucao atual 32863.00
solucao atual 32863.00
solucao atual 32863.00
solucao atual 32863.00
iteration 37 sol 32863.00
solucao atual 32861.00
solucao atual 32861.00
solucao atual 32861.00
solucao atual 32861.00
solucao atual 32861.00
solucao atual 32861.00
solucao atual 32861.00
solucao atual 32861.00
solucao atual 32861.00
solucao atual 32861.00
solucao atual 32861.00
solucao atual 32861.00
solucao atual 32861.00
solucao atual 32861.00
solucao atual 32861.00
solucao atual 32861.00
solucao atual 32861.00
iteration 38 sol 32861.00
solucao atual 32872.00
solucao atual 32872.00
solucao atual 32872.00
solucao atual 32872.00
solucao atual 32872.00
solucao atual 32872.00
solucao atual 32872.00
solucao atual 32872.00
solucao atual 32872.00
solucao atual 32872.00
solucao atual 32872.00
solucao atual 32872.00
solucao atual 32872.00
solucao atual 32872.00
iteration 39 sol 32872.00
solucao atual 32889.00
solucao atual 32889.00
solucao atual 32889.00
solucao atual 32889.00
solucao atual 32889.00
solucao atual 32889.00
solucao atual 32889.00
solucao atual 32889.00
solucao atual 32889.00
solucao atual 32890.00
solucao atual 32890.00
solucao atual 32890.00
solucao atual 32890.00
solucao atual 32890.00
solucao atual 32890.00
solucao atual 32891.00
solucao atual 32891.00
solucao atual 32891.00
solucao atual 32891.00
solucao atual 32891.00
solucao atual 32891.00
solucao atual 32891.00
solucao atual 32891.00
solucao atual 32891.00
solucao atual 32891.00
solucao atual 32891.00
solucao atual 32891.00
solucao atual 32891.00
solucao atual 32891.00
iteration 40 sol 32891.00
solucao atual 32889.00
solucao atual 32889.00
solucao atual 32889.00
solucao atual 32889.00
solucao atual 32889.00
solucao atual 32889.00
solucao atual 32889.00
solucao atual 32889.00
solucao atual 32889.00
TIMEOUT
TIMEOUT
TIMEOUT
iteration 41 sol 32889.00
Number of iterations = 42
Best Solution was found in iteration = 4
Time used by neighbor | Times each neighbor was used | Improvements
N_1 = 0.01 | 134 | 42
N_2 = 0.01 | 92 | 0
N_3 = 0.00 | 92 | 0
N_4 = 2.36 | 92 | 50
Time to find the best solution = 63.16
Solution = 32916.00
Time = 600.02
