solucao atual 19892.00
solucao atual 19892.00
solucao atual 19892.00
solucao atual 19892.00
solucao atual 19892.00
solucao atual 19892.00
solucao atual 19892.00
solucao atual 19892.00
solucao atual 19892.00
solucao atual 19892.00
solucao atual 19892.00
solucao atual 19892.00
solucao atual 19892.00
iteration 0 sol 19892.00
solucao atual 19772.00
solucao atual 19772.00
solucao atual 19772.00
solucao atual 19794.00
solucao atual 19794.00
solucao atual 19794.00
solucao atual 19794.00
solucao atual 19794.00
solucao atual 19794.00
solucao atual 19794.00
solucao atual 19794.00
solucao atual 19794.00
solucao atual 19794.00
solucao atual 19794.00
solucao atual 19794.00
solucao atual 19794.00
solucao atual 19794.00
solucao atual 19794.00
solucao atual 19794.00
solucao atual 19794.00
solucao atual 19794.00
solucao atual 19794.00
solucao atual 19794.00
solucao atual 19794.00
solucao atual 19794.00
solucao atual 19794.00
solucao atual 19794.00
solucao atual 19794.00
iteration 1 sol 19794.00
solucao atual 19774.00
solucao atual 19774.00
solucao atual 19774.00
solucao atual 19774.00
solucao atual 19774.00
solucao atual 19774.00
solucao atual 19774.00
solucao atual 19775.00
solucao atual 19775.00
solucao atual 19775.00
solucao atual 19775.00
solucao atual 19830.00
solucao atual 19830.00
solucao atual 19830.00
solucao atual 19830.00
solucao atual 19830.00
solucao atual 19830.00
solucao atual 19830.00
solucao atual 19830.00
solucao atual 19830.00
solucao atual 19830.00
solucao atual 19830.00
solucao atual 19830.00
solucao atual 19830.00
solucao atual 19830.00
solucao atual 19830.00
solucao atual 19830.00
solucao atual 19830.00
solucao atual 19830.00
iteration 2 sol 19830.00
solucao atual 19893.00
solucao atual 19893.00
solucao atual 19893.00
solucao atual 19893.00
solucao atual 19893.00
solucao atual 19893.00
solucao atual 19893.00
solucao atual 19893.00
solucao atual 19893.00
solucao atual 19893.00
solucao atual 19893.00
solucao atual 19893.00
solucao atual 19893.00
iteration 3 sol 19893.00
solucao atual 19880.00
solucao atual 19880.00
solucao atual 19880.00
solucao atual 19880.00
solucao atual 19880.00
solucao atual 19880.00
solucao atual 19880.00
solucao atual 19880.00
solucao atual 19880.00
solucao atual 19880.00
solucao atual 19880.00
solucao atual 19880.00
solucao atual 19880.00
iteration 4 sol 19880.00
solucao atual 19889.00
solucao atual 19889.00
solucao atual 19889.00
solucao atual 19889.00
solucao atual 19889.00
solucao atual 19889.00
solucao atual 19889.00
solucao atual 19902.00
solucao atual 19902.00
solucao atual 19902.00
solucao atual 19902.00
solucao atual 19902.00
solucao atual 19902.00
solucao atual 19902.00
solucao atual 19902.00
solucao atual 19902.00
solucao atual 19902.00
solucao atual 19902.00
solucao atual 19902.00
solucao atual 19902.00
solucao atual 19902.00
iteration 5 sol 19902.00
solucao atual 19853.00
solucao atual 19853.00
solucao atual 19853.00
solucao atual 19853.00
solucao atual 19853.00
solucao atual 19853.00
solucao atual 19853.00
solucao atual 19853.00
solucao atual 19853.00
solucao atual 19853.00
solucao atual 19853.00
solucao atual 19863.00
solucao atual 19863.00
solucao atual 19863.00
solucao atual 19863.00
solucao atual 19863.00
solucao atual 19870.00
solucao atual 19870.00
solucao atual 19870.00
solucao atual 19870.00
solucao atual 19870.00
solucao atual 19870.00
solucao atual 19870.00
solucao atual 19870.00
solucao atual 19870.00
solucao atual 19870.00
solucao atual 19870.00
solucao atual 19870.00
solucao atual 19870.00
solucao atual 19870.00
solucao atual 19870.00
solucao atual 19870.00
solucao atual 19870.00
solucao atual 19870.00
solucao atual 19870.00
iteration 6 sol 19870.00
solucao atual 19829.00
solucao atual 19829.00
solucao atual 19829.00
solucao atual 19829.00
solucao atual 19829.00
solucao atual 19829.00
solucao atual 19829.00
solucao atual 19829.00
solucao atual 19829.00
solucao atual 19829.00
solucao atual 19829.00
solucao atual 19829.00
solucao atual 19829.00
iteration 7 sol 19829.00
solucao atual 19874.00
solucao atual 19874.00
solucao atual 19874.00
solucao atual 19874.00
solucao atual 19874.00
solucao atual 19874.00
solucao atual 19874.00
solucao atual 19874.00
solucao atual 19874.00
solucao atual 19874.00
solucao atual 19874.00
solucao atual 19874.00
solucao atual 19898.00
solucao atual 19898.00
solucao atual 19898.00
solucao atual 19898.00
solucao atual 19898.00
solucao atual 19898.00
solucao atual 19898.00
solucao atual 19898.00
solucao atual 19898.00
solucao atual 19898.00
solucao atual 19898.00
solucao atual 19898.00
solucao atual 19898.00
solucao atual 19898.00
iteration 8 sol 19898.00
solucao atual 19862.00
solucao atual 19862.00
solucao atual 19862.00
solucao atual 19862.00
solucao atual 19862.00
solucao atual 19862.00
solucao atual 19862.00
solucao atual 19862.00
solucao atual 19862.00
solucao atual 19862.00
solucao atual 19862.00
solucao atual 19862.00
solucao atual 19862.00
iteration 9 sol 19862.00
solucao atual 19731.00
solucao atual 19731.00
solucao atual 19731.00
solucao atual 19740.00
solucao atual 19740.00
solucao atual 19740.00
solucao atual 19740.00
solucao atual 19740.00
solucao atual 19740.00
solucao atual 19740.00
solucao atual 19740.00
solucao atual 19740.00
solucao atual 19740.00
solucao atual 19740.00
solucao atual 19740.00
solucao atual 19740.00
solucao atual 19740.00
iteration 10 sol 19740.00
solucao atual 19914.00
solucao atual 19914.00
solucao atual 19914.00
solucao atual 19914.00
solucao atual 19914.00
solucao atual 19914.00
solucao atual 19914.00
solucao atual 19914.00
solucao atual 19914.00
solucao atual 19914.00
solucao atual 19914.00
solucao atual 19914.00
solucao atual 19914.00
iteration 11 sol 19914.00
solucao atual 19843.00
solucao atual 19843.00
solucao atual 19843.00
solucao atual 19843.00
solucao atual 19843.00
solucao atual 19843.00
solucao atual 19843.00
solucao atual 19843.00
solucao atual 19843.00
solucao atual 19843.00
solucao atual 19843.00
solucao atual 19875.00
solucao atual 19875.00
solucao atual 19875.00
solucao atual 19875.00
solucao atual 19875.00
solucao atual 19875.00
solucao atual 19875.00
solucao atual 19875.00
solucao atual 19875.00
solucao atual 19875.00
solucao atual 19875.00
solucao atual 19875.00
solucao atual 19875.00
solucao atual 19875.00
solucao atual 19875.00
solucao atual 19875.00
solucao atual 19875.00
solucao atual 19875.00
solucao atual 19875.00
solucao atual 19875.00
solucao atual 19875.00
solucao atual 19875.00
solucao atual 19875.00
solucao atual 19875.00
solucao atual 19875.00
solucao atual 19875.00
solucao atual 19875.00
solucao atual 19875.00
solucao atual 19875.00
solucao atual 19875.00
iteration 12 sol 19875.00
solucao atual 19849.00
solucao atual 19849.00
solucao atual 19849.00
solucao atual 19849.00
solucao atual 19863.00
solucao atual 19863.00
solucao atual 19863.00
solucao atual 19863.00
solucao atual 19866.00
solucao atual 19866.00
solucao atual 19866.00
solucao atual 19866.00
solucao atual 19866.00
solucao atual 19882.00
solucao atual 19882.00
solucao atual 19882.00
solucao atual 19882.00
solucao atual 19882.00
solucao atual 19882.00
solucao atual 19882.00
solucao atual 19886.00
solucao atual 19886.00
solucao atual 19886.00
solucao atual 19886.00
solucao atual 19886.00
solucao atual 19886.00
solucao atual 19886.00
solucao atual 19886.00
solucao atual 19914.00
solucao atual 19914.00
solucao atual 19914.00
solucao atual 19914.00
solucao atual 19914.00
solucao atual 19914.00
solucao atual 19914.00
solucao atual 19914.00
solucao atual 19914.00
solucao atual 19914.00
solucao atual 19914.00
solucao atual 19914.00
solucao atual 19914.00
solucao atual 19914.00
iteration 13 sol 19914.00
solucao atual 19826.00
solucao atual 19826.00
solucao atual 19826.00
solucao atual 19826.00
solucao atual 19826.00
solucao atual 19826.00
solucao atual 19826.00
solucao atual 19826.00
solucao atual 19826.00
solucao atual 19826.00
solucao atual 19826.00
solucao atual 19826.00
solucao atual 19826.00
iteration 14 sol 19826.00
solucao atual 19851.00
solucao atual 19851.00
solucao atual 19851.00
solucao atual 19851.00
solucao atual 19851.00
solucao atual 19851.00
solucao atual 19851.00
solucao atual 19851.00
solucao atual 19851.00
solucao atual 19862.00
solucao atual 19862.00
solucao atual 19862.00
solucao atual 19862.00
solucao atual 19862.00
solucao atual 19862.00
solucao atual 19862.00
solucao atual 19862.00
solucao atual 19862.00
solucao atual 19862.00
solucao atual 19862.00
solucao atual 19862.00
solucao atual 19862.00
solucao atual 19862.00
iteration 15 sol 19862.00
solucao atual 19846.00
solucao atual 19846.00
solucao atual 19846.00
solucao atual 19846.00
solucao atual 19846.00
solucao atual 19846.00
solucao atual 19846.00
solucao atual 19846.00
solucao atual 19846.00
solucao atual 19846.00
solucao atual 19868.00
solucao atual 19868.00
solucao atual 19868.00
solucao atual 19868.00
solucao atual 19868.00
solucao atual 19868.00
solucao atual 19868.00
solucao atual 19868.00
solucao atual 19868.00
solucao atual 19868.00
solucao atual 19868.00
solucao atual 19868.00
solucao atual 19868.00
solucao atual 19868.00
iteration 16 sol 19868.00
solucao atual 19921.00
solucao atual 19921.00
solucao atual 19921.00
solucao atual 19921.00
solucao atual 19921.00
solucao atual 19921.00
solucao atual 19921.00
solucao atual 19921.00
solucao atual 19921.00
solucao atual 19921.00
solucao atual 19921.00
solucao atual 19921.00
solucao atual 19921.00
iteration 17 sol 19921.00
solucao atual 19726.00
solucao atual 19726.00
solucao atual 19726.00
solucao atual 19726.00
solucao atual 19726.00
solucao atual 19726.00
solucao atual 19726.00
solucao atual 19726.00
solucao atual 19726.00
solucao atual 19798.00
solucao atual 19798.00
solucao atual 19798.00
solucao atual 19798.00
solucao atual 19798.00
solucao atual 19798.00
solucao atual 19798.00
solucao atual 19798.00
solucao atual 19798.00
solucao atual 19798.00
solucao atual 19798.00
solucao atual 19798.00
solucao atual 19798.00
solucao atual 19798.00
solucao atual 19798.00
solucao atual 19798.00
solucao atual 19798.00
solucao atual 19798.00
iteration 18 sol 19798.00
solucao atual 19771.00
solucao atual 19771.00
solucao atual 19771.00
solucao atual 19771.00
solucao atual 19771.00
solucao atual 19771.00
solucao atual 19771.00
solucao atual 19771.00
solucao atual 19802.00
solucao atual 19802.00
solucao atual 19802.00
solucao atual 19802.00
solucao atual 19802.00
solucao atual 19839.00
solucao atual 19839.00
solucao atual 19839.00
solucao atual 19839.00
solucao atual 19839.00
solucao atual 19839.00
solucao atual 19839.00
solucao atual 19839.00
solucao atual 19839.00
solucao atual 19839.00
solucao atual 19839.00
solucao atual 19839.00
solucao atual 19839.00
solucao atual 19839.00
solucao atual 19839.00
solucao atual 19839.00
solucao atual 19839.00
solucao atual 19839.00
solucao atual 19839.00
solucao atual 19839.00
solucao atual 19839.00
solucao atual 19839.00
solucao atual 19839.00
solucao atual 19839.00
solucao atual 19839.00
solucao atual 19839.00
solucao atual 19839.00
solucao atual 19839.00
solucao atual 19839.00
iteration 19 sol 19839.00
solucao atual 19846.00
solucao atual 19846.00
solucao atual 19846.00
solucao atual 19846.00
solucao atual 19846.00
solucao atual 19846.00
solucao atual 19846.00
solucao atual 19846.00
solucao atual 19846.00
solucao atual 19846.00
solucao atual 19846.00
solucao atual 19846.00
solucao atual 19846.00
solucao atual 19846.00
solucao atual 19846.00
solucao atual 19846.00
solucao atual 19846.00
solucao atual 19846.00
solucao atual 19846.00
solucao atual 19846.00
solucao atual 19846.00
solucao atual 19846.00
solucao atual 19846.00
solucao atual 19846.00
solucao atual 19846.00
solucao atual 19846.00
solucao atual 19846.00
solucao atual 19846.00
solucao atual 19846.00
solucao atual 19846.00
solucao atual 19846.00
solucao atual 19846.00
solucao atual 19846.00
iteration 20 sol 19846.00
solucao atual 19867.00
solucao atual 19867.00
solucao atual 19867.00
solucao atual 19867.00
solucao atual 19867.00
solucao atual 19867.00
solucao atual 19867.00
solucao atual 19867.00
solucao atual 19867.00
solucao atual 19867.00
solucao atual 19867.00
solucao atual 19867.00
solucao atual 19867.00
iteration 21 sol 19867.00
solucao atual 19725.00
solucao atual 19725.00
solucao atual 19725.00
solucao atual 19725.00
solucao atual 19726.00
solucao atual 19726.00
solucao atual 19726.00
solucao atual 19726.00
solucao atual 19726.00
solucao atual 19726.00
solucao atual 19775.00
solucao atual 19775.00
solucao atual 19775.00
solucao atual 19775.00
solucao atual 19775.00
solucao atual 19775.00
solucao atual 19775.00
solucao atual 19775.00
solucao atual 19790.00
solucao atual 19790.00
solucao atual 19790.00
solucao atual 19790.00
solucao atual 19829.00
solucao atual 19829.00
solucao atual 19829.00
solucao atual 19829.00
solucao atual 19829.00
solucao atual 19842.00
solucao atual 19842.00
solucao atual 19842.00
solucao atual 19842.00
solucao atual 19842.00
solucao atual 19842.00
solucao atual 19842.00
solucao atual 19842.00
solucao atual 19842.00
solucao atual 19853.00
solucao atual 19853.00
solucao atual 19853.00
solucao atual 19853.00
solucao atual 19853.00
solucao atual 19853.00
solucao atual 19853.00
solucao atual 19853.00
solucao atual 19853.00
solucao atual 19853.00
solucao atual 19854.00
solucao atual 19854.00
solucao atual 19854.00
solucao atual 19854.00
solucao atual 19854.00
solucao atual 19875.00
solucao atual 19875.00
solucao atual 19875.00
solucao atual 19875.00
solucao atual 19875.00
solucao atual 19875.00
solucao atual 19875.00
solucao atual 19875.00
solucao atual 19875.00
solucao atual 19875.00
solucao atual 19875.00
solucao atual 19875.00
solucao atual 19875.00
solucao atual 19875.00
iteration 22 sol 19875.00
solucao atual 19835.00
solucao atual 19835.00
solucao atual 19835.00
solucao atual 19835.00
solucao atual 19835.00
solucao atual 19835.00
solucao atual 19835.00
solucao atual 19835.00
solucao atual 19835.00
solucao atual 19835.00
solucao atual 19835.00
solucao atual 19835.00
solucao atual 19835.00
solucao atual 19835.00
solucao atual 19835.00
solucao atual 19835.00
solucao atual 19835.00
solucao atual 19835.00
solucao atual 19835.00
solucao atual 19835.00
solucao atual 19835.00
solucao atual 19835.00
solucao atual 19835.00
solucao atual 19835.00
solucao atual 19835.00
solucao atual 19835.00
solucao atual 19835.00
solucao atual 19835.00
solucao atual 19835.00
solucao atual 19835.00
solucao atual 19835.00
solucao atual 19835.00
solucao atual 19835.00
iteration 23 sol 19835.00
solucao atual 19894.00
solucao atual 19894.00
solucao atual 19894.00
solucao atual 19894.00
solucao atual 19894.00
solucao atual 19894.00
solucao atual 19894.00
solucao atual 19894.00
solucao atual 19894.00
solucao atual 19894.00
solucao atual 19894.00
solucao atual 19894.00
solucao atual 19894.00
solucao atual 19894.00
solucao atual 19894.00
solucao atual 19894.00
solucao atual 19894.00
solucao atual 19894.00
solucao atual 19894.00
solucao atual 19894.00
solucao atual 19894.00
solucao atual 19894.00
solucao atual 19894.00
solucao atual 19894.00
iteration 24 sol 19894.00
solucao atual 19842.00
solucao atual 19842.00
solucao atual 19842.00
solucao atual 19842.00
solucao atual 19842.00
solucao atual 19869.00
solucao atual 19869.00
solucao atual 19869.00
solucao atual 19869.00
solucao atual 19869.00
solucao atual 19869.00
solucao atual 19869.00
solucao atual 19869.00
solucao atual 19869.00
solucao atual 19869.00
solucao atual 19869.00
solucao atual 19869.00
solucao atual 19869.00
solucao atual 19869.00
solucao atual 19869.00
solucao atual 19869.00
solucao atual 19869.00
solucao atual 19869.00
solucao atual 19869.00
solucao atual 19869.00
solucao atual 19869.00
solucao atual 19869.00
solucao atual 19869.00
solucao atual 19869.00
solucao atual 19869.00
solucao atual 19869.00
solucao atual 19869.00
solucao atual 19869.00
iteration 25 sol 19869.00
solucao atual 19850.00
solucao atual 19850.00
solucao atual 19850.00
solucao atual 19850.00
solucao atual 19850.00
solucao atual 19850.00
solucao atual 19850.00
solucao atual 19850.00
solucao atual 19850.00
solucao atual 19850.00
solucao atual 19850.00
solucao atual 19850.00
solucao atual 19850.00
iteration 26 sol 19850.00
solucao atual 19879.00
solucao atual 19879.00
solucao atual 19879.00
solucao atual 19879.00
solucao atual 19879.00
solucao atual 19879.00
solucao atual 19879.00
solucao atual 19879.00
solucao atual 19879.00
solucao atual 19879.00
solucao atual 19879.00
solucao atual 19879.00
solucao atual 19879.00
iteration 27 sol 19879.00
solucao atual 19933.00
solucao atual 19933.00
solucao atual 19933.00
solucao atual 19933.00
solucao atual 19933.00
solucao atual 19933.00
solucao atual 19933.00
solucao atual 19933.00
solucao atual 19933.00
solucao atual 19933.00
solucao atual 19933.00
solucao atual 19933.00
solucao atual 19933.00
iteration 28 sol 19933.00
solucao atual 19825.00
solucao atual 19825.00
solucao atual 19825.00
solucao atual 19825.00
solucao atual 19825.00
solucao atual 19825.00
solucao atual 19840.00
solucao atual 19840.00
solucao atual 19840.00
solucao atual 19840.00
solucao atual 19840.00
solucao atual 19840.00
solucao atual 19840.00
solucao atual 19840.00
solucao atual 19840.00
solucao atual 19840.00
solucao atual 19840.00
solucao atual 19840.00
solucao atual 19840.00
solucao atual 19840.00
iteration 29 sol 19840.00
solucao atual 19874.00
solucao atual 19874.00
solucao atual 19874.00
solucao atual 19874.00
solucao atual 19874.00
solucao atual 19874.00
solucao atual 19874.00
solucao atual 19874.00
solucao atual 19874.00
solucao atual 19874.00
solucao atual 19874.00
solucao atual 19874.00
solucao atual 19874.00
solucao atual 19874.00
solucao atual 19874.00
solucao atual 19874.00
solucao atual 19874.00
solucao atual 19874.00
iteration 30 sol 19874.00
solucao atual 19917.00
solucao atual 19917.00
solucao atual 19917.00
solucao atual 19917.00
solucao atual 19917.00
solucao atual 19917.00
solucao atual 19917.00
solucao atual 19917.00
solucao atual 19917.00
solucao atual 19917.00
solucao atual 19917.00
solucao atual 19917.00
solucao atual 19917.00
iteration 31 sol 19917.00
solucao atual 19820.00
solucao atual 19820.00
solucao atual 19820.00
solucao atual 19820.00
solucao atual 19820.00
solucao atual 19820.00
solucao atual 19829.00
solucao atual 19829.00
solucao atual 19829.00
solucao atual 19829.00
solucao atual 19829.00
solucao atual 19829.00
solucao atual 19829.00
solucao atual 19829.00
solucao atual 19829.00
solucao atual 19829.00
solucao atual 19829.00
solucao atual 19829.00
solucao atual 19829.00
solucao atual 19829.00
solucao atual 19829.00
solucao atual 19854.00
solucao atual 19854.00
solucao atual 19854.00
solucao atual 19854.00
solucao atual 19854.00
solucao atual 19854.00
solucao atual 19854.00
solucao atual 19854.00
solucao atual 19854.00
solucao atual 19854.00
solucao atual 19854.00
solucao atual 19854.00
solucao atual 19854.00
solucao atual 19854.00
solucao atual 19854.00
solucao atual 19854.00
solucao atual 19854.00
solucao atual 19854.00
solucao atual 19854.00
solucao atual 19854.00
solucao atual 19854.00
solucao atual 19854.00
solucao atual 19854.00
solucao atual 19854.00
solucao atual 19854.00
solucao atual 19854.00
solucao atual 19854.00
iteration 32 sol 19854.00
solucao atual 19835.00
solucao atual 19835.00
solucao atual 19835.00
solucao atual 19835.00
solucao atual 19835.00
solucao atual 19835.00
solucao atual 19835.00
solucao atual 19835.00
solucao atual 19835.00
solucao atual 19835.00
solucao atual 19835.00
solucao atual 19835.00
solucao atual 19835.00
solucao atual 19835.00
solucao atual 19835.00
solucao atual 19835.00
solucao atual 19835.00
solucao atual 19835.00
solucao atual 19835.00
solucao atual 19835.00
solucao atual 19835.00
solucao atual 19835.00
solucao atual 19835.00
solucao atual 19835.00
solucao atual 19835.00
solucao atual 19835.00
solucao atual 19835.00
solucao atual 19835.00
solucao atual 19835.00
solucao atual 19835.00
solucao atual 19835.00
solucao atual 19835.00
solucao atual 19835.00
iteration 33 sol 19835.00
solucao atual 19810.00
solucao atual 19810.00
solucao atual 19810.00
solucao atual 19810.00
solucao atual 19810.00
solucao atual 19810.00
solucao atual 19810.00
solucao atual 19810.00
solucao atual 19810.00
solucao atual 19810.00
solucao atual 19810.00
solucao atual 19810.00
solucao atual 19810.00
iteration 34 sol 19810.00
solucao atual 19825.00
solucao atual 19825.00
solucao atual 19825.00
solucao atual 19825.00
solucao atual 19825.00
solucao atual 19825.00
solucao atual 19825.00
solucao atual 19825.00
solucao atual 19825.00
solucao atual 19825.00
solucao atual 19825.00
solucao atual 19825.00
solucao atual 19825.00
iteration 35 sol 19825.00
solucao atual 19911.00
solucao atual 19911.00
solucao atual 19911.00
solucao atual 19911.00
solucao atual 19911.00
solucao atual 19911.00
solucao atual 19911.00
solucao atual 19911.00
solucao atual 19911.00
solucao atual 19911.00
solucao atual 19911.00
solucao atual 19911.00
solucao atual 19911.00
iteration 36 sol 19911.00
solucao atual 19908.00
solucao atual 19908.00
solucao atual 19908.00
solucao atual 19908.00
solucao atual 19908.00
solucao atual 19908.00
solucao atual 19915.00
solucao atual 19915.00
solucao atual 19915.00
solucao atual 19915.00
solucao atual 19915.00
solucao atual 19915.00
solucao atual 19915.00
solucao atual 19915.00
solucao atual 19915.00
solucao atual 19915.00
solucao atual 19915.00
solucao atual 19915.00
solucao atual 19915.00
solucao atual 19915.00
solucao atual 19915.00
solucao atual 19915.00
solucao atual 19915.00
solucao atual 19915.00
solucao atual 19915.00
solucao atual 19915.00
solucao atual 19915.00
solucao atual 19915.00
solucao atual 19915.00
solucao atual 19915.00
iteration 37 sol 19915.00
solucao atual 19873.00
solucao atual 19873.00
solucao atual 19873.00
solucao atual 19873.00
solucao atual 19873.00
solucao atual 19873.00
solucao atual 19873.00
solucao atual 19873.00
solucao atual 19873.00
solucao atual 19873.00
solucao atual 19873.00
solucao atual 19873.00
solucao atual 19873.00
iteration 38 sol 19873.00
solucao atual 19826.00
solucao atual 19826.00
solucao atual 19826.00
solucao atual 19826.00
solucao atual 19826.00
solucao atual 19826.00
solucao atual 19826.00
solucao atual 19826.00
solucao atual 19826.00
solucao atual 19826.00
solucao atual 19826.00
solucao atual 19826.00
solucao atual 19826.00
solucao atual 19826.00
solucao atual 19826.00
solucao atual 19826.00
solucao atual 19826.00
solucao atual 19826.00
solucao atual 19826.00
solucao atual 19826.00
solucao atual 19826.00
iteration 39 sol 19826.00
solucao atual 19861.00
solucao atual 19861.00
solucao atual 19861.00
solucao atual 19864.00
solucao atual 19864.00
solucao atual 19864.00
solucao atual 19864.00
solucao atual 19864.00
solucao atual 19875.00
solucao atual 19875.00
solucao atual 19875.00
solucao atual 19875.00
solucao atual 19875.00
solucao atual 19875.00
solucao atual 19875.00
solucao atual 19895.00
solucao atual 19895.00
solucao atual 19895.00
solucao atual 19895.00
solucao atual 19895.00
solucao atual 19895.00
solucao atual 19895.00
solucao atual 19895.00
solucao atual 19895.00
solucao atual 19895.00
solucao atual 19895.00
solucao atual 19912.00
solucao atual 19912.00
solucao atual 19912.00
solucao atual 19912.00
solucao atual 19912.00
solucao atual 19912.00
solucao atual 19912.00
solucao atual 19912.00
solucao atual 19912.00
solucao atual 19912.00
solucao atual 19912.00
solucao atual 19912.00
solucao atual 19912.00
solucao atual 19912.00
solucao atual 19912.00
solucao atual 19912.00
solucao atual 19912.00
solucao atual 19912.00
solucao atual 19912.00
solucao atual 19912.00
solucao atual 19912.00
solucao atual 19912.00
solucao atual 19912.00
iteration 40 sol 19912.00
solucao atual 19829.00
solucao atual 19829.00
solucao atual 19829.00
solucao atual 19829.00
solucao atual 19829.00
solucao atual 19829.00
solucao atual 19829.00
solucao atual 19829.00
solucao atual 19829.00
solucao atual 19829.00
solucao atual 19829.00
solucao atual 19829.00
solucao atual 19829.00
iteration 41 sol 19829.00
solucao atual 19903.00
solucao atual 19903.00
solucao atual 19903.00
solucao atual 19915.00
solucao atual 19915.00
solucao atual 19915.00
solucao atual 19915.00
solucao atual 19915.00
solucao atual 19915.00
solucao atual 19915.00
solucao atual 19915.00
solucao atual 19915.00
solucao atual 19915.00
solucao atual 19915.00
solucao atual 19915.00
solucao atual 19935.00
solucao atual 19935.00
solucao atual 19935.00
solucao atual 19935.00
solucao atual 19935.00
solucao atual 19935.00
solucao atual 19935.00
solucao atual 19935.00
solucao atual 19935.00
solucao atual 19935.00
solucao atual 19935.00
solucao atual 19935.00
solucao atual 19935.00
solucao atual 19935.00
iteration 42 sol 19935.00
solucao atual 19847.00
solucao atual 19847.00
solucao atual 19847.00
solucao atual 19847.00
solucao atual 19847.00
solucao atual 19847.00
solucao atual 19847.00
solucao atual 19847.00
solucao atual 19847.00
solucao atual 19847.00
solucao atual 19847.00
solucao atual 19847.00
solucao atual 19847.00
solucao atual 19847.00
solucao atual 19847.00
solucao atual 19847.00
solucao atual 19847.00
solucao atual 19847.00
solucao atual 19847.00
solucao atual 19850.00
solucao atual 19850.00
solucao atual 19850.00
solucao atual 19850.00
solucao atual 19902.00
solucao atual 19902.00
solucao atual 19902.00
solucao atual 19902.00
solucao atual 19902.00
solucao atual 19902.00
solucao atual 19902.00
solucao atual 19902.00
solucao atual 19902.00
solucao atual 19902.00
solucao atual 19902.00
solucao atual 19902.00
solucao atual 19902.00
solucao atual 19902.00
iteration 43 sol 19902.00
solucao atual 19879.00
solucao atual 19879.00
solucao atual 19879.00
solucao atual 19879.00
solucao atual 19886.00
solucao atual 19886.00
solucao atual 19886.00
solucao atual 19886.00
solucao atual 19886.00
solucao atual 19886.00
solucao atual 19886.00
solucao atual 19886.00
solucao atual 19886.00
solucao atual 19886.00
solucao atual 19886.00
solucao atual 19886.00
solucao atual 19886.00
solucao atual 19886.00
iteration 44 sol 19886.00
solucao atual 19846.00
solucao atual 19846.00
solucao atual 19846.00
solucao atual 19846.00
solucao atual 19846.00
solucao atual 19846.00
solucao atual 19846.00
solucao atual 19846.00
solucao atual 19846.00
solucao atual 19846.00
solucao atual 19846.00
solucao atual 19846.00
solucao atual 19846.00
solucao atual 19846.00
solucao atual 19846.00
solucao atual 19846.00
solucao atual 19846.00
solucao atual 19846.00
solucao atual 19846.00
solucao atual 19846.00
solucao atual 19846.00
solucao atual 19846.00
solucao atual 19846.00
solucao atual 19846.00
solucao atual 19846.00
solucao atual 19846.00
iteration 45 sol 19846.00
solucao atual 19714.00
solucao atual 19714.00
solucao atual 19714.00
solucao atual 19714.00
solucao atual 19778.00
solucao atual 19778.00
solucao atual 19778.00
solucao atual 19778.00
solucao atual 19778.00
solucao atual 19778.00
solucao atual 19778.00
solucao atual 19778.00
solucao atual 19806.00
solucao atual 19806.00
solucao atual 19806.00
solucao atual 19806.00
solucao atual 19806.00
solucao atual 19806.00
solucao atual 19806.00
solucao atual 19806.00
solucao atual 19806.00
solucao atual 19806.00
solucao atual 19806.00
solucao atual 19806.00
solucao atual 19806.00
solucao atual 19806.00
solucao atual 19806.00
solucao atual 19806.00
solucao atual 19806.00
solucao atual 19806.00
solucao atual 19806.00
iteration 46 sol 19806.00
solucao atual 19785.00
solucao atual 19785.00
solucao atual 19785.00
solucao atual 19785.00
solucao atual 19785.00
solucao atual 19785.00
solucao atual 19785.00
solucao atual 19785.00
solucao atual 19814.00
solucao atual 19814.00
solucao atual 19814.00
solucao atual 19814.00
solucao atual 19814.00
solucao atual 19814.00
solucao atual 19814.00
solucao atual 19814.00
solucao atual 19815.00
solucao atual 19815.00
solucao atual 19815.00
solucao atual 19815.00
solucao atual 19815.00
solucao atual 19815.00
solucao atual 19815.00
solucao atual 19815.00
solucao atual 19815.00
solucao atual 19815.00
solucao atual 19815.00
solucao atual 19815.00
solucao atual 19815.00
solucao atual 19815.00
solucao atual 19815.00
solucao atual 19815.00
solucao atual 19815.00
solucao atual 19815.00
solucao atual 19815.00
solucao atual 19815.00
solucao atual 19815.00
solucao atual 19815.00
solucao atual 19815.00
solucao atual 19815.00
iteration 47 sol 19815.00
solucao atual 19865.00
solucao atual 19865.00
solucao atual 19865.00
solucao atual 19865.00
solucao atual 19865.00
solucao atual 19865.00
solucao atual 19865.00
solucao atual 19865.00
solucao atual 19865.00
solucao atual 19865.00
solucao atual 19865.00
solucao atual 19865.00
solucao atual 19865.00
iteration 48 sol 19865.00
solucao atual 19886.00
solucao atual 19886.00
solucao atual 19886.00
solucao atual 19910.00
solucao atual 19910.00
solucao atual 19910.00
solucao atual 19910.00
solucao atual 19910.00
solucao atual 19910.00
solucao atual 19910.00
solucao atual 19910.00
solucao atual 19910.00
solucao atual 19910.00
solucao atual 19910.00
solucao atual 19910.00
solucao atual 19910.00
solucao atual 19910.00
iteration 49 sol 19910.00
solucao atual 19858.00
solucao atual 19858.00
solucao atual 19858.00
solucao atual 19858.00
solucao atual 19858.00
solucao atual 19860.00
solucao atual 19860.00
solucao atual 19860.00
solucao atual 19860.00
solucao atual 19860.00
solucao atual 19860.00
solucao atual 19860.00
solucao atual 19860.00
solucao atual 19860.00
solucao atual 19868.00
solucao atual 19868.00
solucao atual 19868.00
solucao atual 19868.00
solucao atual 19868.00
solucao atual 19868.00
solucao atual 19868.00
solucao atual 19868.00
solucao atual 19868.00
solucao atual 19868.00
solucao atual 19868.00
solucao atual 19868.00
solucao atual 19868.00
solucao atual 19868.00
iteration 50 sol 19868.00
solucao atual 19836.00
solucao atual 19836.00
solucao atual 19836.00
solucao atual 19836.00
solucao atual 19836.00
solucao atual 19836.00
solucao atual 19836.00
solucao atual 19836.00
solucao atual 19836.00
solucao atual 19843.00
solucao atual 19843.00
solucao atual 19843.00
solucao atual 19843.00
solucao atual 19843.00
solucao atual 19843.00
solucao atual 19872.00
solucao atual 19872.00
solucao atual 19872.00
solucao atual 19872.00
solucao atual 19872.00
solucao atual 19872.00
solucao atual 19872.00
solucao atual 19872.00
solucao atual 19872.00
solucao atual 19872.00
solucao atual 19872.00
solucao atual 19872.00
solucao atual 19881.00
solucao atual 19881.00
solucao atual 19881.00
solucao atual 19881.00
solucao atual 19881.00
solucao atual 19881.00
solucao atual 19881.00
solucao atual 19881.00
solucao atual 19881.00
solucao atual 19881.00
solucao atual 19881.00
solucao atual 19881.00
solucao atual 19881.00
solucao atual 19881.00
solucao atual 19881.00
solucao atual 19881.00
solucao atual 19881.00
solucao atual 19881.00
solucao atual 19881.00
solucao atual 19881.00
solucao atual 19881.00
solucao atual 19881.00
solucao atual 19881.00
solucao atual 19881.00
solucao atual 19881.00
solucao atual 19881.00
iteration 51 sol 19881.00
solucao atual 19790.00
solucao atual 19790.00
solucao atual 19790.00
solucao atual 19790.00
solucao atual 19790.00
solucao atual 19790.00
solucao atual 19790.00
solucao atual 19790.00
solucao atual 19790.00
solucao atual 19790.00
solucao atual 19790.00
solucao atual 19790.00
solucao atual 19790.00
iteration 52 sol 19790.00
solucao atual 19699.00
solucao atual 19699.00
solucao atual 19699.00
solucao atual 19699.00
solucao atual 19699.00
solucao atual 19699.00
solucao atual 19699.00
solucao atual 19699.00
solucao atual 19699.00
solucao atual 19699.00
solucao atual 19699.00
solucao atual 19716.00
solucao atual 19716.00
solucao atual 19716.00
solucao atual 19716.00
solucao atual 19828.00
solucao atual 19828.00
solucao atual 19828.00
solucao atual 19828.00
solucao atual 19828.00
solucao atual 19828.00
solucao atual 19828.00
solucao atual 19828.00
solucao atual 19828.00
solucao atual 19828.00
solucao atual 19828.00
solucao atual 19852.00
solucao atual 19852.00
solucao atual 19852.00
solucao atual 19852.00
solucao atual 19852.00
solucao atual 19852.00
solucao atual 19852.00
solucao atual 19852.00
solucao atual 19852.00
solucao atual 19852.00
solucao atual 19852.00
solucao atual 19852.00
solucao atual 19852.00
solucao atual 19852.00
iteration 53 sol 19852.00
solucao atual 19828.00
solucao atual 19828.00
solucao atual 19828.00
solucao atual 19828.00
solucao atual 19828.00
solucao atual 19835.00
solucao atual 19835.00
solucao atual 19835.00
solucao atual 19835.00
solucao atual 19835.00
solucao atual 19835.00
solucao atual 19835.00
solucao atual 19835.00
solucao atual 19835.00
solucao atual 19835.00
solucao atual 19835.00
solucao atual 19835.00
solucao atual 19835.00
solucao atual 19835.00
solucao atual 19835.00
solucao atual 19835.00
solucao atual 19835.00
solucao atual 19835.00
solucao atual 19835.00
solucao atual 19835.00
solucao atual 19835.00
solucao atual 19835.00
solucao atual 19835.00
solucao atual 19835.00
solucao atual 19835.00
solucao atual 19867.00
solucao atual 19867.00
solucao atual 19867.00
solucao atual 19867.00
solucao atual 19880.00
solucao atual 19880.00
solucao atual 19880.00
solucao atual 19880.00
solucao atual 19880.00
solucao atual 19880.00
solucao atual 19880.00
solucao atual 19880.00
solucao atual 19880.00
solucao atual 19880.00
solucao atual 19880.00
solucao atual 19880.00
solucao atual 19880.00
solucao atual 19880.00
iteration 54 sol 19880.00
solucao atual 19896.00
solucao atual 19896.00
solucao atual 19896.00
solucao atual 19896.00
solucao atual 19896.00
solucao atual 19896.00
solucao atual 19896.00
solucao atual 19896.00
solucao atual 19896.00
solucao atual 19896.00
solucao atual 19896.00
solucao atual 19896.00
solucao atual 19896.00
iteration 55 sol 19896.00
solucao atual 19863.00
solucao atual 19863.00
solucao atual 19863.00
solucao atual 19863.00
solucao atual 19863.00
solucao atual 19863.00
solucao atual 19863.00
solucao atual 19863.00
solucao atual 19863.00
solucao atual 19863.00
solucao atual 19863.00
solucao atual 19863.00
solucao atual 19863.00
iteration 56 sol 19863.00
solucao atual 19852.00
solucao atual 19852.00
solucao atual 19852.00
solucao atual 19852.00
solucao atual 19852.00
solucao atual 19852.00
solucao atual 19852.00
solucao atual 19852.00
solucao atual 19852.00
solucao atual 19852.00
solucao atual 19852.00
solucao atual 19852.00
solucao atual 19852.00
solucao atual 19852.00
solucao atual 19852.00
solucao atual 19852.00
solucao atual 19852.00
solucao atual 19852.00
solucao atual 19852.00
solucao atual 19852.00
solucao atual 19852.00
solucao atual 19852.00
solucao atual 19852.00
solucao atual 19852.00
iteration 57 sol 19852.00
solucao atual 19858.00
solucao atual 19858.00
solucao atual 19858.00
solucao atual 19858.00
solucao atual 19858.00
solucao atual 19858.00
solucao atual 19858.00
solucao atual 19858.00
solucao atual 19858.00
solucao atual 19858.00
solucao atual 19858.00
solucao atual 19858.00
solucao atual 19858.00
iteration 58 sol 19858.00
solucao atual 19892.00
solucao atual 19892.00
solucao atual 19892.00
solucao atual 19892.00
solucao atual 19892.00
solucao atual 19892.00
solucao atual 19892.00
solucao atual 19892.00
solucao atual 19892.00
solucao atual 19892.00
solucao atual 19892.00
solucao atual 19892.00
solucao atual 19892.00
solucao atual 19892.00
solucao atual 19892.00
solucao atual 19892.00
solucao atual 19892.00
solucao atual 19892.00
solucao atual 19892.00
iteration 59 sol 19892.00
solucao atual 19851.00
solucao atual 19851.00
solucao atual 19851.00
solucao atual 19851.00
solucao atual 19851.00
solucao atual 19851.00
solucao atual 19862.00
solucao atual 19862.00
solucao atual 19862.00
solucao atual 19862.00
solucao atual 19862.00
solucao atual 19862.00
solucao atual 19862.00
solucao atual 19862.00
solucao atual 19862.00
solucao atual 19862.00
solucao atual 19862.00
solucao atual 19862.00
solucao atual 19862.00
solucao atual 19862.00
iteration 60 sol 19862.00
solucao atual 19917.00
solucao atual 19917.00
solucao atual 19917.00
solucao atual 19917.00
solucao atual 19917.00
solucao atual 19917.00
solucao atual 19917.00
solucao atual 19917.00
solucao atual 19926.00
solucao atual 19926.00
solucao atual 19926.00
solucao atual 19926.00
solucao atual 19926.00
solucao atual 19926.00
solucao atual 19926.00
solucao atual 19926.00
solucao atual 19926.00
solucao atual 19926.00
solucao atual 19926.00
solucao atual 19926.00
solucao atual 19926.00
solucao atual 19926.00
iteration 61 sol 19926.00
solucao atual 19918.00
solucao atual 19918.00
solucao atual 19918.00
solucao atual 19918.00
solucao atual 19918.00
solucao atual 19918.00
solucao atual 19918.00
solucao atual 19918.00
solucao atual 19918.00
solucao atual 19918.00
solucao atual 19933.00
solucao atual 19933.00
solucao atual 19933.00
solucao atual 19933.00
solucao atual 19933.00
solucao atual 19933.00
solucao atual 19933.00
solucao atual 19933.00
solucao atual 19933.00
solucao atual 19933.00
solucao atual 19933.00
solucao atual 19933.00
solucao atual 19933.00
solucao atual 19933.00
iteration 62 sol 19933.00
solucao atual 19801.00
solucao atual 19801.00
solucao atual 19801.00
solucao atual 19801.00
solucao atual 19801.00
solucao atual 19827.00
solucao atual 19827.00
solucao atual 19827.00
solucao atual 19827.00
solucao atual 19827.00
solucao atual 19827.00
solucao atual 19827.00
solucao atual 19827.00
solucao atual 19827.00
solucao atual 19827.00
solucao atual 19827.00
solucao atual 19827.00
solucao atual 19827.00
solucao atual 19827.00
iteration 63 sol 19827.00
solucao atual 19934.00
solucao atual 19934.00
solucao atual 19934.00
solucao atual 19934.00
solucao atual 19934.00
solucao atual 19934.00
solucao atual 19934.00
solucao atual 19934.00
solucao atual 19934.00
solucao atual 19934.00
solucao atual 19934.00
solucao atual 19934.00
solucao atual 19934.00
iteration 64 sol 19934.00
solucao atual 19892.00
solucao atual 19892.00
solucao atual 19892.00
solucao atual 19892.00
solucao atual 19892.00
solucao atual 19892.00
solucao atual 19892.00
solucao atual 19892.00
solucao atual 19892.00
solucao atual 19892.00
solucao atual 19892.00
solucao atual 19892.00
solucao atual 19892.00
solucao atual 19892.00
solucao atual 19892.00
solucao atual 19892.00
solucao atual 19892.00
solucao atual 19892.00
solucao atual 19892.00
solucao atual 19892.00
solucao atual 19892.00
solucao atual 19892.00
solucao atual 19892.00
solucao atual 19892.00
solucao atual 19892.00
iteration 65 sol 19892.00
solucao atual 19723.00
solucao atual 19723.00
solucao atual 19723.00
solucao atual 19770.00
solucao atual 19770.00
solucao atual 19770.00
solucao atual 19770.00
solucao atual 19770.00
solucao atual 19791.00
solucao atual 19791.00
solucao atual 19791.00
solucao atual 19791.00
solucao atual 19877.00
solucao atual 19877.00
solucao atual 19877.00
solucao atual 19877.00
solucao atual 19877.00
solucao atual 19889.00
solucao atual 19889.00
solucao atual 19889.00
solucao atual 19889.00
solucao atual 19889.00
solucao atual 19889.00
solucao atual 19889.00
solucao atual 19889.00
solucao atual 19889.00
solucao atual 19889.00
solucao atual 19889.00
solucao atual 19889.00
solucao atual 19889.00
solucao atual 19889.00
iteration 66 sol 19889.00
solucao atual 19833.00
solucao atual 19833.00
solucao atual 19833.00
solucao atual 19833.00
solucao atual 19833.00
solucao atual 19833.00
solucao atual 19833.00
solucao atual 19833.00
solucao atual 19833.00
solucao atual 19833.00
solucao atual 19833.00
solucao atual 19833.00
solucao atual 19833.00
solucao atual 19833.00
solucao atual 19833.00
solucao atual 19833.00
solucao atual 19833.00
solucao atual 19833.00
solucao atual 19833.00
solucao atual 19833.00
solucao atual 19833.00
solucao atual 19833.00
solucao atual 19833.00
iteration 67 sol 19833.00
solucao atual 19901.00
solucao atual 19901.00
solucao atual 19901.00
solucao atual 19901.00
solucao atual 19901.00
solucao atual 19901.00
solucao atual 19901.00
solucao atual 19901.00
solucao atual 19901.00
solucao atual 19901.00
solucao atual 19901.00
solucao atual 19901.00
solucao atual 19901.00
iteration 68 sol 19901.00
solucao atual 19898.00
solucao atual 19898.00
solucao atual 19898.00
solucao atual 19898.00
solucao atual 19898.00
solucao atual 19898.00
solucao atual 19898.00
solucao atual 19898.00
solucao atual 19898.00
solucao atual 19900.00
solucao atual 19900.00
solucao atual 19900.00
solucao atual 19900.00
solucao atual 19900.00
solucao atual 19900.00
solucao atual 19900.00
solucao atual 19900.00
solucao atual 19900.00
solucao atual 19904.00
solucao atual 19904.00
solucao atual 19904.00
solucao atual 19904.00
solucao atual 19904.00
solucao atual 19904.00
solucao atual 19904.00
solucao atual 19904.00
solucao atual 19904.00
solucao atual 19904.00
solucao atual 19904.00
solucao atual 19904.00
solucao atual 19904.00
solucao atual 19904.00
solucao atual 19904.00
solucao atual 19904.00
solucao atual 19904.00
solucao atual 19904.00
solucao atual 19904.00
solucao atual 19904.00
iteration 69 sol 19904.00
solucao atual 19922.00
solucao atual 19922.00
solucao atual 19922.00
solucao atual 19922.00
solucao atual 19922.00
solucao atual 19922.00
solucao atual 19922.00
solucao atual 19922.00
solucao atual 19922.00
solucao atual 19922.00
solucao atual 19922.00
solucao atual 19922.00
solucao atual 19922.00
iteration 70 sol 19922.00
solucao atual 19855.00
solucao atual 19855.00
solucao atual 19855.00
solucao atual 19855.00
solucao atual 19870.00
solucao atual 19870.00
solucao atual 19870.00
solucao atual 19870.00
solucao atual 19877.00
solucao atual 19877.00
solucao atual 19877.00
solucao atual 19877.00
solucao atual 19877.00
solucao atual 19877.00
solucao atual 19877.00
solucao atual 19877.00
solucao atual 19877.00
solucao atual 19877.00
solucao atual 19877.00
solucao atual 19877.00
solucao atual 19877.00
solucao atual 19877.00
solucao atual 19877.00
solucao atual 19877.00
solucao atual 19877.00
solucao atual 19877.00
solucao atual 19877.00
solucao atual 19877.00
solucao atual 19877.00
solucao atual 19877.00
solucao atual 19877.00
solucao atual 19877.00
solucao atual 19877.00
solucao atual 19877.00
solucao atual 19877.00
iteration 71 sol 19877.00
solucao atual 19830.00
solucao atual 19830.00
solucao atual 19830.00
solucao atual 19830.00
solucao atual 19830.00
solucao atual 19830.00
solucao atual 19830.00
solucao atual 19830.00
solucao atual 19830.00
solucao atual 19830.00
solucao atual 19830.00
solucao atual 19830.00
solucao atual 19830.00
solucao atual 19830.00
solucao atual 19846.00
solucao atual 19846.00
solucao atual 19846.00
solucao atual 19846.00
solucao atual 19846.00
solucao atual 19846.00
solucao atual 19846.00
solucao atual 19846.00
solucao atual 19846.00
solucao atual 19846.00
solucao atual 19846.00
solucao atual 19846.00
solucao atual 19846.00
solucao atual 19880.00
solucao atual 19880.00
solucao atual 19880.00
solucao atual 19880.00
solucao atual 19880.00
solucao atual 19880.00
solucao atual 19880.00
solucao atual 19880.00
solucao atual 19880.00
solucao atual 19880.00
solucao atual 19880.00
solucao atual 19880.00
solucao atual 19880.00
solucao atual 19880.00
iteration 72 sol 19880.00
solucao atual 19833.00
solucao atual 19833.00
solucao atual 19833.00
solucao atual 19833.00
solucao atual 19833.00
solucao atual 19833.00
solucao atual 19833.00
solucao atual 19833.00
solucao atual 19833.00
solucao atual 19833.00
solucao atual 19859.00
solucao atual 19859.00
solucao atual 19859.00
solucao atual 19859.00
solucao atual 19859.00
solucao atual 19859.00
solucao atual 19859.00
solucao atual 19859.00
solucao atual 19859.00
solucao atual 19859.00
solucao atual 19859.00
solucao atual 19859.00
solucao atual 19859.00
solucao atual 19859.00
solucao atual 19859.00
solucao atual 19859.00
solucao atual 19859.00
solucao atual 19859.00
solucao atual 19859.00
solucao atual 19859.00
solucao atual 19859.00
solucao atual 19859.00
iteration 73 sol 19859.00
solucao atual 19922.00
solucao atual 19922.00
solucao atual 19922.00
solucao atual 19922.00
solucao atual 19922.00
solucao atual 19922.00
solucao atual 19922.00
solucao atual 19922.00
solucao atual 19922.00
solucao atual 19922.00
solucao atual 19922.00
solucao atual 19922.00
solucao atual 19922.00
iteration 74 sol 19922.00
solucao atual 19867.00
solucao atual 19867.00
solucao atual 19867.00
solucao atual 19867.00
solucao atual 19867.00
solucao atual 19867.00
solucao atual 19867.00
solucao atual 19867.00
solucao atual 19867.00
solucao atual 19867.00
solucao atual 19867.00
solucao atual 19867.00
solucao atual 19867.00
iteration 75 sol 19867.00
solucao atual 19886.00
solucao atual 19886.00
solucao atual 19886.00
solucao atual 19886.00
solucao atual 19886.00
solucao atual 19886.00
solucao atual 19886.00
solucao atual 19886.00
solucao atual 19886.00
solucao atual 19886.00
solucao atual 19886.00
solucao atual 19886.00
solucao atual 19890.00
solucao atual 19890.00
solucao atual 19890.00
solucao atual 19890.00
solucao atual 19890.00
solucao atual 19890.00
solucao atual 19890.00
solucao atual 19890.00
solucao atual 19890.00
solucao atual 19890.00
solucao atual 19890.00
solucao atual 19890.00
solucao atual 19890.00
solucao atual 19890.00
iteration 76 sol 19890.00
solucao atual 19908.00
solucao atual 19908.00
solucao atual 19908.00
solucao atual 19908.00
solucao atual 19908.00
solucao atual 19908.00
solucao atual 19908.00
solucao atual 19908.00
solucao atual 19908.00
solucao atual 19908.00
solucao atual 19908.00
solucao atual 19908.00
solucao atual 19908.00
iteration 77 sol 19908.00
solucao atual 19884.00
solucao atual 19884.00
solucao atual 19884.00
solucao atual 19884.00
solucao atual 19884.00
solucao atual 19884.00
solucao atual 19884.00
solucao atual 19884.00
solucao atual 19884.00
solucao atual 19884.00
solucao atual 19884.00
solucao atual 19884.00
solucao atual 19884.00
iteration 78 sol 19884.00
solucao atual 19888.00
solucao atual 19888.00
solucao atual 19888.00
solucao atual 19888.00
solucao atual 19888.00
solucao atual 19888.00
solucao atual 19902.00
solucao atual 19902.00
solucao atual 19902.00
solucao atual 19902.00
solucao atual 19902.00
solucao atual 19902.00
solucao atual 19902.00
solucao atual 19902.00
solucao atual 19902.00
solucao atual 19902.00
solucao atual 19902.00
solucao atual 19902.00
solucao atual 19902.00
solucao atual 19902.00
iteration 79 sol 19902.00
solucao atual 19880.00
solucao atual 19880.00
solucao atual 19880.00
solucao atual 19880.00
solucao atual 19880.00
solucao atual 19880.00
solucao atual 19880.00
solucao atual 19880.00
solucao atual 19880.00
solucao atual 19880.00
solucao atual 19880.00
solucao atual 19880.00
solucao atual 19880.00
iteration 80 sol 19880.00
solucao atual 19900.00
solucao atual 19900.00
solucao atual 19900.00
solucao atual 19900.00
solucao atual 19900.00
solucao atual 19900.00
solucao atual 19900.00
solucao atual 19900.00
solucao atual 19900.00
solucao atual 19900.00
solucao atual 19900.00
solucao atual 19900.00
solucao atual 19900.00
iteration 81 sol 19900.00
solucao atual 19856.00
solucao atual 19856.00
solucao atual 19856.00
solucao atual 19874.00
solucao atual 19874.00
solucao atual 19874.00
solucao atual 19874.00
solucao atual 19874.00
solucao atual 19874.00
solucao atual 19874.00
solucao atual 19874.00
solucao atual 19874.00
solucao atual 19874.00
solucao atual 19874.00
solucao atual 19874.00
solucao atual 19874.00
solucao atual 19874.00
solucao atual 19874.00
solucao atual 19874.00
solucao atual 19874.00
solucao atual 19874.00
solucao atual 19874.00
solucao atual 19874.00
solucao atual 19874.00
solucao atual 19874.00
solucao atual 19874.00
iteration 82 sol 19874.00
solucao atual 19929.00
solucao atual 19929.00
solucao atual 19929.00
solucao atual 19929.00
solucao atual 19929.00
solucao atual 19929.00
solucao atual 19929.00
solucao atual 19929.00
solucao atual 19929.00
solucao atual 19929.00
solucao atual 19929.00
solucao atual 19929.00
solucao atual 19929.00
iteration 83 sol 19929.00
solucao atual 19854.00
solucao atual 19854.00
solucao atual 19854.00
solucao atual 19854.00
solucao atual 19854.00
solucao atual 19854.00
solucao atual 19854.00
solucao atual 19854.00
solucao atual 19854.00
solucao atual 19854.00
solucao atual 19854.00
solucao atual 19854.00
solucao atual 19854.00
iteration 84 sol 19854.00
solucao atual 19879.00
solucao atual 19879.00
solucao atual 19879.00
solucao atual 19879.00
solucao atual 19879.00
solucao atual 19879.00
solucao atual 19879.00
solucao atual 19884.00
solucao atual 19884.00
solucao atual 19884.00
solucao atual 19884.00
solucao atual 19884.00
solucao atual 19884.00
solucao atual 19884.00
solucao atual 19884.00
solucao atual 19884.00
solucao atual 19884.00
solucao atual 19884.00
solucao atual 19884.00
solucao atual 19884.00
solucao atual 19884.00
iteration 85 sol 19884.00
solucao atual 19785.00
solucao atual 19785.00
solucao atual 19785.00
solucao atual 19785.00
solucao atual 19785.00
solucao atual 19785.00
solucao atual 19814.00
solucao atual 19814.00
solucao atual 19814.00
solucao atual 19814.00
solucao atual 19814.00
solucao atual 19814.00
solucao atual 19814.00
solucao atual 19814.00
solucao atual 19814.00
solucao atual 19814.00
solucao atual 19815.00
solucao atual 19815.00
solucao atual 19815.00
solucao atual 19815.00
solucao atual 19815.00
solucao atual 19815.00
solucao atual 19815.00
solucao atual 19815.00
solucao atual 19815.00
solucao atual 19815.00
solucao atual 19815.00
solucao atual 19815.00
solucao atual 19815.00
solucao atual 19815.00
iteration 86 sol 19815.00
solucao atual 19938.00
solucao atual 19938.00
solucao atual 19938.00
solucao atual 19938.00
solucao atual 19938.00
solucao atual 19938.00
solucao atual 19938.00
solucao atual 19938.00
solucao atual 19938.00
solucao atual 19938.00
solucao atual 19938.00
solucao atual 19938.00
solucao atual 19938.00
iteration 87 sol 19938.00
solucao atual 19887.00
solucao atual 19887.00
solucao atual 19887.00
solucao atual 19887.00
solucao atual 19887.00
solucao atual 19887.00
solucao atual 19887.00
solucao atual 19887.00
solucao atual 19887.00
solucao atual 19887.00
solucao atual 19887.00
solucao atual 19896.00
solucao atual 19896.00
solucao atual 19896.00
solucao atual 19896.00
solucao atual 19896.00
solucao atual 19896.00
solucao atual 19896.00
solucao atual 19896.00
solucao atual 19896.00
solucao atual 19896.00
solucao atual 19896.00
solucao atual 19910.00
solucao atual 19910.00
solucao atual 19910.00
solucao atual 19910.00
solucao atual 19910.00
solucao atual 19910.00
solucao atual 19910.00
solucao atual 19910.00
solucao atual 19910.00
solucao atual 19910.00
solucao atual 19910.00
solucao atual 19910.00
solucao atual 19910.00
solucao atual 19910.00
iteration 88 sol 19910.00
solucao atual 19809.00
solucao atual 19809.00
solucao atual 19809.00
solucao atual 19809.00
solucao atual 19809.00
solucao atual 19826.00
solucao atual 19826.00
solucao atual 19826.00
solucao atual 19826.00
solucao atual 19826.00
solucao atual 19826.00
solucao atual 19826.00
solucao atual 19826.00
solucao atual 19826.00
solucao atual 19826.00
solucao atual 19826.00
solucao atual 19826.00
solucao atual 19826.00
solucao atual 19826.00
iteration 89 sol 19826.00
solucao atual 19843.00
solucao atual 19843.00
solucao atual 19843.00
solucao atual 19843.00
solucao atual 19843.00
solucao atual 19843.00
solucao atual 19843.00
solucao atual 19843.00
solucao atual 19843.00
solucao atual 19843.00
solucao atual 19843.00
solucao atual 19843.00
solucao atual 19843.00
solucao atual 19843.00
solucao atual 19843.00
solucao atual 19843.00
solucao atual 19843.00
solucao atual 19843.00
solucao atual 19843.00
solucao atual 19843.00
solucao atual 19843.00
solucao atual 19843.00
solucao atual 19843.00
solucao atual 19843.00
solucao atual 19843.00
solucao atual 19843.00
solucao atual 19843.00
solucao atual 19843.00
solucao atual 19843.00
solucao atual 19843.00
iteration 90 sol 19843.00
solucao atual 19925.00
solucao atual 19925.00
solucao atual 19925.00
solucao atual 19925.00
solucao atual 19925.00
solucao atual 19925.00
solucao atual 19925.00
solucao atual 19925.00
solucao atual 19925.00
solucao atual 19925.00
solucao atual 19925.00
solucao atual 19925.00
solucao atual 19925.00
iteration 91 sol 19925.00
solucao atual 19799.00
solucao atual 19799.00
solucao atual 19799.00
solucao atual 19799.00
solucao atual 19799.00
solucao atual 19821.00
solucao atual 19821.00
solucao atual 19821.00
solucao atual 19821.00
solucao atual 19821.00
solucao atual 19821.00
solucao atual 19821.00
solucao atual 19821.00
solucao atual 19821.00
solucao atual 19821.00
solucao atual 19821.00
solucao atual 19821.00
solucao atual 19821.00
solucao atual 19821.00
solucao atual 19821.00
solucao atual 19821.00
solucao atual 19822.00
solucao atual 19822.00
solucao atual 19822.00
solucao atual 19822.00
solucao atual 19838.00
solucao atual 19838.00
solucao atual 19838.00
solucao atual 19838.00
solucao atual 19838.00
solucao atual 19838.00
solucao atual 19838.00
solucao atual 19838.00
solucao atual 19838.00
solucao atual 19838.00
solucao atual 19838.00
solucao atual 19838.00
solucao atual 19838.00
solucao atual 19838.00
iteration 92 sol 19838.00
solucao atual 19924.00
solucao atual 19924.00
solucao atual 19924.00
solucao atual 19924.00
solucao atual 19924.00
solucao atual 19924.00
solucao atual 19924.00
solucao atual 19924.00
solucao atual 19924.00
solucao atual 19924.00
solucao atual 19924.00
solucao atual 19924.00
solucao atual 19924.00
iteration 93 sol 19924.00
solucao atual 19765.00
solucao atual 19765.00
solucao atual 19765.00
solucao atual 19765.00
solucao atual 19765.00
solucao atual 19765.00
solucao atual 19765.00
solucao atual 19765.00
solucao atual 19765.00
solucao atual 19774.00
solucao atual 19774.00
solucao atual 19774.00
solucao atual 19774.00
solucao atual 19774.00
solucao atual 19774.00
solucao atual 19774.00
solucao atual 19774.00
solucao atual 19774.00
solucao atual 19774.00
solucao atual 19774.00
solucao atual 19774.00
solucao atual 19774.00
solucao atual 19774.00
iteration 94 sol 19774.00
solucao atual 19837.00
solucao atual 19837.00
solucao atual 19837.00
solucao atual 19837.00
solucao atual 19837.00
solucao atual 19858.00
solucao atual 19858.00
solucao atual 19858.00
solucao atual 19858.00
solucao atual 19858.00
solucao atual 19858.00
solucao atual 19858.00
solucao atual 19858.00
solucao atual 19858.00
solucao atual 19858.00
solucao atual 19858.00
solucao atual 19858.00
solucao atual 19858.00
solucao atual 19858.00
solucao atual 19858.00
solucao atual 19858.00
solucao atual 19858.00
solucao atual 19858.00
solucao atual 19858.00
solucao atual 19858.00
solucao atual 19869.00
solucao atual 19869.00
solucao atual 19869.00
solucao atual 19869.00
solucao atual 19869.00
solucao atual 19869.00
solucao atual 19869.00
solucao atual 19869.00
solucao atual 19869.00
solucao atual 19869.00
solucao atual 19869.00
solucao atual 19869.00
solucao atual 19869.00
solucao atual 19869.00
iteration 95 sol 19869.00
solucao atual 19856.00
solucao atual 19856.00
solucao atual 19856.00
solucao atual 19856.00
solucao atual 19856.00
solucao atual 19856.00
solucao atual 19856.00
solucao atual 19856.00
solucao atual 19856.00
solucao atual 19856.00
solucao atual 19856.00
solucao atual 19856.00
solucao atual 19856.00
iteration 96 sol 19856.00
solucao atual 19904.00
solucao atual 19904.00
solucao atual 19904.00
solucao atual 19904.00
solucao atual 19904.00
solucao atual 19916.00
solucao atual 19916.00
solucao atual 19916.00
solucao atual 19916.00
solucao atual 19916.00
solucao atual 19916.00
solucao atual 19916.00
solucao atual 19916.00
solucao atual 19916.00
solucao atual 19916.00
solucao atual 19916.00
solucao atual 19916.00
solucao atual 19916.00
solucao atual 19923.00
solucao atual 19923.00
solucao atual 19923.00
solucao atual 19923.00
solucao atual 19923.00
solucao atual 19923.00
solucao atual 19923.00
solucao atual 19923.00
solucao atual 19923.00
solucao atual 19923.00
solucao atual 19923.00
solucao atual 19923.00
solucao atual 19923.00
solucao atual 19923.00
iteration 97 sol 19923.00
solucao atual 19795.00
solucao atual 19795.00
solucao atual 19795.00
solucao atual 19795.00
solucao atual 19795.00
solucao atual 19817.00
solucao atual 19817.00
solucao atual 19817.00
solucao atual 19817.00
solucao atual 19817.00
solucao atual 19817.00
solucao atual 19840.00
solucao atual 19840.00
solucao atual 19840.00
solucao atual 19840.00
solucao atual 19840.00
solucao atual 19840.00
solucao atual 19840.00
solucao atual 19855.00
solucao atual 19855.00
solucao atual 19855.00
solucao atual 19855.00
solucao atual 19855.00
solucao atual 19855.00
solucao atual 19855.00
solucao atual 19855.00
solucao atual 19855.00
solucao atual 19855.00
solucao atual 19855.00
solucao atual 19855.00
solucao atual 19855.00
solucao atual 19855.00
iteration 98 sol 19855.00
solucao atual 19849.00
solucao atual 19849.00
solucao atual 19849.00
solucao atual 19849.00
solucao atual 19849.00
solucao atual 19849.00
solucao atual 19849.00
solucao atual 19849.00
solucao atual 19849.00
solucao atual 19849.00
solucao atual 19849.00
solucao atual 19849.00
solucao atual 19849.00
iteration 99 sol 19849.00
solucao atual 19865.00
solucao atual 19865.00
solucao atual 19865.00
solucao atual 19865.00
solucao atual 19865.00
solucao atual 19865.00
solucao atual 19865.00
solucao atual 19865.00
solucao atual 19865.00
solucao atual 19865.00
solucao atual 19865.00
solucao atual 19865.00
solucao atual 19865.00
solucao atual 19865.00
solucao atual 19865.00
solucao atual 19865.00
solucao atual 19865.00
solucao atual 19865.00
solucao atual 19865.00
solucao atual 19865.00
iteration 100 sol 19865.00
solucao atual 19796.00
solucao atual 19796.00
solucao atual 19796.00
solucao atual 19796.00
solucao atual 19796.00
solucao atual 19796.00
solucao atual 19796.00
solucao atual 19796.00
solucao atual 19796.00
solucao atual 19796.00
solucao atual 19796.00
solucao atual 19796.00
solucao atual 19796.00
solucao atual 19796.00
solucao atual 19796.00
solucao atual 19805.00
solucao atual 19805.00
solucao atual 19805.00
solucao atual 19805.00
solucao atual 19805.00
solucao atual 19811.00
solucao atual 19811.00
solucao atual 19811.00
solucao atual 19811.00
solucao atual 19811.00
solucao atual 19811.00
solucao atual 19811.00
solucao atual 19811.00
solucao atual 19819.00
solucao atual 19819.00
solucao atual 19819.00
solucao atual 19819.00
solucao atual 19819.00
solucao atual 19819.00
solucao atual 19819.00
solucao atual 19819.00
solucao atual 19819.00
solucao atual 19819.00
solucao atual 19819.00
solucao atual 19819.00
solucao atual 19819.00
solucao atual 19819.00
solucao atual 19819.00
solucao atual 19819.00
solucao atual 19819.00
solucao atual 19819.00
iteration 101 sol 19819.00
solucao atual 19847.00
solucao atual 19847.00
solucao atual 19847.00
solucao atual 19847.00
solucao atual 19847.00
solucao atual 19847.00
solucao atual 19847.00
solucao atual 19847.00
solucao atual 19847.00
solucao atual 19847.00
solucao atual 19847.00
solucao atual 19847.00
solucao atual 19847.00
iteration 102 sol 19847.00
solucao atual 19910.00
solucao atual 19910.00
solucao atual 19910.00
solucao atual 19910.00
solucao atual 19910.00
solucao atual 19910.00
solucao atual 19910.00
solucao atual 19910.00
solucao atual 19910.00
solucao atual 19910.00
solucao atual 19910.00
solucao atual 19910.00
solucao atual 19910.00
iteration 103 sol 19910.00
solucao atual 19901.00
solucao atual 19901.00
solucao atual 19901.00
solucao atual 19901.00
solucao atual 19901.00
solucao atual 19901.00
solucao atual 19901.00
solucao atual 19901.00
solucao atual 19901.00
solucao atual 19901.00
solucao atual 19901.00
solucao atual 19901.00
solucao atual 19928.00
solucao atual 19928.00
solucao atual 19928.00
solucao atual 19928.00
solucao atual 19928.00
solucao atual 19928.00
solucao atual 19928.00
solucao atual 19928.00
solucao atual 19928.00
solucao atual 19928.00
solucao atual 19928.00
solucao atual 19928.00
solucao atual 19928.00
solucao atual 19928.00
iteration 104 sol 19928.00
solucao atual 19795.00
solucao atual 19795.00
solucao atual 19795.00
solucao atual 19795.00
solucao atual 19795.00
solucao atual 19827.00
solucao atual 19827.00
solucao atual 19827.00
solucao atual 19827.00
solucao atual 19827.00
solucao atual 19827.00
solucao atual 19827.00
solucao atual 19827.00
solucao atual 19827.00
solucao atual 19827.00
solucao atual 19827.00
solucao atual 19827.00
solucao atual 19827.00
solucao atual 19827.00
iteration 105 sol 19827.00
solucao atual 19870.00
solucao atual 19870.00
solucao atual 19870.00
solucao atual 19870.00
solucao atual 19870.00
solucao atual 19870.00
solucao atual 19870.00
solucao atual 19870.00
solucao atual 19870.00
solucao atual 19870.00
solucao atual 19870.00
solucao atual 19870.00
solucao atual 19870.00
iteration 106 sol 19870.00
solucao atual 19892.00
solucao atual 19892.00
solucao atual 19892.00
solucao atual 19892.00
solucao atual 19899.00
solucao atual 19899.00
solucao atual 19899.00
solucao atual 19899.00
solucao atual 19899.00
solucao atual 19899.00
solucao atual 19899.00
solucao atual 19899.00
solucao atual 19899.00
solucao atual 19899.00
solucao atual 19899.00
solucao atual 19899.00
solucao atual 19899.00
solucao atual 19899.00
iteration 107 sol 19899.00
solucao atual 19851.00
solucao atual 19851.00
solucao atual 19851.00
solucao atual 19851.00
solucao atual 19887.00
solucao atual 19887.00
solucao atual 19887.00
solucao atual 19887.00
solucao atual 19887.00
solucao atual 19887.00
solucao atual 19887.00
solucao atual 19887.00
solucao atual 19887.00
solucao atual 19887.00
solucao atual 19887.00
solucao atual 19891.00
solucao atual 19891.00
solucao atual 19891.00
solucao atual 19891.00
solucao atual 19891.00
solucao atual 19906.00
solucao atual 19906.00
solucao atual 19906.00
solucao atual 19906.00
solucao atual 19906.00
solucao atual 19906.00
solucao atual 19906.00
solucao atual 19906.00
solucao atual 19906.00
solucao atual 19906.00
solucao atual 19906.00
solucao atual 19913.00
solucao atual 19913.00
solucao atual 19913.00
solucao atual 19913.00
solucao atual 19913.00
solucao atual 19913.00
solucao atual 19913.00
solucao atual 19913.00
solucao atual 19913.00
solucao atual 19913.00
solucao atual 19913.00
solucao atual 19913.00
solucao atual 19913.00
solucao atual 19913.00
iteration 108 sol 19913.00
solucao atual 19889.00
solucao atual 19889.00
solucao atual 19889.00
solucao atual 19889.00
solucao atual 19889.00
solucao atual 19889.00
solucao atual 19889.00
solucao atual 19889.00
solucao atual 19889.00
solucao atual 19889.00
solucao atual 19889.00
solucao atual 19889.00
solucao atual 19889.00
iteration 109 sol 19889.00
solucao atual 19859.00
solucao atual 19859.00
solucao atual 19859.00
solucao atual 19859.00
solucao atual 19859.00
solucao atual 19859.00
solucao atual 19859.00
solucao atual 19859.00
solucao atual 19859.00
solucao atual 19859.00
solucao atual 19859.00
solucao atual 19859.00
solucao atual 19859.00
solucao atual 19859.00
solucao atual 19859.00
solucao atual 19859.00
solucao atual 19859.00
solucao atual 19859.00
solucao atual 19859.00
solucao atual 19859.00
solucao atual 19859.00
solucao atual 19859.00
solucao atual 19859.00
solucao atual 19859.00
iteration 110 sol 19859.00
solucao atual 19800.00
solucao atual 19800.00
solucao atual 19800.00
solucao atual 19800.00
solucao atual 19805.00
solucao atual 19805.00
solucao atual 19805.00
solucao atual 19805.00
solucao atual 19805.00
solucao atual 19805.00
solucao atual 19805.00
solucao atual 19805.00
solucao atual 19805.00
solucao atual 19805.00
solucao atual 19805.00
solucao atual 19805.00
solucao atual 19805.00
solucao atual 19805.00
solucao atual 19805.00
solucao atual 19831.00
solucao atual 19831.00
solucao atual 19831.00
solucao atual 19831.00
solucao atual 19831.00
solucao atual 19831.00
solucao atual 19831.00
solucao atual 19831.00
solucao atual 19831.00
solucao atual 19831.00
solucao atual 19831.00
solucao atual 19831.00
solucao atual 19831.00
solucao atual 19831.00
iteration 111 sol 19831.00
solucao atual 19875.00
solucao atual 19875.00
solucao atual 19875.00
solucao atual 19875.00
solucao atual 19875.00
solucao atual 19875.00
solucao atual 19875.00
solucao atual 19875.00
solucao atual 19875.00
solucao atual 19875.00
solucao atual 19875.00
solucao atual 19875.00
solucao atual 19883.00
solucao atual 19883.00
solucao atual 19883.00
solucao atual 19883.00
solucao atual 19883.00
solucao atual 19883.00
solucao atual 19883.00
solucao atual 19883.00
solucao atual 19883.00
solucao atual 19883.00
solucao atual 19883.00
solucao atual 19883.00
solucao atual 19883.00
solucao atual 19883.00
iteration 112 sol 19883.00
solucao atual 19823.00
solucao atual 19823.00
solucao atual 19823.00
solucao atual 19823.00
solucao atual 19823.00
solucao atual 19823.00
solucao atual 19823.00
solucao atual 19825.00
solucao atual 19825.00
solucao atual 19825.00
solucao atual 19825.00
solucao atual 19825.00
solucao atual 19825.00
solucao atual 19825.00
solucao atual 19826.00
solucao atual 19826.00
solucao atual 19826.00
solucao atual 19826.00
solucao atual 19826.00
solucao atual 19826.00
solucao atual 19826.00
solucao atual 19826.00
solucao atual 19826.00
solucao atual 19826.00
solucao atual 19826.00
solucao atual 19826.00
solucao atual 19826.00
solucao atual 19826.00
iteration 113 sol 19826.00
solucao atual 19834.00
solucao atual 19834.00
solucao atual 19834.00
solucao atual 19834.00
solucao atual 19834.00
solucao atual 19847.00
solucao atual 19847.00
solucao atual 19847.00
solucao atual 19847.00
solucao atual 19871.00
solucao atual 19871.00
solucao atual 19871.00
solucao atual 19871.00
solucao atual 19871.00
solucao atual 19871.00
solucao atual 19871.00
solucao atual 19871.00
solucao atual 19871.00
solucao atual 19871.00
solucao atual 19871.00
solucao atual 19871.00
solucao atual 19871.00
solucao atual 19871.00
iteration 114 sol 19871.00
solucao atual 19874.00
solucao atual 19874.00
solucao atual 19874.00
solucao atual 19874.00
solucao atual 19874.00
solucao atual 19874.00
solucao atual 19874.00
solucao atual 19874.00
solucao atual 19874.00
solucao atual 19874.00
solucao atual 19874.00
solucao atual 19874.00
solucao atual 19874.00
iteration 115 sol 19874.00
solucao atual 19858.00
solucao atual 19858.00
solucao atual 19858.00
solucao atual 19858.00
solucao atual 19858.00
solucao atual 19858.00
solucao atual 19858.00
solucao atual 19858.00
solucao atual 19858.00
solucao atual 19867.00
solucao atual 19867.00
solucao atual 19867.00
solucao atual 19867.00
solucao atual 19885.00
solucao atual 19885.00
solucao atual 19885.00
solucao atual 19885.00
solucao atual 19893.00
solucao atual 19893.00
solucao atual 19893.00
solucao atual 19893.00
solucao atual 19893.00
solucao atual 19903.00
solucao atual 19903.00
solucao atual 19903.00
solucao atual 19903.00
solucao atual 19903.00
solucao atual 19903.00
solucao atual 19903.00
solucao atual 19903.00
solucao atual 19910.00
solucao atual 19910.00
solucao atual 19910.00
solucao atual 19910.00
solucao atual 19910.00
solucao atual 19910.00
solucao atual 19910.00
solucao atual 19910.00
solucao atual 19910.00
solucao atual 19910.00
solucao atual 19910.00
solucao atual 19910.00
solucao atual 19910.00
solucao atual 19910.00
iteration 116 sol 19910.00
solucao atual 19807.00
solucao atual 19807.00
solucao atual 19807.00
solucao atual 19807.00
solucao atual 19807.00
solucao atual 19807.00
solucao atual 19807.00
solucao atual 19807.00
solucao atual 19807.00
solucao atual 19807.00
solucao atual 19807.00
solucao atual 19807.00
solucao atual 19807.00
solucao atual 19807.00
solucao atual 19807.00
solucao atual 19807.00
TIMEOUT
TIMEOUT
TIMEOUT
iteration 117 sol 19807.00
Number of iterations = 118
Best Solution was found in iteration = 87
Time used by neighbor | Times each neighbor was used | Improvements
N_1 = 0.01 | 420 | 118
N_2 = 0.03 | 302 | 0
N_3 = 0.01 | 302 | 0
N_4 = 3.78 | 302 | 184
Time to find the best solution = 464.13
Solution = 19938.00
Time = 600.00
