solucao atual 19925.00
solucao atual 19925.00
solucao atual 19925.00
solucao atual 19925.00
solucao atual 19927.00
solucao atual 19927.00
solucao atual 19927.00
solucao atual 19927.00
solucao atual 19927.00
solucao atual 19927.00
solucao atual 19927.00
solucao atual 19927.00
solucao atual 19927.00
solucao atual 19927.00
solucao atual 19927.00
solucao atual 19927.00
solucao atual 19927.00
solucao atual 19927.00
iteration 0 sol 19927.00
solucao atual 19926.00
solucao atual 19926.00
solucao atual 19926.00
solucao atual 19940.00
solucao atual 19940.00
solucao atual 19940.00
solucao atual 19940.00
solucao atual 19942.00
solucao atual 19942.00
solucao atual 19942.00
solucao atual 19942.00
solucao atual 19942.00
solucao atual 19942.00
solucao atual 19942.00
solucao atual 19942.00
solucao atual 19942.00
solucao atual 19942.00
solucao atual 19942.00
solucao atual 19942.00
solucao atual 19942.00
solucao atual 19942.00
iteration 1 sol 19942.00
solucao atual 19849.00
solucao atual 19849.00
solucao atual 19849.00
solucao atual 19904.00
solucao atual 19904.00
solucao atual 19904.00
solucao atual 19904.00
solucao atual 19904.00
solucao atual 19904.00
solucao atual 19904.00
solucao atual 19904.00
solucao atual 19904.00
solucao atual 19904.00
solucao atual 19904.00
solucao atual 19904.00
solucao atual 19904.00
solucao atual 19904.00
iteration 2 sol 19904.00
solucao atual 19935.00
solucao atual 19935.00
solucao atual 19935.00
solucao atual 19945.00
solucao atual 19945.00
solucao atual 19945.00
solucao atual 19945.00
solucao atual 19945.00
solucao atual 19945.00
solucao atual 19945.00
solucao atual 19945.00
solucao atual 19945.00
solucao atual 19945.00
solucao atual 19945.00
solucao atual 19945.00
solucao atual 19945.00
solucao atual 19945.00
iteration 3 sol 19945.00
solucao atual 19929.00
solucao atual 19929.00
solucao atual 19929.00
solucao atual 19929.00
solucao atual 19929.00
solucao atual 19929.00
solucao atual 19929.00
solucao atual 19929.00
solucao atual 19929.00
solucao atual 19929.00
solucao atual 19929.00
solucao atual 19929.00
solucao atual 19929.00
iteration 4 sol 19929.00
solucao atual 19942.00
solucao atual 19942.00
solucao atual 19942.00
solucao atual 19946.00
solucao atual 19946.00
solucao atual 19946.00
solucao atual 19946.00
solucao atual 19946.00
solucao atual 19946.00
solucao atual 19946.00
solucao atual 19946.00
solucao atual 19946.00
solucao atual 19946.00
solucao atual 19946.00
solucao atual 19946.00
solucao atual 19946.00
solucao atual 19946.00
iteration 5 sol 19946.00
solucao atual 19916.00
solucao atual 19916.00
solucao atual 19916.00
solucao atual 19916.00
solucao atual 19916.00
solucao atual 19916.00
solucao atual 19916.00
solucao atual 19916.00
solucao atual 19918.00
solucao atual 19918.00
solucao atual 19918.00
solucao atual 19918.00
solucao atual 19918.00
solucao atual 19918.00
solucao atual 19918.00
solucao atual 19918.00
solucao atual 19918.00
solucao atual 19918.00
solucao atual 19918.00
solucao atual 19918.00
solucao atual 19918.00
solucao atual 19918.00
iteration 6 sol 19918.00
solucao atual 19899.00
solucao atual 19899.00
solucao atual 19899.00
solucao atual 19900.00
solucao atual 19900.00
solucao atual 19900.00
solucao atual 19900.00
solucao atual 19900.00
solucao atual 19900.00
solucao atual 19900.00
solucao atual 19900.00
solucao atual 19900.00
solucao atual 19900.00
solucao atual 19900.00
solucao atual 19900.00
solucao atual 19900.00
solucao atual 19900.00
solucao atual 19900.00
solucao atual 19900.00
solucao atual 19900.00
solucao atual 19900.00
solucao atual 19900.00
solucao atual 19900.00
iteration 7 sol 19900.00
solucao atual 19917.00
solucao atual 19917.00
solucao atual 19917.00
solucao atual 19917.00
solucao atual 19917.00
solucao atual 19917.00
solucao atual 19917.00
solucao atual 19917.00
solucao atual 19917.00
solucao atual 19917.00
solucao atual 19917.00
solucao atual 19917.00
solucao atual 19917.00
iteration 8 sol 19917.00
solucao atual 19919.00
solucao atual 19919.00
solucao atual 19919.00
solucao atual 19919.00
solucao atual 19919.00
solucao atual 19919.00
solucao atual 19919.00
solucao atual 19919.00
solucao atual 19919.00
solucao atual 19919.00
solucao atual 19919.00
solucao atual 19919.00
solucao atual 19919.00
iteration 9 sol 19919.00
solucao atual 19949.00
solucao atual 19949.00
solucao atual 19949.00
solucao atual 19949.00
solucao atual 19949.00
solucao atual 19949.00
solucao atual 19949.00
solucao atual 19949.00
solucao atual 19949.00
solucao atual 19949.00
solucao atual 19949.00
solucao atual 19949.00
solucao atual 19949.00
iteration 10 sol 19949.00
solucao atual 19899.00
solucao atual 19899.00
solucao atual 19899.00
solucao atual 19904.00
solucao atual 19904.00
solucao atual 19904.00
solucao atual 19904.00
solucao atual 19904.00
solucao atual 19904.00
solucao atual 19904.00
solucao atual 19904.00
solucao atual 19904.00
solucao atual 19904.00
solucao atual 19904.00
solucao atual 19904.00
solucao atual 19904.00
solucao atual 19904.00
iteration 11 sol 19904.00
solucao atual 19929.00
solucao atual 19929.00
solucao atual 19929.00
solucao atual 19929.00
solucao atual 19929.00
solucao atual 19929.00
solucao atual 19929.00
solucao atual 19929.00
solucao atual 19930.00
solucao atual 19930.00
solucao atual 19930.00
solucao atual 19930.00
solucao atual 19930.00
solucao atual 19931.00
solucao atual 19931.00
solucao atual 19931.00
solucao atual 19931.00
solucao atual 19931.00
solucao atual 19931.00
solucao atual 19931.00
solucao atual 19931.00
solucao atual 19931.00
solucao atual 19931.00
solucao atual 19931.00
solucao atual 19931.00
solucao atual 19931.00
solucao atual 19935.00
solucao atual 19935.00
solucao atual 19935.00
solucao atual 19935.00
solucao atual 19935.00
solucao atual 19935.00
solucao atual 19935.00
solucao atual 19935.00
solucao atual 19935.00
solucao atual 19935.00
solucao atual 19935.00
solucao atual 19935.00
solucao atual 19935.00
solucao atual 19935.00
iteration 12 sol 19935.00
solucao atual 19885.00
solucao atual 19885.00
solucao atual 19885.00
solucao atual 19885.00
solucao atual 19895.00
solucao atual 19895.00
solucao atual 19895.00
solucao atual 19895.00
solucao atual 19895.00
solucao atual 19895.00
solucao atual 19895.00
solucao atual 19895.00
solucao atual 19906.00
solucao atual 19906.00
solucao atual 19906.00
solucao atual 19906.00
solucao atual 19918.00
solucao atual 19918.00
solucao atual 19918.00
solucao atual 19918.00
solucao atual 19918.00
solucao atual 19918.00
solucao atual 19918.00
solucao atual 19918.00
solucao atual 19918.00
solucao atual 19918.00
solucao atual 19918.00
solucao atual 19918.00
solucao atual 19918.00
solucao atual 19918.00
iteration 13 sol 19918.00
solucao atual 19928.00
solucao atual 19928.00
solucao atual 19928.00
solucao atual 19932.00
solucao atual 19932.00
solucao atual 19932.00
solucao atual 19932.00
solucao atual 19932.00
solucao atual 19932.00
solucao atual 19932.00
solucao atual 19932.00
solucao atual 19932.00
solucao atual 19932.00
solucao atual 19932.00
solucao atual 19932.00
solucao atual 19932.00
solucao atual 19932.00
iteration 14 sol 19932.00
solucao atual 19938.00
solucao atual 19938.00
solucao atual 19938.00
solucao atual 19938.00
solucao atual 19938.00
solucao atual 19938.00
solucao atual 19938.00
solucao atual 19938.00
solucao atual 19938.00
solucao atual 19938.00
solucao atual 19940.00
solucao atual 19940.00
solucao atual 19940.00
solucao atual 19940.00
solucao atual 19940.00
solucao atual 19940.00
solucao atual 19940.00
solucao atual 19940.00
solucao atual 19940.00
solucao atual 19940.00
solucao atual 19940.00
solucao atual 19940.00
solucao atual 19940.00
solucao atual 19941.00
solucao atual 19941.00
solucao atual 19941.00
solucao atual 19941.00
solucao atual 19941.00
solucao atual 19941.00
solucao atual 19941.00
solucao atual 19941.00
solucao atual 19941.00
solucao atual 19941.00
solucao atual 19941.00
solucao atual 19941.00
solucao atual 19941.00
solucao atual 19941.00
solucao atual 19941.00
solucao atual 19941.00
solucao atual 19941.00
solucao atual 19941.00
solucao atual 19941.00
solucao atual 19941.00
solucao atual 19941.00
solucao atual 19941.00
solucao atual 19941.00
solucao atual 19941.00
solucao atual 19941.00
solucao atual 19941.00
solucao atual 19941.00
solucao atual 19941.00
solucao atual 19941.00
solucao atual 19941.00
solucao atual 19941.00
solucao atual 19941.00
iteration 15 sol 19941.00
solucao atual 19957.00
solucao atual 19957.00
solucao atual 19957.00
solucao atual 19957.00
solucao atual 19957.00
solucao atual 19957.00
solucao atual 19957.00
solucao atual 19957.00
solucao atual 19957.00
solucao atual 19957.00
solucao atual 19957.00
solucao atual 19957.00
solucao atual 19957.00
iteration 16 sol 19957.00
solucao atual 19953.00
solucao atual 19953.00
solucao atual 19953.00
solucao atual 19953.00
solucao atual 19953.00
solucao atual 19953.00
solucao atual 19953.00
solucao atual 19954.00
solucao atual 19954.00
solucao atual 19954.00
solucao atual 19954.00
solucao atual 19954.00
solucao atual 19954.00
solucao atual 19954.00
solucao atual 19954.00
solucao atual 19954.00
solucao atual 19954.00
solucao atual 19954.00
solucao atual 19954.00
solucao atual 19954.00
solucao atual 19954.00
iteration 17 sol 19954.00
solucao atual 19921.00
solucao atual 19921.00
solucao atual 19921.00
solucao atual 19921.00
solucao atual 19921.00
solucao atual 19921.00
solucao atual 19921.00
solucao atual 19921.00
solucao atual 19921.00
solucao atual 19921.00
solucao atual 19921.00
solucao atual 19921.00
solucao atual 19921.00
solucao atual 19921.00
solucao atual 19921.00
solucao atual 19925.00
solucao atual 19925.00
solucao atual 19925.00
solucao atual 19925.00
solucao atual 19925.00
solucao atual 19925.00
solucao atual 19925.00
solucao atual 19925.00
solucao atual 19925.00
solucao atual 19925.00
solucao atual 19925.00
solucao atual 19925.00
solucao atual 19925.00
solucao atual 19925.00
iteration 18 sol 19925.00
solucao atual 19925.00
solucao atual 19925.00
solucao atual 19925.00
solucao atual 19941.00
solucao atual 19941.00
solucao atual 19941.00
solucao atual 19941.00
solucao atual 19941.00
solucao atual 19941.00
solucao atual 19941.00
solucao atual 19941.00
solucao atual 19941.00
solucao atual 19941.00
solucao atual 19941.00
solucao atual 19941.00
solucao atual 19941.00
solucao atual 19941.00
iteration 19 sol 19941.00
solucao atual 19904.00
solucao atual 19904.00
solucao atual 19904.00
solucao atual 19904.00
solucao atual 19904.00
solucao atual 19904.00
solucao atual 19904.00
solucao atual 19904.00
solucao atual 19904.00
solucao atual 19904.00
solucao atual 19904.00
solucao atual 19904.00
solucao atual 19904.00
solucao atual 19904.00
solucao atual 19904.00
solucao atual 19904.00
solucao atual 19904.00
solucao atual 19904.00
solucao atual 19904.00
solucao atual 19904.00
solucao atual 19904.00
solucao atual 19906.00
solucao atual 19906.00
solucao atual 19906.00
solucao atual 19906.00
solucao atual 19920.00
solucao atual 19920.00
solucao atual 19920.00
solucao atual 19920.00
solucao atual 19920.00
solucao atual 19920.00
solucao atual 19920.00
solucao atual 19920.00
solucao atual 19920.00
solucao atual 19920.00
solucao atual 19920.00
solucao atual 19920.00
solucao atual 19920.00
solucao atual 19920.00
iteration 20 sol 19920.00
solucao atual 19929.00
solucao atual 19929.00
solucao atual 19929.00
solucao atual 19929.00
solucao atual 19929.00
solucao atual 19929.00
solucao atual 19929.00
solucao atual 19929.00
solucao atual 19929.00
solucao atual 19929.00
solucao atual 19929.00
solucao atual 19929.00
solucao atual 19929.00
solucao atual 19929.00
solucao atual 19929.00
solucao atual 19929.00
solucao atual 19929.00
solucao atual 19930.00
solucao atual 19930.00
solucao atual 19930.00
solucao atual 19930.00
solucao atual 19930.00
solucao atual 19930.00
solucao atual 19936.00
solucao atual 19936.00
solucao atual 19936.00
solucao atual 19936.00
solucao atual 19936.00
solucao atual 19936.00
solucao atual 19936.00
solucao atual 19936.00
solucao atual 19936.00
solucao atual 19936.00
solucao atual 19936.00
solucao atual 19936.00
solucao atual 19936.00
solucao atual 19936.00
iteration 21 sol 19936.00
solucao atual 19939.00
solucao atual 19939.00
solucao atual 19939.00
solucao atual 19939.00
solucao atual 19939.00
solucao atual 19939.00
solucao atual 19939.00
solucao atual 19939.00
solucao atual 19939.00
solucao atual 19939.00
solucao atual 19939.00
solucao atual 19939.00
solucao atual 19939.00
iteration 22 sol 19939.00
solucao atual 19930.00
solucao atual 19930.00
solucao atual 19930.00
solucao atual 19930.00
solucao atual 19940.00
solucao atual 19940.00
solucao atual 19940.00
solucao atual 19940.00
solucao atual 19940.00
solucao atual 19940.00
solucao atual 19940.00
solucao atual 19940.00
solucao atual 19940.00
solucao atual 19940.00
solucao atual 19940.00
solucao atual 19940.00
solucao atual 19940.00
solucao atual 19940.00
iteration 23 sol 19940.00
solucao atual 19908.00
solucao atual 19908.00
solucao atual 19908.00
solucao atual 19908.00
solucao atual 19908.00
solucao atual 19926.00
solucao atual 19926.00
solucao atual 19926.00
solucao atual 19926.00
solucao atual 19926.00
solucao atual 19926.00
solucao atual 19939.00
solucao atual 19939.00
solucao atual 19939.00
solucao atual 19939.00
solucao atual 19939.00
solucao atual 19939.00
solucao atual 19939.00
solucao atual 19939.00
solucao atual 19939.00
solucao atual 19939.00
solucao atual 19939.00
solucao atual 19939.00
solucao atual 19939.00
solucao atual 19939.00
iteration 24 sol 19939.00
solucao atual 19868.00
solucao atual 19868.00
solucao atual 19868.00
solucao atual 19885.00
solucao atual 19885.00
solucao atual 19885.00
solucao atual 19885.00
solucao atual 19885.00
solucao atual 19885.00
solucao atual 19885.00
solucao atual 19885.00
solucao atual 19885.00
solucao atual 19885.00
solucao atual 19885.00
solucao atual 19885.00
solucao atual 19888.00
solucao atual 19888.00
solucao atual 19888.00
solucao atual 19888.00
solucao atual 19888.00
solucao atual 19888.00
solucao atual 19888.00
solucao atual 19888.00
solucao atual 19888.00
solucao atual 19888.00
solucao atual 19888.00
solucao atual 19888.00
solucao atual 19888.00
solucao atual 19888.00
solucao atual 19888.00
solucao atual 19888.00
solucao atual 19888.00
solucao atual 19888.00
solucao atual 19888.00
solucao atual 19888.00
solucao atual 19888.00
solucao atual 19888.00
solucao atual 19888.00
solucao atual 19888.00
solucao atual 19925.00
solucao atual 19925.00
solucao atual 19925.00
solucao atual 19925.00
solucao atual 19925.00
solucao atual 19925.00
solucao atual 19925.00
solucao atual 19925.00
solucao atual 19925.00
solucao atual 19941.00
solucao atual 19941.00
solucao atual 19941.00
solucao atual 19941.00
solucao atual 19941.00
solucao atual 19941.00
solucao atual 19941.00
solucao atual 19941.00
solucao atual 19941.00
solucao atual 19941.00
solucao atual 19941.00
solucao atual 19941.00
solucao atual 19941.00
solucao atual 19941.00
iteration 25 sol 19941.00
solucao atual 19955.00
solucao atual 19955.00
solucao atual 19955.00
solucao atual 19955.00
solucao atual 19955.00
solucao atual 19955.00
solucao atual 19955.00
solucao atual 19961.00
solucao atual 19961.00
solucao atual 19961.00
solucao atual 19961.00
solucao atual 19961.00
solucao atual 19961.00
solucao atual 19961.00
solucao atual 19961.00
solucao atual 19961.00
solucao atual 19961.00
solucao atual 19961.00
solucao atual 19961.00
solucao atual 19961.00
solucao atual 19961.00
iteration 26 sol 19961.00
solucao atual 19948.00
solucao atual 19948.00
solucao atual 19948.00
solucao atual 19948.00
solucao atual 19948.00
solucao atual 19948.00
solucao atual 19948.00
solucao atual 19948.00
solucao atual 19948.00
solucao atual 19948.00
solucao atual 19948.00
solucao atual 19948.00
solucao atual 19948.00
iteration 27 sol 19948.00
solucao atual 19936.00
solucao atual 19936.00
solucao atual 19936.00
solucao atual 19936.00
solucao atual 19936.00
solucao atual 19938.00
solucao atual 19938.00
solucao atual 19938.00
solucao atual 19938.00
solucao atual 19938.00
solucao atual 19938.00
solucao atual 19938.00
solucao atual 19938.00
solucao atual 19938.00
solucao atual 19938.00
solucao atual 19938.00
solucao atual 19938.00
solucao atual 19938.00
solucao atual 19938.00
solucao atual 19938.00
solucao atual 19938.00
solucao atual 19938.00
solucao atual 19938.00
solucao atual 19938.00
solucao atual 19938.00
iteration 28 sol 19938.00
solucao atual 19953.00
solucao atual 19953.00
solucao atual 19953.00
solucao atual 19953.00
solucao atual 19953.00
solucao atual 19953.00
solucao atual 19953.00
solucao atual 19953.00
solucao atual 19953.00
solucao atual 19953.00
solucao atual 19953.00
solucao atual 19953.00
solucao atual 19953.00
iteration 29 sol 19953.00
solucao atual 19907.00
solucao atual 19907.00
solucao atual 19907.00
solucao atual 19907.00
solucao atual 19907.00
solucao atual 19907.00
solucao atual 19907.00
solucao atual 19907.00
solucao atual 19909.00
solucao atual 19909.00
solucao atual 19909.00
solucao atual 19909.00
solucao atual 19909.00
solucao atual 19909.00
solucao atual 19909.00
solucao atual 19909.00
solucao atual 19909.00
solucao atual 19909.00
solucao atual 19909.00
solucao atual 19909.00
solucao atual 19910.00
solucao atual 19910.00
solucao atual 19910.00
solucao atual 19910.00
solucao atual 19916.00
solucao atual 19916.00
solucao atual 19916.00
solucao atual 19916.00
solucao atual 19916.00
solucao atual 19916.00
solucao atual 19918.00
solucao atual 19918.00
solucao atual 19918.00
solucao atual 19918.00
solucao atual 19918.00
solucao atual 19918.00
solucao atual 19918.00
solucao atual 19918.00
solucao atual 19918.00
solucao atual 19918.00
solucao atual 19919.00
solucao atual 19919.00
solucao atual 19919.00
solucao atual 19919.00
solucao atual 19919.00
solucao atual 19919.00
solucao atual 19919.00
solucao atual 19919.00
solucao atual 19919.00
solucao atual 19919.00
solucao atual 19919.00
solucao atual 19919.00
solucao atual 19919.00
solucao atual 19919.00
solucao atual 19921.00
solucao atual 19921.00
solucao atual 19921.00
solucao atual 19921.00
solucao atual 19921.00
solucao atual 19921.00
solucao atual 19921.00
solucao atual 19921.00
solucao atual 19921.00
solucao atual 19921.00
solucao atual 19921.00
solucao atual 19921.00
solucao atual 19921.00
solucao atual 19921.00
iteration 30 sol 19921.00
solucao atual 19912.00
solucao atual 19912.00
solucao atual 19912.00
solucao atual 19912.00
solucao atual 19912.00
solucao atual 19912.00
solucao atual 19912.00
solucao atual 19912.00
solucao atual 19912.00
solucao atual 19912.00
solucao atual 19912.00
solucao atual 19918.00
solucao atual 19918.00
solucao atual 19918.00
solucao atual 19918.00
solucao atual 19918.00
solucao atual 19925.00
solucao atual 19925.00
solucao atual 19925.00
solucao atual 19925.00
solucao atual 19925.00
solucao atual 19925.00
solucao atual 19925.00
solucao atual 19925.00
solucao atual 19925.00
solucao atual 19925.00
solucao atual 19925.00
solucao atual 19925.00
solucao atual 19925.00
solucao atual 19925.00
iteration 31 sol 19925.00
solucao atual 19937.00
solucao atual 19937.00
solucao atual 19937.00
solucao atual 19937.00
solucao atual 19937.00
solucao atual 19937.00
solucao atual 19937.00
solucao atual 19937.00
solucao atual 19941.00
solucao atual 19941.00
solucao atual 19941.00
solucao atual 19941.00
solucao atual 19941.00
solucao atual 19941.00
solucao atual 19941.00
solucao atual 19941.00
solucao atual 19941.00
solucao atual 19941.00
solucao atual 19941.00
solucao atual 19941.00
solucao atual 19941.00
solucao atual 19941.00
iteration 32 sol 19941.00
solucao atual 19937.00
solucao atual 19937.00
solucao atual 19937.00
solucao atual 19937.00
solucao atual 19937.00
solucao atual 19937.00
solucao atual 19937.00
solucao atual 19937.00
solucao atual 19937.00
solucao atual 19937.00
solucao atual 19937.00
solucao atual 19937.00
solucao atual 19937.00
iteration 33 sol 19937.00
solucao atual 19933.00
solucao atual 19933.00
solucao atual 19933.00
solucao atual 19933.00
solucao atual 19933.00
solucao atual 19933.00
solucao atual 19933.00
solucao atual 19933.00
solucao atual 19933.00
solucao atual 19933.00
solucao atual 19933.00
solucao atual 19933.00
solucao atual 19933.00
iteration 34 sol 19933.00
solucao atual 19902.00
solucao atual 19902.00
solucao atual 19902.00
solucao atual 19916.00
solucao atual 19916.00
solucao atual 19916.00
solucao atual 19916.00
solucao atual 19916.00
solucao atual 19916.00
solucao atual 19916.00
solucao atual 19916.00
solucao atual 19916.00
solucao atual 19916.00
solucao atual 19916.00
solucao atual 19920.00
solucao atual 19920.00
solucao atual 19920.00
solucao atual 19920.00
solucao atual 19920.00
solucao atual 19920.00
solucao atual 19920.00
solucao atual 19920.00
solucao atual 19920.00
solucao atual 19920.00
solucao atual 19920.00
solucao atual 19920.00
solucao atual 19920.00
solucao atual 19920.00
iteration 35 sol 19920.00
solucao atual 19936.00
solucao atual 19936.00
solucao atual 19936.00
solucao atual 19936.00
solucao atual 19936.00
solucao atual 19955.00
solucao atual 19955.00
solucao atual 19955.00
solucao atual 19955.00
solucao atual 19955.00
solucao atual 19955.00
solucao atual 19955.00
solucao atual 19955.00
solucao atual 19955.00
solucao atual 19955.00
solucao atual 19955.00
solucao atual 19955.00
solucao atual 19955.00
solucao atual 19955.00
iteration 36 sol 19955.00
solucao atual 19942.00
solucao atual 19942.00
solucao atual 19942.00
solucao atual 19942.00
solucao atual 19943.00
solucao atual 19943.00
solucao atual 19943.00
solucao atual 19943.00
solucao atual 19947.00
solucao atual 19947.00
solucao atual 19947.00
solucao atual 19947.00
solucao atual 19947.00
solucao atual 19947.00
solucao atual 19949.00
solucao atual 19949.00
solucao atual 19949.00
solucao atual 19949.00
solucao atual 19949.00
solucao atual 19949.00
solucao atual 19949.00
solucao atual 19949.00
solucao atual 19949.00
solucao atual 19949.00
solucao atual 19949.00
solucao atual 19949.00
solucao atual 19949.00
solucao atual 19949.00
iteration 37 sol 19949.00
solucao atual 19941.00
solucao atual 19941.00
solucao atual 19941.00
solucao atual 19941.00
solucao atual 19941.00
solucao atual 19941.00
solucao atual 19941.00
solucao atual 19941.00
solucao atual 19941.00
solucao atual 19947.00
solucao atual 19947.00
solucao atual 19947.00
solucao atual 19947.00
solucao atual 19947.00
solucao atual 19947.00
solucao atual 19947.00
solucao atual 19947.00
solucao atual 19947.00
solucao atual 19947.00
solucao atual 19947.00
solucao atual 19947.00
solucao atual 19947.00
solucao atual 19947.00
iteration 38 sol 19947.00
solucao atual 19936.00
solucao atual 19936.00
solucao atual 19936.00
solucao atual 19936.00
solucao atual 19936.00
solucao atual 19936.00
solucao atual 19936.00
solucao atual 19936.00
solucao atual 19936.00
solucao atual 19936.00
solucao atual 19936.00
solucao atual 19936.00
solucao atual 19936.00
iteration 39 sol 19936.00
solucao atual 19946.00
solucao atual 19946.00
solucao atual 19946.00
solucao atual 19946.00
solucao atual 19946.00
solucao atual 19946.00
solucao atual 19946.00
solucao atual 19946.00
solucao atual 19946.00
solucao atual 19946.00
solucao atual 19946.00
solucao atual 19946.00
solucao atual 19946.00
iteration 40 sol 19946.00
solucao atual 19945.00
solucao atual 19945.00
solucao atual 19945.00
solucao atual 19945.00
solucao atual 19945.00
solucao atual 19945.00
solucao atual 19945.00
solucao atual 19945.00
solucao atual 19945.00
solucao atual 19945.00
solucao atual 19945.00
solucao atual 19945.00
solucao atual 19945.00
iteration 41 sol 19945.00
solucao atual 19946.00
solucao atual 19946.00
solucao atual 19946.00
solucao atual 19946.00
solucao atual 19946.00
solucao atual 19946.00
solucao atual 19946.00
solucao atual 19946.00
solucao atual 19946.00
solucao atual 19946.00
solucao atual 19946.00
solucao atual 19946.00
solucao atual 19946.00
iteration 42 sol 19946.00
solucao atual 19953.00
solucao atual 19953.00
solucao atual 19953.00
solucao atual 19953.00
solucao atual 19953.00
solucao atual 19953.00
solucao atual 19953.00
solucao atual 19953.00
solucao atual 19953.00
solucao atual 19953.00
solucao atual 19953.00
solucao atual 19953.00
solucao atual 19953.00
iteration 43 sol 19953.00
solucao atual 19948.00
solucao atual 19948.00
solucao atual 19948.00
solucao atual 19948.00
solucao atual 19948.00
solucao atual 19948.00
solucao atual 19948.00
solucao atual 19948.00
solucao atual 19959.00
solucao atual 19959.00
solucao atual 19959.00
solucao atual 19959.00
solucao atual 19959.00
solucao atual 19959.00
solucao atual 19959.00
solucao atual 19959.00
solucao atual 19959.00
solucao atual 19959.00
solucao atual 19959.00
solucao atual 19959.00
solucao atual 19959.00
solucao atual 19959.00
iteration 44 sol 19959.00
solucao atual 19917.00
solucao atual 19917.00
solucao atual 19917.00
solucao atual 19917.00
solucao atual 19917.00
solucao atual 19918.00
solucao atual 19918.00
solucao atual 19918.00
solucao atual 19918.00
solucao atual 19940.00
solucao atual 19940.00
solucao atual 19940.00
solucao atual 19940.00
solucao atual 19940.00
solucao atual 19940.00
solucao atual 19940.00
solucao atual 19940.00
solucao atual 19940.00
solucao atual 19940.00
solucao atual 19940.00
solucao atual 19940.00
solucao atual 19940.00
solucao atual 19940.00
iteration 45 sol 19940.00
solucao atual 19947.00
solucao atual 19947.00
solucao atual 19947.00
solucao atual 19947.00
solucao atual 19947.00
solucao atual 19947.00
solucao atual 19947.00
solucao atual 19947.00
solucao atual 19947.00
solucao atual 19947.00
solucao atual 19954.00
solucao atual 19954.00
solucao atual 19954.00
solucao atual 19954.00
solucao atual 19954.00
solucao atual 19954.00
solucao atual 19954.00
solucao atual 19954.00
solucao atual 19954.00
solucao atual 19957.00
solucao atual 19957.00
solucao atual 19957.00
solucao atual 19957.00
solucao atual 19961.00
solucao atual 19961.00
solucao atual 19961.00
solucao atual 19961.00
solucao atual 19961.00
solucao atual 19961.00
solucao atual 19961.00
solucao atual 19961.00
solucao atual 19961.00
solucao atual 19961.00
solucao atual 19961.00
solucao atual 19961.00
solucao atual 19961.00
solucao atual 19961.00
iteration 46 sol 19961.00
solucao atual 19929.00
solucao atual 19929.00
solucao atual 19929.00
solucao atual 19929.00
solucao atual 19929.00
solucao atual 19929.00
solucao atual 19929.00
solucao atual 19929.00
solucao atual 19929.00
solucao atual 19929.00
solucao atual 19929.00
solucao atual 19929.00
solucao atual 19929.00
iteration 47 sol 19929.00
solucao atual 19914.00
solucao atual 19914.00
solucao atual 19914.00
solucao atual 19914.00
solucao atual 19914.00
solucao atual 19914.00
solucao atual 19914.00
solucao atual 19914.00
solucao atual 19918.00
solucao atual 19918.00
solucao atual 19918.00
solucao atual 19918.00
solucao atual 19918.00
solucao atual 19918.00
solucao atual 19918.00
solucao atual 19931.00
solucao atual 19931.00
solucao atual 19931.00
solucao atual 19931.00
solucao atual 19931.00
solucao atual 19931.00
solucao atual 19931.00
solucao atual 19931.00
solucao atual 19931.00
solucao atual 19931.00
solucao atual 19931.00
solucao atual 19931.00
solucao atual 19937.00
solucao atual 19937.00
solucao atual 19937.00
solucao atual 19937.00
solucao atual 19937.00
solucao atual 19937.00
solucao atual 19937.00
solucao atual 19937.00
solucao atual 19937.00
solucao atual 19937.00
solucao atual 19937.00
solucao atual 19937.00
solucao atual 19937.00
solucao atual 19937.00
solucao atual 19937.00
solucao atual 19937.00
solucao atual 19937.00
solucao atual 19937.00
solucao atual 19937.00
solucao atual 19937.00
solucao atual 19937.00
solucao atual 19937.00
solucao atual 19937.00
solucao atual 19937.00
solucao atual 19955.00
solucao atual 19955.00
solucao atual 19955.00
solucao atual 19955.00
solucao atual 19955.00
solucao atual 19955.00
solucao atual 19955.00
solucao atual 19955.00
solucao atual 19955.00
solucao atual 19955.00
solucao atual 19955.00
solucao atual 19955.00
solucao atual 19955.00
solucao atual 19955.00
iteration 48 sol 19955.00
solucao atual 19946.00
solucao atual 19946.00
solucao atual 19946.00
solucao atual 19946.00
solucao atual 19946.00
solucao atual 19950.00
solucao atual 19950.00
solucao atual 19950.00
solucao atual 19950.00
solucao atual 19950.00
solucao atual 19950.00
solucao atual 19950.00
solucao atual 19950.00
solucao atual 19950.00
solucao atual 19950.00
solucao atual 19950.00
solucao atual 19950.00
solucao atual 19950.00
solucao atual 19950.00
iteration 49 sol 19950.00
solucao atual 19924.00
solucao atual 19924.00
solucao atual 19924.00
solucao atual 19924.00
solucao atual 19924.00
solucao atual 19924.00
solucao atual 19929.00
solucao atual 19929.00
solucao atual 19929.00
solucao atual 19929.00
solucao atual 19931.00
solucao atual 19931.00
solucao atual 19931.00
solucao atual 19931.00
solucao atual 19931.00
solucao atual 19931.00
solucao atual 19931.00
solucao atual 19931.00
solucao atual 19931.00
solucao atual 19931.00
solucao atual 19931.00
solucao atual 19931.00
solucao atual 19931.00
solucao atual 19931.00
iteration 50 sol 19931.00
solucao atual 19940.00
solucao atual 19940.00
solucao atual 19940.00
solucao atual 19943.00
solucao atual 19943.00
solucao atual 19943.00
solucao atual 19943.00
solucao atual 19943.00
solucao atual 19943.00
solucao atual 19943.00
solucao atual 19943.00
solucao atual 19943.00
solucao atual 19943.00
solucao atual 19943.00
solucao atual 19943.00
solucao atual 19943.00
solucao atual 19943.00
iteration 51 sol 19943.00
solucao atual 19934.00
solucao atual 19934.00
solucao atual 19934.00
solucao atual 19940.00
solucao atual 19940.00
solucao atual 19940.00
solucao atual 19940.00
solucao atual 19940.00
solucao atual 19940.00
solucao atual 19949.00
solucao atual 19949.00
solucao atual 19949.00
solucao atual 19949.00
solucao atual 19949.00
solucao atual 19949.00
solucao atual 19949.00
solucao atual 19949.00
solucao atual 19949.00
solucao atual 19949.00
solucao atual 19949.00
solucao atual 19949.00
solucao atual 19949.00
solucao atual 19949.00
iteration 52 sol 19949.00
solucao atual 19953.00
solucao atual 19953.00
solucao atual 19953.00
solucao atual 19953.00
solucao atual 19953.00
solucao atual 19953.00
solucao atual 19953.00
solucao atual 19953.00
solucao atual 19953.00
solucao atual 19953.00
solucao atual 19953.00
solucao atual 19953.00
solucao atual 19953.00
iteration 53 sol 19953.00
solucao atual 19924.00
solucao atual 19924.00
solucao atual 19924.00
solucao atual 19925.00
solucao atual 19925.00
solucao atual 19925.00
solucao atual 19925.00
solucao atual 19925.00
solucao atual 19925.00
solucao atual 19925.00
solucao atual 19925.00
solucao atual 19925.00
solucao atual 19925.00
solucao atual 19925.00
solucao atual 19925.00
solucao atual 19929.00
solucao atual 19929.00
solucao atual 19929.00
solucao atual 19929.00
solucao atual 19929.00
solucao atual 19929.00
solucao atual 19929.00
solucao atual 19929.00
solucao atual 19929.00
solucao atual 19929.00
solucao atual 19929.00
solucao atual 19929.00
solucao atual 19929.00
solucao atual 19929.00
iteration 54 sol 19929.00
solucao atual 19936.00
solucao atual 19936.00
solucao atual 19936.00
solucao atual 19956.00
solucao atual 19956.00
solucao atual 19956.00
solucao atual 19956.00
solucao atual 19956.00
solucao atual 19956.00
solucao atual 19956.00
solucao atual 19956.00
solucao atual 19956.00
solucao atual 19956.00
solucao atual 19956.00
solucao atual 19956.00
solucao atual 19956.00
solucao atual 19956.00
iteration 55 sol 19956.00
solucao atual 19914.00
solucao atual 19914.00
solucao atual 19914.00
solucao atual 19935.00
solucao atual 19935.00
solucao atual 19935.00
solucao atual 19935.00
solucao atual 19935.00
solucao atual 19935.00
solucao atual 19935.00
solucao atual 19935.00
solucao atual 19935.00
solucao atual 19935.00
solucao atual 19935.00
solucao atual 19935.00
solucao atual 19935.00
solucao atual 19935.00
solucao atual 19935.00
solucao atual 19935.00
solucao atual 19935.00
solucao atual 19935.00
solucao atual 19935.00
solucao atual 19935.00
solucao atual 19935.00
solucao atual 19935.00
iteration 56 sol 19935.00
solucao atual 19912.00
solucao atual 19912.00
solucao atual 19912.00
solucao atual 19912.00
solucao atual 19912.00
solucao atual 19912.00
solucao atual 19912.00
solucao atual 19912.00
solucao atual 19912.00
solucao atual 19912.00
solucao atual 19912.00
solucao atual 19912.00
solucao atual 19912.00
iteration 57 sol 19912.00
solucao atual 19923.00
solucao atual 19923.00
solucao atual 19923.00
solucao atual 19923.00
solucao atual 19923.00
solucao atual 19923.00
solucao atual 19923.00
solucao atual 19923.00
solucao atual 19923.00
solucao atual 19923.00
solucao atual 19923.00
solucao atual 19923.00
solucao atual 19923.00
solucao atual 19923.00
solucao atual 19923.00
solucao atual 19923.00
solucao atual 19923.00
solucao atual 19923.00
solucao atual 19923.00
solucao atual 19923.00
solucao atual 19923.00
solucao atual 19923.00
solucao atual 19923.00
solucao atual 19923.00
iteration 58 sol 19923.00
solucao atual 19891.00
solucao atual 19891.00
solucao atual 19891.00
solucao atual 19891.00
solucao atual 19891.00
solucao atual 19891.00
solucao atual 19891.00
solucao atual 19891.00
solucao atual 19903.00
solucao atual 19903.00
solucao atual 19903.00
solucao atual 19903.00
solucao atual 19923.00
solucao atual 19923.00
solucao atual 19923.00
solucao atual 19923.00
solucao atual 19923.00
solucao atual 19923.00
solucao atual 19923.00
solucao atual 19923.00
solucao atual 19923.00
solucao atual 19923.00
solucao atual 19923.00
solucao atual 19928.00
solucao atual 19928.00
solucao atual 19928.00
solucao atual 19928.00
solucao atual 19928.00
solucao atual 19928.00
solucao atual 19928.00
solucao atual 19928.00
solucao atual 19928.00
solucao atual 19928.00
solucao atual 19928.00
solucao atual 19928.00
solucao atual 19928.00
solucao atual 19928.00
solucao atual 19928.00
solucao atual 19928.00
solucao atual 19928.00
solucao atual 19928.00
solucao atual 19928.00
solucao atual 19928.00
solucao atual 19928.00
solucao atual 19928.00
solucao atual 19928.00
iteration 59 sol 19928.00
solucao atual 19873.00
solucao atual 19873.00
solucao atual 19873.00
solucao atual 19873.00
solucao atual 19873.00
solucao atual 19873.00
solucao atual 19873.00
solucao atual 19873.00
solucao atual 19873.00
solucao atual 19873.00
solucao atual 19873.00
solucao atual 19873.00
solucao atual 19876.00
solucao atual 19876.00
solucao atual 19876.00
solucao atual 19876.00
solucao atual 19892.00
solucao atual 19892.00
solucao atual 19892.00
solucao atual 19892.00
solucao atual 19898.00
solucao atual 19898.00
solucao atual 19898.00
solucao atual 19898.00
solucao atual 19898.00
solucao atual 19898.00
solucao atual 19898.00
solucao atual 19898.00
solucao atual 19898.00
solucao atual 19898.00
solucao atual 19898.00
solucao atual 19898.00
solucao atual 19898.00
solucao atual 19898.00
iteration 60 sol 19898.00
solucao atual 19938.00
solucao atual 19938.00
solucao atual 19938.00
solucao atual 19938.00
solucao atual 19938.00
solucao atual 19938.00
solucao atual 19938.00
solucao atual 19938.00
solucao atual 19942.00
solucao atual 19942.00
solucao atual 19942.00
solucao atual 19942.00
solucao atual 19942.00
solucao atual 19942.00
solucao atual 19942.00
solucao atual 19942.00
solucao atual 19942.00
solucao atual 19942.00
solucao atual 19942.00
solucao atual 19942.00
solucao atual 19942.00
solucao atual 19942.00
iteration 61 sol 19942.00
solucao atual 19934.00
solucao atual 19934.00
solucao atual 19934.00
solucao atual 19934.00
solucao atual 19934.00
solucao atual 19934.00
solucao atual 19934.00
solucao atual 19940.00
solucao atual 19940.00
solucao atual 19940.00
solucao atual 19940.00
solucao atual 19941.00
solucao atual 19941.00
solucao atual 19941.00
solucao atual 19941.00
solucao atual 19941.00
solucao atual 19941.00
solucao atual 19941.00
solucao atual 19941.00
solucao atual 19941.00
solucao atual 19941.00
solucao atual 19941.00
solucao atual 19941.00
solucao atual 19941.00
solucao atual 19941.00
iteration 62 sol 19941.00
solucao atual 19913.00
solucao atual 19913.00
solucao atual 19913.00
solucao atual 19913.00
solucao atual 19913.00
solucao atual 19913.00
solucao atual 19913.00
solucao atual 19913.00
solucao atual 19913.00
solucao atual 19913.00
solucao atual 19913.00
solucao atual 19913.00
solucao atual 19913.00
iteration 63 sol 19913.00
solucao atual 19939.00
solucao atual 19939.00
solucao atual 19939.00
solucao atual 19939.00
solucao atual 19939.00
solucao atual 19939.00
TIMEOUT
TIMEOUT
TIMEOUT
iteration 64 sol 19939.00
Number of iterations = 65
Best Solution was found in iteration = 26
Time used by neighbor | Times each neighbor was used | Improvements
N_1 = 0.01 | 228 | 65
N_2 = 0.02 | 163 | 0
N_3 = 0.01 | 163 | 0
N_4 = 3.23 | 163 | 98
Time to find the best solution = 245.29
Solution = 19961.00
Time = 600.00
