solucao atual 28939.00
solucao atual 28939.00
solucao atual 28939.00
solucao atual 28939.00
solucao atual 28939.00
solucao atual 28939.00
solucao atual 28939.00
solucao atual 28939.00
solucao atual 28939.00
solucao atual 28939.00
solucao atual 28939.00
solucao atual 28939.00
solucao atual 28939.00
iteration 0 sol 28939.00
solucao atual 28970.00
solucao atual 28970.00
solucao atual 28970.00
solucao atual 28970.00
solucao atual 28970.00
solucao atual 28970.00
solucao atual 28970.00
solucao atual 28970.00
solucao atual 28970.00
solucao atual 28970.00
solucao atual 28970.00
solucao atual 28970.00
solucao atual 28970.00
iteration 1 sol 28970.00
solucao atual 28957.00
solucao atual 28957.00
solucao atual 28957.00
solucao atual 28957.00
solucao atual 28957.00
solucao atual 28957.00
solucao atual 28957.00
solucao atual 28957.00
solucao atual 28957.00
solucao atual 28957.00
solucao atual 28957.00
solucao atual 28957.00
solucao atual 28957.00
iteration 2 sol 28957.00
solucao atual 28968.00
solucao atual 28968.00
solucao atual 28968.00
solucao atual 28968.00
solucao atual 28968.00
solucao atual 28968.00
solucao atual 28970.00
solucao atual 28970.00
solucao atual 28970.00
solucao atual 28970.00
solucao atual 28970.00
solucao atual 28970.00
solucao atual 28970.00
solucao atual 28970.00
solucao atual 28970.00
solucao atual 28970.00
solucao atual 28970.00
solucao atual 28970.00
solucao atual 28970.00
solucao atual 28970.00
iteration 3 sol 28970.00
solucao atual 28966.00
solucao atual 28966.00
solucao atual 28966.00
solucao atual 28966.00
solucao atual 28966.00
solucao atual 28966.00
solucao atual 28966.00
solucao atual 28966.00
solucao atual 28966.00
solucao atual 28966.00
solucao atual 28966.00
solucao atual 28966.00
solucao atual 28966.00
iteration 4 sol 28966.00
solucao atual 28960.00
solucao atual 28960.00
solucao atual 28960.00
solucao atual 28960.00
solucao atual 28960.00
solucao atual 28962.00
solucao atual 28962.00
solucao atual 28962.00
solucao atual 28962.00
solucao atual 28962.00
solucao atual 28962.00
solucao atual 28962.00
solucao atual 28962.00
solucao atual 28962.00
solucao atual 28962.00
solucao atual 28962.00
solucao atual 28962.00
solucao atual 28962.00
solucao atual 28962.00
iteration 5 sol 28962.00
solucao atual 28975.00
solucao atual 28975.00
solucao atual 28975.00
solucao atual 28975.00
solucao atual 28975.00
solucao atual 28975.00
solucao atual 28975.00
solucao atual 28975.00
solucao atual 28975.00
solucao atual 28975.00
solucao atual 28975.00
solucao atual 28975.00
solucao atual 28975.00
iteration 6 sol 28975.00
solucao atual 28974.00
solucao atual 28974.00
solucao atual 28974.00
solucao atual 28974.00
solucao atual 28974.00
solucao atual 28974.00
solucao atual 28974.00
solucao atual 28974.00
solucao atual 28974.00
solucao atual 28974.00
solucao atual 28974.00
solucao atual 28974.00
solucao atual 28974.00
iteration 7 sol 28974.00
solucao atual 28972.00
solucao atual 28972.00
solucao atual 28972.00
solucao atual 28972.00
solucao atual 28972.00
solucao atual 28972.00
solucao atual 28972.00
solucao atual 28972.00
solucao atual 28972.00
solucao atual 28972.00
solucao atual 28972.00
solucao atual 28972.00
solucao atual 28972.00
iteration 8 sol 28972.00
solucao atual 28972.00
solucao atual 28972.00
solucao atual 28972.00
solucao atual 28972.00
solucao atual 28972.00
solucao atual 28972.00
solucao atual 28972.00
solucao atual 28972.00
solucao atual 28972.00
solucao atual 28972.00
solucao atual 28972.00
solucao atual 28972.00
solucao atual 28972.00
iteration 9 sol 28972.00
solucao atual 28959.00
solucao atual 28959.00
solucao atual 28959.00
solucao atual 28959.00
solucao atual 28959.00
solucao atual 28959.00
solucao atual 28959.00
solucao atual 28959.00
solucao atual 28959.00
solucao atual 28959.00
solucao atual 28959.00
solucao atual 28959.00
solucao atual 28959.00
iteration 10 sol 28959.00
solucao atual 28948.00
solucao atual 28948.00
solucao atual 28948.00
solucao atual 28948.00
solucao atual 28954.00
solucao atual 28954.00
solucao atual 28954.00
solucao atual 28954.00
solucao atual 28954.00
solucao atual 28954.00
solucao atual 28954.00
solucao atual 28954.00
solucao atual 28954.00
solucao atual 28954.00
solucao atual 28954.00
solucao atual 28954.00
solucao atual 28954.00
solucao atual 28954.00
iteration 11 sol 28954.00
solucao atual 28953.00
solucao atual 28953.00
solucao atual 28953.00
solucao atual 28953.00
solucao atual 28953.00
solucao atual 28953.00
solucao atual 28953.00
solucao atual 28953.00
solucao atual 28953.00
solucao atual 28953.00
solucao atual 28953.00
solucao atual 28953.00
solucao atual 28953.00
iteration 12 sol 28953.00
solucao atual 28976.00
solucao atual 28976.00
solucao atual 28976.00
solucao atual 28976.00
solucao atual 28976.00
solucao atual 28976.00
solucao atual 28976.00
solucao atual 28976.00
solucao atual 28976.00
solucao atual 28976.00
solucao atual 28976.00
solucao atual 28976.00
solucao atual 28976.00
iteration 13 sol 28976.00
solucao atual 28966.00
solucao atual 28966.00
solucao atual 28966.00
solucao atual 28966.00
solucao atual 28966.00
solucao atual 28966.00
solucao atual 28966.00
solucao atual 28966.00
solucao atual 28966.00
solucao atual 28966.00
solucao atual 28966.00
solucao atual 28966.00
solucao atual 28966.00
iteration 14 sol 28966.00
solucao atual 28979.00
solucao atual 28979.00
solucao atual 28979.00
solucao atual 28979.00
solucao atual 28979.00
solucao atual 28979.00
solucao atual 28979.00
solucao atual 28979.00
solucao atual 28979.00
solucao atual 28979.00
solucao atual 28979.00
solucao atual 28979.00
solucao atual 28979.00
iteration 15 sol 28979.00
solucao atual 28964.00
solucao atual 28964.00
solucao atual 28964.00
solucao atual 28964.00
solucao atual 28964.00
solucao atual 28964.00
solucao atual 28964.00
solucao atual 28964.00
solucao atual 28964.00
solucao atual 28964.00
solucao atual 28964.00
solucao atual 28964.00
solucao atual 28964.00
iteration 16 sol 28964.00
solucao atual 28955.00
solucao atual 28955.00
solucao atual 28955.00
solucao atual 28955.00
solucao atual 28955.00
solucao atual 28956.00
solucao atual 28956.00
solucao atual 28956.00
solucao atual 28956.00
solucao atual 28956.00
solucao atual 28956.00
solucao atual 28956.00
solucao atual 28956.00
solucao atual 28956.00
solucao atual 28956.00
solucao atual 28956.00
solucao atual 28956.00
solucao atual 28956.00
solucao atual 28956.00
iteration 17 sol 28956.00
solucao atual 28966.00
solucao atual 28966.00
solucao atual 28966.00
solucao atual 28966.00
solucao atual 28966.00
solucao atual 28966.00
solucao atual 28966.00
solucao atual 28966.00
solucao atual 28966.00
solucao atual 28966.00
solucao atual 28966.00
solucao atual 28966.00
solucao atual 28966.00
iteration 18 sol 28966.00
solucao atual 28957.00
solucao atual 28957.00
solucao atual 28957.00
solucao atual 28957.00
solucao atual 28957.00
solucao atual 28957.00
solucao atual 28957.00
solucao atual 28957.00
solucao atual 28957.00
solucao atual 28957.00
solucao atual 28957.00
solucao atual 28957.00
solucao atual 28957.00
iteration 19 sol 28957.00
solucao atual 28966.00
solucao atual 28966.00
solucao atual 28966.00
solucao atual 28966.00
solucao atual 28966.00
solucao atual 28966.00
solucao atual 28966.00
solucao atual 28966.00
solucao atual 28966.00
solucao atual 28966.00
solucao atual 28966.00
solucao atual 28966.00
solucao atual 28966.00
solucao atual 28966.00
iteration 20 sol 28966.00
solucao atual 28941.00
solucao atual 28941.00
solucao atual 28941.00
solucao atual 28941.00
solucao atual 28941.00
solucao atual 28941.00
solucao atual 28941.00
solucao atual 28941.00
solucao atual 28941.00
solucao atual 28941.00
solucao atual 28941.00
solucao atual 28941.00
solucao atual 28941.00
iteration 21 sol 28941.00
solucao atual 28963.00
solucao atual 28963.00
solucao atual 28963.00
solucao atual 28963.00
solucao atual 28963.00
solucao atual 28963.00
solucao atual 28963.00
solucao atual 28963.00
solucao atual 28963.00
solucao atual 28963.00
solucao atual 28963.00
solucao atual 28963.00
solucao atual 28963.00
iteration 22 sol 28963.00
solucao atual 28975.00
solucao atual 28975.00
solucao atual 28975.00
solucao atual 28975.00
solucao atual 28975.00
solucao atual 28975.00
solucao atual 28975.00
solucao atual 28975.00
solucao atual 28975.00
solucao atual 28975.00
solucao atual 28975.00
solucao atual 28975.00
solucao atual 28975.00
iteration 23 sol 28975.00
solucao atual 28941.00
solucao atual 28941.00
solucao atual 28941.00
solucao atual 28941.00
solucao atual 28941.00
solucao atual 28941.00
solucao atual 28941.00
solucao atual 28941.00
solucao atual 28941.00
solucao atual 28941.00
solucao atual 28942.00
solucao atual 28942.00
solucao atual 28942.00
solucao atual 28942.00
solucao atual 28942.00
solucao atual 28942.00
solucao atual 28942.00
solucao atual 28942.00
solucao atual 28942.00
solucao atual 28942.00
solucao atual 28942.00
solucao atual 28942.00
solucao atual 28942.00
solucao atual 28942.00
iteration 24 sol 28942.00
solucao atual 28968.00
solucao atual 28968.00
solucao atual 28968.00
solucao atual 28968.00
solucao atual 28968.00
solucao atual 28968.00
solucao atual 28968.00
solucao atual 28968.00
solucao atual 28968.00
solucao atual 28968.00
solucao atual 28968.00
solucao atual 28968.00
solucao atual 28968.00
iteration 25 sol 28968.00
solucao atual 28952.00
solucao atual 28952.00
solucao atual 28952.00
solucao atual 28952.00
solucao atual 28952.00
solucao atual 28952.00
solucao atual 28952.00
solucao atual 28952.00
solucao atual 28952.00
solucao atual 28952.00
solucao atual 28952.00
solucao atual 28952.00
solucao atual 28952.00
solucao atual 28952.00
iteration 26 sol 28952.00
solucao atual 28959.00
solucao atual 28959.00
solucao atual 28959.00
solucao atual 28959.00
solucao atual 28959.00
solucao atual 28959.00
solucao atual 28959.00
solucao atual 28959.00
solucao atual 28959.00
solucao atual 28959.00
solucao atual 28959.00
solucao atual 28959.00
TIMEOUT
TIMEOUT
TIMEOUT
iteration 27 sol 28959.00
Number of iterations = 28
Best Solution was found in iteration = 15
Time used by neighbor | Times each neighbor was used | Improvements
N_1 = 0.00 | 61 | 28
N_2 = 0.02 | 33 | 0
N_3 = 0.00 | 33 | 0
N_4 = 1.22 | 33 | 5
Time to find the best solution = 320.95
Solution = 28979.00
Time = 600.12
