iteration 0 sol 99895.00
Number of iterations = 1
Best Solution was found in iteration = 0
Time used by neighbor | Times each neighbor was used | Improvements
N_1 = 0.00 | 0 | 0
N_2 = 80.90 | 1 | 1
N_3 = 0.00 | 1 | 0
N_4 = 1298.51 | 1 | 1
Time to find the best solution = 1379.87
Solution = 99895.00
Time = 1379.87
