iteration 0 sol 76936.00
Number of iterations = 1
Best Solution was found in iteration = 0
Time used by neighbor | Times each neighbor was used | Improvements
N_1 = 0.00 | 0 | 0
N_2 = 0.00 | 1 | 0
N_3 = 0.00 | 1 | 0
N_4 = 1777.79 | 1 | 1
Time to find the best solution = 1778.26
Solution = 76936.00
Time = 1778.27
