iteration 0 sol 3743.00
iteration 1 sol 3707.00
iteration 2 sol 3728.00
iteration 3 sol 3738.00
iteration 4 sol 3746.00
iteration 5 sol 3735.00
iteration 6 sol 3743.00
iteration 7 sol 3731.00
iteration 8 sol 3715.00
iteration 9 sol 3749.00
iteration 10 sol 3737.00
iteration 11 sol 3747.00
iteration 12 sol 3724.00
iteration 13 sol 3730.00
iteration 14 sol 3728.00
iteration 15 sol 3740.00
iteration 16 sol 3738.00
iteration 17 sol 3732.00
iteration 18 sol 3744.00
iteration 19 sol 3749.00
iteration 20 sol 3725.00
iteration 21 sol 3722.00
iteration 22 sol 3746.00
iteration 23 sol 3727.00
iteration 24 sol 3722.00
iteration 25 sol 3749.00
iteration 26 sol 3748.00
iteration 27 sol 3742.00
iteration 28 sol 3746.00
iteration 29 sol 3746.00
iteration 30 sol 3739.00
iteration 31 sol 3747.00
iteration 32 sol 3739.00
iteration 33 sol 3742.00
iteration 34 sol 3748.00
iteration 35 sol 3737.00
iteration 36 sol 3746.00
iteration 37 sol 3742.00
iteration 38 sol 3744.00
iteration 39 sol 3722.00
iteration 40 sol 3742.00
iteration 41 sol 3731.00
iteration 42 sol 3729.00
iteration 43 sol 3727.00
iteration 44 sol 3730.00
iteration 45 sol 3743.00
iteration 46 sol 3700.00
iteration 47 sol 3734.00
iteration 48 sol 3744.00
iteration 49 sol 3748.00
iteration 50 sol 3732.00
iteration 51 sol 3733.00
iteration 52 sol 3749.00
iteration 53 sol 3742.00
iteration 54 sol 3734.00
iteration 55 sol 3732.00
iteration 56 sol 3742.00
iteration 57 sol 3736.00
iteration 58 sol 3745.00
iteration 59 sol 3737.00
iteration 60 sol 3747.00
iteration 61 sol 3728.00
iteration 62 sol 3739.00
iteration 63 sol 3726.00
iteration 64 sol 3735.00
iteration 65 sol 3734.00
iteration 66 sol 3720.00
iteration 67 sol 3727.00
iteration 68 sol 3745.00
iteration 69 sol 3731.00
iteration 70 sol 3740.00
iteration 71 sol 3747.00
iteration 72 sol 3730.00
iteration 73 sol 3745.00
iteration 74 sol 3737.00
iteration 75 sol 3747.00
iteration 76 sol 3728.00
iteration 77 sol 3747.00
iteration 78 sol 3745.00
iteration 79 sol 3725.00
iteration 80 sol 3726.00
iteration 81 sol 3736.00
iteration 82 sol 3715.00
iteration 83 sol 3743.00
iteration 84 sol 3740.00
iteration 85 sol 3715.00
iteration 86 sol 3746.00
iteration 87 sol 3731.00
iteration 88 sol 3737.00
iteration 89 sol 3740.00
iteration 90 sol 3721.00
iteration 91 sol 3736.00
iteration 92 sol 3744.00
iteration 93 sol 3704.00
iteration 94 sol 3743.00
iteration 95 sol 3741.00
iteration 96 sol 3738.00
iteration 97 sol 3725.00
iteration 98 sol 3727.00
iteration 99 sol 3746.00
iteration 100 sol 3739.00
iteration 101 sol 3728.00
iteration 102 sol 3730.00
iteration 103 sol 3748.00
iteration 104 sol 3745.00
iteration 105 sol 3732.00
iteration 106 sol 3694.00
iteration 107 sol 3737.00
iteration 108 sol 3722.00
iteration 109 sol 3739.00
iteration 110 sol 3743.00
iteration 111 sol 3743.00
iteration 112 sol 3729.00
iteration 113 sol 3744.00
iteration 114 sol 3740.00
iteration 115 sol 3734.00
iteration 116 sol 3745.00
iteration 117 sol 3731.00
iteration 118 sol 3721.00
iteration 119 sol 3735.00
iteration 120 sol 3739.00
iteration 121 sol 3744.00
iteration 122 sol 3736.00
iteration 123 sol 3742.00
iteration 124 sol 3721.00
iteration 125 sol 3744.00
iteration 126 sol 3725.00
iteration 127 sol 3711.00
iteration 128 sol 3744.00
iteration 129 sol 3737.00
iteration 130 sol 3732.00
iteration 131 sol 3720.00
iteration 132 sol 3739.00
iteration 133 sol 3726.00
iteration 134 sol 3747.00
iteration 135 sol 3736.00
iteration 136 sol 3746.00
iteration 137 sol 3705.00
iteration 138 sol 3743.00
iteration 139 sol 3740.00
iteration 140 sol 3744.00
iteration 141 sol 3741.00
iteration 142 sol 3740.00
iteration 143 sol 3718.00
iteration 144 sol 3739.00
iteration 145 sol 3739.00
iteration 146 sol 3744.00
iteration 147 sol 3743.00
iteration 148 sol 3737.00
iteration 149 sol 3748.00
iteration 150 sol 3738.00
iteration 151 sol 3731.00
iteration 152 sol 3743.00
iteration 153 sol 3742.00
iteration 154 sol 3750.00
iteration 155 sol 3745.00
iteration 156 sol 3736.00
iteration 157 sol 3728.00
iteration 158 sol 3744.00
iteration 159 sol 3748.00
iteration 160 sol 3730.00
iteration 161 sol 3748.00
iteration 162 sol 3715.00
iteration 163 sol 3739.00
iteration 164 sol 3739.00
iteration 165 sol 3723.00
iteration 166 sol 3741.00
iteration 167 sol 3745.00
iteration 168 sol 3743.00
iteration 169 sol 3749.00
iteration 170 sol 3745.00
iteration 171 sol 3736.00
iteration 172 sol 3732.00
iteration 173 sol 3739.00
iteration 174 sol 3747.00
iteration 175 sol 3731.00
iteration 176 sol 3738.00
iteration 177 sol 3728.00
iteration 178 sol 3747.00
iteration 179 sol 3750.00
iteration 180 sol 3747.00
iteration 181 sol 3726.00
iteration 182 sol 3742.00
iteration 183 sol 3747.00
iteration 184 sol 3700.00
iteration 185 sol 3742.00
iteration 186 sol 3738.00
iteration 187 sol 3718.00
iteration 188 sol 3744.00
iteration 189 sol 3735.00
iteration 190 sol 3732.00
iteration 191 sol 3738.00
iteration 192 sol 3747.00
iteration 193 sol 3749.00
iteration 194 sol 3746.00
iteration 195 sol 3714.00
iteration 196 sol 3737.00
iteration 197 sol 3729.00
iteration 198 sol 3741.00
iteration 199 sol 3747.00
iteration 200 sol 3721.00
iteration 201 sol 3745.00
iteration 202 sol 3735.00
iteration 203 sol 3735.00
iteration 204 sol 3747.00
iteration 205 sol 3739.00
iteration 206 sol 3726.00
iteration 207 sol 3741.00
iteration 208 sol 3740.00
iteration 209 sol 3731.00
iteration 210 sol 3717.00
iteration 211 sol 3738.00
iteration 212 sol 3722.00
iteration 213 sol 3735.00
iteration 214 sol 3745.00
iteration 215 sol 3734.00
iteration 216 sol 3717.00
Number of iterations = 217
Best Solution was found in iteration = 154
Time used by neighbor | Times each neighbor was used | Improvements
N_1 = 141.14 | 9912 | 4964
N_2 = 257.17 | 9913 | 5857
N_3 = 0.14 | 9912 | 777
N_4 = 196.14 | 9912 | 2182
Time to find the best solution = 428.96
Solution = 3750.00
Time = 600.04
