iteration 0 sol 64967.00
iteration 1 sol 64972.00
iteration 2 sol 65002.00
iteration 3 sol 65008.00
iteration 4 sol 65020.00
iteration 5 sol 65007.00
iteration 6 sol 65029.00
iteration 7 sol 65014.00
iteration 8 sol 64981.00
iteration 9 sol 65027.00
iteration 10 sol 64989.00
iteration 11 sol 64996.00
iteration 12 sol 64969.00
iteration 13 sol 65016.00
iteration 14 sol 64961.00
iteration 15 sol 64986.00
iteration 16 sol 64959.00
iteration 17 sol 65024.00
iteration 18 sol 64952.00
iteration 19 sol 64991.00
iteration 20 sol 64977.00
iteration 21 sol 65000.00
iteration 22 sol 65000.00
iteration 23 sol 64929.00
iteration 24 sol 64972.00
iteration 25 sol 64985.00
iteration 26 sol 65031.00
iteration 27 sol 65019.00
iteration 28 sol 64978.00
iteration 29 sol 65008.00
iteration 30 sol 65024.00
iteration 31 sol 64967.00
iteration 32 sol 64972.00
iteration 33 sol 64964.00
iteration 34 sol 64993.00
iteration 35 sol 64999.00
iteration 36 sol 65022.00
iteration 37 sol 64996.00
iteration 38 sol 65011.00
iteration 39 sol 64942.00
iteration 40 sol 64987.00
iteration 41 sol 64987.00
iteration 42 sol 65027.00
iteration 43 sol 64967.00
iteration 44 sol 65018.00
iteration 45 sol 65001.00
iteration 46 sol 64975.00
iteration 47 sol 65029.00
iteration 48 sol 65010.00
iteration 49 sol 64990.00
iteration 50 sol 64983.00
iteration 51 sol 65002.00
iteration 52 sol 65024.00
iteration 53 sol 64972.00
iteration 54 sol 64968.00
iteration 55 sol 64985.00
iteration 56 sol 64947.00
iteration 57 sol 64996.00
iteration 58 sol 64979.00
iteration 59 sol 64983.00
iteration 60 sol 64989.00
iteration 61 sol 64995.00
iteration 62 sol 64989.00
iteration 63 sol 64956.00
iteration 64 sol 64986.00
iteration 65 sol 65005.00
iteration 66 sol 64989.00
iteration 67 sol 65012.00
iteration 68 sol 64998.00
iteration 69 sol 64989.00
iteration 70 sol 64965.00
iteration 71 sol 64994.00
iteration 72 sol 65021.00
iteration 73 sol 65005.00
iteration 74 sol 65017.00
iteration 75 sol 64992.00
iteration 76 sol 64979.00
iteration 77 sol 64976.00
iteration 78 sol 65023.00
iteration 79 sol 64993.00
iteration 80 sol 65004.00
iteration 81 sol 64994.00
iteration 82 sol 64997.00
iteration 83 sol 65023.00
iteration 84 sol 65036.00
iteration 85 sol 64989.00
iteration 86 sol 64981.00
iteration 87 sol 65001.00
iteration 88 sol 65018.00
iteration 89 sol 65001.00
iteration 90 sol 64978.00
iteration 91 sol 64984.00
iteration 92 sol 65004.00
iteration 93 sol 65014.00
iteration 94 sol 64986.00
iteration 95 sol 64970.00
Number of iterations = 96
Best Solution was found in iteration = 84
Time used by neighbor | Times each neighbor was used | Improvements
N_1 = 0.40 | 7867 | 775
N_2 = 7.64 | 7868 | 6366
N_3 = 0.00 | 7868 | 10
N_4 = 590.97 | 7868 | 2913
Time to find the best solution = 520.40
Solution = 65036.00
Time = 600.08
