iteration 0 sol 646920.00
iteration 1 sol 646907.00
iteration 2 sol 646939.00
iteration 3 sol 646804.00
iteration 4 sol 646992.00
iteration 5 sol 645852.00
Number of iterations = 6
Best Solution was found in iteration = 4
Time used by neighbor | Times each neighbor was used | Improvements
N_1 = 0.04 | 584 | 30
N_2 = 3.08 | 585 | 575
N_3 = 0.00 | 585 | 9
N_4 = 597.06 | 585 | 350
Time to find the best solution = 589.31
Solution = 646992.00
Time = 600.32
