iteration 0 sol 20036.00
Number of iterations = 1
Best Solution was found in iteration = 0
Time used by neighbor | Times each neighbor was used | Improvements
N_1 = 332.79 | 14 | 14
N_2 = 269.51 | 14 | 14
N_3 = 0.00 | 14 | 0
N_4 = 0.00 | 14 | 0
Time to find the best solution = 602.31
Solution = 20036.00
Time = 602.31
