iteration 0 sol 101188548.00
iteration 1 sol 101105956.00
iteration 2 sol 100792422.00
iteration 3 sol 101225946.00
iteration 4 sol 101299340.00
iteration 5 sol 101157755.00
iteration 6 sol 101318952.00
Number of iterations = 7
Best Solution was found in iteration = 6
Time used by neighbor | Times each neighbor was used | Improvements
N_1 = 92.66 | 860 | 755
N_2 = 429.97 | 861 | 861
N_3 = 0.00 | 860 | 4
N_4 = 77.51 | 860 | 76
Time to find the best solution = 600.39
Solution = 101318952.00
Time = 600.39
