iteration 0 sol 1511009676.00
Number of iterations = 1
Best Solution was found in iteration = 0
Time used by neighbor | Times each neighbor was used | Improvements
N_1 = 0.42 | 3 | 2
N_2 = 712.33 | 4 | 4
N_3 = 0.00 | 3 | 1
N_4 = 33.09 | 3 | 3
Time to find the best solution = 745.87
Solution = 1511009676.00
Time = 745.87
