iteration 0 sol 1497110465.00
Number of iterations = 1
Best Solution was found in iteration = 0
Time used by neighbor | Times each neighbor was used | Improvements
N_1 = 0.39 | 4 | 2
N_2 = 651.54 | 5 | 5
N_3 = 0.01 | 4 | 2
N_4 = 43.52 | 4 | 4
Time to find the best solution = 695.50
Solution = 1497110465.00
Time = 695.50
