iteration 0 sol 1351769295.00
Number of iterations = 1
Best Solution was found in iteration = 0
Time used by neighbor | Times each neighbor was used | Improvements
N_1 = 68.94 | 10 | 10
N_2 = 505.81 | 11 | 11
N_3 = 0.00 | 10 | 0
N_4 = 58.16 | 10 | 10
Time to find the best solution = 632.93
Solution = 1351769295.00
Time = 632.93
