iteration 0 sol 1316989077.00
Number of iterations = 1
Best Solution was found in iteration = 0
Time used by neighbor | Times each neighbor was used | Improvements
N_1 = 116.92 | 13 | 13
N_2 = 412.14 | 13 | 13
N_3 = 0.00 | 13 | 0
N_4 = 71.85 | 13 | 13
Time to find the best solution = 600.93
Solution = 1316989077.00
Time = 600.93
