iteration 0 sol 81988.00
iteration 1 sol 81988.00
iteration 2 sol 81988.00
iteration 3 sol 81988.00
iteration 4 sol 81988.00
iteration 5 sol 81988.00
iteration 6 sol 81988.00
iteration 7 sol 81530.00
iteration 8 sol 82228.00
iteration 9 sol 81423.00
Number of iterations = 10
Best Solution was found in iteration = 8
Time used by neighbor | Times each neighbor was used | Improvements
N_1 = 0.02 | 2475 | 12
N_2 = 589.43 | 2476 | 2476
N_3 = 0.01 | 2475 | 80
N_4 = 10.17 | 2475 | 292
Time to find the best solution = 552.41
Solution = 82228.00
Time = 600.19
