iteration 0 sol 2657055.00
iteration 1 sol 2637363.00
iteration 2 sol 2615783.00
iteration 3 sol 2647279.00
iteration 4 sol 2637182.00
iteration 5 sol 2665909.00
iteration 6 sol 2674206.00
iteration 7 sol 2665872.00
iteration 8 sol 2688240.00
iteration 9 sol 2647603.00
iteration 10 sol 2637510.00
iteration 11 sol 2647589.00
iteration 12 sol 2626770.00
iteration 13 sol 2657039.00
iteration 14 sol 2647536.00
iteration 15 sol 2657089.00
iteration 16 sol 2656969.00
iteration 17 sol 2637424.00
iteration 18 sol 2637244.00
iteration 19 sol 2656950.00
iteration 20 sol 2637268.00
iteration 21 sol 2637466.00
iteration 22 sol 2657005.00
iteration 23 sol 2656987.00
iteration 24 sol 2637112.00
iteration 25 sol 2637427.00
iteration 26 sol 2647632.00
iteration 27 sol 2617914.00
Number of iterations = 28
Best Solution was found in iteration = 8
Time used by neighbor | Times each neighbor was used | Improvements
N_1 = 0.00 | 1943 | 0
N_2 = 62.30 | 1944 | 1944
N_3 = 0.00 | 1943 | 0
N_4 = 537.55 | 1943 | 1204
Time to find the best solution = 186.30
Solution = 2688240.00
Time = 600.00
