iteration 0 sol 30930.00
iteration 1 sol 30958.00
iteration 2 sol 30935.00
iteration 3 sol 30946.00
iteration 4 sol 30942.00
iteration 5 sol 30950.00
iteration 6 sol 30956.00
iteration 7 sol 30960.00
iteration 8 sol 30932.00
iteration 9 sol 30953.00
iteration 10 sol 30948.00
iteration 11 sol 30964.00
iteration 12 sol 30962.00
iteration 13 sol 30957.00
iteration 14 sol 30967.00
iteration 15 sol 30919.00
iteration 16 sol 30944.00
iteration 17 sol 30970.00
iteration 18 sol 30963.00
iteration 19 sol 30939.00
iteration 20 sol 30952.00
iteration 21 sol 30955.00
iteration 22 sol 30951.00
iteration 23 sol 30951.00
iteration 24 sol 30962.00
iteration 25 sol 30950.00
iteration 26 sol 30940.00
iteration 27 sol 30949.00
iteration 28 sol 30952.00
iteration 29 sol 30966.00
iteration 30 sol 30971.00
iteration 31 sol 30942.00
iteration 32 sol 30944.00
iteration 33 sol 30966.00
iteration 34 sol 30950.00
iteration 35 sol 30945.00
iteration 36 sol 30964.00
iteration 37 sol 30947.00
iteration 38 sol 30946.00
iteration 39 sol 30950.00
iteration 40 sol 30970.00
iteration 41 sol 30938.00
iteration 42 sol 30964.00
iteration 43 sol 30929.00
iteration 44 sol 30949.00
iteration 45 sol 30951.00
iteration 46 sol 30965.00
iteration 47 sol 30952.00
iteration 48 sol 30946.00
iteration 49 sol 30961.00
iteration 50 sol 30950.00
iteration 51 sol 30968.00
iteration 52 sol 30960.00
iteration 53 sol 30946.00
iteration 54 sol 30952.00
iteration 55 sol 30963.00
iteration 56 sol 30959.00
iteration 57 sol 30954.00
iteration 58 sol 30928.00
iteration 59 sol 30954.00
iteration 60 sol 30957.00
iteration 61 sol 30965.00
iteration 62 sol 30960.00
iteration 63 sol 30969.00
iteration 64 sol 30952.00
iteration 65 sol 30964.00
iteration 66 sol 30958.00
iteration 67 sol 30957.00
iteration 68 sol 30953.00
iteration 69 sol 30952.00
iteration 70 sol 30955.00
iteration 71 sol 30969.00
iteration 72 sol 30948.00
iteration 73 sol 30958.00
iteration 74 sol 30973.00
iteration 75 sol 30943.00
iteration 76 sol 30953.00
iteration 77 sol 30967.00
iteration 78 sol 30955.00
iteration 79 sol 30953.00
iteration 80 sol 30959.00
iteration 81 sol 30959.00
iteration 82 sol 30924.00
iteration 83 sol 30963.00
iteration 84 sol 30952.00
iteration 85 sol 30961.00
iteration 86 sol 30950.00
iteration 87 sol 30936.00
iteration 88 sol 30968.00
iteration 89 sol 30935.00
iteration 90 sol 30970.00
iteration 91 sol 30938.00
iteration 92 sol 30943.00
iteration 93 sol 30948.00
iteration 94 sol 30926.00
iteration 95 sol 30972.00
iteration 96 sol 30948.00
iteration 97 sol 30963.00
iteration 98 sol 30966.00
iteration 99 sol 30947.00
iteration 100 sol 30945.00
iteration 101 sol 30953.00
iteration 102 sol 30932.00
iteration 103 sol 30975.00
iteration 104 sol 30949.00
iteration 105 sol 30961.00
iteration 106 sol 30956.00
iteration 107 sol 30940.00
iteration 108 sol 30979.00
iteration 109 sol 30938.00
iteration 110 sol 30956.00
iteration 111 sol 30969.00
iteration 112 sol 30962.00
iteration 113 sol 30947.00
iteration 114 sol 30937.00
iteration 115 sol 30937.00
iteration 116 sol 30945.00
iteration 117 sol 30955.00
iteration 118 sol 30954.00
iteration 119 sol 30958.00
iteration 120 sol 30976.00
iteration 121 sol 30959.00
iteration 122 sol 30954.00
iteration 123 sol 30959.00
iteration 124 sol 30944.00
iteration 125 sol 30956.00
iteration 126 sol 30970.00
iteration 127 sol 30971.00
iteration 128 sol 30948.00
iteration 129 sol 30932.00
iteration 130 sol 30950.00
iteration 131 sol 30958.00
iteration 132 sol 30957.00
iteration 133 sol 30966.00
iteration 134 sol 30948.00
iteration 135 sol 30955.00
iteration 136 sol 30957.00
iteration 137 sol 30934.00
iteration 138 sol 30962.00
iteration 139 sol 30941.00
iteration 140 sol 30964.00
iteration 141 sol 30929.00
iteration 142 sol 30974.00
iteration 143 sol 30944.00
iteration 144 sol 30958.00
iteration 145 sol 30955.00
iteration 146 sol 30942.00
iteration 147 sol 30958.00
iteration 148 sol 30963.00
iteration 149 sol 30940.00
iteration 150 sol 30948.00
iteration 151 sol 30962.00
iteration 152 sol 30962.00
iteration 153 sol 30940.00
iteration 154 sol 30962.00
iteration 155 sol 30945.00
iteration 156 sol 30954.00
iteration 157 sol 30957.00
iteration 158 sol 30964.00
iteration 159 sol 30944.00
iteration 160 sol 30979.00
iteration 161 sol 30974.00
iteration 162 sol 30947.00
iteration 163 sol 30958.00
iteration 164 sol 30959.00
iteration 165 sol 30964.00
iteration 166 sol 30969.00
Number of iterations = 167
Best Solution was found in iteration = 108
Time used by neighbor | Times each neighbor was used | Improvements
N_1 = 0.33 | 12950 | 542
N_2 = 9.09 | 12951 | 9161
N_3 = 0.00 | 12951 | 4
N_4 = 589.07 | 12951 | 5491
Time to find the best solution = 382.45
Solution = 30979.00
Time = 600.01
