iteration 0 sol 2914.00
iteration 1 sol 2893.00
iteration 2 sol 2949.00
iteration 3 sol 2865.00
iteration 4 sol 2900.00
iteration 5 sol 2921.00
iteration 6 sol 2907.00
iteration 7 sol 2930.00
iteration 8 sol 2909.00
iteration 9 sol 2922.00
iteration 10 sol 2954.00
iteration 11 sol 2924.00
iteration 12 sol 2916.00
iteration 13 sol 2901.00
iteration 14 sol 2902.00
iteration 15 sol 2909.00
iteration 16 sol 2907.00
iteration 17 sol 2922.00
iteration 18 sol 2862.00
iteration 19 sol 2842.00
iteration 20 sol 2928.00
iteration 21 sol 2934.00
iteration 22 sol 2925.00
iteration 23 sol 2903.00
iteration 24 sol 2826.00
iteration 25 sol 2897.00
iteration 26 sol 2925.00
iteration 27 sol 2909.00
iteration 28 sol 2906.00
iteration 29 sol 2920.00
iteration 30 sol 2934.00
iteration 31 sol 2890.00
iteration 32 sol 2889.00
iteration 33 sol 2867.00
iteration 34 sol 2901.00
iteration 35 sol 2907.00
iteration 36 sol 2936.00
iteration 37 sol 2920.00
iteration 38 sol 2918.00
iteration 39 sol 2914.00
iteration 40 sol 2908.00
iteration 41 sol 2917.00
iteration 42 sol 2899.00
iteration 43 sol 2930.00
iteration 44 sol 2946.00
iteration 45 sol 2910.00
iteration 46 sol 2890.00
iteration 47 sol 2934.00
iteration 48 sol 2913.00
iteration 49 sol 2942.00
iteration 50 sol 2910.00
iteration 51 sol 2884.00
iteration 52 sol 2872.00
iteration 53 sol 2904.00
iteration 54 sol 2919.00
iteration 55 sol 2915.00
iteration 56 sol 2888.00
iteration 57 sol 2915.00
iteration 58 sol 2946.00
iteration 59 sol 2919.00
iteration 60 sol 2927.00
iteration 61 sol 2908.00
iteration 62 sol 2958.00
iteration 63 sol 2932.00
iteration 64 sol 2932.00
iteration 65 sol 2922.00
iteration 66 sol 2877.00
iteration 67 sol 2915.00
iteration 68 sol 2871.00
iteration 69 sol 2876.00
iteration 70 sol 2880.00
iteration 71 sol 2860.00
iteration 72 sol 2885.00
iteration 73 sol 2919.00
iteration 74 sol 2904.00
iteration 75 sol 2940.00
iteration 76 sol 2898.00
iteration 77 sol 2869.00
iteration 78 sol 2945.00
iteration 79 sol 2901.00
iteration 80 sol 2925.00
iteration 81 sol 2868.00
iteration 82 sol 2902.00
iteration 83 sol 2884.00
iteration 84 sol 2924.00
iteration 85 sol 2903.00
iteration 86 sol 2958.00
iteration 87 sol 2854.00
iteration 88 sol 2921.00
iteration 89 sol 2892.00
iteration 90 sol 2872.00
iteration 91 sol 2889.00
iteration 92 sol 2896.00
iteration 93 sol 2873.00
iteration 94 sol 2870.00
iteration 95 sol 2923.00
iteration 96 sol 2870.00
iteration 97 sol 2914.00
iteration 98 sol 2898.00
iteration 99 sol 2915.00
iteration 100 sol 2914.00
iteration 101 sol 2877.00
iteration 102 sol 2937.00
iteration 103 sol 2904.00
iteration 104 sol 2957.00
iteration 105 sol 2951.00
iteration 106 sol 2865.00
iteration 107 sol 2883.00
iteration 108 sol 2909.00
iteration 109 sol 2904.00
iteration 110 sol 2894.00
iteration 111 sol 2931.00
iteration 112 sol 2882.00
iteration 113 sol 2914.00
iteration 114 sol 2885.00
iteration 115 sol 2915.00
iteration 116 sol 2891.00
iteration 117 sol 2941.00
iteration 118 sol 2915.00
iteration 119 sol 2927.00
iteration 120 sol 2948.00
iteration 121 sol 2904.00
iteration 122 sol 2941.00
iteration 123 sol 2905.00
iteration 124 sol 2874.00
iteration 125 sol 2933.00
iteration 126 sol 2889.00
iteration 127 sol 2932.00
iteration 128 sol 2919.00
iteration 129 sol 2866.00
iteration 130 sol 2948.00
iteration 131 sol 2918.00
iteration 132 sol 2902.00
iteration 133 sol 2926.00
iteration 134 sol 2945.00
iteration 135 sol 2915.00
iteration 136 sol 2915.00
iteration 137 sol 2919.00
iteration 138 sol 2920.00
iteration 139 sol 2884.00
iteration 140 sol 2914.00
iteration 141 sol 2861.00
iteration 142 sol 2891.00
iteration 143 sol 2925.00
iteration 144 sol 2931.00
iteration 145 sol 2924.00
iteration 146 sol 2840.00
iteration 147 sol 2933.00
iteration 148 sol 2909.00
iteration 149 sol 2937.00
iteration 150 sol 2919.00
iteration 151 sol 2952.00
iteration 152 sol 2920.00
iteration 153 sol 2872.00
iteration 154 sol 2923.00
iteration 155 sol 2935.00
iteration 156 sol 2937.00
iteration 157 sol 2933.00
iteration 158 sol 2903.00
iteration 159 sol 2935.00
iteration 160 sol 2916.00
iteration 161 sol 2886.00
iteration 162 sol 2920.00
iteration 163 sol 2882.00
iteration 164 sol 2906.00
iteration 165 sol 2897.00
iteration 166 sol 2928.00
iteration 167 sol 2828.00
iteration 168 sol 2919.00
iteration 169 sol 2948.00
iteration 170 sol 2919.00
iteration 171 sol 2879.00
iteration 172 sol 2917.00
iteration 173 sol 2927.00
iteration 174 sol 2906.00
iteration 175 sol 2918.00
iteration 176 sol 2879.00
iteration 177 sol 2962.00
iteration 178 sol 2927.00
iteration 179 sol 2868.00
iteration 180 sol 2935.00
iteration 181 sol 2905.00
iteration 182 sol 2943.00
iteration 183 sol 2921.00
iteration 184 sol 2889.00
iteration 185 sol 2873.00
iteration 186 sol 2880.00
iteration 187 sol 2946.00
iteration 188 sol 2888.00
iteration 189 sol 2843.00
iteration 190 sol 2918.00
iteration 191 sol 2896.00
iteration 192 sol 2822.00
iteration 193 sol 2896.00
iteration 194 sol 2942.00
iteration 195 sol 2946.00
iteration 196 sol 2923.00
iteration 197 sol 2931.00
iteration 198 sol 2918.00
iteration 199 sol 2918.00
iteration 200 sol 2911.00
iteration 201 sol 2897.00
iteration 202 sol 2875.00
iteration 203 sol 2926.00
iteration 204 sol 2939.00
iteration 205 sol 2904.00
iteration 206 sol 2853.00
iteration 207 sol 2868.00
iteration 208 sol 2898.00
iteration 209 sol 2876.00
iteration 210 sol 2929.00
iteration 211 sol 2912.00
iteration 212 sol 2916.00
iteration 213 sol 2905.00
iteration 214 sol 2901.00
iteration 215 sol 2948.00
iteration 216 sol 2846.00
iteration 217 sol 2924.00
iteration 218 sol 2922.00
iteration 219 sol 2924.00
iteration 220 sol 2923.00
iteration 221 sol 2948.00
iteration 222 sol 2898.00
iteration 223 sol 2918.00
iteration 224 sol 2912.00
iteration 225 sol 2832.00
iteration 226 sol 2889.00
iteration 227 sol 2914.00
iteration 228 sol 2881.00
iteration 229 sol 2873.00
iteration 230 sol 2903.00
iteration 231 sol 2923.00
iteration 232 sol 2907.00
iteration 233 sol 2929.00
iteration 234 sol 2934.00
iteration 235 sol 2892.00
iteration 236 sol 2870.00
iteration 237 sol 2932.00
iteration 238 sol 2881.00
iteration 239 sol 2910.00
iteration 240 sol 2915.00
iteration 241 sol 2904.00
iteration 242 sol 2939.00
iteration 243 sol 2880.00
iteration 244 sol 2928.00
iteration 245 sol 2932.00
iteration 246 sol 2927.00
iteration 247 sol 2887.00
iteration 248 sol 2946.00
iteration 249 sol 2887.00
iteration 250 sol 2916.00
iteration 251 sol 2934.00
iteration 252 sol 2930.00
iteration 253 sol 2889.00
iteration 254 sol 2955.00
iteration 255 sol 2944.00
iteration 256 sol 2919.00
iteration 257 sol 2894.00
iteration 258 sol 2913.00
iteration 259 sol 2881.00
iteration 260 sol 2927.00
iteration 261 sol 2909.00
iteration 262 sol 2849.00
iteration 263 sol 2917.00
iteration 264 sol 2860.00
iteration 265 sol 2920.00
iteration 266 sol 2938.00
iteration 267 sol 2890.00
iteration 268 sol 2879.00
iteration 269 sol 2891.00
iteration 270 sol 2921.00
iteration 271 sol 2862.00
iteration 272 sol 2896.00
iteration 273 sol 2916.00
iteration 274 sol 2920.00
iteration 275 sol 2865.00
iteration 276 sol 2932.00
iteration 277 sol 2900.00
iteration 278 sol 2921.00
iteration 279 sol 2956.00
iteration 280 sol 2951.00
iteration 281 sol 2883.00
iteration 282 sol 2894.00
iteration 283 sol 2870.00
iteration 284 sol 2943.00
iteration 285 sol 2906.00
iteration 286 sol 2887.00
iteration 287 sol 2926.00
iteration 288 sol 2943.00
iteration 289 sol 2884.00
iteration 290 sol 2904.00
iteration 291 sol 2930.00
iteration 292 sol 2900.00
iteration 293 sol 2893.00
iteration 294 sol 2959.00
iteration 295 sol 2930.00
iteration 296 sol 2935.00
iteration 297 sol 2913.00
iteration 298 sol 2923.00
iteration 299 sol 2916.00
iteration 300 sol 2931.00
iteration 301 sol 2892.00
iteration 302 sol 2910.00
iteration 303 sol 2917.00
iteration 304 sol 2929.00
iteration 305 sol 2886.00
iteration 306 sol 2930.00
iteration 307 sol 2899.00
iteration 308 sol 2875.00
iteration 309 sol 2832.00
iteration 310 sol 2922.00
iteration 311 sol 2939.00
iteration 312 sol 2862.00
iteration 313 sol 2913.00
iteration 314 sol 2884.00
iteration 315 sol 2910.00
iteration 316 sol 2924.00
iteration 317 sol 2901.00
iteration 318 sol 2890.00
iteration 319 sol 2919.00
iteration 320 sol 2848.00
iteration 321 sol 2878.00
iteration 322 sol 2836.00
iteration 323 sol 2926.00
iteration 324 sol 2882.00
iteration 325 sol 2898.00
iteration 326 sol 2914.00
iteration 327 sol 2929.00
iteration 328 sol 2915.00
iteration 329 sol 2911.00
iteration 330 sol 2948.00
iteration 331 sol 2870.00
iteration 332 sol 2944.00
iteration 333 sol 2935.00
iteration 334 sol 2928.00
iteration 335 sol 2915.00
iteration 336 sol 2922.00
iteration 337 sol 2887.00
iteration 338 sol 2924.00
iteration 339 sol 2897.00
iteration 340 sol 2901.00
iteration 341 sol 2890.00
iteration 342 sol 2949.00
iteration 343 sol 2912.00
iteration 344 sol 2937.00
iteration 345 sol 2905.00
iteration 346 sol 2917.00
iteration 347 sol 2824.00
iteration 348 sol 2915.00
iteration 349 sol 2916.00
iteration 350 sol 2904.00
iteration 351 sol 2867.00
iteration 352 sol 2932.00
iteration 353 sol 2903.00
iteration 354 sol 2822.00
iteration 355 sol 2889.00
iteration 356 sol 2898.00
iteration 357 sol 2923.00
iteration 358 sol 2928.00
iteration 359 sol 2939.00
iteration 360 sol 2888.00
iteration 361 sol 2919.00
iteration 362 sol 2866.00
iteration 363 sol 2929.00
iteration 364 sol 2947.00
iteration 365 sol 2903.00
iteration 366 sol 2913.00
iteration 367 sol 2884.00
iteration 368 sol 2948.00
iteration 369 sol 2891.00
iteration 370 sol 2921.00
iteration 371 sol 2950.00
iteration 372 sol 2936.00
iteration 373 sol 2910.00
iteration 374 sol 2959.00
iteration 375 sol 2909.00
iteration 376 sol 2941.00
iteration 377 sol 2970.00
iteration 378 sol 2927.00
iteration 379 sol 2927.00
iteration 380 sol 2942.00
iteration 381 sol 2818.00
iteration 382 sol 2889.00
iteration 383 sol 2930.00
iteration 384 sol 2923.00
iteration 385 sol 2887.00
iteration 386 sol 2893.00
iteration 387 sol 2935.00
iteration 388 sol 2922.00
iteration 389 sol 2868.00
iteration 390 sol 2875.00
iteration 391 sol 2934.00
iteration 392 sol 2911.00
iteration 393 sol 2931.00
iteration 394 sol 2908.00
iteration 395 sol 2876.00
iteration 396 sol 2920.00
iteration 397 sol 2905.00
iteration 398 sol 2943.00
iteration 399 sol 2878.00
iteration 400 sol 2891.00
iteration 401 sol 2923.00
iteration 402 sol 2886.00
iteration 403 sol 2917.00
iteration 404 sol 2933.00
iteration 405 sol 2936.00
iteration 406 sol 2914.00
iteration 407 sol 2921.00
iteration 408 sol 2876.00
iteration 409 sol 2932.00
iteration 410 sol 2947.00
iteration 411 sol 2894.00
iteration 412 sol 2928.00
iteration 413 sol 2930.00
iteration 414 sol 2945.00
iteration 415 sol 2912.00
iteration 416 sol 2936.00
iteration 417 sol 2913.00
iteration 418 sol 2929.00
iteration 419 sol 2894.00
iteration 420 sol 2916.00
iteration 421 sol 2924.00
iteration 422 sol 2889.00
iteration 423 sol 2913.00
iteration 424 sol 2915.00
iteration 425 sol 2924.00
iteration 426 sol 2895.00
iteration 427 sol 2887.00
iteration 428 sol 2909.00
iteration 429 sol 2912.00
iteration 430 sol 2903.00
iteration 431 sol 2940.00
iteration 432 sol 2904.00
iteration 433 sol 2894.00
iteration 434 sol 2935.00
iteration 435 sol 2917.00
iteration 436 sol 2923.00
iteration 437 sol 2892.00
iteration 438 sol 2883.00
iteration 439 sol 2882.00
iteration 440 sol 2893.00
iteration 441 sol 2881.00
iteration 442 sol 2914.00
iteration 443 sol 2883.00
iteration 444 sol 2887.00
iteration 445 sol 2911.00
iteration 446 sol 2939.00
iteration 447 sol 2962.00
iteration 448 sol 2903.00
iteration 449 sol 2876.00
iteration 450 sol 2873.00
iteration 451 sol 2897.00
iteration 452 sol 2942.00
iteration 453 sol 2902.00
iteration 454 sol 2913.00
iteration 455 sol 2881.00
iteration 456 sol 2958.00
iteration 457 sol 2931.00
iteration 458 sol 2857.00
iteration 459 sol 2940.00
iteration 460 sol 2908.00
iteration 461 sol 2895.00
iteration 462 sol 2917.00
iteration 463 sol 2929.00
iteration 464 sol 2937.00
iteration 465 sol 2868.00
iteration 466 sol 2946.00
iteration 467 sol 2917.00
iteration 468 sol 2851.00
iteration 469 sol 2898.00
iteration 470 sol 2920.00
iteration 471 sol 2910.00
iteration 472 sol 2921.00
iteration 473 sol 2899.00
iteration 474 sol 2925.00
iteration 475 sol 2923.00
iteration 476 sol 2935.00
iteration 477 sol 2846.00
iteration 478 sol 2944.00
iteration 479 sol 2875.00
iteration 480 sol 2866.00
iteration 481 sol 2936.00
iteration 482 sol 2885.00
iteration 483 sol 2889.00
iteration 484 sol 2928.00
iteration 485 sol 2912.00
iteration 486 sol 2910.00
iteration 487 sol 2884.00
iteration 488 sol 2885.00
iteration 489 sol 2913.00
iteration 490 sol 2908.00
iteration 491 sol 2883.00
iteration 492 sol 2925.00
iteration 493 sol 2922.00
iteration 494 sol 2862.00
iteration 495 sol 2887.00
iteration 496 sol 2924.00
iteration 497 sol 2908.00
iteration 498 sol 2953.00
iteration 499 sol 2920.00
iteration 500 sol 2915.00
iteration 501 sol 2888.00
iteration 502 sol 2878.00
iteration 503 sol 2968.00
iteration 504 sol 2924.00
iteration 505 sol 2948.00
iteration 506 sol 2909.00
iteration 507 sol 2921.00
iteration 508 sol 2931.00
iteration 509 sol 2903.00
iteration 510 sol 2953.00
iteration 511 sol 2899.00
iteration 512 sol 2921.00
iteration 513 sol 2938.00
iteration 514 sol 2884.00
iteration 515 sol 2867.00
iteration 516 sol 2934.00
iteration 517 sol 2888.00
iteration 518 sol 2901.00
iteration 519 sol 2962.00
iteration 520 sol 2950.00
iteration 521 sol 2913.00
iteration 522 sol 2921.00
iteration 523 sol 2860.00
iteration 524 sol 2923.00
iteration 525 sol 2922.00
iteration 526 sol 2903.00
iteration 527 sol 2884.00
iteration 528 sol 2935.00
iteration 529 sol 2928.00
iteration 530 sol 2929.00
iteration 531 sol 2930.00
iteration 532 sol 2806.00
iteration 533 sol 2886.00
iteration 534 sol 2932.00
iteration 535 sol 2914.00
iteration 536 sol 2933.00
iteration 537 sol 2941.00
iteration 538 sol 2905.00
iteration 539 sol 2902.00
iteration 540 sol 2910.00
iteration 541 sol 2902.00
iteration 542 sol 2915.00
iteration 543 sol 2867.00
iteration 544 sol 2939.00
iteration 545 sol 2920.00
iteration 546 sol 2940.00
iteration 547 sol 2890.00
iteration 548 sol 2888.00
iteration 549 sol 2915.00
iteration 550 sol 2940.00
iteration 551 sol 2927.00
iteration 552 sol 2921.00
iteration 553 sol 2929.00
iteration 554 sol 2914.00
iteration 555 sol 2903.00
iteration 556 sol 2906.00
iteration 557 sol 2895.00
iteration 558 sol 2871.00
iteration 559 sol 2906.00
iteration 560 sol 2896.00
iteration 561 sol 2909.00
iteration 562 sol 2944.00
iteration 563 sol 2934.00
iteration 564 sol 2940.00
iteration 565 sol 2918.00
iteration 566 sol 2913.00
iteration 567 sol 2931.00
iteration 568 sol 2936.00
iteration 569 sol 2927.00
iteration 570 sol 2886.00
iteration 571 sol 2953.00
iteration 572 sol 2939.00
iteration 573 sol 2914.00
iteration 574 sol 2886.00
iteration 575 sol 2896.00
iteration 576 sol 2879.00
iteration 577 sol 2881.00
iteration 578 sol 2888.00
iteration 579 sol 2944.00
iteration 580 sol 2930.00
iteration 581 sol 2918.00
iteration 582 sol 2896.00
iteration 583 sol 2905.00
iteration 584 sol 2928.00
iteration 585 sol 2899.00
iteration 586 sol 2868.00
iteration 587 sol 2895.00
iteration 588 sol 2908.00
iteration 589 sol 2900.00
iteration 590 sol 2913.00
iteration 591 sol 2926.00
iteration 592 sol 2928.00
iteration 593 sol 2933.00
iteration 594 sol 2894.00
iteration 595 sol 2918.00
iteration 596 sol 2926.00
iteration 597 sol 2899.00
iteration 598 sol 2919.00
iteration 599 sol 2926.00
iteration 600 sol 2905.00
iteration 601 sol 2910.00
iteration 602 sol 2908.00
iteration 603 sol 2970.00
iteration 604 sol 2936.00
iteration 605 sol 2891.00
iteration 606 sol 2921.00
iteration 607 sol 2843.00
iteration 608 sol 2937.00
iteration 609 sol 2916.00
iteration 610 sol 2864.00
iteration 611 sol 2876.00
iteration 612 sol 2912.00
iteration 613 sol 2901.00
iteration 614 sol 2909.00
iteration 615 sol 2891.00
iteration 616 sol 2911.00
iteration 617 sol 2959.00
iteration 618 sol 2926.00
iteration 619 sol 2890.00
iteration 620 sol 2935.00
iteration 621 sol 2840.00
iteration 622 sol 2941.00
iteration 623 sol 2909.00
iteration 624 sol 2857.00
iteration 625 sol 2919.00
iteration 626 sol 2890.00
iteration 627 sol 2953.00
iteration 628 sol 2908.00
iteration 629 sol 2912.00
iteration 630 sol 2936.00
iteration 631 sol 2933.00
iteration 632 sol 2905.00
iteration 633 sol 2944.00
iteration 634 sol 2913.00
iteration 635 sol 2917.00
iteration 636 sol 2919.00
iteration 637 sol 2946.00
iteration 638 sol 2883.00
iteration 639 sol 2917.00
iteration 640 sol 2867.00
iteration 641 sol 2929.00
iteration 642 sol 2921.00
iteration 643 sol 2893.00
iteration 644 sol 2848.00
iteration 645 sol 2926.00
iteration 646 sol 2910.00
iteration 647 sol 2851.00
iteration 648 sol 2937.00
iteration 649 sol 2930.00
iteration 650 sol 2945.00
iteration 651 sol 2881.00
iteration 652 sol 2841.00
iteration 653 sol 2886.00
iteration 654 sol 2871.00
iteration 655 sol 2875.00
iteration 656 sol 2900.00
iteration 657 sol 2892.00
iteration 658 sol 2937.00
iteration 659 sol 2924.00
iteration 660 sol 2932.00
iteration 661 sol 2906.00
iteration 662 sol 2888.00
iteration 663 sol 2910.00
iteration 664 sol 2951.00
iteration 665 sol 2892.00
iteration 666 sol 2880.00
iteration 667 sol 2861.00
iteration 668 sol 2890.00
iteration 669 sol 2927.00
iteration 670 sol 2924.00
iteration 671 sol 2880.00
iteration 672 sol 2906.00
iteration 673 sol 2926.00
iteration 674 sol 2923.00
iteration 675 sol 2884.00
iteration 676 sol 2923.00
iteration 677 sol 2943.00
iteration 678 sol 2903.00
iteration 679 sol 2868.00
iteration 680 sol 2909.00
iteration 681 sol 2923.00
iteration 682 sol 2923.00
iteration 683 sol 2892.00
iteration 684 sol 2900.00
iteration 685 sol 2926.00
iteration 686 sol 2890.00
iteration 687 sol 2920.00
iteration 688 sol 2908.00
iteration 689 sol 2926.00
iteration 690 sol 2936.00
iteration 691 sol 2908.00
iteration 692 sol 2890.00
iteration 693 sol 2890.00
iteration 694 sol 2876.00
iteration 695 sol 2861.00
iteration 696 sol 2944.00
iteration 697 sol 2956.00
iteration 698 sol 2924.00
iteration 699 sol 2868.00
iteration 700 sol 2899.00
iteration 701 sol 2910.00
iteration 702 sol 2927.00
iteration 703 sol 2928.00
iteration 704 sol 2924.00
iteration 705 sol 2935.00
iteration 706 sol 2901.00
iteration 707 sol 2936.00
iteration 708 sol 2847.00
iteration 709 sol 2883.00
iteration 710 sol 2936.00
iteration 711 sol 2851.00
iteration 712 sol 2878.00
iteration 713 sol 2928.00
iteration 714 sol 2917.00
iteration 715 sol 2936.00
iteration 716 sol 2935.00
iteration 717 sol 2908.00
iteration 718 sol 2902.00
iteration 719 sol 2951.00
iteration 720 sol 2915.00
iteration 721 sol 2887.00
iteration 722 sol 2898.00
iteration 723 sol 2925.00
iteration 724 sol 2924.00
iteration 725 sol 2951.00
iteration 726 sol 2878.00
iteration 727 sol 2879.00
iteration 728 sol 2908.00
iteration 729 sol 2938.00
iteration 730 sol 2923.00
iteration 731 sol 2916.00
iteration 732 sol 2911.00
iteration 733 sol 2863.00
iteration 734 sol 2932.00
iteration 735 sol 2901.00
iteration 736 sol 2881.00
iteration 737 sol 2893.00
iteration 738 sol 2905.00
iteration 739 sol 2949.00
iteration 740 sol 2926.00
iteration 741 sol 2921.00
iteration 742 sol 2858.00
iteration 743 sol 2922.00
iteration 744 sol 2935.00
iteration 745 sol 2875.00
iteration 746 sol 2868.00
iteration 747 sol 2902.00
iteration 748 sol 2942.00
iteration 749 sol 2912.00
iteration 750 sol 2933.00
iteration 751 sol 2951.00
iteration 752 sol 2905.00
iteration 753 sol 2937.00
iteration 754 sol 2904.00
iteration 755 sol 2867.00
iteration 756 sol 2946.00
iteration 757 sol 2922.00
iteration 758 sol 2935.00
iteration 759 sol 2921.00
iteration 760 sol 2888.00
iteration 761 sol 2941.00
iteration 762 sol 2927.00
iteration 763 sol 2940.00
iteration 764 sol 2879.00
iteration 765 sol 2926.00
iteration 766 sol 2871.00
iteration 767 sol 2929.00
iteration 768 sol 2923.00
iteration 769 sol 2933.00
iteration 770 sol 2942.00
iteration 771 sol 2882.00
iteration 772 sol 2961.00
iteration 773 sol 2905.00
iteration 774 sol 2885.00
iteration 775 sol 2958.00
iteration 776 sol 2879.00
iteration 777 sol 2883.00
iteration 778 sol 2911.00
iteration 779 sol 2897.00
iteration 780 sol 2916.00
iteration 781 sol 2894.00
iteration 782 sol 2921.00
iteration 783 sol 2908.00
iteration 784 sol 2864.00
iteration 785 sol 2935.00
iteration 786 sol 2867.00
iteration 787 sol 2923.00
iteration 788 sol 2859.00
iteration 789 sol 2903.00
iteration 790 sol 2907.00
iteration 791 sol 2955.00
iteration 792 sol 2879.00
iteration 793 sol 2939.00
iteration 794 sol 2931.00
iteration 795 sol 2899.00
iteration 796 sol 2935.00
iteration 797 sol 2928.00
iteration 798 sol 2938.00
iteration 799 sol 2903.00
iteration 800 sol 2868.00
iteration 801 sol 2938.00
iteration 802 sol 2888.00
iteration 803 sol 2929.00
iteration 804 sol 2917.00
iteration 805 sol 2920.00
iteration 806 sol 2952.00
iteration 807 sol 2924.00
iteration 808 sol 2946.00
iteration 809 sol 2933.00
iteration 810 sol 2890.00
iteration 811 sol 2947.00
iteration 812 sol 2958.00
iteration 813 sol 2928.00
iteration 814 sol 2903.00
iteration 815 sol 2915.00
iteration 816 sol 2926.00
iteration 817 sol 2926.00
iteration 818 sol 2856.00
iteration 819 sol 2915.00
iteration 820 sol 2936.00
iteration 821 sol 2907.00
iteration 822 sol 2845.00
iteration 823 sol 2932.00
iteration 824 sol 2870.00
iteration 825 sol 2925.00
iteration 826 sol 2851.00
iteration 827 sol 2924.00
iteration 828 sol 2875.00
iteration 829 sol 2899.00
iteration 830 sol 2875.00
iteration 831 sol 2882.00
iteration 832 sol 2917.00
iteration 833 sol 2932.00
iteration 834 sol 2886.00
iteration 835 sol 2901.00
iteration 836 sol 2887.00
iteration 837 sol 2904.00
iteration 838 sol 2890.00
iteration 839 sol 2956.00
iteration 840 sol 2935.00
iteration 841 sol 2914.00
iteration 842 sol 2877.00
iteration 843 sol 2921.00
iteration 844 sol 2928.00
iteration 845 sol 2936.00
iteration 846 sol 2914.00
iteration 847 sol 2898.00
iteration 848 sol 2918.00
iteration 849 sol 2945.00
iteration 850 sol 2894.00
iteration 851 sol 2942.00
iteration 852 sol 2941.00
iteration 853 sol 2924.00
iteration 854 sol 2937.00
iteration 855 sol 2912.00
iteration 856 sol 2911.00
iteration 857 sol 2874.00
iteration 858 sol 2894.00
iteration 859 sol 2924.00
iteration 860 sol 2864.00
iteration 861 sol 2931.00
iteration 862 sol 2931.00
iteration 863 sol 2898.00
iteration 864 sol 2859.00
iteration 865 sol 2935.00
iteration 866 sol 2943.00
iteration 867 sol 2909.00
iteration 868 sol 2941.00
iteration 869 sol 2885.00
iteration 870 sol 2897.00
iteration 871 sol 2896.00
iteration 872 sol 2925.00
iteration 873 sol 2923.00
iteration 874 sol 2923.00
iteration 875 sol 2910.00
iteration 876 sol 2949.00
iteration 877 sol 2912.00
iteration 878 sol 2913.00
iteration 879 sol 2889.00
iteration 880 sol 2913.00
iteration 881 sol 2897.00
iteration 882 sol 2912.00
iteration 883 sol 2913.00
iteration 884 sol 2905.00
iteration 885 sol 2882.00
iteration 886 sol 2919.00
iteration 887 sol 2926.00
iteration 888 sol 2925.00
iteration 889 sol 2938.00
iteration 890 sol 2908.00
iteration 891 sol 2897.00
iteration 892 sol 2848.00
iteration 893 sol 2964.00
iteration 894 sol 2922.00
iteration 895 sol 2905.00
iteration 896 sol 2921.00
iteration 897 sol 2947.00
iteration 898 sol 2936.00
iteration 899 sol 2913.00
iteration 900 sol 2948.00
iteration 901 sol 2951.00
iteration 902 sol 2894.00
iteration 903 sol 2872.00
iteration 904 sol 2915.00
iteration 905 sol 2901.00
iteration 906 sol 2877.00
iteration 907 sol 2919.00
iteration 908 sol 2936.00
iteration 909 sol 2905.00
iteration 910 sol 2924.00
iteration 911 sol 2918.00
iteration 912 sol 2853.00
iteration 913 sol 2891.00
iteration 914 sol 2939.00
iteration 915 sol 2933.00
iteration 916 sol 2925.00
iteration 917 sol 2921.00
iteration 918 sol 2897.00
iteration 919 sol 2899.00
iteration 920 sol 2914.00
iteration 921 sol 2881.00
iteration 922 sol 2909.00
iteration 923 sol 2939.00
iteration 924 sol 2937.00
iteration 925 sol 2890.00
iteration 926 sol 2927.00
iteration 927 sol 2911.00
iteration 928 sol 2935.00
iteration 929 sol 2904.00
iteration 930 sol 2923.00
iteration 931 sol 2879.00
iteration 932 sol 2928.00
iteration 933 sol 2920.00
iteration 934 sol 2946.00
iteration 935 sol 2959.00
iteration 936 sol 2948.00
iteration 937 sol 2936.00
iteration 938 sol 2932.00
iteration 939 sol 2900.00
iteration 940 sol 2935.00
iteration 941 sol 2934.00
iteration 942 sol 2907.00
iteration 943 sol 2949.00
iteration 944 sol 2923.00
iteration 945 sol 2848.00
iteration 946 sol 2877.00
iteration 947 sol 2910.00
iteration 948 sol 2899.00
iteration 949 sol 2950.00
iteration 950 sol 2911.00
iteration 951 sol 2928.00
iteration 952 sol 2905.00
iteration 953 sol 2919.00
iteration 954 sol 2901.00
iteration 955 sol 2908.00
iteration 956 sol 2917.00
iteration 957 sol 2927.00
iteration 958 sol 2942.00
iteration 959 sol 2951.00
iteration 960 sol 2904.00
iteration 961 sol 2897.00
iteration 962 sol 2922.00
iteration 963 sol 2936.00
iteration 964 sol 2930.00
iteration 965 sol 2920.00
iteration 966 sol 2868.00
iteration 967 sol 2874.00
iteration 968 sol 2920.00
iteration 969 sol 2855.00
iteration 970 sol 2921.00
iteration 971 sol 2921.00
iteration 972 sol 2922.00
iteration 973 sol 2894.00
iteration 974 sol 2906.00
iteration 975 sol 2917.00
iteration 976 sol 2945.00
iteration 977 sol 2938.00
iteration 978 sol 2908.00
iteration 979 sol 2916.00
iteration 980 sol 2907.00
iteration 981 sol 2908.00
iteration 982 sol 2949.00
iteration 983 sol 2940.00
iteration 984 sol 2930.00
iteration 985 sol 2881.00
iteration 986 sol 2924.00
iteration 987 sol 2953.00
iteration 988 sol 2904.00
iteration 989 sol 2927.00
iteration 990 sol 2888.00
iteration 991 sol 2883.00
iteration 992 sol 2820.00
iteration 993 sol 2935.00
iteration 994 sol 2869.00
iteration 995 sol 2932.00
iteration 996 sol 2918.00
iteration 997 sol 2938.00
iteration 998 sol 2876.00
iteration 999 sol 2938.00
iteration 1000 sol 2950.00
iteration 1001 sol 2927.00
iteration 1002 sol 2912.00
iteration 1003 sol 2909.00
iteration 1004 sol 2905.00
iteration 1005 sol 2875.00
iteration 1006 sol 2885.00
iteration 1007 sol 2892.00
iteration 1008 sol 2897.00
iteration 1009 sol 2879.00
iteration 1010 sol 2916.00
iteration 1011 sol 2922.00
iteration 1012 sol 2913.00
iteration 1013 sol 2879.00
iteration 1014 sol 2955.00
iteration 1015 sol 2880.00
iteration 1016 sol 2889.00
iteration 1017 sol 2852.00
iteration 1018 sol 2878.00
iteration 1019 sol 2875.00
iteration 1020 sol 2941.00
iteration 1021 sol 2933.00
iteration 1022 sol 2798.00
iteration 1023 sol 2927.00
iteration 1024 sol 2960.00
iteration 1025 sol 2950.00
iteration 1026 sol 2865.00
iteration 1027 sol 2907.00
iteration 1028 sol 2856.00
iteration 1029 sol 2917.00
iteration 1030 sol 2934.00
iteration 1031 sol 2930.00
iteration 1032 sol 2926.00
iteration 1033 sol 2861.00
iteration 1034 sol 2912.00
iteration 1035 sol 2895.00
iteration 1036 sol 2931.00
iteration 1037 sol 2932.00
iteration 1038 sol 2906.00
iteration 1039 sol 2898.00
iteration 1040 sol 2921.00
iteration 1041 sol 2897.00
iteration 1042 sol 2923.00
iteration 1043 sol 2909.00
iteration 1044 sol 2913.00
iteration 1045 sol 2949.00
iteration 1046 sol 2953.00
iteration 1047 sol 2934.00
iteration 1048 sol 2899.00
iteration 1049 sol 2906.00
iteration 1050 sol 2908.00
iteration 1051 sol 2923.00
iteration 1052 sol 2901.00
iteration 1053 sol 2915.00
iteration 1054 sol 2930.00
iteration 1055 sol 2919.00
iteration 1056 sol 2907.00
iteration 1057 sol 2885.00
iteration 1058 sol 2940.00
iteration 1059 sol 2935.00
iteration 1060 sol 2931.00
iteration 1061 sol 2926.00
iteration 1062 sol 2921.00
iteration 1063 sol 2910.00
iteration 1064 sol 2872.00
iteration 1065 sol 2925.00
iteration 1066 sol 2907.00
iteration 1067 sol 2929.00
iteration 1068 sol 2900.00
iteration 1069 sol 2928.00
iteration 1070 sol 2905.00
iteration 1071 sol 2886.00
iteration 1072 sol 2915.00
iteration 1073 sol 2919.00
iteration 1074 sol 2907.00
iteration 1075 sol 2899.00
iteration 1076 sol 2887.00
iteration 1077 sol 2830.00
iteration 1078 sol 2878.00
iteration 1079 sol 2918.00
iteration 1080 sol 2930.00
iteration 1081 sol 2917.00
iteration 1082 sol 2930.00
iteration 1083 sol 2952.00
iteration 1084 sol 2926.00
iteration 1085 sol 2914.00
iteration 1086 sol 2940.00
iteration 1087 sol 2909.00
iteration 1088 sol 2882.00
iteration 1089 sol 2918.00
iteration 1090 sol 2936.00
iteration 1091 sol 2915.00
iteration 1092 sol 2934.00
iteration 1093 sol 2943.00
iteration 1094 sol 2909.00
iteration 1095 sol 2924.00
iteration 1096 sol 2929.00
iteration 1097 sol 2831.00
iteration 1098 sol 2912.00
iteration 1099 sol 2917.00
iteration 1100 sol 2915.00
iteration 1101 sol 2932.00
iteration 1102 sol 2898.00
iteration 1103 sol 2911.00
iteration 1104 sol 2936.00
iteration 1105 sol 2917.00
iteration 1106 sol 2915.00
iteration 1107 sol 2931.00
iteration 1108 sol 2921.00
iteration 1109 sol 2913.00
iteration 1110 sol 2927.00
iteration 1111 sol 2937.00
iteration 1112 sol 2935.00
iteration 1113 sol 2937.00
iteration 1114 sol 2933.00
iteration 1115 sol 2919.00
iteration 1116 sol 2894.00
iteration 1117 sol 2921.00
iteration 1118 sol 2894.00
iteration 1119 sol 2921.00
iteration 1120 sol 2920.00
iteration 1121 sol 2874.00
iteration 1122 sol 2887.00
iteration 1123 sol 2940.00
iteration 1124 sol 2870.00
iteration 1125 sol 2886.00
iteration 1126 sol 2897.00
iteration 1127 sol 2935.00
iteration 1128 sol 2923.00
iteration 1129 sol 2865.00
iteration 1130 sol 2924.00
iteration 1131 sol 2918.00
iteration 1132 sol 2923.00
iteration 1133 sol 2881.00
iteration 1134 sol 2941.00
iteration 1135 sol 2866.00
iteration 1136 sol 2884.00
iteration 1137 sol 2888.00
iteration 1138 sol 2892.00
iteration 1139 sol 2917.00
iteration 1140 sol 2921.00
iteration 1141 sol 2887.00
iteration 1142 sol 2917.00
iteration 1143 sol 2931.00
iteration 1144 sol 2918.00
iteration 1145 sol 2947.00
iteration 1146 sol 2873.00
iteration 1147 sol 2925.00
iteration 1148 sol 2899.00
iteration 1149 sol 2915.00
iteration 1150 sol 2940.00
iteration 1151 sol 2914.00
iteration 1152 sol 2913.00
iteration 1153 sol 2933.00
iteration 1154 sol 2931.00
iteration 1155 sol 2914.00
iteration 1156 sol 2947.00
iteration 1157 sol 2940.00
iteration 1158 sol 2935.00
iteration 1159 sol 2910.00
iteration 1160 sol 2867.00
iteration 1161 sol 2917.00
iteration 1162 sol 2881.00
iteration 1163 sol 2924.00
iteration 1164 sol 2910.00
iteration 1165 sol 2940.00
iteration 1166 sol 2899.00
iteration 1167 sol 2884.00
iteration 1168 sol 2901.00
iteration 1169 sol 2927.00
iteration 1170 sol 2906.00
iteration 1171 sol 2922.00
iteration 1172 sol 2923.00
iteration 1173 sol 2907.00
iteration 1174 sol 2887.00
iteration 1175 sol 2899.00
iteration 1176 sol 2863.00
iteration 1177 sol 2825.00
iteration 1178 sol 2881.00
iteration 1179 sol 2858.00
iteration 1180 sol 2886.00
iteration 1181 sol 2907.00
iteration 1182 sol 2923.00
iteration 1183 sol 2921.00
iteration 1184 sol 2914.00
iteration 1185 sol 2907.00
iteration 1186 sol 2883.00
iteration 1187 sol 2916.00
iteration 1188 sol 2878.00
iteration 1189 sol 2904.00
iteration 1190 sol 2898.00
iteration 1191 sol 2934.00
iteration 1192 sol 2932.00
iteration 1193 sol 2908.00
iteration 1194 sol 2941.00
iteration 1195 sol 2947.00
iteration 1196 sol 2954.00
iteration 1197 sol 2937.00
iteration 1198 sol 2886.00
iteration 1199 sol 2960.00
iteration 1200 sol 2927.00
iteration 1201 sol 2926.00
iteration 1202 sol 2907.00
iteration 1203 sol 2905.00
iteration 1204 sol 2939.00
iteration 1205 sol 2831.00
iteration 1206 sol 2932.00
iteration 1207 sol 2935.00
iteration 1208 sol 2927.00
iteration 1209 sol 2923.00
iteration 1210 sol 2958.00
iteration 1211 sol 2919.00
iteration 1212 sol 2941.00
iteration 1213 sol 2894.00
iteration 1214 sol 2952.00
iteration 1215 sol 2973.00
iteration 1216 sol 2900.00
iteration 1217 sol 2914.00
iteration 1218 sol 2902.00
iteration 1219 sol 2932.00
iteration 1220 sol 2931.00
iteration 1221 sol 2926.00
iteration 1222 sol 2916.00
iteration 1223 sol 2939.00
iteration 1224 sol 2926.00
iteration 1225 sol 2919.00
iteration 1226 sol 2909.00
iteration 1227 sol 2902.00
iteration 1228 sol 2921.00
iteration 1229 sol 2908.00
iteration 1230 sol 2911.00
iteration 1231 sol 2944.00
iteration 1232 sol 2922.00
iteration 1233 sol 2846.00
iteration 1234 sol 2921.00
iteration 1235 sol 2929.00
iteration 1236 sol 2915.00
iteration 1237 sol 2915.00
iteration 1238 sol 2905.00
iteration 1239 sol 2879.00
iteration 1240 sol 2938.00
iteration 1241 sol 2934.00
iteration 1242 sol 2876.00
iteration 1243 sol 2936.00
iteration 1244 sol 2912.00
iteration 1245 sol 2847.00
iteration 1246 sol 2922.00
iteration 1247 sol 2832.00
iteration 1248 sol 2879.00
iteration 1249 sol 2935.00
iteration 1250 sol 2907.00
iteration 1251 sol 2928.00
iteration 1252 sol 2932.00
iteration 1253 sol 2962.00
iteration 1254 sol 2907.00
iteration 1255 sol 2928.00
iteration 1256 sol 2921.00
iteration 1257 sol 2909.00
iteration 1258 sol 2918.00
iteration 1259 sol 2952.00
iteration 1260 sol 2932.00
iteration 1261 sol 2938.00
iteration 1262 sol 2921.00
iteration 1263 sol 2824.00
iteration 1264 sol 2873.00
iteration 1265 sol 2908.00
iteration 1266 sol 2924.00
iteration 1267 sol 2864.00
iteration 1268 sol 2914.00
iteration 1269 sol 2908.00
iteration 1270 sol 2917.00
iteration 1271 sol 2914.00
iteration 1272 sol 2934.00
iteration 1273 sol 2900.00
iteration 1274 sol 2923.00
iteration 1275 sol 2865.00
iteration 1276 sol 2918.00
iteration 1277 sol 2928.00
iteration 1278 sol 2945.00
iteration 1279 sol 2920.00
iteration 1280 sol 2912.00
iteration 1281 sol 2898.00
iteration 1282 sol 2892.00
iteration 1283 sol 2919.00
iteration 1284 sol 2873.00
iteration 1285 sol 2880.00
iteration 1286 sol 2917.00
iteration 1287 sol 2948.00
iteration 1288 sol 2877.00
iteration 1289 sol 2901.00
iteration 1290 sol 2944.00
iteration 1291 sol 2908.00
iteration 1292 sol 2896.00
iteration 1293 sol 2932.00
iteration 1294 sol 2847.00
iteration 1295 sol 2864.00
iteration 1296 sol 2900.00
iteration 1297 sol 2926.00
iteration 1298 sol 2940.00
iteration 1299 sol 2927.00
iteration 1300 sol 2928.00
iteration 1301 sol 2908.00
iteration 1302 sol 2919.00
iteration 1303 sol 2874.00
iteration 1304 sol 2929.00
iteration 1305 sol 2933.00
iteration 1306 sol 2849.00
iteration 1307 sol 2896.00
iteration 1308 sol 2919.00
iteration 1309 sol 2864.00
iteration 1310 sol 2881.00
iteration 1311 sol 2956.00
iteration 1312 sol 2886.00
iteration 1313 sol 2905.00
iteration 1314 sol 2930.00
iteration 1315 sol 2921.00
iteration 1316 sol 2930.00
iteration 1317 sol 2932.00
iteration 1318 sol 2909.00
iteration 1319 sol 2871.00
iteration 1320 sol 2899.00
iteration 1321 sol 2969.00
iteration 1322 sol 2907.00
iteration 1323 sol 2898.00
iteration 1324 sol 2924.00
iteration 1325 sol 2871.00
iteration 1326 sol 2912.00
iteration 1327 sol 2919.00
iteration 1328 sol 2874.00
iteration 1329 sol 2936.00
iteration 1330 sol 2914.00
iteration 1331 sol 2947.00
iteration 1332 sol 2923.00
iteration 1333 sol 2838.00
iteration 1334 sol 2896.00
iteration 1335 sol 2911.00
iteration 1336 sol 2889.00
iteration 1337 sol 2946.00
iteration 1338 sol 2911.00
iteration 1339 sol 2925.00
iteration 1340 sol 2899.00
iteration 1341 sol 2931.00
iteration 1342 sol 2894.00
iteration 1343 sol 2938.00
iteration 1344 sol 2922.00
iteration 1345 sol 2886.00
iteration 1346 sol 2915.00
iteration 1347 sol 2894.00
iteration 1348 sol 2879.00
iteration 1349 sol 2911.00
iteration 1350 sol 2875.00
iteration 1351 sol 2926.00
iteration 1352 sol 2908.00
iteration 1353 sol 2932.00
iteration 1354 sol 2915.00
iteration 1355 sol 2938.00
iteration 1356 sol 2892.00
iteration 1357 sol 2890.00
iteration 1358 sol 2913.00
iteration 1359 sol 2916.00
iteration 1360 sol 2914.00
iteration 1361 sol 2943.00
iteration 1362 sol 2924.00
iteration 1363 sol 2918.00
iteration 1364 sol 2854.00
iteration 1365 sol 2839.00
iteration 1366 sol 2944.00
iteration 1367 sol 2937.00
iteration 1368 sol 2930.00
iteration 1369 sol 2899.00
iteration 1370 sol 2922.00
iteration 1371 sol 2881.00
iteration 1372 sol 2909.00
iteration 1373 sol 2940.00
iteration 1374 sol 2921.00
iteration 1375 sol 2903.00
iteration 1376 sol 2871.00
iteration 1377 sol 2889.00
iteration 1378 sol 2892.00
iteration 1379 sol 2947.00
iteration 1380 sol 2916.00
iteration 1381 sol 2933.00
iteration 1382 sol 2921.00
iteration 1383 sol 2937.00
iteration 1384 sol 2830.00
iteration 1385 sol 2854.00
iteration 1386 sol 2890.00
iteration 1387 sol 2948.00
iteration 1388 sol 2881.00
iteration 1389 sol 2918.00
iteration 1390 sol 2921.00
iteration 1391 sol 2953.00
iteration 1392 sol 2894.00
iteration 1393 sol 2899.00
iteration 1394 sol 2946.00
iteration 1395 sol 2873.00
iteration 1396 sol 2889.00
iteration 1397 sol 2909.00
iteration 1398 sol 2938.00
iteration 1399 sol 2935.00
iteration 1400 sol 2943.00
iteration 1401 sol 2916.00
iteration 1402 sol 2968.00
iteration 1403 sol 2901.00
iteration 1404 sol 2899.00
iteration 1405 sol 2938.00
iteration 1406 sol 2923.00
iteration 1407 sol 2925.00
iteration 1408 sol 2966.00
iteration 1409 sol 2897.00
iteration 1410 sol 2926.00
iteration 1411 sol 2882.00
iteration 1412 sol 2916.00
iteration 1413 sol 2925.00
iteration 1414 sol 2882.00
iteration 1415 sol 2915.00
iteration 1416 sol 2913.00
iteration 1417 sol 2923.00
iteration 1418 sol 2947.00
iteration 1419 sol 2918.00
iteration 1420 sol 2911.00
iteration 1421 sol 2954.00
iteration 1422 sol 2939.00
iteration 1423 sol 2891.00
iteration 1424 sol 2929.00
iteration 1425 sol 2917.00
iteration 1426 sol 2908.00
iteration 1427 sol 2954.00
iteration 1428 sol 2888.00
iteration 1429 sol 2935.00
iteration 1430 sol 2928.00
iteration 1431 sol 2931.00
iteration 1432 sol 2938.00
iteration 1433 sol 2860.00
iteration 1434 sol 2943.00
iteration 1435 sol 2920.00
iteration 1436 sol 2912.00
iteration 1437 sol 2887.00
iteration 1438 sol 2925.00
iteration 1439 sol 2879.00
iteration 1440 sol 2927.00
iteration 1441 sol 2946.00
iteration 1442 sol 2927.00
iteration 1443 sol 2914.00
iteration 1444 sol 2911.00
iteration 1445 sol 2920.00
iteration 1446 sol 2936.00
iteration 1447 sol 2891.00
iteration 1448 sol 2934.00
iteration 1449 sol 2888.00
iteration 1450 sol 2932.00
iteration 1451 sol 2899.00
iteration 1452 sol 2938.00
iteration 1453 sol 2930.00
iteration 1454 sol 2947.00
iteration 1455 sol 2892.00
iteration 1456 sol 2951.00
iteration 1457 sol 2896.00
iteration 1458 sol 2911.00
iteration 1459 sol 2916.00
iteration 1460 sol 2922.00
iteration 1461 sol 2914.00
iteration 1462 sol 2892.00
iteration 1463 sol 2939.00
iteration 1464 sol 2850.00
iteration 1465 sol 2917.00
iteration 1466 sol 2910.00
iteration 1467 sol 2902.00
iteration 1468 sol 2909.00
iteration 1469 sol 2909.00
iteration 1470 sol 2904.00
iteration 1471 sol 2893.00
iteration 1472 sol 2934.00
iteration 1473 sol 2957.00
iteration 1474 sol 2890.00
iteration 1475 sol 2800.00
iteration 1476 sol 2927.00
iteration 1477 sol 2925.00
iteration 1478 sol 2919.00
iteration 1479 sol 2847.00
iteration 1480 sol 2879.00
iteration 1481 sol 2953.00
iteration 1482 sol 2870.00
iteration 1483 sol 2941.00
iteration 1484 sol 2968.00
iteration 1485 sol 2856.00
iteration 1486 sol 2905.00
iteration 1487 sol 2923.00
iteration 1488 sol 2890.00
iteration 1489 sol 2952.00
iteration 1490 sol 2821.00
iteration 1491 sol 2943.00
iteration 1492 sol 2918.00
iteration 1493 sol 2953.00
iteration 1494 sol 2936.00
iteration 1495 sol 2925.00
iteration 1496 sol 2911.00
iteration 1497 sol 2865.00
iteration 1498 sol 2928.00
iteration 1499 sol 2921.00
iteration 1500 sol 2931.00
iteration 1501 sol 2897.00
iteration 1502 sol 2898.00
iteration 1503 sol 2919.00
iteration 1504 sol 2952.00
iteration 1505 sol 2933.00
iteration 1506 sol 2906.00
iteration 1507 sol 2928.00
iteration 1508 sol 2901.00
iteration 1509 sol 2918.00
iteration 1510 sol 2903.00
iteration 1511 sol 2872.00
iteration 1512 sol 2879.00
iteration 1513 sol 2943.00
iteration 1514 sol 2890.00
iteration 1515 sol 2923.00
iteration 1516 sol 2817.00
iteration 1517 sol 2908.00
iteration 1518 sol 2911.00
iteration 1519 sol 2918.00
iteration 1520 sol 2914.00
iteration 1521 sol 2904.00
iteration 1522 sol 2942.00
iteration 1523 sol 2898.00
iteration 1524 sol 2900.00
iteration 1525 sol 2956.00
iteration 1526 sol 2912.00
iteration 1527 sol 2932.00
iteration 1528 sol 2920.00
iteration 1529 sol 2932.00
iteration 1530 sol 2924.00
iteration 1531 sol 2884.00
iteration 1532 sol 2923.00
iteration 1533 sol 2866.00
iteration 1534 sol 2935.00
iteration 1535 sol 2892.00
iteration 1536 sol 2942.00
iteration 1537 sol 2886.00
iteration 1538 sol 2913.00
iteration 1539 sol 2921.00
iteration 1540 sol 2924.00
iteration 1541 sol 2927.00
iteration 1542 sol 2888.00
iteration 1543 sol 2903.00
iteration 1544 sol 2899.00
iteration 1545 sol 2912.00
iteration 1546 sol 2900.00
iteration 1547 sol 2860.00
iteration 1548 sol 2853.00
iteration 1549 sol 2865.00
iteration 1550 sol 2935.00
iteration 1551 sol 2929.00
iteration 1552 sol 2920.00
iteration 1553 sol 2924.00
iteration 1554 sol 2899.00
iteration 1555 sol 2915.00
iteration 1556 sol 2887.00
iteration 1557 sol 2929.00
iteration 1558 sol 2941.00
iteration 1559 sol 2928.00
iteration 1560 sol 2925.00
iteration 1561 sol 2926.00
iteration 1562 sol 2933.00
iteration 1563 sol 2891.00
iteration 1564 sol 2861.00
iteration 1565 sol 2860.00
iteration 1566 sol 2938.00
iteration 1567 sol 2911.00
iteration 1568 sol 2924.00
iteration 1569 sol 2920.00
iteration 1570 sol 2903.00
iteration 1571 sol 2858.00
iteration 1572 sol 2945.00
iteration 1573 sol 2857.00
iteration 1574 sol 2904.00
iteration 1575 sol 2904.00
iteration 1576 sol 2919.00
iteration 1577 sol 2888.00
iteration 1578 sol 2912.00
iteration 1579 sol 2904.00
iteration 1580 sol 2860.00
iteration 1581 sol 2915.00
iteration 1582 sol 2851.00
iteration 1583 sol 2944.00
iteration 1584 sol 2897.00
iteration 1585 sol 2889.00
iteration 1586 sol 2936.00
iteration 1587 sol 2954.00
iteration 1588 sol 2882.00
iteration 1589 sol 2898.00
iteration 1590 sol 2929.00
iteration 1591 sol 2945.00
iteration 1592 sol 2885.00
iteration 1593 sol 2930.00
iteration 1594 sol 2964.00
iteration 1595 sol 2897.00
iteration 1596 sol 2926.00
iteration 1597 sol 2892.00
iteration 1598 sol 2940.00
iteration 1599 sol 2899.00
iteration 1600 sol 2934.00
iteration 1601 sol 2915.00
iteration 1602 sol 2932.00
iteration 1603 sol 2932.00
iteration 1604 sol 2920.00
iteration 1605 sol 2869.00
iteration 1606 sol 2922.00
iteration 1607 sol 2912.00
iteration 1608 sol 2935.00
iteration 1609 sol 2895.00
iteration 1610 sol 2894.00
iteration 1611 sol 2928.00
iteration 1612 sol 2944.00
iteration 1613 sol 2904.00
iteration 1614 sol 2926.00
iteration 1615 sol 2913.00
iteration 1616 sol 2946.00
iteration 1617 sol 2932.00
iteration 1618 sol 2878.00
iteration 1619 sol 2965.00
iteration 1620 sol 2933.00
iteration 1621 sol 2955.00
iteration 1622 sol 2932.00
iteration 1623 sol 2936.00
iteration 1624 sol 2927.00
iteration 1625 sol 2923.00
iteration 1626 sol 2908.00
iteration 1627 sol 2939.00
iteration 1628 sol 2908.00
iteration 1629 sol 2886.00
iteration 1630 sol 2924.00
iteration 1631 sol 2902.00
iteration 1632 sol 2868.00
iteration 1633 sol 2917.00
iteration 1634 sol 2954.00
iteration 1635 sol 2858.00
iteration 1636 sol 2874.00
iteration 1637 sol 2905.00
iteration 1638 sol 2908.00
iteration 1639 sol 2895.00
iteration 1640 sol 2846.00
iteration 1641 sol 2913.00
iteration 1642 sol 2935.00
iteration 1643 sol 2917.00
iteration 1644 sol 2868.00
iteration 1645 sol 2935.00
iteration 1646 sol 2891.00
iteration 1647 sol 2932.00
iteration 1648 sol 2868.00
iteration 1649 sol 2887.00
iteration 1650 sol 2906.00
iteration 1651 sol 2937.00
iteration 1652 sol 2934.00
iteration 1653 sol 2908.00
iteration 1654 sol 2928.00
iteration 1655 sol 2925.00
iteration 1656 sol 2927.00
iteration 1657 sol 2887.00
iteration 1658 sol 2906.00
iteration 1659 sol 2917.00
iteration 1660 sol 2881.00
iteration 1661 sol 2950.00
iteration 1662 sol 2961.00
iteration 1663 sol 2924.00
iteration 1664 sol 2914.00
iteration 1665 sol 2913.00
iteration 1666 sol 2909.00
iteration 1667 sol 2939.00
iteration 1668 sol 2874.00
iteration 1669 sol 2904.00
iteration 1670 sol 2901.00
iteration 1671 sol 2909.00
iteration 1672 sol 2887.00
iteration 1673 sol 2911.00
iteration 1674 sol 2945.00
iteration 1675 sol 2956.00
iteration 1676 sol 2872.00
iteration 1677 sol 2922.00
iteration 1678 sol 2921.00
iteration 1679 sol 2930.00
iteration 1680 sol 2924.00
iteration 1681 sol 2920.00
iteration 1682 sol 2937.00
iteration 1683 sol 2928.00
iteration 1684 sol 2902.00
iteration 1685 sol 2909.00
iteration 1686 sol 2915.00
iteration 1687 sol 2907.00
iteration 1688 sol 2833.00
iteration 1689 sol 2923.00
iteration 1690 sol 2946.00
iteration 1691 sol 2863.00
iteration 1692 sol 2882.00
iteration 1693 sol 2920.00
iteration 1694 sol 2891.00
iteration 1695 sol 2955.00
iteration 1696 sol 2946.00
iteration 1697 sol 2948.00
iteration 1698 sol 2924.00
iteration 1699 sol 2960.00
iteration 1700 sol 2935.00
iteration 1701 sol 2918.00
iteration 1702 sol 2909.00
Number of iterations = 1703
Best Solution was found in iteration = 1215
Time used by neighbor | Times each neighbor was used | Improvements
N_1 = 0.02 | 102793 | 158
N_2 = 22.87 | 102794 | 45871
N_3 = 0.01 | 102794 | 131
N_4 = 571.41 | 102794 | 26902
Time to find the best solution = 431.07
Solution = 2973.00
Time = 600.00
