iteration 0 sol 15975.00
iteration 1 sol 15970.00
iteration 2 sol 15964.00
iteration 3 sol 15973.00
iteration 4 sol 15956.00
iteration 5 sol 15973.00
iteration 6 sol 15956.00
iteration 7 sol 15977.00
iteration 8 sol 15970.00
iteration 9 sol 15978.00
iteration 10 sol 15967.00
iteration 11 sol 15974.00
iteration 12 sol 15974.00
iteration 13 sol 15983.00
iteration 14 sol 15972.00
iteration 15 sol 15973.00
iteration 16 sol 15992.00
iteration 17 sol 15975.00
iteration 18 sol 15968.00
iteration 19 sol 15963.00
iteration 20 sol 15953.00
iteration 21 sol 15974.00
iteration 22 sol 15955.00
iteration 23 sol 15980.00
iteration 24 sol 15961.00
iteration 25 sol 15965.00
iteration 26 sol 15977.00
iteration 27 sol 15972.00
iteration 28 sol 15966.00
iteration 29 sol 15969.00
iteration 30 sol 15963.00
iteration 31 sol 15973.00
iteration 32 sol 15975.00
iteration 33 sol 15972.00
iteration 34 sol 15972.00
iteration 35 sol 15973.00
iteration 36 sol 15937.00
iteration 37 sol 15944.00
iteration 38 sol 15968.00
iteration 39 sol 15981.00
iteration 40 sol 15963.00
iteration 41 sol 15974.00
iteration 42 sol 15969.00
iteration 43 sol 15967.00
iteration 44 sol 15972.00
iteration 45 sol 15960.00
iteration 46 sol 15982.00
iteration 47 sol 15939.00
iteration 48 sol 15975.00
iteration 49 sol 15981.00
iteration 50 sol 15977.00
iteration 51 sol 15977.00
iteration 52 sol 15945.00
iteration 53 sol 15968.00
iteration 54 sol 15965.00
iteration 55 sol 15967.00
iteration 56 sol 15962.00
iteration 57 sol 15969.00
iteration 58 sol 15989.00
iteration 59 sol 15974.00
iteration 60 sol 15974.00
iteration 61 sol 15972.00
iteration 62 sol 15955.00
iteration 63 sol 15972.00
iteration 64 sol 15967.00
iteration 65 sol 15966.00
iteration 66 sol 15957.00
iteration 67 sol 15972.00
iteration 68 sol 15975.00
iteration 69 sol 15972.00
iteration 70 sol 15977.00
iteration 71 sol 15974.00
iteration 72 sol 15977.00
iteration 73 sol 15981.00
iteration 74 sol 15974.00
iteration 75 sol 15966.00
iteration 76 sol 15978.00
iteration 77 sol 15974.00
iteration 78 sol 15973.00
iteration 79 sol 15962.00
iteration 80 sol 15963.00
iteration 81 sol 15951.00
iteration 82 sol 15977.00
iteration 83 sol 15968.00
iteration 84 sol 15949.00
iteration 85 sol 15971.00
iteration 86 sol 15972.00
iteration 87 sol 15979.00
iteration 88 sol 15972.00
iteration 89 sol 15965.00
iteration 90 sol 15975.00
iteration 91 sol 15973.00
iteration 92 sol 15967.00
iteration 93 sol 15979.00
iteration 94 sol 15984.00
iteration 95 sol 15966.00
iteration 96 sol 15985.00
iteration 97 sol 15980.00
iteration 98 sol 15966.00
iteration 99 sol 15970.00
iteration 100 sol 15975.00
iteration 101 sol 15959.00
iteration 102 sol 15984.00
iteration 103 sol 15983.00
iteration 104 sol 15975.00
iteration 105 sol 15975.00
iteration 106 sol 15972.00
iteration 107 sol 15971.00
iteration 108 sol 15978.00
iteration 109 sol 15975.00
iteration 110 sol 15976.00
iteration 111 sol 15971.00
iteration 112 sol 15978.00
iteration 113 sol 15970.00
iteration 114 sol 15972.00
iteration 115 sol 15970.00
iteration 116 sol 15962.00
iteration 117 sol 15981.00
iteration 118 sol 15971.00
iteration 119 sol 15964.00
iteration 120 sol 15956.00
iteration 121 sol 15965.00
iteration 122 sol 15980.00
iteration 123 sol 15976.00
iteration 124 sol 15976.00
iteration 125 sol 15966.00
iteration 126 sol 15968.00
iteration 127 sol 15962.00
iteration 128 sol 15964.00
iteration 129 sol 15974.00
iteration 130 sol 15959.00
iteration 131 sol 15958.00
iteration 132 sol 15970.00
iteration 133 sol 15968.00
iteration 134 sol 15936.00
iteration 135 sol 15967.00
iteration 136 sol 15962.00
iteration 137 sol 15962.00
iteration 138 sol 15962.00
iteration 139 sol 15973.00
iteration 140 sol 15985.00
iteration 141 sol 15981.00
iteration 142 sol 15950.00
iteration 143 sol 15969.00
iteration 144 sol 15983.00
iteration 145 sol 15972.00
iteration 146 sol 15975.00
iteration 147 sol 15976.00
iteration 148 sol 15983.00
iteration 149 sol 15975.00
iteration 150 sol 15953.00
iteration 151 sol 15959.00
iteration 152 sol 15982.00
iteration 153 sol 15973.00
iteration 154 sol 15967.00
iteration 155 sol 15969.00
iteration 156 sol 15972.00
iteration 157 sol 15954.00
iteration 158 sol 15970.00
iteration 159 sol 15978.00
iteration 160 sol 15971.00
iteration 161 sol 15956.00
iteration 162 sol 15974.00
iteration 163 sol 15966.00
iteration 164 sol 15985.00
iteration 165 sol 15984.00
iteration 166 sol 15970.00
iteration 167 sol 15975.00
iteration 168 sol 15974.00
iteration 169 sol 15976.00
iteration 170 sol 15966.00
iteration 171 sol 15968.00
iteration 172 sol 15973.00
iteration 173 sol 15959.00
iteration 174 sol 15966.00
iteration 175 sol 15973.00
iteration 176 sol 15967.00
iteration 177 sol 15962.00
iteration 178 sol 15966.00
iteration 179 sol 15970.00
iteration 180 sol 15978.00
iteration 181 sol 15965.00
iteration 182 sol 15966.00
iteration 183 sol 15959.00
iteration 184 sol 15979.00
iteration 185 sol 15977.00
iteration 186 sol 15975.00
iteration 187 sol 15967.00
iteration 188 sol 15963.00
iteration 189 sol 15980.00
iteration 190 sol 15977.00
iteration 191 sol 15968.00
iteration 192 sol 15987.00
iteration 193 sol 15979.00
iteration 194 sol 15976.00
iteration 195 sol 15970.00
iteration 196 sol 15965.00
iteration 197 sol 15967.00
iteration 198 sol 15975.00
iteration 199 sol 15971.00
iteration 200 sol 15977.00
iteration 201 sol 15969.00
iteration 202 sol 15966.00
iteration 203 sol 15960.00
iteration 204 sol 15976.00
iteration 205 sol 15969.00
iteration 206 sol 15974.00
iteration 207 sol 15968.00
iteration 208 sol 15978.00
iteration 209 sol 15970.00
iteration 210 sol 15969.00
iteration 211 sol 15973.00
iteration 212 sol 15977.00
iteration 213 sol 15977.00
iteration 214 sol 15961.00
iteration 215 sol 15976.00
iteration 216 sol 15949.00
iteration 217 sol 15977.00
iteration 218 sol 15971.00
iteration 219 sol 15978.00
iteration 220 sol 15968.00
iteration 221 sol 15977.00
iteration 222 sol 15980.00
iteration 223 sol 15964.00
iteration 224 sol 15978.00
iteration 225 sol 15966.00
iteration 226 sol 15965.00
iteration 227 sol 15971.00
iteration 228 sol 15961.00
iteration 229 sol 15961.00
iteration 230 sol 15961.00
iteration 231 sol 15976.00
iteration 232 sol 15988.00
iteration 233 sol 15982.00
iteration 234 sol 15973.00
iteration 235 sol 15961.00
iteration 236 sol 15973.00
iteration 237 sol 15972.00
iteration 238 sol 15964.00
iteration 239 sol 15967.00
iteration 240 sol 15983.00
iteration 241 sol 15978.00
iteration 242 sol 15976.00
iteration 243 sol 15981.00
iteration 244 sol 15961.00
iteration 245 sol 15969.00
iteration 246 sol 15976.00
iteration 247 sol 15970.00
iteration 248 sol 15972.00
iteration 249 sol 15942.00
iteration 250 sol 15972.00
iteration 251 sol 15960.00
iteration 252 sol 15986.00
iteration 253 sol 15972.00
iteration 254 sol 15976.00
iteration 255 sol 15965.00
iteration 256 sol 15952.00
iteration 257 sol 15971.00
iteration 258 sol 15929.00
iteration 259 sol 15979.00
iteration 260 sol 15973.00
iteration 261 sol 15976.00
iteration 262 sol 15966.00
iteration 263 sol 15988.00
iteration 264 sol 15969.00
iteration 265 sol 15973.00
iteration 266 sol 15969.00
iteration 267 sol 15979.00
iteration 268 sol 15984.00
iteration 269 sol 15969.00
iteration 270 sol 15958.00
iteration 271 sol 15966.00
iteration 272 sol 15974.00
iteration 273 sol 15973.00
iteration 274 sol 15972.00
iteration 275 sol 15959.00
iteration 276 sol 15964.00
iteration 277 sol 15977.00
iteration 278 sol 15982.00
iteration 279 sol 15979.00
iteration 280 sol 15982.00
iteration 281 sol 15973.00
iteration 282 sol 15977.00
iteration 283 sol 15969.00
iteration 284 sol 15972.00
iteration 285 sol 15947.00
iteration 286 sol 15983.00
iteration 287 sol 15972.00
iteration 288 sol 15985.00
iteration 289 sol 15982.00
iteration 290 sol 15966.00
iteration 291 sol 15983.00
iteration 292 sol 15973.00
iteration 293 sol 15976.00
iteration 294 sol 15981.00
iteration 295 sol 15961.00
iteration 296 sol 15976.00
iteration 297 sol 15958.00
iteration 298 sol 15975.00
iteration 299 sol 15985.00
iteration 300 sol 15972.00
iteration 301 sol 15981.00
iteration 302 sol 15975.00
iteration 303 sol 15959.00
iteration 304 sol 15976.00
iteration 305 sol 15968.00
iteration 306 sol 15969.00
iteration 307 sol 15976.00
iteration 308 sol 15964.00
iteration 309 sol 15981.00
iteration 310 sol 15946.00
iteration 311 sol 15966.00
iteration 312 sol 15964.00
iteration 313 sol 15957.00
iteration 314 sol 15964.00
iteration 315 sol 15970.00
iteration 316 sol 15970.00
iteration 317 sol 15966.00
iteration 318 sol 15971.00
iteration 319 sol 15984.00
iteration 320 sol 15961.00
iteration 321 sol 15968.00
iteration 322 sol 15966.00
iteration 323 sol 15977.00
iteration 324 sol 15982.00
iteration 325 sol 15964.00
iteration 326 sol 15973.00
iteration 327 sol 15979.00
iteration 328 sol 15981.00
iteration 329 sol 15973.00
iteration 330 sol 15966.00
iteration 331 sol 15979.00
iteration 332 sol 15969.00
iteration 333 sol 15954.00
iteration 334 sol 15973.00
iteration 335 sol 15974.00
iteration 336 sol 15962.00
iteration 337 sol 15962.00
iteration 338 sol 15973.00
iteration 339 sol 15973.00
iteration 340 sol 15973.00
iteration 341 sol 15980.00
iteration 342 sol 15963.00
iteration 343 sol 15984.00
iteration 344 sol 15963.00
iteration 345 sol 15978.00
iteration 346 sol 15961.00
iteration 347 sol 15971.00
iteration 348 sol 15965.00
iteration 349 sol 15971.00
iteration 350 sol 15966.00
iteration 351 sol 15978.00
iteration 352 sol 15973.00
iteration 353 sol 15976.00
iteration 354 sol 15981.00
iteration 355 sol 15972.00
iteration 356 sol 15969.00
iteration 357 sol 15985.00
iteration 358 sol 15970.00
iteration 359 sol 15973.00
iteration 360 sol 15975.00
iteration 361 sol 15985.00
iteration 362 sol 15962.00
iteration 363 sol 15964.00
iteration 364 sol 15982.00
iteration 365 sol 15954.00
iteration 366 sol 15971.00
iteration 367 sol 15962.00
iteration 368 sol 15966.00
iteration 369 sol 15975.00
iteration 370 sol 15977.00
iteration 371 sol 15980.00
iteration 372 sol 15982.00
iteration 373 sol 15959.00
iteration 374 sol 15976.00
iteration 375 sol 15944.00
iteration 376 sol 15965.00
iteration 377 sol 15970.00
iteration 378 sol 15979.00
iteration 379 sol 15966.00
iteration 380 sol 15973.00
iteration 381 sol 15978.00
iteration 382 sol 15973.00
iteration 383 sol 15961.00
iteration 384 sol 15972.00
iteration 385 sol 15968.00
iteration 386 sol 15974.00
iteration 387 sol 15968.00
iteration 388 sol 15972.00
iteration 389 sol 15965.00
iteration 390 sol 15976.00
iteration 391 sol 15962.00
iteration 392 sol 15978.00
iteration 393 sol 15982.00
iteration 394 sol 15960.00
iteration 395 sol 15964.00
iteration 396 sol 15962.00
iteration 397 sol 15971.00
iteration 398 sol 15966.00
iteration 399 sol 15956.00
iteration 400 sol 15956.00
iteration 401 sol 15974.00
iteration 402 sol 15967.00
iteration 403 sol 15986.00
iteration 404 sol 15969.00
iteration 405 sol 15971.00
iteration 406 sol 15968.00
iteration 407 sol 15984.00
iteration 408 sol 15982.00
iteration 409 sol 15970.00
iteration 410 sol 15973.00
iteration 411 sol 15966.00
iteration 412 sol 15975.00
iteration 413 sol 15981.00
iteration 414 sol 15977.00
iteration 415 sol 15980.00
iteration 416 sol 15966.00
iteration 417 sol 15974.00
iteration 418 sol 15978.00
iteration 419 sol 15979.00
iteration 420 sol 15960.00
iteration 421 sol 15968.00
iteration 422 sol 15971.00
iteration 423 sol 15975.00
iteration 424 sol 15968.00
iteration 425 sol 15976.00
iteration 426 sol 15951.00
iteration 427 sol 15978.00
iteration 428 sol 15946.00
iteration 429 sol 15977.00
iteration 430 sol 15965.00
iteration 431 sol 15952.00
iteration 432 sol 15965.00
iteration 433 sol 15969.00
iteration 434 sol 15978.00
iteration 435 sol 15967.00
iteration 436 sol 15979.00
iteration 437 sol 15966.00
iteration 438 sol 15962.00
iteration 439 sol 15971.00
iteration 440 sol 15964.00
iteration 441 sol 15960.00
iteration 442 sol 15976.00
iteration 443 sol 15976.00
iteration 444 sol 15972.00
iteration 445 sol 15960.00
iteration 446 sol 15983.00
iteration 447 sol 15975.00
iteration 448 sol 15973.00
iteration 449 sol 15961.00
iteration 450 sol 15973.00
iteration 451 sol 15968.00
iteration 452 sol 15965.00
iteration 453 sol 15980.00
iteration 454 sol 15974.00
iteration 455 sol 15949.00
iteration 456 sol 15975.00
iteration 457 sol 15967.00
iteration 458 sol 15975.00
iteration 459 sol 15962.00
iteration 460 sol 15968.00
iteration 461 sol 15964.00
iteration 462 sol 15970.00
iteration 463 sol 15982.00
iteration 464 sol 15963.00
iteration 465 sol 15976.00
iteration 466 sol 15966.00
iteration 467 sol 15960.00
iteration 468 sol 15965.00
iteration 469 sol 15961.00
iteration 470 sol 15961.00
iteration 471 sol 15975.00
iteration 472 sol 15979.00
iteration 473 sol 15976.00
iteration 474 sol 15982.00
iteration 475 sol 15968.00
iteration 476 sol 15968.00
iteration 477 sol 15974.00
iteration 478 sol 15957.00
iteration 479 sol 15969.00
iteration 480 sol 15949.00
iteration 481 sol 15974.00
iteration 482 sol 15987.00
iteration 483 sol 15969.00
iteration 484 sol 15981.00
iteration 485 sol 15964.00
iteration 486 sol 15968.00
iteration 487 sol 15964.00
iteration 488 sol 15964.00
iteration 489 sol 15972.00
iteration 490 sol 15973.00
iteration 491 sol 15968.00
iteration 492 sol 15982.00
iteration 493 sol 15980.00
iteration 494 sol 15984.00
iteration 495 sol 15977.00
iteration 496 sol 15967.00
iteration 497 sol 15955.00
iteration 498 sol 15974.00
iteration 499 sol 15946.00
iteration 500 sol 15963.00
iteration 501 sol 15980.00
iteration 502 sol 15976.00
iteration 503 sol 15964.00
iteration 504 sol 15975.00
iteration 505 sol 15982.00
iteration 506 sol 15968.00
iteration 507 sol 15968.00
iteration 508 sol 15974.00
iteration 509 sol 15961.00
iteration 510 sol 15974.00
iteration 511 sol 15970.00
iteration 512 sol 15953.00
iteration 513 sol 15972.00
iteration 514 sol 15971.00
iteration 515 sol 15985.00
iteration 516 sol 15980.00
iteration 517 sol 15977.00
iteration 518 sol 15982.00
iteration 519 sol 15973.00
iteration 520 sol 15982.00
iteration 521 sol 15953.00
iteration 522 sol 15965.00
iteration 523 sol 15963.00
iteration 524 sol 15983.00
iteration 525 sol 15979.00
iteration 526 sol 15971.00
iteration 527 sol 15979.00
iteration 528 sol 15960.00
iteration 529 sol 15960.00
iteration 530 sol 15963.00
iteration 531 sol 15973.00
iteration 532 sol 15982.00
iteration 533 sol 15971.00
iteration 534 sol 15975.00
iteration 535 sol 15983.00
iteration 536 sol 15971.00
iteration 537 sol 15972.00
iteration 538 sol 15972.00
iteration 539 sol 15960.00
iteration 540 sol 15972.00
iteration 541 sol 15964.00
iteration 542 sol 15981.00
iteration 543 sol 15976.00
iteration 544 sol 15949.00
iteration 545 sol 15970.00
iteration 546 sol 15967.00
iteration 547 sol 15989.00
iteration 548 sol 15976.00
iteration 549 sol 15977.00
iteration 550 sol 15979.00
iteration 551 sol 15969.00
iteration 552 sol 15963.00
iteration 553 sol 15955.00
Number of iterations = 554
Best Solution was found in iteration = 16
Time used by neighbor | Times each neighbor was used | Improvements
N_1 = 0.00 | 35644 | 1
N_2 = 3.77 | 35645 | 14804
N_3 = 0.00 | 35645 | 0
N_4 = 593.79 | 35645 | 11506
Time to find the best solution = 21.36
Solution = 15992.00
Time = 600.01
