iteration 0 sol 5756.00
iteration 1 sol 5957.00
iteration 2 sol 5900.00
iteration 3 sol 5893.00
iteration 4 sol 5902.00
iteration 5 sol 5936.00
iteration 6 sol 6002.00
iteration 7 sol 5837.00
iteration 8 sol 5974.00
iteration 9 sol 5907.00
iteration 10 sol 5893.00
iteration 11 sol 5940.00
iteration 12 sol 5915.00
iteration 13 sol 5926.00
iteration 14 sol 5815.00
iteration 15 sol 5922.00
iteration 16 sol 5974.00
iteration 17 sol 5937.00
iteration 18 sol 5915.00
iteration 19 sol 5936.00
iteration 20 sol 5884.00
iteration 21 sol 5862.00
iteration 22 sol 5924.00
iteration 23 sol 5940.00
iteration 24 sol 5968.00
iteration 25 sol 6005.00
iteration 26 sol 5876.00
iteration 27 sol 5972.00
iteration 28 sol 5944.00
iteration 29 sol 5948.00
iteration 30 sol 5872.00
iteration 31 sol 5886.00
iteration 32 sol 5766.00
iteration 33 sol 5812.00
iteration 34 sol 5896.00
iteration 35 sol 5897.00
iteration 36 sol 5930.00
iteration 37 sol 5955.00
iteration 38 sol 6027.00
iteration 39 sol 5979.00
iteration 40 sol 5832.00
iteration 41 sol 6022.00
iteration 42 sol 5900.00
iteration 43 sol 5925.00
iteration 44 sol 5872.00
iteration 45 sol 5863.00
iteration 46 sol 6022.00
iteration 47 sol 5951.00
iteration 48 sol 5897.00
iteration 49 sol 5961.00
iteration 50 sol 5872.00
iteration 51 sol 5885.00
iteration 52 sol 5988.00
iteration 53 sol 5972.00
iteration 54 sol 5829.00
iteration 55 sol 5938.00
iteration 56 sol 5897.00
iteration 57 sol 5878.00
iteration 58 sol 5926.00
iteration 59 sol 5994.00
iteration 60 sol 5912.00
iteration 61 sol 5886.00
iteration 62 sol 5874.00
iteration 63 sol 5997.00
iteration 64 sol 5935.00
iteration 65 sol 5988.00
iteration 66 sol 5853.00
iteration 67 sol 5950.00
iteration 68 sol 6057.00
iteration 69 sol 5885.00
iteration 70 sol 5979.00
iteration 71 sol 5946.00
iteration 72 sol 5851.00
iteration 73 sol 5814.00
iteration 74 sol 6008.00
iteration 75 sol 5894.00
iteration 76 sol 5886.00
iteration 77 sol 5955.00
iteration 78 sol 5855.00
iteration 79 sol 5905.00
iteration 80 sol 5805.00
iteration 81 sol 5898.00
iteration 82 sol 5970.00
iteration 83 sol 5956.00
iteration 84 sol 6003.00
iteration 85 sol 5929.00
iteration 86 sol 5881.00
iteration 87 sol 5960.00
iteration 88 sol 5945.00
iteration 89 sol 5844.00
iteration 90 sol 5956.00
iteration 91 sol 5919.00
iteration 92 sol 6059.00
iteration 93 sol 6030.00
iteration 94 sol 5863.00
iteration 95 sol 5891.00
iteration 96 sol 5954.00
iteration 97 sol 5932.00
iteration 98 sol 5982.00
iteration 99 sol 5956.00
iteration 100 sol 5968.00
iteration 101 sol 5943.00
iteration 102 sol 5953.00
iteration 103 sol 5844.00
iteration 104 sol 5806.00
iteration 105 sol 5970.00
iteration 106 sol 5933.00
iteration 107 sol 5919.00
iteration 108 sol 6026.00
iteration 109 sol 5759.00
iteration 110 sol 5962.00
iteration 111 sol 6011.00
iteration 112 sol 6032.00
iteration 113 sol 6008.00
iteration 114 sol 5858.00
iteration 115 sol 6003.00
iteration 116 sol 5952.00
iteration 117 sol 5954.00
iteration 118 sol 5978.00
iteration 119 sol 5958.00
iteration 120 sol 5928.00
iteration 121 sol 5992.00
iteration 122 sol 5856.00
iteration 123 sol 5890.00
iteration 124 sol 6038.00
iteration 125 sol 5823.00
iteration 126 sol 5914.00
iteration 127 sol 5933.00
iteration 128 sol 5782.00
iteration 129 sol 5892.00
iteration 130 sol 5878.00
iteration 131 sol 5859.00
iteration 132 sol 5841.00
iteration 133 sol 5999.00
iteration 134 sol 5938.00
iteration 135 sol 5980.00
iteration 136 sol 5773.00
iteration 137 sol 5817.00
iteration 138 sol 5935.00
iteration 139 sol 5938.00
iteration 140 sol 5961.00
iteration 141 sol 6021.00
iteration 142 sol 5909.00
iteration 143 sol 5902.00
iteration 144 sol 5973.00
iteration 145 sol 5880.00
iteration 146 sol 5987.00
iteration 147 sol 5952.00
iteration 148 sol 5853.00
iteration 149 sol 5794.00
iteration 150 sol 5987.00
iteration 151 sol 5840.00
iteration 152 sol 5786.00
iteration 153 sol 5986.00
iteration 154 sol 5831.00
iteration 155 sol 5929.00
iteration 156 sol 6006.00
iteration 157 sol 6017.00
iteration 158 sol 5928.00
iteration 159 sol 5914.00
iteration 160 sol 5903.00
iteration 161 sol 5873.00
iteration 162 sol 6023.00
iteration 163 sol 5810.00
iteration 164 sol 5867.00
iteration 165 sol 5849.00
iteration 166 sol 5962.00
iteration 167 sol 5956.00
iteration 168 sol 5983.00
iteration 169 sol 5943.00
iteration 170 sol 5885.00
iteration 171 sol 5949.00
iteration 172 sol 5865.00
iteration 173 sol 5954.00
iteration 174 sol 5879.00
iteration 175 sol 5899.00
iteration 176 sol 6025.00
iteration 177 sol 5777.00
iteration 178 sol 5860.00
iteration 179 sol 5998.00
iteration 180 sol 5941.00
iteration 181 sol 5819.00
iteration 182 sol 5934.00
iteration 183 sol 5937.00
iteration 184 sol 6017.00
iteration 185 sol 5918.00
iteration 186 sol 5813.00
iteration 187 sol 6000.00
iteration 188 sol 6008.00
iteration 189 sol 5856.00
iteration 190 sol 5871.00
iteration 191 sol 5954.00
iteration 192 sol 5904.00
iteration 193 sol 5950.00
iteration 194 sol 5877.00
iteration 195 sol 5862.00
iteration 196 sol 6000.00
iteration 197 sol 5877.00
iteration 198 sol 5850.00
iteration 199 sol 6011.00
iteration 200 sol 5946.00
iteration 201 sol 5907.00
iteration 202 sol 5992.00
iteration 203 sol 5970.00
iteration 204 sol 5948.00
iteration 205 sol 5886.00
iteration 206 sol 5887.00
iteration 207 sol 5860.00
iteration 208 sol 5934.00
iteration 209 sol 5858.00
iteration 210 sol 5929.00
iteration 211 sol 5965.00
iteration 212 sol 5878.00
iteration 213 sol 5957.00
iteration 214 sol 5888.00
iteration 215 sol 6007.00
iteration 216 sol 5994.00
iteration 217 sol 6042.00
iteration 218 sol 5987.00
iteration 219 sol 5874.00
iteration 220 sol 5959.00
iteration 221 sol 5781.00
iteration 222 sol 5869.00
iteration 223 sol 5935.00
iteration 224 sol 5955.00
iteration 225 sol 5803.00
iteration 226 sol 6067.00
iteration 227 sol 5905.00
iteration 228 sol 5955.00
iteration 229 sol 5802.00
iteration 230 sol 5790.00
iteration 231 sol 6042.00
iteration 232 sol 5821.00
iteration 233 sol 5968.00
iteration 234 sol 5904.00
iteration 235 sol 5870.00
iteration 236 sol 5944.00
iteration 237 sol 5847.00
iteration 238 sol 5790.00
iteration 239 sol 5897.00
iteration 240 sol 5959.00
iteration 241 sol 6018.00
iteration 242 sol 5867.00
iteration 243 sol 5849.00
iteration 244 sol 5747.00
iteration 245 sol 5979.00
iteration 246 sol 5939.00
iteration 247 sol 5829.00
iteration 248 sol 6007.00
iteration 249 sol 5889.00
iteration 250 sol 5926.00
iteration 251 sol 5943.00
iteration 252 sol 5832.00
iteration 253 sol 6005.00
iteration 254 sol 5949.00
iteration 255 sol 5830.00
iteration 256 sol 5913.00
iteration 257 sol 6031.00
iteration 258 sol 5947.00
iteration 259 sol 5957.00
iteration 260 sol 6052.00
iteration 261 sol 5945.00
iteration 262 sol 5841.00
iteration 263 sol 5920.00
iteration 264 sol 5979.00
iteration 265 sol 5975.00
iteration 266 sol 6082.00
iteration 267 sol 5996.00
iteration 268 sol 5927.00
iteration 269 sol 5957.00
iteration 270 sol 5996.00
iteration 271 sol 5931.00
iteration 272 sol 5952.00
iteration 273 sol 5852.00
iteration 274 sol 6039.00
iteration 275 sol 5873.00
iteration 276 sol 5878.00
iteration 277 sol 5871.00
iteration 278 sol 5958.00
iteration 279 sol 5975.00
iteration 280 sol 5950.00
iteration 281 sol 5943.00
iteration 282 sol 5805.00
iteration 283 sol 5973.00
iteration 284 sol 5896.00
iteration 285 sol 5919.00
iteration 286 sol 5815.00
iteration 287 sol 5962.00
iteration 288 sol 5858.00
iteration 289 sol 5978.00
iteration 290 sol 5945.00
iteration 291 sol 6032.00
iteration 292 sol 5979.00
iteration 293 sol 5957.00
iteration 294 sol 5992.00
iteration 295 sol 5829.00
iteration 296 sol 5928.00
iteration 297 sol 5930.00
iteration 298 sol 5882.00
iteration 299 sol 5857.00
iteration 300 sol 5952.00
iteration 301 sol 5877.00
iteration 302 sol 5936.00
iteration 303 sol 5983.00
iteration 304 sol 5962.00
iteration 305 sol 5957.00
iteration 306 sol 5941.00
iteration 307 sol 5845.00
iteration 308 sol 5957.00
iteration 309 sol 5972.00
iteration 310 sol 5929.00
iteration 311 sol 5882.00
iteration 312 sol 5871.00
iteration 313 sol 5990.00
iteration 314 sol 5979.00
iteration 315 sol 5987.00
iteration 316 sol 5847.00
iteration 317 sol 6006.00
iteration 318 sol 6009.00
iteration 319 sol 5996.00
iteration 320 sol 5986.00
iteration 321 sol 5840.00
iteration 322 sol 5920.00
iteration 323 sol 5894.00
iteration 324 sol 5974.00
iteration 325 sol 5955.00
iteration 326 sol 6004.00
iteration 327 sol 5929.00
iteration 328 sol 5986.00
iteration 329 sol 5841.00
iteration 330 sol 5947.00
iteration 331 sol 5900.00
iteration 332 sol 5897.00
iteration 333 sol 5953.00
iteration 334 sol 5806.00
iteration 335 sol 5894.00
iteration 336 sol 5886.00
iteration 337 sol 5815.00
iteration 338 sol 5868.00
iteration 339 sol 6021.00
iteration 340 sol 5890.00
iteration 341 sol 5976.00
iteration 342 sol 5956.00
iteration 343 sol 5933.00
iteration 344 sol 5910.00
iteration 345 sol 5969.00
iteration 346 sol 5845.00
iteration 347 sol 5930.00
iteration 348 sol 5976.00
iteration 349 sol 5979.00
iteration 350 sol 5911.00
iteration 351 sol 5847.00
iteration 352 sol 5800.00
iteration 353 sol 5962.00
iteration 354 sol 5874.00
iteration 355 sol 5951.00
iteration 356 sol 5917.00
iteration 357 sol 5825.00
iteration 358 sol 5864.00
iteration 359 sol 5922.00
iteration 360 sol 5922.00
iteration 361 sol 5981.00
iteration 362 sol 5766.00
iteration 363 sol 5937.00
iteration 364 sol 5945.00
iteration 365 sol 5953.00
iteration 366 sol 5819.00
iteration 367 sol 5931.00
iteration 368 sol 5806.00
iteration 369 sol 5883.00
iteration 370 sol 5914.00
iteration 371 sol 5959.00
iteration 372 sol 5935.00
iteration 373 sol 5961.00
iteration 374 sol 5961.00
iteration 375 sol 5829.00
iteration 376 sol 5926.00
iteration 377 sol 5921.00
iteration 378 sol 5984.00
iteration 379 sol 5842.00
iteration 380 sol 5816.00
iteration 381 sol 5891.00
iteration 382 sol 5913.00
iteration 383 sol 5852.00
iteration 384 sol 5995.00
iteration 385 sol 5933.00
iteration 386 sol 6001.00
iteration 387 sol 5909.00
iteration 388 sol 5932.00
iteration 389 sol 5852.00
iteration 390 sol 5785.00
iteration 391 sol 5925.00
iteration 392 sol 5945.00
iteration 393 sol 5864.00
iteration 394 sol 5924.00
iteration 395 sol 5878.00
iteration 396 sol 5881.00
iteration 397 sol 5793.00
iteration 398 sol 6004.00
iteration 399 sol 5975.00
iteration 400 sol 5949.00
iteration 401 sol 5911.00
iteration 402 sol 5825.00
iteration 403 sol 5966.00
iteration 404 sol 5923.00
iteration 405 sol 5978.00
iteration 406 sol 5941.00
iteration 407 sol 5839.00
iteration 408 sol 5956.00
iteration 409 sol 5837.00
iteration 410 sol 5815.00
iteration 411 sol 5858.00
iteration 412 sol 5835.00
iteration 413 sol 5952.00
iteration 414 sol 5772.00
iteration 415 sol 5910.00
iteration 416 sol 5986.00
iteration 417 sol 5908.00
iteration 418 sol 5937.00
iteration 419 sol 5905.00
iteration 420 sol 5969.00
iteration 421 sol 5961.00
iteration 422 sol 5948.00
iteration 423 sol 5937.00
iteration 424 sol 5901.00
iteration 425 sol 5824.00
iteration 426 sol 5944.00
iteration 427 sol 5878.00
iteration 428 sol 5918.00
iteration 429 sol 5951.00
iteration 430 sol 5922.00
iteration 431 sol 5889.00
iteration 432 sol 5978.00
iteration 433 sol 5885.00
iteration 434 sol 6001.00
iteration 435 sol 5972.00
iteration 436 sol 5961.00
iteration 437 sol 5907.00
iteration 438 sol 6011.00
iteration 439 sol 5874.00
iteration 440 sol 6080.00
iteration 441 sol 5867.00
iteration 442 sol 5820.00
iteration 443 sol 5862.00
iteration 444 sol 5932.00
iteration 445 sol 5980.00
iteration 446 sol 6034.00
iteration 447 sol 5982.00
iteration 448 sol 5935.00
iteration 449 sol 6023.00
iteration 450 sol 5979.00
iteration 451 sol 5817.00
iteration 452 sol 5917.00
iteration 453 sol 5931.00
iteration 454 sol 5770.00
iteration 455 sol 5776.00
iteration 456 sol 5764.00
iteration 457 sol 5883.00
iteration 458 sol 5898.00
iteration 459 sol 6001.00
iteration 460 sol 5873.00
iteration 461 sol 5862.00
iteration 462 sol 5912.00
iteration 463 sol 5974.00
iteration 464 sol 5962.00
iteration 465 sol 5950.00
iteration 466 sol 5804.00
iteration 467 sol 5902.00
iteration 468 sol 5928.00
iteration 469 sol 5932.00
iteration 470 sol 5939.00
iteration 471 sol 5919.00
iteration 472 sol 5891.00
iteration 473 sol 6018.00
iteration 474 sol 5956.00
iteration 475 sol 5884.00
iteration 476 sol 5837.00
iteration 477 sol 5890.00
iteration 478 sol 5901.00
iteration 479 sol 5922.00
iteration 480 sol 5923.00
iteration 481 sol 5928.00
iteration 482 sol 5768.00
iteration 483 sol 5916.00
iteration 484 sol 5899.00
iteration 485 sol 5942.00
iteration 486 sol 5894.00
iteration 487 sol 5934.00
iteration 488 sol 5951.00
iteration 489 sol 5865.00
iteration 490 sol 5898.00
iteration 491 sol 5999.00
iteration 492 sol 5910.00
iteration 493 sol 5769.00
iteration 494 sol 5940.00
iteration 495 sol 5990.00
iteration 496 sol 5914.00
iteration 497 sol 5948.00
iteration 498 sol 6032.00
iteration 499 sol 5698.00
iteration 500 sol 5864.00
iteration 501 sol 5973.00
iteration 502 sol 5943.00
iteration 503 sol 5853.00
iteration 504 sol 5906.00
iteration 505 sol 5858.00
iteration 506 sol 5873.00
iteration 507 sol 5956.00
iteration 508 sol 5967.00
iteration 509 sol 5936.00
iteration 510 sol 5975.00
iteration 511 sol 5926.00
iteration 512 sol 5881.00
iteration 513 sol 5847.00
iteration 514 sol 5985.00
iteration 515 sol 5865.00
iteration 516 sol 5930.00
iteration 517 sol 5927.00
iteration 518 sol 5965.00
iteration 519 sol 5902.00
iteration 520 sol 5927.00
iteration 521 sol 5865.00
iteration 522 sol 5929.00
iteration 523 sol 5882.00
iteration 524 sol 5891.00
iteration 525 sol 5954.00
iteration 526 sol 5861.00
iteration 527 sol 5919.00
iteration 528 sol 6057.00
iteration 529 sol 5918.00
iteration 530 sol 5979.00
iteration 531 sol 5998.00
iteration 532 sol 5890.00
iteration 533 sol 5973.00
iteration 534 sol 5832.00
iteration 535 sol 5897.00
iteration 536 sol 5920.00
iteration 537 sol 5843.00
iteration 538 sol 5985.00
iteration 539 sol 6003.00
iteration 540 sol 5913.00
iteration 541 sol 5871.00
iteration 542 sol 5878.00
iteration 543 sol 5796.00
iteration 544 sol 5983.00
iteration 545 sol 5913.00
iteration 546 sol 5990.00
iteration 547 sol 6051.00
iteration 548 sol 6041.00
iteration 549 sol 5945.00
iteration 550 sol 5746.00
iteration 551 sol 5949.00
iteration 552 sol 5906.00
iteration 553 sol 5970.00
iteration 554 sol 6000.00
iteration 555 sol 5888.00
iteration 556 sol 6021.00
iteration 557 sol 5883.00
iteration 558 sol 5803.00
iteration 559 sol 5831.00
iteration 560 sol 5797.00
iteration 561 sol 6005.00
iteration 562 sol 5981.00
iteration 563 sol 5864.00
iteration 564 sol 5979.00
iteration 565 sol 6020.00
iteration 566 sol 5896.00
iteration 567 sol 5967.00
iteration 568 sol 6022.00
iteration 569 sol 5827.00
iteration 570 sol 5995.00
iteration 571 sol 5881.00
iteration 572 sol 5865.00
iteration 573 sol 5942.00
iteration 574 sol 5907.00
iteration 575 sol 5923.00
iteration 576 sol 5815.00
iteration 577 sol 5938.00
iteration 578 sol 5973.00
iteration 579 sol 5968.00
iteration 580 sol 5856.00
iteration 581 sol 5905.00
iteration 582 sol 5944.00
iteration 583 sol 5983.00
iteration 584 sol 5949.00
iteration 585 sol 5935.00
iteration 586 sol 5983.00
iteration 587 sol 5871.00
iteration 588 sol 5786.00
iteration 589 sol 5909.00
iteration 590 sol 5918.00
iteration 591 sol 5984.00
iteration 592 sol 5887.00
iteration 593 sol 5898.00
iteration 594 sol 5856.00
iteration 595 sol 5898.00
iteration 596 sol 5760.00
iteration 597 sol 5865.00
iteration 598 sol 5879.00
iteration 599 sol 5957.00
iteration 600 sol 5921.00
iteration 601 sol 5793.00
iteration 602 sol 5907.00
iteration 603 sol 5927.00
iteration 604 sol 5945.00
iteration 605 sol 5968.00
iteration 606 sol 5824.00
iteration 607 sol 5982.00
iteration 608 sol 5864.00
iteration 609 sol 6050.00
iteration 610 sol 5945.00
iteration 611 sol 5900.00
iteration 612 sol 5901.00
iteration 613 sol 5948.00
iteration 614 sol 5937.00
iteration 615 sol 5932.00
iteration 616 sol 6011.00
iteration 617 sol 5951.00
iteration 618 sol 5957.00
iteration 619 sol 5846.00
iteration 620 sol 5975.00
iteration 621 sol 5920.00
iteration 622 sol 5967.00
iteration 623 sol 5846.00
iteration 624 sol 5946.00
iteration 625 sol 5950.00
iteration 626 sol 5828.00
Number of iterations = 627
Best Solution was found in iteration = 266
Time used by neighbor | Times each neighbor was used | Improvements
N_1 = 0.11 | 44545 | 403
N_2 = 130.51 | 44546 | 38606
N_3 = 0.02 | 44546 | 269
N_4 = 464.20 | 44546 | 10572
Time to find the best solution = 252.36
Solution = 6082.00
Time = 600.00
