iteration 0 sol 32759.00
iteration 1 sol 32379.00
iteration 2 sol 32633.00
iteration 3 sol 32698.00
iteration 4 sol 32630.00
iteration 5 sol 32882.00
iteration 6 sol 32540.00
iteration 7 sol 32684.00
iteration 8 sol 32879.00
iteration 9 sol 32536.00
iteration 10 sol 32761.00
iteration 11 sol 32619.00
iteration 12 sol 32557.00
iteration 13 sol 32763.00
iteration 14 sol 32693.00
iteration 15 sol 32687.00
iteration 16 sol 32540.00
iteration 17 sol 32466.00
iteration 18 sol 32696.00
iteration 19 sol 32465.00
iteration 20 sol 32736.00
iteration 21 sol 32605.00
iteration 22 sol 32625.00
iteration 23 sol 32447.00
iteration 24 sol 32827.00
iteration 25 sol 32538.00
iteration 26 sol 32758.00
iteration 27 sol 32812.00
iteration 28 sol 32614.00
iteration 29 sol 32441.00
iteration 30 sol 32528.00
iteration 31 sol 32378.00
iteration 32 sol 32687.00
iteration 33 sol 32827.00
iteration 34 sol 32624.00
iteration 35 sol 32696.00
iteration 36 sol 32616.00
iteration 37 sol 32556.00
iteration 38 sol 32757.00
iteration 39 sol 32757.00
iteration 40 sol 32812.00
iteration 41 sol 32688.00
iteration 42 sol 32630.00
iteration 43 sol 32435.00
iteration 44 sol 32819.00
iteration 45 sol 32685.00
iteration 46 sol 32257.00
iteration 47 sol 32536.00
iteration 48 sol 32762.00
iteration 49 sol 32621.00
iteration 50 sol 32626.00
iteration 51 sol 32824.00
iteration 52 sol 32528.00
iteration 53 sol 32628.00
iteration 54 sol 32819.00
iteration 55 sol 32878.00
iteration 56 sol 32704.00
iteration 57 sol 32447.00
iteration 58 sol 32763.00
iteration 59 sol 32266.00
iteration 60 sol 32828.00
iteration 61 sol 32766.00
iteration 62 sol 32820.00
iteration 63 sol 32534.00
iteration 64 sol 32348.00
Number of iterations = 65
Best Solution was found in iteration = 5
Time used by neighbor | Times each neighbor was used | Improvements
N_1 = 0.00 | 5815 | 0
N_2 = 25.73 | 5816 | 4515
N_3 = 0.00 | 5816 | 14
N_4 = 573.53 | 5816 | 2841
Time to find the best solution = 55.98
Solution = 32882.00
Time = 600.02
