iteration 0 sol 15256.00
iteration 1 sol 15790.00
iteration 2 sol 15633.00
iteration 3 sol 15048.00
iteration 4 sol 15779.00
iteration 5 sol 15638.00
iteration 6 sol 15210.00
iteration 7 sol 15409.00
iteration 8 sol 15416.00
iteration 9 sol 15484.00
iteration 10 sol 15783.00
iteration 11 sol 15771.00
iteration 12 sol 15386.00
iteration 13 sol 15520.00
iteration 14 sol 15446.00
iteration 15 sol 15479.00
iteration 16 sol 15031.00
iteration 17 sol 15705.00
iteration 18 sol 15440.00
iteration 19 sol 15201.00
iteration 20 sol 15671.00
iteration 21 sol 15678.00
iteration 22 sol 15542.00
iteration 23 sol 15829.00
iteration 24 sol 15901.00
iteration 25 sol 15686.00
iteration 26 sol 15506.00
iteration 27 sol 15898.00
iteration 28 sol 15597.00
iteration 29 sol 15440.00
iteration 30 sol 15724.00
iteration 31 sol 15396.00
iteration 32 sol 16092.00
iteration 33 sol 15531.00
iteration 34 sol 15448.00
iteration 35 sol 15920.00
iteration 36 sol 15369.00
iteration 37 sol 15288.00
iteration 38 sol 15734.00
iteration 39 sol 15261.00
iteration 40 sol 15642.00
iteration 41 sol 15214.00
iteration 42 sol 15892.00
iteration 43 sol 15575.00
iteration 44 sol 15795.00
iteration 45 sol 15622.00
iteration 46 sol 14978.00
iteration 47 sol 15266.00
iteration 48 sol 15564.00
iteration 49 sol 15366.00
iteration 50 sol 15537.00
iteration 51 sol 15875.00
iteration 52 sol 15429.00
iteration 53 sol 15629.00
iteration 54 sol 15187.00
iteration 55 sol 15706.00
iteration 56 sol 15476.00
iteration 57 sol 14841.00
iteration 58 sol 15041.00
iteration 59 sol 15665.00
iteration 60 sol 15602.00
iteration 61 sol 15241.00
iteration 62 sol 15600.00
iteration 63 sol 15798.00
iteration 64 sol 15467.00
iteration 65 sol 15665.00
iteration 66 sol 15560.00
iteration 67 sol 15343.00
iteration 68 sol 15600.00
iteration 69 sol 15402.00
iteration 70 sol 15518.00
iteration 71 sol 15621.00
iteration 72 sol 15493.00
iteration 73 sol 15949.00
iteration 74 sol 15494.00
iteration 75 sol 15418.00
iteration 76 sol 15266.00
iteration 77 sol 15434.00
iteration 78 sol 15573.00
iteration 79 sol 15389.00
iteration 80 sol 15566.00
iteration 81 sol 15343.00
iteration 82 sol 15578.00
iteration 83 sol 15278.00
iteration 84 sol 15757.00
iteration 85 sol 15850.00
iteration 86 sol 15169.00
iteration 87 sol 15420.00
iteration 88 sol 15585.00
iteration 89 sol 15795.00
iteration 90 sol 15161.00
iteration 91 sol 15506.00
iteration 92 sol 15573.00
iteration 93 sol 15585.00
iteration 94 sol 15730.00
iteration 95 sol 15068.00
iteration 96 sol 15707.00
iteration 97 sol 15683.00
iteration 98 sol 15857.00
iteration 99 sol 15212.00
iteration 100 sol 15201.00
iteration 101 sol 15391.00
Number of iterations = 102
Best Solution was found in iteration = 32
Time used by neighbor | Times each neighbor was used | Improvements
N_1 = 0.63 | 8221 | 522
N_2 = 475.14 | 8222 | 8209
N_3 = 0.00 | 8222 | 10
N_4 = 121.43 | 8222 | 1189
Time to find the best solution = 208.21
Solution = 16092.00
Time = 600.00
