iteration 0 sol 15820.00
iteration 1 sol 15904.00
iteration 2 sol 15758.00
iteration 3 sol 15869.00
iteration 4 sol 15751.00
iteration 5 sol 15853.00
iteration 6 sol 15901.00
iteration 7 sol 15931.00
iteration 8 sol 15927.00
iteration 9 sol 15924.00
iteration 10 sol 15816.00
iteration 11 sol 15579.00
iteration 12 sol 15809.00
iteration 13 sol 15841.00
iteration 14 sol 15781.00
iteration 15 sol 15868.00
iteration 16 sol 15795.00
iteration 17 sol 15988.00
iteration 18 sol 15799.00
iteration 19 sol 15784.00
iteration 20 sol 15879.00
iteration 21 sol 15930.00
iteration 22 sol 15928.00
iteration 23 sol 15904.00
iteration 24 sol 15863.00
iteration 25 sol 15949.00
iteration 26 sol 15889.00
iteration 27 sol 15791.00
iteration 28 sol 15858.00
iteration 29 sol 15794.00
iteration 30 sol 15736.00
iteration 31 sol 15825.00
iteration 32 sol 15933.00
iteration 33 sol 15925.00
iteration 34 sol 15928.00
iteration 35 sol 15808.00
iteration 36 sol 15890.00
iteration 37 sol 15695.00
iteration 38 sol 15839.00
iteration 39 sol 15889.00
iteration 40 sol 15955.00
iteration 41 sol 15926.00
iteration 42 sol 15811.00
iteration 43 sol 15944.00
iteration 44 sol 16010.00
iteration 45 sol 15831.00
iteration 46 sol 15813.00
iteration 47 sol 15809.00
iteration 48 sol 15906.00
iteration 49 sol 15251.00
Number of iterations = 50
Best Solution was found in iteration = 44
Time used by neighbor | Times each neighbor was used | Improvements
N_1 = 0.50 | 7624 | 662
N_2 = 484.00 | 7625 | 7617
N_3 = 0.00 | 7624 | 2
N_4 = 113.70 | 7624 | 1125
Time to find the best solution = 557.50
Solution = 16010.00
Time = 600.05
