iteration 0 sol 12229.00
iteration 1 sol 12221.00
iteration 2 sol 12234.00
iteration 3 sol 12240.00
iteration 4 sol 12241.00
iteration 5 sol 12248.00
iteration 6 sol 12217.00
iteration 7 sol 12249.00
iteration 8 sol 12250.00
iteration 9 sol 12206.00
iteration 10 sol 12239.00
iteration 11 sol 12216.00
iteration 12 sol 12251.00
iteration 13 sol 12221.00
iteration 14 sol 12249.00
iteration 15 sol 12241.00
iteration 16 sol 12241.00
iteration 17 sol 12211.00
iteration 18 sol 12222.00
iteration 19 sol 12240.00
iteration 20 sol 12217.00
iteration 21 sol 12256.00
iteration 22 sol 12231.00
iteration 23 sol 12224.00
iteration 24 sol 12219.00
iteration 25 sol 12208.00
iteration 26 sol 12264.00
iteration 27 sol 12217.00
iteration 28 sol 12259.00
iteration 29 sol 12199.00
iteration 30 sol 12214.00
iteration 31 sol 12233.00
iteration 32 sol 12250.00
iteration 33 sol 12227.00
iteration 34 sol 12265.00
iteration 35 sol 12227.00
iteration 36 sol 12192.00
iteration 37 sol 12201.00
iteration 38 sol 12220.00
iteration 39 sol 12243.00
iteration 40 sol 12209.00
iteration 41 sol 12226.00
iteration 42 sol 12235.00
iteration 43 sol 12176.00
iteration 44 sol 12185.00
iteration 45 sol 12236.00
iteration 46 sol 12248.00
iteration 47 sol 12216.00
iteration 48 sol 12203.00
iteration 49 sol 12223.00
iteration 50 sol 12251.00
iteration 51 sol 12234.00
iteration 52 sol 12235.00
iteration 53 sol 12243.00
iteration 54 sol 12244.00
iteration 55 sol 12238.00
iteration 56 sol 12229.00
iteration 57 sol 12228.00
iteration 58 sol 12252.00
iteration 59 sol 12221.00
iteration 60 sol 12210.00
iteration 61 sol 12219.00
iteration 62 sol 12200.00
iteration 63 sol 12255.00
iteration 64 sol 12215.00
iteration 65 sol 12229.00
iteration 66 sol 12189.00
iteration 67 sol 12246.00
iteration 68 sol 12223.00
iteration 69 sol 12233.00
iteration 70 sol 12207.00
iteration 71 sol 12214.00
iteration 72 sol 12238.00
iteration 73 sol 12215.00
iteration 74 sol 12254.00
iteration 75 sol 12214.00
iteration 76 sol 12209.00
iteration 77 sol 12225.00
iteration 78 sol 12242.00
iteration 79 sol 12234.00
iteration 80 sol 12231.00
iteration 81 sol 12233.00
iteration 82 sol 12241.00
iteration 83 sol 12219.00
iteration 84 sol 12209.00
iteration 85 sol 12239.00
iteration 86 sol 12216.00
iteration 87 sol 12272.00
iteration 88 sol 12232.00
iteration 89 sol 12204.00
iteration 90 sol 12240.00
iteration 91 sol 12235.00
iteration 92 sol 12212.00
iteration 93 sol 12244.00
iteration 94 sol 12227.00
iteration 95 sol 12246.00
iteration 96 sol 12239.00
iteration 97 sol 12238.00
iteration 98 sol 12219.00
iteration 99 sol 12232.00
iteration 100 sol 12234.00
iteration 101 sol 12218.00
iteration 102 sol 12224.00
iteration 103 sol 12238.00
iteration 104 sol 12232.00
iteration 105 sol 12229.00
iteration 106 sol 12259.00
iteration 107 sol 12224.00
iteration 108 sol 12233.00
iteration 109 sol 12229.00
iteration 110 sol 12215.00
iteration 111 sol 12251.00
iteration 112 sol 12234.00
iteration 113 sol 12249.00
iteration 114 sol 12214.00
iteration 115 sol 12254.00
iteration 116 sol 12261.00
iteration 117 sol 12222.00
iteration 118 sol 12228.00
iteration 119 sol 12217.00
iteration 120 sol 12244.00
iteration 121 sol 12229.00
iteration 122 sol 12221.00
Number of iterations = 123
Best Solution was found in iteration = 87
Time used by neighbor | Times each neighbor was used | Improvements
N_1 = 31.83 | 14004 | 7647
N_2 = 306.96 | 14005 | 13776
N_3 = 0.00 | 14005 | 29
N_4 = 259.09 | 14005 | 1198
Time to find the best solution = 417.24
Solution = 12272.00
Time = 600.02
