instances,PLI
10000_500_200_1,0.004
10000_500_200_2,0.0
10000_500_200_3,2.0106
1000_250_125_1,0.064
1000_250_125_2,0.0769
1000_250_125_3,0.2663
1000_500_250_1,0.5874
1000_500_250_2,0.004
1000_500_250_3,0.0312
100_50_40_1,0.05
100_50_40_2,0.1001
100_50_40_3,0.0
100_75_50_1,0.7794
100_75_50_2,0.0801
100_75_50_3,0.5632
200_100_50_1,0.0
200_100_50_2,0.5025
200_100_50_3,0.4621
200_50_40_1,0.1502
200_50_40_2,0.0
200_50_40_3,0.0
400_100_50_1,0.4823
400_100_50_2,0.4823
400_100_50_3,0.4621
400_150_75_1,0.6351
400_150_75_2,0.1068
400_150_75_3,0.2763
400_200_100_1,0.7912
400_200_100_2,0.015
400_200_100_3,0.1101
500_125_50_1,0.6279
500_125_50_2,0.1603
500_125_50_3,0.839
500_250_100_1,1.231
500_250_100_2,0.044
500_250_100_3,0.2808
10000_500_200_4,0.008
1000_500_250_4,0.0008
1000_250_125_4,0.0064
500_250_100_4,0.024
500_125_50_4,0.2406
400_200_100_4,0.015
400_150_75_4,0.1335
400_100_50_4,0.04
200_100_50_4,0.1001
200_50_40_4,0.1001
100_75_50_4,0.1068
100_50_40_4,0.5025
10000_500_200_5,0.002
1000_500_250_5,0.0
1000_250_125_5,0.0096
500_250_100_5,0.0
500_125_50_5,0.0
400_200_100_5,0.0
400_150_75_5,0.0089
400_100_50_5,0.0
200_100_50_5,0.0
200_50_40_5,0.0
100_75_50_5,0.0
100_50_40_5,0.0
10000_500_200_6,0.008
1000_500_250_6,1.1695
1000_250_125_6,0.0769
500_250_100_6,0.3976
500_125_50_6,0.709
400_200_100_6,0.8725
400_150_75_6,0.1781
400_100_50_6,0.3009
200_100_50_6,0.6441
200_50_40_6,0.0
100_75_50_6,0.3747
100_50_40_6,0.0
10000_500_200_7,0.001
1000_500_250_7,0.6887
1000_250_125_7,0.1667
500_250_100_7,0.953
500_125_50_7,0.6279
400_200_100_7,0.6036
400_150_75_7,0.4375
400_100_50_7,0.04
200_100_50_7,0.5834
200_50_40_7,0.0
100_75_50_7,0.1068
100_50_40_7,0.05
10000_500_200_8,0.001
1000_500_250_8,1.4792
1000_250_125_8,0.276
500_250_100_8,0.7496
500_125_50_8,0.3532
400_200_100_8,0.5632
400_150_75_8,0.2227
400_100_50_8,0.3814
200_100_50_8,0.4621
200_50_40_8,0.7557
100_75_50_8,0.2674
100_50_40_8,0.1001
10000_500_200_9,0.004
1000_500_250_9,0.7943
1000_250_125_9,0.0769
500_250_100_9,0.6765
500_125_50_9,0.0801
400_200_100_9,0.2155
400_150_75_9,0.4195
400_100_50_9,0.8675
200_100_50_9,0.3009
200_50_40_9,0.2506
100_75_50_9,0.1068
100_50_40_9,0.05
10000_500_200_10,0.001
1000_500_250_10,1.1229
1000_250_125_10,0.3436
500_250_100_10,0.5025
500_125_50_10,0.7252
400_200_100_10,0.3966
400_150_75_10,0.915
400_100_50_10,0.3412
200_100_50_10,0.1603
200_50_40_10,0.3009
100_75_50_10,0.321
100_50_40_10,0.05
