instances,GRASP,GRASP+VNS,GRASP+Tabu,VNS,GRASP-BIT,GRASP+VNS-BIT,GRASP+Tabu-BIT,VNS-BIT
10000_500_200_2_0,600.0,600.0,600.0,600.0,600.0,600.0,600.0,600.0
10000_500_200_2_1,600.0,600.0,600.0,600.0,600.0,600.0,600.0,600.0
10000_500_200_2_2,600.0,600.0,600.0,600.0,600.0,600.0,600.0,600.0
10000_500_200_2_3,600.0,600.0,600.0,600.0,600.0,600.0,600.0,600.0
10000_500_200_2_4,600.0,600.0,600.0,600.0,600.0,600.0,600.0,600.0
10000_500_200_2_5,600.0,600.0,600.0,600.0,600.0,600.0,600.0,600.0
10000_500_200_2_6,600.0,600.0,600.0,600.0,600.0,600.0,600.0,600.0
10000_500_200_2_7,600.0,600.0,600.0,600.0,600.0,600.0,600.0,600.0
10000_500_200_2_8,600.0,600.0,600.0,600.0,600.0,600.0,600.0,600.0
10000_500_200_2_9,600.0,600.0,600.0,600.0,600.0,600.0,600.0,600.0
1000_500_250_2_0,600.0,600.0,600.0,600.0,104.18,600.0,600.0,600.0
1000_500_250_2_1,600.0,600.0,600.0,600.0,94.04,600.0,600.0,600.0
1000_500_250_2_2,600.0,600.0,600.0,600.0,98.04,600.0,600.0,600.0
1000_500_250_2_3,600.0,600.0,600.0,600.0,99.33,600.0,600.0,600.0
1000_500_250_2_4,600.0,600.0,600.0,600.0,100.12,600.0,600.0,600.0
1000_500_250_2_5,600.0,600.0,600.0,600.0,101.68,600.0,600.0,600.0
1000_500_250_2_6,600.0,600.0,600.0,600.0,95.95,600.0,600.0,600.0
1000_500_250_2_7,600.0,600.0,600.0,600.0,91.29,600.0,600.0,600.0
1000_500_250_2_8,600.0,600.0,600.0,600.0,142.53,600.0,600.0,600.0
1000_500_250_2_9,600.0,600.0,600.0,600.0,101.02,600.0,600.0,600.0
500_250_100_2_0,600.0,600.0,600.0,600.0,33.15,600.0,600.0,600.0
500_250_100_2_1,600.0,600.0,600.0,323.63,15.76,600.0,600.0,600.0
500_250_100_2_2,600.0,600.0,600.0,153.76,34.59,600.0,600.0,600.0
500_250_100_2_3,600.0,600.0,600.0,299.96,23.06,600.0,600.0,600.0
500_250_100_2_4,600.0,600.0,600.0,600.0,37.23,600.0,600.0,600.0
500_250_100_2_5,600.0,600.0,600.0,600.0,35.73,600.0,600.0,600.0
500_250_100_2_6,600.0,600.0,600.0,600.0,40.43,600.0,600.0,600.0
500_250_100_2_7,600.0,600.0,600.0,134.05,24.5,600.0,600.0,600.0
500_250_100_2_8,600.0,600.0,600.0,386.75,40.42,600.0,600.0,600.0
500_250_100_2_9,600.0,600.0,600.0,150.69,35.38,600.0,600.0,600.0
100_75_50_2_0,600.0,600.0,600.0,14.56,2.6,600.0,600.0,11.11
100_75_50_2_1,600.0,600.0,600.0,0.5,1.88,600.0,600.0,6.8
100_75_50_2_2,600.0,600.0,600.0,12.09,3.27,600.0,600.0,12.32
100_75_50_2_3,600.0,600.0,600.0,0.95,3.18,600.0,600.0,10.65
100_75_50_2_4,600.0,600.0,600.0,1.18,2.88,600.0,600.0,13.51
100_75_50_2_5,600.0,600.0,600.0,0.77,2.52,600.0,600.0,14.05
100_75_50_2_6,600.0,600.0,600.0,18.35,3.48,600.0,600.0,27.44
100_75_50_2_7,600.0,600.0,600.0,1.79,3.42,600.0,600.0,12.14
100_75_50_2_8,600.0,600.0,600.0,1.78,2.53,600.0,600.0,16.86
100_75_50_2_9,600.0,600.0,600.0,0.83,2.85,600.0,600.0,10.92
10000_500_200_3_0,600.0,600.0,600.0,600.0,600.0,600.0,600.0,600.0
10000_500_200_3_1,600.0,600.0,600.0,600.0,600.0,600.0,600.0,600.0
10000_500_200_3_2,600.0,600.0,600.0,600.0,600.0,600.0,600.0,600.0
10000_500_200_3_3,600.0,600.0,600.0,600.0,600.0,600.0,600.0,600.0
10000_500_200_3_4,600.0,600.0,600.0,600.0,600.0,600.0,600.0,600.0
10000_500_200_3_5,600.0,600.0,600.0,600.0,600.0,600.0,600.0,600.0
10000_500_200_3_6,600.0,600.0,600.0,600.0,600.0,600.0,600.0,600.0
10000_500_200_3_7,600.0,600.0,600.0,600.0,600.0,600.0,600.0,600.0
10000_500_200_3_8,600.0,600.0,600.0,600.0,600.0,600.0,600.0,600.0
10000_500_200_3_9,600.0,600.0,600.0,600.0,600.0,600.0,600.0,600.0
1000_500_250_3_0,600.0,600.0,600.0,600.0,181.59,600.0,600.0,600.0
1000_500_250_3_1,600.0,600.0,600.0,600.0,158.28,600.0,600.0,600.0
1000_500_250_3_2,600.0,600.0,600.0,600.0,183.93,600.0,600.0,600.0
1000_500_250_3_3,600.0,600.0,600.0,600.0,170.24,600.0,600.0,600.0
1000_500_250_3_4,600.0,600.0,600.0,600.0,193.78,600.0,600.0,600.0
1000_500_250_3_5,600.0,600.0,600.0,600.0,138.98,600.0,600.0,600.0
1000_500_250_3_6,600.0,600.0,600.0,600.0,189.39,600.0,600.0,600.0
1000_500_250_3_7,600.0,600.0,600.0,600.0,140.43,600.0,600.0,600.0
1000_500_250_3_8,600.0,600.0,600.0,600.0,210.75,600.0,600.0,600.0
1000_500_250_3_9,600.0,600.0,600.0,600.0,182.98,600.0,600.0,600.0
500_250_100_3_0,600.0,600.0,600.0,600.0,35.11,600.0,600.0,600.0
500_250_100_3_1,600.0,600.0,600.0,600.0,41.82,600.0,600.0,600.0
500_250_100_3_2,600.0,600.0,600.0,600.0,40.31,600.0,600.0,600.0
500_250_100_3_3,600.0,600.0,600.0,600.0,48.81,600.0,600.0,600.0
500_250_100_3_4,600.0,600.0,600.0,600.0,54.35,600.0,600.0,600.0
500_250_100_3_5,600.0,600.0,600.0,600.0,45.11,600.0,600.0,600.0
500_250_100_3_6,600.0,600.0,600.0,600.0,45.78,600.0,600.0,600.0
500_250_100_3_7,600.0,600.0,600.0,600.0,42.7,600.0,600.0,600.0
500_250_100_3_8,600.0,600.0,600.0,600.0,53.13,600.0,600.0,600.0
500_250_100_3_9,600.0,600.0,600.0,600.0,55.92,600.0,600.0,600.0
100_75_50_3_0,600.0,600.0,600.0,11.42,2.66,600.0,600.0,22.46
100_75_50_3_1,600.0,600.0,600.0,10.21,4.18,600.0,600.0,14.61
100_75_50_3_2,600.0,600.0,600.0,20.01,6.34,600.0,600.0,27.09
100_75_50_3_3,600.0,600.0,600.0,9.32,5.27,600.0,600.0,30.17
100_75_50_3_4,600.0,600.0,600.0,8.41,5.27,600.0,600.0,16.36
100_75_50_3_5,600.0,600.0,600.0,7.6,3.37,600.0,600.0,31.43
100_75_50_3_6,600.0,600.0,600.0,11.89,6.0,600.0,600.0,22.88
100_75_50_3_7,600.0,600.0,600.0,21.35,3.39,600.0,600.0,22.34
100_75_50_3_8,600.0,600.0,600.0,22.28,4.58,600.0,600.0,30.44
100_75_50_3_9,600.0,600.0,600.0,20.42,5.42,600.0,600.0,26.25
10000_500_200_4_0,600.0,600.0,600.0,600.0,600.0,600.0,600.0,600.0
10000_500_200_4_1,600.0,600.0,600.0,600.0,600.0,600.0,600.0,600.0
10000_500_200_4_2,600.0,600.0,600.0,600.0,600.0,600.0,600.0,600.0
10000_500_200_4_3,600.0,600.0,600.0,600.0,600.0,600.0,600.0,600.0
10000_500_200_4_4,600.0,600.0,600.0,600.0,600.0,600.0,600.0,600.0
10000_500_200_4_5,600.0,600.0,600.0,600.0,600.0,600.0,600.0,600.0
10000_500_200_4_6,600.0,600.0,600.0,600.0,600.0,600.0,600.0,600.0
10000_500_200_4_7,600.0,600.0,600.0,600.0,600.0,600.0,600.0,600.0
10000_500_200_4_8,600.0,600.0,600.0,600.0,600.0,600.0,600.0,600.0
10000_500_200_4_9,600.0,600.0,600.0,600.0,600.0,600.0,600.0,600.0
1000_500_250_4_0,600.0,600.0,600.0,600.0,94.88,600.0,600.0,600.0
1000_500_250_4_1,600.0,600.0,600.0,600.0,122.41,600.0,600.0,600.0
1000_500_250_4_2,600.0,600.0,600.0,600.0,118.85,600.0,600.0,600.0
1000_500_250_4_3,600.0,600.0,600.0,600.0,117.27,600.0,600.0,600.0
1000_500_250_4_4,600.0,600.0,600.0,600.0,97.0,600.0,600.0,600.0
1000_500_250_4_5,600.0,600.0,600.0,600.0,92.4,600.0,600.0,600.0
1000_500_250_4_6,600.0,600.0,600.0,600.0,97.04,600.0,600.0,600.0
1000_500_250_4_7,600.0,600.0,600.0,600.0,96.22,600.0,600.0,600.0
1000_500_250_4_8,600.0,600.0,600.0,600.0,76.17,600.0,600.0,600.0
1000_500_250_4_9,600.0,600.0,600.0,600.0,83.44,600.0,600.0,600.0
500_250_100_4_0,600.0,600.0,600.0,600.0,30.11,600.0,600.0,600.0
500_250_100_4_1,600.0,600.0,600.0,81.01,19.0,600.0,600.0,600.0
500_250_100_4_2,600.0,600.0,600.0,600.0,24.49,600.0,600.0,600.0
500_250_100_4_3,600.0,600.0,600.0,600.0,42.32,600.0,600.0,600.0
500_250_100_4_4,600.0,600.0,600.0,155.19,32.73,600.0,600.0,600.0
500_250_100_4_5,600.0,600.0,600.0,600.0,35.11,600.0,600.0,600.0
500_250_100_4_6,600.0,600.0,600.0,600.0,32.84,600.0,600.0,600.0
500_250_100_4_7,600.0,600.0,600.0,600.0,30.93,600.0,600.0,600.0
500_250_100_4_8,600.0,600.0,600.0,217.95,24.39,600.0,600.0,600.0
500_250_100_4_9,600.0,600.0,600.0,66.12,31.99,600.0,600.0,600.0
100_75_50_4_0,600.0,600.0,600.0,0.87,2.73,600.0,600.0,9.95
100_75_50_4_1,600.0,600.0,600.0,1.74,3.52,600.0,600.0,4.05
100_75_50_4_2,600.0,600.0,600.0,17.56,3.6,600.0,600.0,18.31
100_75_50_4_3,600.0,600.0,600.0,7.15,2.8,600.0,600.0,18.83
100_75_50_4_4,600.0,600.0,600.0,0.82,3.14,600.0,600.0,5.74
100_75_50_4_5,600.0,600.0,600.0,3.31,4.26,600.0,600.0,9.46
100_75_50_4_6,600.0,600.0,600.0,9.14,2.54,600.0,600.0,7.01
100_75_50_4_7,600.0,600.0,600.0,10.69,4.46,600.0,600.0,9.35
100_75_50_4_8,600.0,600.0,600.0,1.63,1.97,600.0,600.0,3.96
100_75_50_4_9,600.0,600.0,600.0,7.49,2.27,600.0,600.0,6.13
10000_500_200_6_0,600.0,600.0,600.0,600.0,600.0,600.0,600.0,600.0
10000_500_200_6_1,600.0,600.0,600.0,600.0,600.0,600.0,600.0,600.0
10000_500_200_6_2,600.0,600.0,600.0,600.0,600.0,600.0,600.0,600.0
10000_500_200_6_3,600.0,600.0,600.0,600.0,600.0,600.0,600.0,600.0
10000_500_200_6_4,600.0,600.0,600.0,600.0,600.0,600.0,600.0,600.0
10000_500_200_6_5,600.0,600.0,600.0,600.0,600.0,600.0,600.0,600.0
10000_500_200_6_6,600.0,600.0,600.0,600.0,600.0,600.0,600.0,600.0
10000_500_200_6_7,600.0,600.0,600.0,600.0,600.0,600.0,600.0,600.0
10000_500_200_6_8,600.0,600.0,600.0,600.0,600.0,600.0,600.0,600.0
10000_500_200_6_9,600.0,600.0,600.0,600.0,600.0,600.0,600.0,600.0
1000_500_250_6_0,600.0,600.0,600.0,600.0,121.53,600.0,600.0,600.0
1000_500_250_6_1,600.0,600.0,600.0,600.0,77.28,600.0,600.0,600.0
1000_500_250_6_2,600.0,600.0,600.0,600.0,76.9,600.0,600.0,600.0
1000_500_250_6_3,600.0,600.0,600.0,600.0,128.76,600.0,600.0,600.0
1000_500_250_6_4,600.0,600.0,600.0,600.0,98.15,600.0,600.0,600.0
1000_500_250_6_5,600.0,600.0,600.0,600.0,83.18,600.0,600.0,600.0
1000_500_250_6_6,600.0,600.0,600.0,600.0,68.57,600.0,600.0,600.0
1000_500_250_6_7,600.0,600.0,600.0,600.0,80.03,600.0,600.0,600.0
1000_500_250_6_8,600.0,600.0,600.0,600.0,110.44,600.0,600.0,600.0
1000_500_250_6_9,600.0,600.0,600.0,600.0,151.78,600.0,600.0,600.0
500_250_100_6_0,600.0,600.0,600.0,600.0,23.67,600.0,600.0,277.64
500_250_100_6_1,600.0,600.0,600.0,428.69,35.73,600.0,600.0,600.0
500_250_100_6_2,600.0,600.0,600.0,52.58,45.66,600.0,600.0,600.0
500_250_100_6_3,600.0,600.0,600.0,600.0,31.09,600.0,600.0,600.0
500_250_100_6_4,600.0,600.0,600.0,600.0,36.42,600.0,600.0,600.0
500_250_100_6_5,600.0,600.0,600.0,600.0,44.04,600.0,600.0,600.0
500_250_100_6_6,600.0,600.0,600.0,600.0,39.26,600.0,600.0,600.0
500_250_100_6_7,600.0,600.0,600.0,100.87,18.45,600.0,600.0,447.7
500_250_100_6_8,600.0,600.0,600.0,600.0,37.46,600.0,600.0,401.2
500_250_100_6_9,600.0,600.0,600.0,600.0,45.15,600.0,600.0,287.83
100_75_50_6_0,600.0,600.0,600.0,5.68,3.37,600.0,600.0,8.84
100_75_50_6_1,600.0,600.0,600.0,7.13,4.75,600.0,600.0,3.92
100_75_50_6_2,600.0,600.0,600.0,8.97,3.46,600.0,600.0,7.91
100_75_50_6_3,600.0,600.0,600.0,4.62,3.97,600.0,600.0,8.22
100_75_50_6_4,600.0,600.0,600.0,1.89,2.33,600.0,600.0,2.23
100_75_50_6_5,600.0,600.0,600.0,9.0,2.19,600.0,600.0,7.78
100_75_50_6_6,600.0,600.0,600.0,8.45,2.65,600.0,600.0,7.84
100_75_50_6_7,600.0,600.0,600.0,2.31,3.55,600.0,600.0,5.28
100_75_50_6_8,600.0,600.0,600.0,4.01,3.28,600.0,600.0,4.79
100_75_50_6_9,600.0,600.0,600.0,7.15,2.41,600.0,600.0,8.56
10000_500_200_7_0,600.0,600.0,600.0,600.0,600.0,600.0,600.0,600.0
10000_500_200_7_1,600.0,600.0,600.0,600.0,600.0,600.0,600.0,600.0
10000_500_200_7_2,600.0,600.0,600.0,600.0,600.0,600.0,600.0,600.0
10000_500_200_7_3,600.0,600.0,600.0,600.0,600.0,600.0,600.0,600.0
10000_500_200_7_4,600.0,600.0,600.0,600.0,600.0,600.0,600.0,600.0
10000_500_200_7_5,600.0,600.0,600.0,600.0,600.0,600.0,600.0,600.0
10000_500_200_7_6,600.0,600.0,600.0,600.0,600.0,600.0,600.0,600.0
10000_500_200_7_7,600.0,600.0,600.0,600.0,600.0,600.0,600.0,600.0
10000_500_200_7_8,600.0,600.0,600.0,600.0,600.0,600.0,600.0,600.0
10000_500_200_7_9,600.0,600.0,600.0,600.0,600.0,600.0,600.0,600.0
1000_500_250_7_0,600.0,600.0,600.0,600.0,151.74,600.0,600.0,600.0
1000_500_250_7_1,600.0,600.0,600.0,600.0,137.08,600.0,600.0,600.0
1000_500_250_7_2,600.0,600.0,600.0,600.0,160.71,600.0,600.0,600.0
1000_500_250_7_3,600.0,600.0,600.0,600.0,145.91,600.0,600.0,600.0
1000_500_250_7_4,600.0,600.0,600.0,600.0,173.88,600.0,600.0,600.0
1000_500_250_7_5,600.0,600.0,600.0,600.0,132.02,600.0,600.0,600.0
1000_500_250_7_6,600.0,600.0,600.0,600.0,163.29,600.0,600.0,600.0
1000_500_250_7_7,600.0,600.0,600.0,600.0,132.87,600.0,600.0,600.0
1000_500_250_7_8,600.0,600.0,600.0,600.0,145.68,600.0,600.0,600.0
1000_500_250_7_9,600.0,600.0,600.0,600.0,162.52,600.0,600.0,600.0
500_250_100_7_0,600.0,600.0,600.0,600.0,37.67,600.0,600.0,600.0
500_250_100_7_1,600.0,600.0,600.0,600.0,36.94,600.0,600.0,600.0
500_250_100_7_2,600.0,600.0,600.0,600.0,49.24,600.0,600.0,600.0
500_250_100_7_3,600.0,600.0,600.0,600.0,38.89,600.0,600.0,600.0
500_250_100_7_4,600.0,600.0,600.0,600.0,48.69,600.0,600.0,600.0
500_250_100_7_5,600.0,600.0,600.0,600.0,42.86,600.0,600.0,600.0
500_250_100_7_6,600.0,600.0,600.0,600.0,39.48,600.0,600.0,600.0
500_250_100_7_7,600.0,600.0,600.0,600.0,34.16,600.0,600.0,600.0
500_250_100_7_8,600.0,600.0,600.0,600.0,53.35,600.0,600.0,600.0
500_250_100_7_9,600.0,600.0,600.0,600.0,46.16,600.0,600.0,600.0
100_75_50_7_0,600.0,600.0,600.0,8.67,1.73,600.0,600.0,27.51
100_75_50_7_1,600.0,600.0,600.0,18.62,2.09,600.0,600.0,12.44
100_75_50_7_2,600.0,600.0,600.0,8.73,4.13,600.0,600.0,10.32
100_75_50_7_3,600.0,600.0,600.0,13.23,2.98,600.0,600.0,12.08
100_75_50_7_4,600.0,600.0,600.0,6.91,4.12,600.0,600.0,11.41
100_75_50_7_5,600.0,600.0,600.0,3.19,3.29,600.0,600.0,6.9
100_75_50_7_6,600.0,600.0,600.0,33.63,2.98,600.0,600.0,20.66
100_75_50_7_7,600.0,600.0,600.0,10.38,3.38,600.0,600.0,22.08
100_75_50_7_8,600.0,600.0,600.0,3.06,4.25,600.0,600.0,9.91
100_75_50_7_9,600.0,600.0,600.0,24.47,3.42,600.0,600.0,24.35
10000_500_200_8_0,600.0,600.0,600.0,600.0,600.0,600.0,600.0,600.0
10000_500_200_8_1,600.0,600.0,600.0,600.0,600.0,600.0,600.0,600.0
10000_500_200_8_2,600.0,600.0,600.0,600.0,600.0,600.0,600.0,600.0
10000_500_200_8_3,600.0,600.0,600.0,600.0,600.0,600.0,600.0,600.0
10000_500_200_8_4,600.0,600.0,600.0,600.0,600.0,600.0,600.0,600.0
10000_500_200_8_5,600.0,600.0,600.0,600.0,600.0,600.0,600.0,600.0
10000_500_200_8_6,600.0,600.0,600.0,600.0,600.0,600.0,600.0,600.0
10000_500_200_8_7,600.0,600.0,600.0,600.0,600.0,600.0,600.0,600.0
10000_500_200_8_8,600.0,600.0,600.0,600.0,600.0,600.0,600.0,600.0
10000_500_200_8_9,600.0,600.0,600.0,600.0,600.0,600.0,600.0,600.0
1000_500_250_8_0,600.0,600.0,600.0,600.0,78.21,600.0,600.0,600.0
1000_500_250_8_1,600.0,600.0,600.0,600.0,105.82,600.0,600.0,600.0
1000_500_250_8_2,600.0,600.0,600.0,600.0,88.93,600.0,600.0,600.0
1000_500_250_8_3,600.0,600.0,600.0,600.0,82.33,600.0,600.0,600.0
1000_500_250_8_4,600.0,600.0,600.0,600.0,64.34,600.0,600.0,600.0
1000_500_250_8_5,600.0,600.0,600.0,600.0,63.7,600.0,600.0,600.0
1000_500_250_8_6,600.0,600.0,600.0,600.0,68.56,600.0,600.0,600.0
1000_500_250_8_7,600.0,600.0,600.0,600.0,70.21,600.0,600.0,600.0
1000_500_250_8_8,600.0,600.0,600.0,600.0,73.67,600.0,600.0,600.0
1000_500_250_8_9,600.0,600.0,600.0,600.0,66.51,600.0,600.0,600.0
500_250_100_8_0,600.0,600.0,600.0,600.0,22.57,600.0,600.0,600.0
500_250_100_8_1,600.0,600.0,600.0,484.96,22.29,600.0,600.0,600.0
500_250_100_8_2,600.0,600.0,600.0,600.0,21.24,600.0,600.0,406.9
500_250_100_8_3,600.0,600.0,600.0,600.0,32.6,600.0,600.0,600.0
500_250_100_8_4,600.0,600.0,600.0,600.0,24.85,600.0,600.0,600.0
500_250_100_8_5,600.0,600.0,600.0,600.0,28.86,600.0,600.0,600.0
500_250_100_8_6,600.0,600.0,600.0,600.0,25.1,600.0,600.0,600.0
500_250_100_8_7,600.0,600.0,600.0,600.0,27.06,600.0,600.0,600.0
500_250_100_8_8,600.0,600.0,600.0,600.0,27.53,600.0,600.0,551.29
500_250_100_8_9,600.0,600.0,600.0,600.0,26.53,600.0,600.0,600.0
100_75_50_8_0,600.0,600.0,600.0,4.67,2.88,600.0,600.0,4.98
100_75_50_8_1,600.0,600.0,600.0,4.21,4.42,600.0,600.0,3.54
100_75_50_8_2,600.0,600.0,600.0,2.99,2.27,600.0,600.0,2.61
100_75_50_8_3,600.0,600.0,600.0,3.95,2.27,600.0,600.0,9.0
100_75_50_8_4,600.0,600.0,600.0,6.47,3.47,600.0,600.0,5.79
100_75_50_8_5,600.0,600.0,600.0,3.8,3.28,600.0,600.0,4.1
100_75_50_8_6,600.0,600.0,600.0,6.01,2.32,600.0,600.0,3.2
100_75_50_8_7,600.0,600.0,600.0,7.53,2.64,600.0,600.0,6.29
100_75_50_8_8,600.0,600.0,600.0,8.94,1.87,600.0,600.0,5.65
100_75_50_8_9,600.0,600.0,600.0,4.14,2.38,600.0,600.0,4.76
10000_500_200_10_0,600.0,600.0,600.0,600.0,600.0,600.0,600.0,600.0
10000_500_200_10_1,600.0,600.0,600.0,600.0,600.0,600.0,600.0,600.0
10000_500_200_10_2,600.0,600.0,600.0,600.0,600.0,600.0,600.0,600.0
10000_500_200_10_3,600.0,600.0,600.0,600.0,600.0,600.0,600.0,600.0
10000_500_200_10_4,600.0,600.0,600.0,600.0,600.0,600.0,600.0,600.0
10000_500_200_10_5,600.0,600.0,600.0,600.0,600.0,600.0,600.0,600.0
10000_500_200_10_6,600.0,600.0,600.0,600.0,600.0,600.0,600.0,600.0
10000_500_200_10_7,600.0,600.0,600.0,600.0,600.0,600.0,600.0,600.0
10000_500_200_10_8,600.0,600.0,600.0,600.0,600.0,600.0,600.0,600.0
10000_500_200_10_9,600.0,600.0,600.0,600.0,600.0,600.0,600.0,600.0
1000_500_250_10_0,600.0,600.0,600.0,600.0,178.01,600.0,600.0,600.0
1000_500_250_10_1,600.0,600.0,600.0,600.0,74.48,600.0,600.0,600.0
1000_500_250_10_2,600.0,600.0,600.0,600.0,112.61,600.0,600.0,600.0
1000_500_250_10_3,600.0,600.0,600.0,600.0,127.59,600.0,600.0,600.0
1000_500_250_10_4,600.0,600.0,600.0,600.0,110.06,600.0,600.0,600.0
1000_500_250_10_5,600.0,600.0,600.0,600.0,99.52,600.0,600.0,600.0
1000_500_250_10_6,600.0,600.0,600.0,600.0,84.48,600.0,600.0,600.0
1000_500_250_10_7,600.0,600.0,600.0,600.0,103.81,600.0,600.0,600.0
1000_500_250_10_8,600.0,600.0,600.0,600.0,124.96,600.0,600.0,600.0
1000_500_250_10_9,600.0,600.0,600.0,600.0,137.03,600.0,600.0,600.0
500_250_100_10_0,600.0,600.0,600.0,600.0,20.82,600.0,600.0,600.0
500_250_100_10_1,600.0,600.0,600.0,600.0,41.8,600.0,600.0,600.0
500_250_100_10_2,600.0,600.0,600.0,409.13,47.31,600.0,600.0,600.0
500_250_100_10_3,600.0,600.0,600.0,338.17,31.45,600.0,600.0,554.77
500_250_100_10_4,600.0,600.0,600.0,550.06,26.94,600.0,600.0,390.06
500_250_100_10_5,600.0,600.0,600.0,600.0,51.94,600.0,600.0,600.0
500_250_100_10_6,600.0,600.0,600.0,438.64,34.29,600.0,600.0,333.21
500_250_100_10_7,600.0,600.0,600.0,425.77,20.38,600.0,600.0,600.0
500_250_100_10_8,600.0,600.0,600.0,484.51,30.85,600.0,600.0,600.0
500_250_100_10_9,600.0,600.0,600.0,317.86,46.09,600.0,600.0,492.32
100_75_50_10_0,600.0,600.0,600.0,7.92,2.78,600.0,600.0,3.59
100_75_50_10_1,600.0,600.0,600.0,1.4,2.86,600.0,590.47,2.12
100_75_50_10_2,600.0,600.0,600.0,2.0,2.68,600.0,600.0,12.7
100_75_50_10_3,600.0,600.0,600.0,5.01,3.45,600.0,600.0,4.79
100_75_50_10_4,600.0,600.0,600.0,3.45,3.12,600.0,600.0,3.29
100_75_50_10_5,600.0,600.0,600.0,2.02,2.24,600.0,600.0,2.2
100_75_50_10_6,600.0,600.0,600.0,4.0,2.46,600.0,600.0,2.07
100_75_50_10_7,600.0,600.0,600.0,2.75,3.12,600.0,572.5,2.57
100_75_50_10_8,600.0,600.0,600.0,4.46,2.75,600.0,600.0,4.8
100_75_50_10_9,600.0,600.0,600.0,6.27,2.33,600.0,600.0,1.49
10000_500_200_11_0,600.0,600.0,600.0,600.0,600.0,600.0,600.0,600.0
10000_500_200_11_1,600.0,600.0,600.0,600.0,600.0,600.0,600.0,600.0
10000_500_200_11_2,600.0,600.0,600.0,600.0,600.0,600.0,600.0,600.0
10000_500_200_11_3,600.0,600.0,600.0,600.0,600.0,600.0,600.0,600.0
10000_500_200_11_4,600.0,600.0,600.0,600.0,600.0,600.0,600.0,600.0
10000_500_200_11_5,600.0,600.0,600.0,600.0,600.0,600.0,600.0,600.0
10000_500_200_11_6,600.0,600.0,600.0,600.0,600.0,600.0,600.0,600.0
10000_500_200_11_7,600.0,600.0,600.0,600.0,600.0,600.0,600.0,600.0
10000_500_200_11_8,600.0,600.0,600.0,600.0,600.0,600.0,600.0,600.0
10000_500_200_11_9,600.0,600.0,600.0,600.0,600.0,600.0,600.0,600.0
1000_500_250_11_0,600.0,600.0,600.0,600.0,138.78,600.0,600.0,600.0
1000_500_250_11_1,600.0,600.0,600.0,600.0,114.91,600.0,600.0,600.0
1000_500_250_11_2,600.0,600.0,600.0,600.0,140.44,600.0,600.0,600.0
1000_500_250_11_3,600.0,600.0,600.0,600.0,137.62,600.0,600.0,600.0
1000_500_250_11_4,600.0,600.0,600.0,600.0,132.33,600.0,600.0,600.0
1000_500_250_11_5,600.0,600.0,600.0,600.0,111.96,600.0,600.0,600.0
1000_500_250_11_6,600.0,600.0,600.0,600.0,147.1,600.0,600.0,600.0
1000_500_250_11_7,600.0,600.0,600.0,600.0,107.83,600.0,600.0,600.0
1000_500_250_11_8,600.0,600.0,600.0,600.0,141.65,600.0,600.0,600.0
1000_500_250_11_9,600.0,600.0,600.0,600.0,139.39,600.0,600.0,600.0
500_250_100_11_0,600.0,600.0,600.0,600.0,29.19,600.0,600.0,600.0
500_250_100_11_1,600.0,600.0,600.0,600.0,35.22,600.0,600.0,600.0
500_250_100_11_2,600.0,600.0,600.0,600.0,35.26,600.0,600.0,600.0
500_250_100_11_3,600.0,600.0,600.0,600.0,24.55,600.0,600.0,600.0
500_250_100_11_4,600.0,600.0,600.0,600.0,44.17,600.0,600.0,600.0
500_250_100_11_5,600.0,600.0,600.0,600.0,39.08,600.0,600.0,600.0
500_250_100_11_6,600.0,600.0,600.0,600.0,37.77,600.0,600.0,600.0
500_250_100_11_7,600.0,600.0,600.0,478.96,26.95,600.0,600.0,600.0
500_250_100_11_8,600.0,600.0,600.0,600.0,43.39,600.0,600.0,600.0
500_250_100_11_9,600.0,600.0,600.0,600.0,33.08,600.0,600.0,600.0
100_75_50_11_0,600.0,600.0,600.0,9.59,3.0,600.0,600.0,9.16
100_75_50_11_1,600.0,600.0,600.0,13.06,2.87,600.0,600.0,11.92
100_75_50_11_2,600.0,600.0,600.0,3.13,3.79,600.0,600.0,4.85
100_75_50_11_3,600.0,600.0,600.0,10.22,3.15,600.0,600.0,11.12
100_75_50_11_4,600.0,600.0,600.0,10.77,4.32,600.0,600.0,13.72
100_75_50_11_5,600.0,600.0,600.0,7.49,3.25,600.0,600.0,8.76
100_75_50_11_6,600.0,600.0,600.0,8.74,3.62,600.0,600.0,9.92
100_75_50_11_7,600.0,600.0,600.0,13.46,3.02,600.0,600.0,13.0
100_75_50_11_8,600.0,600.0,600.0,7.14,3.54,600.0,600.0,5.95
100_75_50_11_9,600.0,600.0,600.0,12.22,2.35,600.0,600.0,17.55
10000_500_200_12_0,600.0,600.0,600.0,600.0,600.0,600.0,600.0,600.0
10000_500_200_12_1,600.0,600.0,600.0,600.0,600.0,600.0,600.0,600.0
10000_500_200_12_2,600.0,600.0,600.0,600.0,600.0,600.0,600.0,600.0
10000_500_200_12_3,600.0,600.0,600.0,600.0,600.0,600.0,600.0,600.0
10000_500_200_12_4,600.0,600.0,600.0,600.0,600.0,600.0,600.0,600.0
10000_500_200_12_5,600.0,600.0,600.0,600.0,600.0,600.0,600.0,600.0
10000_500_200_12_6,600.0,600.0,600.0,600.0,600.0,600.0,600.0,600.0
10000_500_200_12_7,600.0,600.0,600.0,600.0,600.0,600.0,600.0,600.0
10000_500_200_12_8,600.0,600.0,600.0,600.0,600.0,600.0,600.0,600.0
10000_500_200_12_9,600.0,600.0,600.0,600.0,600.0,600.0,600.0,600.0
1000_500_250_12_0,600.0,600.0,600.0,600.0,79.52,600.0,600.0,600.0
1000_500_250_12_1,600.0,600.0,600.0,600.0,97.98,600.0,600.0,600.0
1000_500_250_12_2,600.0,600.0,600.0,600.0,64.39,600.0,600.0,600.0
1000_500_250_12_3,600.0,600.0,600.0,600.0,72.37,600.0,600.0,600.0
1000_500_250_12_4,600.0,600.0,600.0,600.0,62.06,600.0,600.0,600.0
1000_500_250_12_5,600.0,600.0,600.0,600.0,61.3,600.0,600.0,600.0
1000_500_250_12_6,600.0,600.0,600.0,600.0,62.24,600.0,600.0,600.0
1000_500_250_12_7,600.0,600.0,600.0,600.0,66.51,600.0,600.0,600.0
1000_500_250_12_8,600.0,600.0,600.0,600.0,72.09,600.0,600.0,600.0
1000_500_250_12_9,600.0,600.0,600.0,600.0,67.43,600.0,600.0,600.0
500_250_100_12_0,600.0,600.0,600.0,600.0,20.86,600.0,600.0,600.0
500_250_100_12_1,600.0,600.0,600.0,252.34,24.54,600.0,600.0,476.99
500_250_100_12_2,600.0,600.0,600.0,567.62,17.26,600.0,600.0,600.0
500_250_100_12_3,600.0,600.0,600.0,506.59,29.48,600.0,600.0,527.72
500_250_100_12_4,600.0,600.0,600.0,599.87,25.67,600.0,600.0,393.18
500_250_100_12_5,600.0,600.0,600.0,537.22,26.6,600.0,600.0,587.52
500_250_100_12_6,600.0,600.0,600.0,475.28,23.35,600.0,600.0,600.0
500_250_100_12_7,600.0,600.0,600.0,295.58,26.81,600.0,600.0,581.74
500_250_100_12_8,600.0,600.0,600.0,200.99,23.55,600.0,600.0,436.13
500_250_100_12_9,600.0,600.0,600.0,207.59,19.02,600.0,600.0,177.42
100_75_50_12_0,600.0,600.0,600.0,1.98,2.15,600.0,330.2,2.34
100_75_50_12_1,600.0,600.0,600.0,1.39,3.17,600.0,600.0,1.6
100_75_50_12_2,600.0,600.0,600.0,1.47,1.73,600.0,260.45,1.71
100_75_50_12_3,600.0,600.0,600.0,3.41,2.09,600.0,465.44,0.94
100_75_50_12_4,600.0,600.0,600.0,2.14,1.98,600.0,478.0,1.83
100_75_50_12_5,600.0,600.0,600.0,1.45,2.04,600.0,519.96,2.97
100_75_50_12_6,600.0,600.0,600.0,1.12,1.37,600.0,548.76,1.44
100_75_50_12_7,600.0,600.0,600.0,2.95,2.55,600.0,600.0,3.15
100_75_50_12_8,600.0,600.0,600.0,5.78,1.59,600.0,600.0,10.18
100_75_50_12_9,600.0,600.0,600.0,2.25,2.01,600.0,600.0,1.32
10000_500_200_14_0,600.0,600.0,600.0,600.0,600.0,600.0,600.0,600.0
10000_500_200_14_1,600.0,600.0,600.0,600.0,600.0,600.0,600.0,600.0
10000_500_200_14_2,600.0,600.0,600.0,600.0,600.0,600.0,600.0,600.0
10000_500_200_14_3,600.0,600.0,600.0,600.0,600.0,600.0,600.0,600.0
10000_500_200_14_4,600.0,600.0,600.0,600.0,600.0,600.0,600.0,600.0
10000_500_200_14_5,600.0,600.0,600.0,600.0,600.0,600.0,600.0,600.0
10000_500_200_14_6,600.0,600.0,600.0,600.0,600.0,600.0,600.0,600.0
10000_500_200_14_7,600.0,600.0,600.0,600.0,600.0,600.0,600.0,600.0
10000_500_200_14_8,600.0,600.0,600.0,600.0,600.0,600.0,600.0,600.0
10000_500_200_14_9,600.0,600.0,600.0,600.0,600.0,600.0,600.0,600.0
1000_500_250_14_0,600.0,600.0,600.0,600.0,95.1,600.0,600.0,600.0
1000_500_250_14_1,600.0,600.0,600.0,600.0,104.48,600.0,600.0,600.0
1000_500_250_14_2,600.0,600.0,600.0,600.0,92.51,600.0,600.0,600.0
1000_500_250_14_3,600.0,600.0,600.0,600.0,111.01,600.0,600.0,600.0
1000_500_250_14_4,600.0,600.0,600.0,600.0,98.54,600.0,600.0,600.0
1000_500_250_14_5,600.0,600.0,600.0,600.0,105.2,600.0,600.0,600.0
1000_500_250_14_6,600.0,600.0,600.0,600.0,89.01,600.0,600.0,600.0
1000_500_250_14_7,600.0,600.0,600.0,600.0,94.63,600.0,600.0,600.0
1000_500_250_14_8,600.0,600.0,600.0,600.0,106.7,600.0,600.0,600.0
1000_500_250_14_9,600.0,600.0,600.0,600.0,98.13,600.0,600.0,600.0
500_250_100_14_0,600.0,600.0,600.0,600.0,33.24,600.0,600.0,600.0
500_250_100_14_1,600.0,600.0,600.0,290.66,12.64,600.0,600.0,600.0
500_250_100_14_2,600.0,600.0,600.0,150.44,28.49,600.0,600.0,600.0
500_250_100_14_3,600.0,600.0,600.0,323.26,20.59,600.0,600.0,600.0
500_250_100_14_4,600.0,600.0,600.0,600.0,42.29,600.0,600.0,600.0
500_250_100_14_5,600.0,600.0,600.0,600.0,33.89,600.0,600.0,600.0
500_250_100_14_6,600.0,600.0,600.0,600.0,40.79,600.0,600.0,600.0
500_250_100_14_7,600.0,600.0,600.0,152.16,24.32,600.0,600.0,600.0
500_250_100_14_8,600.0,600.0,600.0,344.91,35.79,600.0,600.0,600.0
500_250_100_14_9,600.0,600.0,600.0,142.3,36.61,600.0,600.0,600.0
100_75_50_14_0,600.0,600.0,600.0,17.91,3.42,600.0,600.0,14.13
100_75_50_14_1,600.0,600.0,600.0,0.81,2.88,600.0,600.0,10.52
100_75_50_14_2,600.0,600.0,600.0,13.7,3.62,600.0,600.0,8.1
100_75_50_14_3,600.0,600.0,600.0,0.89,2.97,600.0,600.0,10.48
100_75_50_14_4,600.0,600.0,600.0,1.2,2.7,600.0,600.0,12.88
100_75_50_14_5,600.0,600.0,600.0,0.76,2.45,600.0,600.0,14.17
100_75_50_14_6,600.0,600.0,600.0,16.43,3.17,600.0,600.0,34.61
100_75_50_14_7,600.0,600.0,600.0,1.85,3.12,600.0,600.0,11.81
100_75_50_14_8,600.0,600.0,600.0,1.77,2.64,600.0,600.0,14.62
100_75_50_14_9,600.0,600.0,600.0,0.83,1.83,600.0,600.0,10.8
10000_500_200_15_0,600.0,600.0,600.0,600.0,600.0,600.0,600.0,600.0
10000_500_200_15_1,600.0,600.0,600.0,600.0,600.0,600.0,600.0,600.0
10000_500_200_15_2,600.0,600.0,600.0,600.0,600.0,600.0,600.0,600.0
10000_500_200_15_3,600.0,600.0,600.0,600.0,600.0,600.0,600.0,600.0
10000_500_200_15_4,600.0,600.0,600.0,600.0,600.0,600.0,600.0,600.0
10000_500_200_15_5,600.0,600.0,600.0,600.0,600.0,600.0,600.0,600.0
10000_500_200_15_6,600.0,600.0,600.0,600.0,600.0,600.0,600.0,600.0
10000_500_200_15_7,600.0,600.0,600.0,600.0,600.0,600.0,600.0,600.0
10000_500_200_15_8,600.0,600.0,600.0,600.0,600.0,600.0,600.0,600.0
10000_500_200_15_9,600.0,600.0,600.0,600.0,600.0,600.0,600.0,600.0
1000_500_250_15_0,600.0,600.0,600.0,600.0,209.29,600.0,600.0,600.0
1000_500_250_15_1,600.0,600.0,600.0,600.0,122.58,600.0,600.0,600.0
1000_500_250_15_2,600.0,600.0,600.0,600.0,160.4,600.0,600.0,600.0
1000_500_250_15_3,600.0,600.0,600.0,600.0,160.7,600.0,600.0,600.0
1000_500_250_15_4,600.0,600.0,600.0,600.0,195.38,600.0,600.0,600.0
1000_500_250_15_5,600.0,600.0,600.0,600.0,153.18,600.0,600.0,600.0
1000_500_250_15_6,600.0,600.0,600.0,600.0,168.28,600.0,600.0,600.0
1000_500_250_15_7,600.0,600.0,600.0,600.0,150.87,600.0,600.0,600.0
1000_500_250_15_8,600.0,600.0,600.0,600.0,186.7,600.0,600.0,600.0
1000_500_250_15_9,600.0,600.0,600.0,600.0,145.94,600.0,600.0,600.0
500_250_100_15_0,600.0,600.0,600.0,600.0,47.09,600.0,600.0,600.0
500_250_100_15_1,600.0,600.0,600.0,600.0,42.77,600.0,600.0,600.0
500_250_100_15_2,600.0,600.0,600.0,600.0,52.02,600.0,600.0,600.0
500_250_100_15_3,600.0,600.0,600.0,600.0,43.43,600.0,600.0,600.0
500_250_100_15_4,600.0,600.0,600.0,600.0,55.35,600.0,600.0,600.0
500_250_100_15_5,600.0,600.0,600.0,600.0,51.5,600.0,600.0,600.0
500_250_100_15_6,600.0,600.0,600.0,600.0,35.4,600.0,600.0,600.0
500_250_100_15_7,600.0,600.0,600.0,600.0,53.37,600.0,600.0,600.0
500_250_100_15_8,600.0,600.0,600.0,600.0,51.63,600.0,600.0,600.0
500_250_100_15_9,600.0,600.0,600.0,600.0,53.07,600.0,600.0,600.0
100_75_50_15_0,600.0,600.0,600.0,9.96,4.21,600.0,600.0,22.95
100_75_50_15_1,600.0,600.0,600.0,9.39,4.23,600.0,600.0,16.17
100_75_50_15_2,600.0,600.0,600.0,19.91,6.06,600.0,600.0,30.18
100_75_50_15_3,600.0,600.0,600.0,6.1,5.37,600.0,600.0,24.37
100_75_50_15_4,600.0,600.0,600.0,8.35,5.08,600.0,600.0,16.18
100_75_50_15_5,600.0,600.0,600.0,7.61,4.79,600.0,600.0,31.72
100_75_50_15_6,600.0,600.0,600.0,13.66,5.74,600.0,600.0,23.42
100_75_50_15_7,600.0,600.0,600.0,20.65,5.28,600.0,600.0,26.18
100_75_50_15_8,600.0,600.0,600.0,22.8,5.34,600.0,600.0,26.84
100_75_50_15_9,600.0,600.0,600.0,19.56,5.44,600.0,600.0,23.35
10000_500_200_16_0,600.0,600.0,600.0,600.0,600.0,600.0,600.0,600.0
10000_500_200_16_1,600.0,600.0,600.0,600.0,600.0,600.0,600.0,600.0
10000_500_200_16_2,600.0,600.0,600.0,600.0,600.0,600.0,600.0,600.0
10000_500_200_16_3,600.0,600.0,600.0,600.0,600.0,600.0,600.0,600.0
10000_500_200_16_4,600.0,600.0,600.0,600.0,600.0,600.0,600.0,600.0
10000_500_200_16_5,600.0,600.0,600.0,600.0,600.0,600.0,600.0,600.0
10000_500_200_16_6,600.0,600.0,600.0,600.0,600.0,600.0,600.0,600.0
10000_500_200_16_7,600.0,600.0,600.0,600.0,600.0,600.0,600.0,600.0
10000_500_200_16_8,600.0,600.0,600.0,600.0,600.0,600.0,600.0,600.0
10000_500_200_16_9,600.0,600.0,600.0,600.0,600.0,600.0,600.0,600.0
1000_500_250_16_0,600.0,600.0,600.0,600.0,89.02,600.0,600.0,600.0
1000_500_250_16_1,600.0,600.0,600.0,600.0,124.12,600.0,600.0,600.0
1000_500_250_16_2,600.0,600.0,600.0,600.0,113.61,600.0,600.0,600.0
1000_500_250_16_3,600.0,600.0,600.0,600.0,127.29,600.0,600.0,600.0
1000_500_250_16_4,600.0,600.0,600.0,600.0,106.83,600.0,600.0,600.0
1000_500_250_16_5,600.0,600.0,600.0,600.0,92.89,600.0,600.0,600.0
1000_500_250_16_6,600.0,600.0,600.0,600.0,104.81,600.0,600.0,600.0
1000_500_250_16_7,600.0,600.0,600.0,600.0,107.98,600.0,600.0,600.0
1000_500_250_16_8,600.0,600.0,600.0,600.0,85.09,600.0,600.0,600.0
1000_500_250_16_9,600.0,600.0,600.0,600.0,83.64,600.0,600.0,600.0
500_250_100_16_0,600.0,600.0,600.0,600.0,26.73,600.0,600.0,600.0
500_250_100_16_1,600.0,600.0,600.0,85.21,20.86,600.0,600.0,600.0
500_250_100_16_2,600.0,600.0,600.0,600.0,20.52,600.0,600.0,600.0
500_250_100_16_3,600.0,600.0,600.0,600.0,42.36,600.0,600.0,600.0
500_250_100_16_4,600.0,600.0,600.0,175.3,36.5,600.0,600.0,600.0
500_250_100_16_5,600.0,600.0,600.0,600.0,34.55,600.0,600.0,600.0
500_250_100_16_6,600.0,600.0,600.0,600.0,28.32,600.0,600.0,600.0
500_250_100_16_7,600.0,600.0,600.0,600.0,32.02,600.0,600.0,600.0
500_250_100_16_8,600.0,600.0,600.0,213.34,30.72,600.0,600.0,600.0
500_250_100_16_9,600.0,600.0,600.0,63.37,30.63,600.0,600.0,600.0
100_75_50_16_0,600.0,600.0,600.0,0.86,2.74,600.0,600.0,9.27
100_75_50_16_1,600.0,600.0,600.0,1.75,3.52,600.0,600.0,4.36
100_75_50_16_2,600.0,600.0,600.0,16.63,3.59,600.0,600.0,17.93
100_75_50_16_3,600.0,600.0,600.0,7.2,2.84,600.0,600.0,16.89
100_75_50_16_4,600.0,600.0,600.0,0.85,3.34,600.0,600.0,6.14
100_75_50_16_5,600.0,600.0,600.0,3.46,4.24,600.0,600.0,8.38
100_75_50_16_6,600.0,600.0,600.0,10.66,3.34,600.0,600.0,7.36
100_75_50_16_7,600.0,600.0,600.0,9.65,4.36,600.0,600.0,9.59
100_75_50_16_8,600.0,600.0,600.0,1.12,2.14,600.0,600.0,5.86
100_75_50_16_9,600.0,600.0,600.0,7.44,2.17,600.0,600.0,7.39
10000_500_200_18_0,600.0,600.0,600.0,600.0,600.0,600.0,600.0,600.0
10000_500_200_18_1,600.0,600.0,600.0,600.0,600.0,600.0,600.0,600.0
10000_500_200_18_2,600.0,600.0,600.0,600.0,600.0,600.0,600.0,600.0
10000_500_200_18_3,600.0,600.0,600.0,600.0,600.0,600.0,600.0,600.0
10000_500_200_18_4,600.0,600.0,600.0,600.0,600.0,600.0,600.0,600.0
10000_500_200_18_5,600.0,600.0,600.0,600.0,600.0,600.0,600.0,600.0
10000_500_200_18_6,600.0,600.0,600.0,600.0,600.0,600.0,600.0,600.0
10000_500_200_18_7,600.0,600.0,600.0,600.0,600.0,600.0,600.0,600.0
10000_500_200_18_8,600.0,600.0,600.0,600.0,600.0,600.0,600.0,600.0
10000_500_200_18_9,600.0,600.0,600.0,600.0,600.0,600.0,600.0,600.0
1000_500_250_18_0,600.0,600.0,600.0,600.0,127.45,600.0,600.0,600.0
1000_500_250_18_1,600.0,600.0,600.0,600.0,77.6,600.0,600.0,600.0
1000_500_250_18_2,600.0,600.0,600.0,600.0,78.34,600.0,600.0,600.0
1000_500_250_18_3,600.0,600.0,600.0,600.0,121.17,600.0,600.0,600.0
1000_500_250_18_4,600.0,600.0,600.0,600.0,90.66,600.0,600.0,600.0
1000_500_250_18_5,600.0,600.0,600.0,600.0,90.51,600.0,600.0,600.0
1000_500_250_18_6,600.0,600.0,600.0,600.0,70.3,600.0,600.0,600.0
1000_500_250_18_7,600.0,600.0,600.0,600.0,93.05,600.0,600.0,600.0
1000_500_250_18_8,600.0,600.0,600.0,600.0,102.68,600.0,600.0,600.0
1000_500_250_18_9,600.0,600.0,600.0,600.0,146.32,600.0,600.0,600.0
500_250_100_18_0,600.0,600.0,600.0,600.0,25.98,600.0,600.0,238.91
500_250_100_18_1,600.0,600.0,600.0,426.62,36.3,600.0,600.0,600.0
500_250_100_18_2,600.0,600.0,600.0,45.79,44.86,600.0,600.0,600.0
500_250_100_18_3,600.0,600.0,600.0,600.0,29.59,600.0,600.0,600.0
500_250_100_18_4,600.0,600.0,600.0,600.0,35.97,600.0,600.0,600.0
500_250_100_18_5,600.0,600.0,600.0,600.0,55.04,600.0,600.0,600.0
500_250_100_18_6,600.0,600.0,600.0,600.0,39.27,600.0,600.0,600.0
500_250_100_18_7,600.0,600.0,600.0,84.46,21.58,600.0,600.0,481.52
500_250_100_18_8,600.0,600.0,600.0,600.0,40.27,600.0,600.0,387.05
500_250_100_18_9,600.0,600.0,600.0,600.0,45.07,600.0,600.0,301.43
100_75_50_18_0,600.0,600.0,600.0,7.27,3.57,600.0,600.0,7.05
100_75_50_18_1,600.0,600.0,600.0,7.18,4.87,600.0,600.0,3.07
100_75_50_18_2,600.0,600.0,600.0,8.45,3.26,600.0,600.0,7.76
100_75_50_18_3,600.0,600.0,600.0,4.48,3.56,600.0,600.0,8.81
100_75_50_18_4,600.0,600.0,600.0,2.16,3.5,600.0,600.0,2.34
100_75_50_18_5,600.0,600.0,600.0,8.92,2.25,600.0,600.0,5.03
100_75_50_18_6,600.0,600.0,600.0,8.77,2.15,600.0,600.0,7.96
100_75_50_18_7,600.0,600.0,600.0,2.31,3.72,600.0,600.0,4.83
100_75_50_18_8,600.0,600.0,600.0,4.86,3.2,600.0,600.0,5.39
100_75_50_18_9,600.0,600.0,600.0,7.68,2.61,600.0,600.0,7.71
10000_500_200_19_0,600.0,600.0,600.0,600.0,600.0,600.0,600.0,600.0
10000_500_200_19_1,600.0,600.0,600.0,600.0,600.0,600.0,600.0,600.0
10000_500_200_19_2,600.0,600.0,600.0,600.0,600.0,600.0,600.0,600.0
10000_500_200_19_3,600.0,600.0,600.0,600.0,600.0,600.0,600.0,600.0
10000_500_200_19_4,600.0,600.0,600.0,600.0,600.0,600.0,600.0,600.0
10000_500_200_19_5,600.0,600.0,600.0,600.0,600.0,600.0,600.0,600.0
10000_500_200_19_6,600.0,600.0,600.0,600.0,600.0,600.0,600.0,600.0
10000_500_200_19_7,600.0,600.0,600.0,600.0,600.0,600.0,600.0,600.0
10000_500_200_19_8,600.0,600.0,600.0,600.0,600.0,600.0,600.0,600.0
10000_500_200_19_9,600.0,600.0,600.0,600.0,600.0,600.0,600.0,600.0
1000_500_250_19_0,600.0,600.0,600.0,600.0,178.52,600.0,600.0,600.0
1000_500_250_19_1,600.0,600.0,600.0,600.0,142.22,600.0,600.0,600.0
1000_500_250_19_2,600.0,600.0,600.0,600.0,156.67,600.0,600.0,600.0
1000_500_250_19_3,600.0,600.0,600.0,600.0,155.62,600.0,600.0,600.0
1000_500_250_19_4,600.0,600.0,600.0,600.0,183.48,600.0,600.0,600.0
1000_500_250_19_5,600.0,600.0,600.0,600.0,119.11,600.0,600.0,600.0
1000_500_250_19_6,600.0,600.0,600.0,600.0,174.51,600.0,600.0,600.0
1000_500_250_19_7,600.0,600.0,600.0,600.0,142.29,600.0,600.0,600.0
1000_500_250_19_8,600.0,600.0,600.0,600.0,174.11,600.0,600.0,600.0
1000_500_250_19_9,600.0,600.0,600.0,600.0,153.5,600.0,600.0,600.0
500_250_100_19_0,600.0,600.0,600.0,600.0,35.62,600.0,600.0,600.0
500_250_100_19_1,600.0,600.0,600.0,600.0,38.68,600.0,600.0,600.0
500_250_100_19_2,600.0,600.0,600.0,600.0,48.79,600.0,600.0,600.0
500_250_100_19_3,600.0,600.0,600.0,600.0,41.11,600.0,600.0,600.0
500_250_100_19_4,600.0,600.0,600.0,600.0,51.25,600.0,600.0,600.0
500_250_100_19_5,600.0,600.0,600.0,600.0,34.91,600.0,600.0,600.0
500_250_100_19_6,600.0,600.0,600.0,600.0,28.08,600.0,600.0,600.0
500_250_100_19_7,600.0,600.0,600.0,600.0,39.33,600.0,600.0,600.0
500_250_100_19_8,600.0,600.0,600.0,600.0,53.37,600.0,600.0,600.0
500_250_100_19_9,600.0,600.0,600.0,600.0,42.59,600.0,600.0,600.0
100_75_50_19_0,600.0,600.0,600.0,8.54,2.73,600.0,600.0,27.17
100_75_50_19_1,600.0,600.0,600.0,14.17,2.56,600.0,600.0,13.14
100_75_50_19_2,600.0,600.0,600.0,12.27,4.22,600.0,600.0,11.04
100_75_50_19_3,600.0,600.0,600.0,12.72,3.82,600.0,600.0,12.44
100_75_50_19_4,600.0,600.0,600.0,6.65,4.28,600.0,600.0,10.89
100_75_50_19_5,600.0,600.0,600.0,3.1,3.34,600.0,600.0,8.99
100_75_50_19_6,600.0,600.0,600.0,32.97,4.02,600.0,600.0,21.14
100_75_50_19_7,600.0,600.0,600.0,9.81,2.15,600.0,600.0,19.52
100_75_50_19_8,600.0,600.0,600.0,2.29,4.11,600.0,600.0,10.88
100_75_50_19_9,600.0,600.0,600.0,20.66,3.48,600.0,600.0,23.99
10000_500_200_20_0,600.0,600.0,600.0,600.0,600.0,600.0,600.0,600.0
10000_500_200_20_1,600.0,600.0,600.0,600.0,600.0,600.0,600.0,600.0
10000_500_200_20_2,600.0,600.0,600.0,600.0,600.0,600.0,600.0,600.0
10000_500_200_20_3,600.0,600.0,600.0,600.0,600.0,600.0,600.0,600.0
10000_500_200_20_4,600.0,600.0,600.0,600.0,600.0,600.0,600.0,600.0
10000_500_200_20_5,600.0,600.0,600.0,600.0,600.0,600.0,600.0,600.0
10000_500_200_20_6,600.0,600.0,600.0,600.0,600.0,600.0,600.0,600.0
10000_500_200_20_7,600.0,600.0,600.0,600.0,600.0,600.0,600.0,600.0
10000_500_200_20_8,600.0,600.0,600.0,600.0,600.0,600.0,600.0,600.0
10000_500_200_20_9,600.0,600.0,600.0,600.0,600.0,600.0,600.0,600.0
1000_500_250_20_0,600.0,600.0,600.0,600.0,78.64,600.0,600.0,600.0
1000_500_250_20_1,600.0,600.0,600.0,600.0,103.89,600.0,600.0,600.0
1000_500_250_20_2,600.0,600.0,600.0,600.0,84.16,600.0,600.0,600.0
1000_500_250_20_3,600.0,600.0,600.0,600.0,72.28,600.0,600.0,600.0
1000_500_250_20_4,600.0,600.0,600.0,600.0,46.76,600.0,600.0,600.0
1000_500_250_20_5,600.0,600.0,600.0,600.0,64.52,600.0,600.0,600.0
1000_500_250_20_6,600.0,600.0,600.0,600.0,82.35,600.0,600.0,600.0
1000_500_250_20_7,600.0,600.0,600.0,600.0,70.15,600.0,600.0,600.0
1000_500_250_20_8,600.0,600.0,600.0,600.0,65.09,600.0,600.0,600.0
1000_500_250_20_9,600.0,600.0,600.0,600.0,69.83,600.0,600.0,600.0
500_250_100_20_0,600.0,600.0,600.0,600.0,25.17,600.0,600.0,600.0
500_250_100_20_1,600.0,600.0,600.0,491.48,22.91,600.0,600.0,600.0
500_250_100_20_2,600.0,600.0,600.0,600.0,20.77,600.0,600.0,399.17
500_250_100_20_3,600.0,600.0,600.0,600.0,32.99,600.0,600.0,600.0
500_250_100_20_4,600.0,600.0,600.0,600.0,22.9,600.0,600.0,600.0
500_250_100_20_5,600.0,600.0,600.0,600.0,28.76,600.0,600.0,600.0
500_250_100_20_6,600.0,600.0,600.0,600.0,22.62,600.0,600.0,600.0
500_250_100_20_7,600.0,600.0,600.0,600.0,26.96,600.0,600.0,600.0
500_250_100_20_8,600.0,600.0,600.0,600.0,26.71,600.0,600.0,577.37
500_250_100_20_9,600.0,600.0,600.0,600.0,24.66,600.0,600.0,600.0
100_75_50_20_0,600.0,600.0,600.0,3.0,2.45,600.0,600.0,4.71
100_75_50_20_1,600.0,600.0,600.0,4.36,4.12,600.0,600.0,3.14
100_75_50_20_2,600.0,600.0,600.0,1.96,2.29,600.0,600.0,2.79
100_75_50_20_3,600.0,600.0,600.0,3.77,1.99,600.0,600.0,8.75
100_75_50_20_4,600.0,600.0,600.0,6.05,3.36,600.0,600.0,4.3
100_75_50_20_5,600.0,600.0,600.0,4.59,3.54,600.0,600.0,3.93
100_75_50_20_6,600.0,600.0,600.0,6.28,2.2,600.0,600.0,3.56
100_75_50_20_7,600.0,600.0,600.0,6.79,3.95,600.0,600.0,5.84
100_75_50_20_8,600.0,600.0,600.0,6.63,2.11,600.0,600.0,4.91
100_75_50_20_9,600.0,600.0,600.0,4.23,2.71,600.0,600.0,4.96
10000_500_200_22_0,600.0,600.0,600.0,600.0,600.0,600.0,600.0,600.0
10000_500_200_22_1,600.0,600.0,600.0,600.0,600.0,600.0,600.0,600.0
10000_500_200_22_2,600.0,600.0,600.0,600.0,600.0,600.0,600.0,600.0
10000_500_200_22_3,600.0,600.0,600.0,600.0,600.0,600.0,600.0,600.0
10000_500_200_22_4,600.0,600.0,600.0,600.0,600.0,600.0,600.0,600.0
10000_500_200_22_5,600.0,600.0,600.0,600.0,600.0,600.0,600.0,600.0
10000_500_200_22_6,600.0,600.0,600.0,600.0,600.0,600.0,600.0,600.0
10000_500_200_22_7,600.0,600.0,600.0,600.0,600.0,600.0,600.0,600.0
10000_500_200_22_8,600.0,600.0,600.0,600.0,600.0,600.0,600.0,600.0
10000_500_200_22_9,600.0,600.0,600.0,600.0,600.0,600.0,600.0,600.0
1000_500_250_22_0,600.0,600.0,600.0,600.0,168.57,600.0,600.0,600.0
1000_500_250_22_1,600.0,600.0,600.0,600.0,85.85,600.0,600.0,600.0
1000_500_250_22_2,600.0,600.0,600.0,600.0,106.13,600.0,600.0,600.0
1000_500_250_22_3,600.0,600.0,600.0,600.0,125.56,600.0,600.0,600.0
1000_500_250_22_4,600.0,600.0,600.0,600.0,109.75,600.0,600.0,600.0
1000_500_250_22_5,600.0,600.0,600.0,600.0,91.28,600.0,600.0,600.0
1000_500_250_22_6,600.0,600.0,600.0,600.0,78.4,600.0,600.0,600.0
1000_500_250_22_7,600.0,600.0,600.0,600.0,111.41,600.0,600.0,600.0
1000_500_250_22_8,600.0,600.0,600.0,600.0,123.54,600.0,600.0,600.0
1000_500_250_22_9,600.0,600.0,600.0,600.0,134.84,600.0,600.0,600.0
500_250_100_22_0,600.0,600.0,600.0,600.0,16.25,600.0,600.0,600.0
500_250_100_22_1,600.0,600.0,600.0,600.0,43.7,600.0,600.0,600.0
500_250_100_22_2,600.0,600.0,600.0,424.96,47.4,600.0,600.0,600.0
500_250_100_22_3,600.0,600.0,600.0,320.94,27.22,600.0,600.0,581.95
500_250_100_22_4,600.0,600.0,600.0,570.44,32.98,600.0,600.0,352.2
500_250_100_22_5,600.0,600.0,600.0,575.14,49.58,600.0,600.0,600.0
500_250_100_22_6,600.0,600.0,600.0,416.02,36.68,600.0,600.0,318.68
500_250_100_22_7,600.0,600.0,600.0,411.51,18.31,600.0,600.0,600.0
500_250_100_22_8,600.0,600.0,600.0,513.45,45.87,600.0,600.0,600.0
500_250_100_22_9,600.0,600.0,600.0,304.41,47.39,600.0,600.0,529.34
100_75_50_22_0,600.0,600.0,600.0,7.55,3.11,600.0,600.0,3.16
100_75_50_22_1,600.0,600.0,600.0,1.36,3.05,600.0,582.76,2.2
100_75_50_22_2,600.0,600.0,600.0,2.04,2.53,600.0,600.0,12.17
100_75_50_22_3,600.0,600.0,600.0,5.13,2.42,600.0,600.0,4.95
100_75_50_22_4,600.0,600.0,600.0,5.35,3.4,600.0,600.0,3.27
100_75_50_22_5,600.0,600.0,600.0,2.47,2.32,600.0,600.0,1.48
100_75_50_22_6,600.0,600.0,600.0,5.98,2.59,600.0,600.0,2.01
100_75_50_22_7,600.0,600.0,600.0,2.36,3.34,600.0,590.76,2.54
100_75_50_22_8,600.0,600.0,600.0,4.42,3.06,600.0,600.0,4.76
100_75_50_22_9,600.0,600.0,600.0,6.93,2.28,600.0,600.0,1.31
10000_500_200_23_0,600.0,600.0,600.0,600.0,600.0,600.0,600.0,600.0
10000_500_200_23_1,600.0,600.0,600.0,600.0,600.0,600.0,600.0,600.0
10000_500_200_23_2,600.0,600.0,600.0,600.0,600.0,600.0,600.0,600.0
10000_500_200_23_3,600.0,600.0,600.0,600.0,600.0,600.0,600.0,600.0
10000_500_200_23_4,600.0,600.0,600.0,600.0,600.0,600.0,600.0,600.0
10000_500_200_23_5,600.0,600.0,600.0,600.0,600.0,600.0,600.0,600.0
10000_500_200_23_6,600.0,600.0,600.0,600.0,600.0,600.0,600.0,600.0
10000_500_200_23_7,600.0,600.0,600.0,600.0,600.0,600.0,600.0,600.0
10000_500_200_23_8,600.0,600.0,600.0,600.0,600.0,600.0,600.0,600.0
10000_500_200_23_9,600.0,600.0,600.0,600.0,600.0,600.0,600.0,600.0
1000_500_250_23_0,600.0,600.0,600.0,600.0,138.55,600.0,600.0,600.0
1000_500_250_23_1,600.0,600.0,600.0,600.0,121.03,600.0,600.0,600.0
1000_500_250_23_2,600.0,600.0,600.0,600.0,139.47,600.0,600.0,600.0
1000_500_250_23_3,600.0,600.0,600.0,600.0,138.39,600.0,600.0,600.0
1000_500_250_23_4,600.0,600.0,600.0,600.0,167.21,600.0,600.0,600.0
1000_500_250_23_5,600.0,600.0,600.0,600.0,108.69,600.0,600.0,600.0
1000_500_250_23_6,600.0,600.0,600.0,600.0,153.11,600.0,600.0,600.0
1000_500_250_23_7,600.0,600.0,600.0,600.0,118.74,600.0,600.0,600.0
1000_500_250_23_8,600.0,600.0,600.0,600.0,152.56,600.0,600.0,600.0
1000_500_250_23_9,600.0,600.0,600.0,600.0,137.19,600.0,600.0,600.0
500_250_100_23_0,600.0,600.0,600.0,600.0,32.59,600.0,600.0,600.0
500_250_100_23_1,600.0,600.0,600.0,600.0,36.85,600.0,600.0,600.0
500_250_100_23_2,600.0,600.0,600.0,600.0,35.47,600.0,600.0,600.0
500_250_100_23_3,600.0,600.0,600.0,600.0,32.34,600.0,600.0,600.0
500_250_100_23_4,600.0,600.0,600.0,600.0,44.03,600.0,600.0,600.0
500_250_100_23_5,600.0,600.0,600.0,600.0,39.68,600.0,600.0,600.0
500_250_100_23_6,600.0,600.0,600.0,600.0,37.74,600.0,600.0,600.0
500_250_100_23_7,600.0,600.0,600.0,484.87,33.66,600.0,600.0,600.0
500_250_100_23_8,600.0,600.0,600.0,600.0,45.21,600.0,600.0,600.0
500_250_100_23_9,600.0,600.0,600.0,600.0,34.08,600.0,600.0,600.0
100_75_50_23_0,600.0,600.0,600.0,8.02,3.2,600.0,600.0,9.3
100_75_50_23_1,600.0,600.0,600.0,13.32,2.51,600.0,600.0,11.82
100_75_50_23_2,600.0,600.0,600.0,3.22,3.79,600.0,600.0,4.92
100_75_50_23_3,600.0,600.0,600.0,7.2,3.22,600.0,600.0,11.58
100_75_50_23_4,600.0,600.0,600.0,9.58,4.07,600.0,600.0,13.91
100_75_50_23_5,600.0,600.0,600.0,9.74,3.16,600.0,600.0,9.3
100_75_50_23_6,600.0,600.0,600.0,7.92,3.64,600.0,600.0,9.77
100_75_50_23_7,600.0,600.0,600.0,12.8,2.95,600.0,600.0,13.47
100_75_50_23_8,600.0,600.0,600.0,5.03,3.41,600.0,600.0,5.86
100_75_50_23_9,600.0,600.0,600.0,18.45,3.11,600.0,600.0,18.87
10000_500_200_24_0,600.0,600.0,600.0,600.0,600.0,600.0,600.0,600.0
10000_500_200_24_1,600.0,600.0,600.0,600.0,600.0,600.0,600.0,600.0
10000_500_200_24_2,600.0,600.0,600.0,600.0,600.0,600.0,600.0,600.0
10000_500_200_24_3,600.0,600.0,600.0,600.0,600.0,600.0,600.0,600.0
10000_500_200_24_4,600.0,600.0,600.0,600.0,600.0,600.0,600.0,600.0
10000_500_200_24_5,600.0,600.0,600.0,600.0,600.0,600.0,600.0,600.0
10000_500_200_24_6,600.0,600.0,600.0,600.0,600.0,600.0,600.0,600.0
10000_500_200_24_7,600.0,600.0,600.0,600.0,600.0,600.0,600.0,600.0
10000_500_200_24_8,600.0,600.0,600.0,600.0,600.0,600.0,600.0,600.0
10000_500_200_24_9,600.0,600.0,600.0,600.0,600.0,600.0,600.0,600.0
1000_500_250_24_0,600.0,600.0,600.0,600.0,77.38,600.0,600.0,600.0
1000_500_250_24_1,600.0,600.0,600.0,600.0,92.46,600.0,600.0,600.0
1000_500_250_24_2,600.0,600.0,600.0,600.0,67.62,600.0,600.0,600.0
1000_500_250_24_3,600.0,600.0,600.0,600.0,76.65,600.0,600.0,600.0
1000_500_250_24_4,600.0,600.0,600.0,600.0,55.14,600.0,600.0,600.0
1000_500_250_24_5,600.0,600.0,600.0,600.0,57.81,600.0,600.0,600.0
1000_500_250_24_6,600.0,600.0,600.0,600.0,63.44,600.0,600.0,600.0
1000_500_250_24_7,600.0,600.0,600.0,600.0,65.39,600.0,600.0,600.0
1000_500_250_24_8,600.0,600.0,600.0,600.0,66.61,600.0,600.0,600.0
1000_500_250_24_9,600.0,600.0,600.0,600.0,72.92,600.0,600.0,600.0
500_250_100_24_0,600.0,600.0,600.0,600.0,19.25,600.0,600.0,593.57
500_250_100_24_1,600.0,600.0,600.0,264.64,24.12,600.0,600.0,474.08
500_250_100_24_2,600.0,600.0,600.0,559.97,18.87,600.0,600.0,600.0
500_250_100_24_3,600.0,600.0,600.0,552.25,28.18,600.0,600.0,535.64
500_250_100_24_4,600.0,600.0,600.0,598.65,22.27,600.0,600.0,400.62
500_250_100_24_5,600.0,600.0,600.0,522.42,23.96,600.0,600.0,564.56
500_250_100_24_6,600.0,600.0,600.0,484.88,19.53,600.0,600.0,600.0
500_250_100_24_7,600.0,600.0,600.0,302.04,27.24,600.0,600.0,578.55
500_250_100_24_8,600.0,600.0,600.0,219.51,21.15,600.0,600.0,423.87
500_250_100_24_9,600.0,600.0,600.0,194.97,22.96,600.0,600.0,188.79
100_75_50_24_0,600.0,600.0,600.0,2.2,1.97,600.0,356.83,2.45
100_75_50_24_1,600.0,600.0,600.0,1.38,2.32,600.0,600.0,1.51
100_75_50_24_2,600.0,600.0,600.0,1.4,1.75,600.0,319.39,1.1
100_75_50_24_3,600.0,600.0,600.0,3.37,1.45,600.0,482.92,1.45
100_75_50_24_4,600.0,600.0,600.0,2.1,2.92,600.0,474.18,1.19
100_75_50_24_5,600.0,600.0,600.0,1.65,1.49,600.0,536.46,2.88
100_75_50_24_6,600.0,600.0,600.0,1.12,1.68,600.0,562.06,1.26
100_75_50_24_7,600.0,600.0,600.0,2.71,2.93,600.0,600.0,3.4
100_75_50_24_8,600.0,600.0,600.0,5.88,1.58,600.0,600.0,10.03
100_75_50_24_9,600.0,600.0,600.0,2.79,2.29,600.0,600.0,0.88
10000_500_200_26_0,600.0,600.0,600.0,600.0,600.0,600.0,600.0,600.0
10000_500_200_26_1,600.0,600.0,600.0,600.0,600.0,600.0,600.0,600.0
10000_500_200_26_2,600.0,600.0,600.0,600.0,600.0,600.0,600.0,600.0
10000_500_200_26_3,600.0,600.0,600.0,600.0,600.0,600.0,600.0,600.0
10000_500_200_26_4,600.0,600.0,600.0,600.0,600.0,600.0,600.0,600.0
10000_500_200_26_5,600.0,600.0,600.0,600.0,600.0,600.0,600.0,600.0
10000_500_200_26_6,600.0,600.0,600.0,600.0,600.0,600.0,600.0,600.0
10000_500_200_26_7,600.0,600.0,600.0,600.0,600.0,600.0,600.0,600.0
10000_500_200_26_8,600.0,600.0,600.0,600.0,600.0,600.0,600.0,600.0
10000_500_200_26_9,600.0,600.0,600.0,600.0,600.0,600.0,600.0,600.0
1000_500_250_26_0,600.0,600.0,600.0,600.0,102.7,600.0,600.0,600.0
1000_500_250_26_1,600.0,600.0,600.0,600.0,103.11,600.0,600.0,600.0
1000_500_250_26_2,600.0,600.0,600.0,600.0,94.54,600.0,600.0,600.0
1000_500_250_26_3,600.0,600.0,600.0,600.0,103.03,600.0,600.0,600.0
1000_500_250_26_4,600.0,600.0,600.0,600.0,102.1,600.0,600.0,600.0
1000_500_250_26_5,600.0,600.0,600.0,600.0,103.69,600.0,600.0,600.0
1000_500_250_26_6,600.0,600.0,600.0,600.0,91.19,600.0,600.0,600.0
1000_500_250_26_7,600.0,600.0,600.0,600.0,86.75,600.0,600.0,600.0
1000_500_250_26_8,600.0,600.0,600.0,600.0,129.44,600.0,600.0,600.0
1000_500_250_26_9,600.0,600.0,600.0,600.0,94.7,600.0,600.0,600.0
500_250_100_26_0,600.0,600.0,600.0,600.0,32.46,600.0,600.0,600.0
500_250_100_26_1,600.0,600.0,600.0,324.36,14.71,600.0,600.0,600.0
500_250_100_26_2,600.0,600.0,600.0,147.29,33.01,600.0,600.0,600.0
500_250_100_26_3,600.0,600.0,600.0,301.12,25.62,600.0,600.0,600.0
500_250_100_26_4,600.0,600.0,600.0,600.0,40.95,600.0,600.0,600.0
500_250_100_26_5,600.0,600.0,600.0,600.0,36.0,600.0,600.0,600.0
500_250_100_26_6,600.0,600.0,600.0,600.0,40.14,600.0,600.0,600.0
500_250_100_26_7,600.0,600.0,600.0,163.65,24.33,600.0,600.0,600.0
500_250_100_26_8,600.0,600.0,600.0,376.72,37.17,600.0,600.0,600.0
500_250_100_26_9,600.0,600.0,600.0,155.03,36.79,600.0,600.0,600.0
100_75_50_26_0,600.0,600.0,600.0,17.3,2.97,600.0,600.0,13.38
100_75_50_26_1,600.0,600.0,600.0,0.77,1.95,600.0,600.0,10.04
100_75_50_26_2,600.0,600.0,600.0,14.16,3.49,600.0,600.0,11.99
100_75_50_26_3,600.0,600.0,600.0,0.94,3.29,600.0,600.0,9.97
100_75_50_26_4,600.0,600.0,600.0,1.15,2.68,600.0,600.0,12.95
100_75_50_26_5,600.0,600.0,600.0,0.77,2.39,600.0,600.0,13.69
100_75_50_26_6,600.0,600.0,600.0,15.15,3.3,600.0,600.0,40.44
100_75_50_26_7,600.0,600.0,600.0,1.15,2.71,600.0,600.0,12.53
100_75_50_26_8,600.0,600.0,600.0,1.79,2.67,600.0,600.0,17.07
100_75_50_26_9,600.0,600.0,600.0,0.52,2.78,600.0,600.0,10.66
10000_500_200_27_0,600.0,600.0,600.0,600.0,600.0,600.0,600.0,600.0
10000_500_200_27_1,600.0,600.0,600.0,600.0,600.0,600.0,600.0,600.0
10000_500_200_27_2,600.0,600.0,600.0,600.0,600.0,600.0,600.0,600.0
10000_500_200_27_3,600.0,600.0,600.0,600.0,600.0,600.0,600.0,600.0
10000_500_200_27_4,600.0,600.0,600.0,600.0,600.0,600.0,600.0,600.0
10000_500_200_27_5,600.0,600.0,600.0,600.0,600.0,600.0,600.0,600.0
10000_500_200_27_6,600.0,600.0,600.0,600.0,600.0,600.0,600.0,600.0
10000_500_200_27_7,600.0,600.0,600.0,600.0,600.0,600.0,600.0,600.0
10000_500_200_27_8,600.0,600.0,600.0,600.0,600.0,600.0,600.0,600.0
10000_500_200_27_9,600.0,600.0,600.0,600.0,600.0,600.0,600.0,600.0
1000_500_250_27_0,600.0,600.0,600.0,600.0,198.52,600.0,600.0,600.0
1000_500_250_27_1,600.0,600.0,600.0,600.0,163.56,600.0,600.0,600.0
1000_500_250_27_2,600.0,600.0,600.0,600.0,193.81,600.0,600.0,600.0
1000_500_250_27_3,600.0,600.0,600.0,600.0,154.64,600.0,600.0,600.0
1000_500_250_27_4,600.0,600.0,600.0,600.0,172.81,600.0,600.0,600.0
1000_500_250_27_5,600.0,600.0,600.0,600.0,137.76,600.0,600.0,600.0
1000_500_250_27_6,600.0,600.0,600.0,600.0,183.53,600.0,600.0,600.0
1000_500_250_27_7,600.0,600.0,600.0,600.0,144.08,600.0,600.0,600.0
1000_500_250_27_8,600.0,600.0,600.0,600.0,205.8,600.0,600.0,600.0
1000_500_250_27_9,600.0,600.0,600.0,600.0,170.9,600.0,600.0,600.0
500_250_100_27_0,600.0,600.0,600.0,600.0,46.64,600.0,600.0,600.0
500_250_100_27_1,600.0,600.0,600.0,600.0,44.8,600.0,600.0,600.0
500_250_100_27_2,600.0,600.0,600.0,600.0,41.91,600.0,600.0,600.0
500_250_100_27_3,600.0,600.0,600.0,600.0,39.73,600.0,600.0,600.0
500_250_100_27_4,600.0,600.0,600.0,600.0,56.54,600.0,600.0,600.0
500_250_100_27_5,600.0,600.0,600.0,600.0,53.75,600.0,600.0,600.0
500_250_100_27_6,600.0,600.0,600.0,600.0,49.87,600.0,600.0,600.0
500_250_100_27_7,600.0,600.0,600.0,600.0,44.32,600.0,600.0,600.0
500_250_100_27_8,600.0,600.0,600.0,600.0,50.34,600.0,600.0,600.0
500_250_100_27_9,600.0,600.0,600.0,600.0,53.44,600.0,600.0,600.0
100_75_50_27_0,600.0,600.0,600.0,11.36,4.16,600.0,600.0,22.56
100_75_50_27_1,600.0,600.0,600.0,10.14,4.2,600.0,600.0,15.55
100_75_50_27_2,600.0,600.0,600.0,20.04,6.03,600.0,600.0,28.31
100_75_50_27_3,600.0,600.0,600.0,7.79,5.76,600.0,600.0,28.65
100_75_50_27_4,600.0,600.0,600.0,8.05,5.3,600.0,600.0,13.88
100_75_50_27_5,600.0,600.0,600.0,7.41,4.75,600.0,600.0,31.8
100_75_50_27_6,600.0,600.0,600.0,13.72,5.79,600.0,600.0,23.49
100_75_50_27_7,600.0,600.0,600.0,20.76,5.09,600.0,600.0,27.19
100_75_50_27_8,600.0,600.0,600.0,22.01,3.73,600.0,600.0,20.75
100_75_50_27_9,600.0,600.0,600.0,13.72,4.7,600.0,600.0,25.63
10000_500_200_28_0,600.0,600.0,600.0,600.0,600.0,600.0,600.0,600.0
10000_500_200_28_1,600.0,600.0,600.0,600.0,600.0,600.0,600.0,600.0
10000_500_200_28_2,600.0,600.0,600.0,600.0,600.0,600.0,600.0,600.0
10000_500_200_28_3,600.0,600.0,600.0,600.0,600.0,600.0,600.0,600.0
10000_500_200_28_4,600.0,600.0,600.0,600.0,600.0,600.0,600.0,600.0
10000_500_200_28_5,600.0,600.0,600.0,600.0,600.0,600.0,600.0,600.0
10000_500_200_28_6,600.0,600.0,600.0,600.0,600.0,600.0,600.0,600.0
10000_500_200_28_7,600.0,600.0,600.0,600.0,600.0,600.0,600.0,600.0
10000_500_200_28_8,600.0,600.0,600.0,600.0,600.0,600.0,600.0,600.0
10000_500_200_28_9,600.0,600.0,600.0,600.0,600.0,600.0,600.0,600.0
1000_500_250_28_0,600.0,600.0,600.0,600.0,92.86,600.0,600.0,600.0
1000_500_250_28_1,600.0,600.0,600.0,600.0,107.02,600.0,600.0,600.0
1000_500_250_28_2,600.0,600.0,600.0,600.0,124.0,600.0,600.0,600.0
1000_500_250_28_3,600.0,600.0,600.0,600.0,125.31,600.0,600.0,600.0
1000_500_250_28_4,600.0,600.0,600.0,600.0,108.19,600.0,600.0,600.0
1000_500_250_28_5,600.0,600.0,600.0,600.0,91.93,600.0,600.0,600.0
1000_500_250_28_6,600.0,600.0,600.0,600.0,102.1,600.0,600.0,600.0
1000_500_250_28_7,600.0,600.0,600.0,600.0,102.33,600.0,600.0,600.0
1000_500_250_28_8,600.0,600.0,600.0,600.0,82.49,600.0,600.0,600.0
1000_500_250_28_9,600.0,600.0,600.0,600.0,82.03,600.0,600.0,600.0
500_250_100_28_0,600.0,600.0,600.0,600.0,31.01,600.0,600.0,600.0
500_250_100_28_1,600.0,600.0,600.0,66.67,19.94,600.0,600.0,600.0
500_250_100_28_2,600.0,600.0,600.0,600.0,24.06,600.0,600.0,600.0
500_250_100_28_3,600.0,600.0,600.0,600.0,38.38,600.0,600.0,600.0
500_250_100_28_4,600.0,600.0,600.0,171.12,33.47,600.0,600.0,600.0
500_250_100_28_5,600.0,600.0,600.0,600.0,33.24,600.0,600.0,600.0
500_250_100_28_6,600.0,600.0,600.0,600.0,31.35,600.0,600.0,600.0
500_250_100_28_7,600.0,600.0,600.0,600.0,31.63,600.0,600.0,600.0
500_250_100_28_8,600.0,600.0,600.0,209.76,29.33,600.0,600.0,600.0
500_250_100_28_9,600.0,600.0,600.0,69.0,31.16,600.0,600.0,600.0
100_75_50_28_0,600.0,600.0,600.0,0.87,2.7,600.0,600.0,8.55
100_75_50_28_1,600.0,600.0,600.0,1.82,3.51,600.0,600.0,4.25
100_75_50_28_2,600.0,600.0,600.0,17.57,3.98,600.0,600.0,18.76
100_75_50_28_3,600.0,600.0,600.0,7.73,2.76,600.0,600.0,17.4
100_75_50_28_4,600.0,600.0,600.0,0.8,3.41,600.0,600.0,6.01
100_75_50_28_5,600.0,600.0,600.0,3.51,4.23,600.0,600.0,7.53
100_75_50_28_6,600.0,600.0,600.0,10.69,3.08,600.0,600.0,7.97
100_75_50_28_7,600.0,600.0,600.0,10.41,4.3,600.0,600.0,8.52
100_75_50_28_8,600.0,600.0,600.0,1.76,2.05,600.0,600.0,5.95
100_75_50_28_9,600.0,600.0,600.0,7.53,2.28,600.0,600.0,7.4
10000_500_200_30_0,600.0,600.0,600.0,600.0,600.0,600.0,600.0,600.0
10000_500_200_30_1,600.0,600.0,600.0,600.0,600.0,600.0,600.0,600.0
10000_500_200_30_2,600.0,600.0,600.0,600.0,600.0,600.0,600.0,600.0
10000_500_200_30_3,600.0,600.0,600.0,600.0,600.0,600.0,600.0,600.0
10000_500_200_30_4,600.0,600.0,600.0,600.0,600.0,600.0,600.0,600.0
10000_500_200_30_5,600.0,600.0,600.0,600.0,600.0,600.0,600.0,600.0
10000_500_200_30_6,600.0,600.0,600.0,600.0,600.0,600.0,600.0,600.0
10000_500_200_30_7,600.0,600.0,600.0,600.0,600.0,600.0,600.0,600.0
10000_500_200_30_8,600.0,600.0,600.0,600.0,600.0,600.0,600.0,600.0
10000_500_200_30_9,600.0,600.0,600.0,600.0,600.0,600.0,600.0,600.0
1000_500_250_30_0,600.0,600.0,600.0,600.0,124.88,600.0,600.0,600.0
1000_500_250_30_1,600.0,600.0,600.0,600.0,82.28,600.0,600.0,600.0
1000_500_250_30_2,600.0,600.0,600.0,600.0,75.27,600.0,600.0,600.0
1000_500_250_30_3,600.0,600.0,600.0,600.0,120.55,600.0,600.0,600.0
1000_500_250_30_4,600.0,600.0,600.0,600.0,88.78,600.0,600.0,600.0
1000_500_250_30_5,600.0,600.0,600.0,600.0,93.84,600.0,600.0,600.0
1000_500_250_30_6,600.0,600.0,600.0,600.0,62.55,600.0,600.0,600.0
1000_500_250_30_7,600.0,600.0,600.0,600.0,85.51,600.0,600.0,600.0
1000_500_250_30_8,600.0,600.0,600.0,600.0,121.1,600.0,600.0,600.0
1000_500_250_30_9,600.0,600.0,600.0,600.0,141.79,600.0,600.0,600.0
500_250_100_30_0,600.0,600.0,600.0,600.0,25.87,600.0,600.0,254.62
500_250_100_30_1,600.0,600.0,600.0,430.55,40.91,600.0,600.0,600.0
500_250_100_30_2,600.0,600.0,600.0,51.09,39.2,600.0,600.0,600.0
500_250_100_30_3,600.0,600.0,600.0,600.0,31.13,600.0,600.0,600.0
500_250_100_30_4,600.0,600.0,600.0,600.0,37.42,600.0,600.0,600.0
500_250_100_30_5,600.0,600.0,600.0,600.0,54.01,600.0,600.0,600.0
500_250_100_30_6,600.0,600.0,600.0,600.0,40.16,600.0,600.0,600.0
500_250_100_30_7,600.0,600.0,600.0,91.67,21.38,600.0,600.0,419.77
500_250_100_30_8,600.0,600.0,600.0,600.0,36.42,600.0,600.0,384.32
500_250_100_30_9,600.0,600.0,600.0,600.0,39.96,600.0,600.0,306.13
100_75_50_30_0,600.0,600.0,600.0,7.19,3.46,600.0,600.0,8.95
100_75_50_30_1,600.0,600.0,600.0,6.28,4.76,600.0,600.0,4.73
100_75_50_30_2,600.0,600.0,600.0,9.21,3.46,600.0,600.0,7.88
100_75_50_30_3,600.0,600.0,600.0,4.61,3.96,600.0,600.0,8.84
100_75_50_30_4,600.0,600.0,600.0,2.05,3.32,600.0,600.0,2.6
100_75_50_30_5,600.0,600.0,600.0,9.09,2.17,600.0,600.0,7.52
100_75_50_30_6,600.0,600.0,600.0,7.89,3.01,600.0,600.0,7.25
100_75_50_30_7,600.0,600.0,600.0,2.34,3.17,600.0,600.0,4.89
100_75_50_30_8,600.0,600.0,600.0,3.42,3.3,600.0,600.0,5.55
100_75_50_30_9,600.0,600.0,600.0,7.25,2.59,600.0,600.0,5.97
10000_500_200_31_0,600.0,600.0,600.0,600.0,600.0,600.0,600.0,600.0
10000_500_200_31_1,600.0,600.0,600.0,600.0,600.0,600.0,600.0,600.0
10000_500_200_31_2,600.0,600.0,600.0,600.0,600.0,600.0,600.0,600.0
10000_500_200_31_3,600.0,600.0,600.0,600.0,600.0,600.0,600.0,600.0
10000_500_200_31_4,600.0,600.0,600.0,600.0,600.0,600.0,600.0,600.0
10000_500_200_31_5,600.0,600.0,600.0,600.0,600.0,600.0,600.0,600.0
10000_500_200_31_6,600.0,600.0,600.0,600.0,600.0,600.0,600.0,600.0
10000_500_200_31_7,600.0,600.0,600.0,600.0,600.0,600.0,600.0,600.0
10000_500_200_31_8,600.0,600.0,600.0,600.0,600.0,600.0,600.0,600.0
10000_500_200_31_9,600.0,600.0,600.0,600.0,600.0,600.0,600.0,600.0
1000_500_250_31_0,600.0,600.0,600.0,600.0,175.93,600.0,600.0,600.0
1000_500_250_31_1,600.0,600.0,600.0,600.0,121.21,600.0,600.0,600.0
1000_500_250_31_2,600.0,600.0,600.0,600.0,148.32,600.0,600.0,600.0
1000_500_250_31_3,600.0,600.0,600.0,600.0,154.61,600.0,600.0,600.0
1000_500_250_31_4,600.0,600.0,600.0,600.0,153.18,600.0,600.0,600.0
1000_500_250_31_5,600.0,600.0,600.0,600.0,117.11,600.0,600.0,600.0
1000_500_250_31_6,600.0,600.0,600.0,600.0,169.69,600.0,600.0,600.0
1000_500_250_31_7,600.0,600.0,600.0,600.0,135.71,600.0,600.0,600.0
1000_500_250_31_8,600.0,600.0,600.0,600.0,185.25,600.0,600.0,600.0
1000_500_250_31_9,600.0,600.0,600.0,600.0,152.23,600.0,600.0,600.0
500_250_100_31_0,600.0,600.0,600.0,600.0,41.2,600.0,600.0,600.0
500_250_100_31_1,600.0,600.0,600.0,600.0,43.62,600.0,600.0,600.0
500_250_100_31_2,600.0,600.0,600.0,600.0,49.1,600.0,600.0,600.0
500_250_100_31_3,600.0,600.0,600.0,600.0,38.58,600.0,600.0,600.0
500_250_100_31_4,600.0,600.0,600.0,600.0,51.78,600.0,600.0,600.0
500_250_100_31_5,600.0,600.0,600.0,600.0,48.59,600.0,600.0,600.0
500_250_100_31_6,600.0,600.0,600.0,600.0,47.56,600.0,600.0,600.0
500_250_100_31_7,600.0,600.0,600.0,600.0,35.94,600.0,600.0,600.0
500_250_100_31_8,600.0,600.0,600.0,600.0,54.71,600.0,600.0,600.0
500_250_100_31_9,600.0,600.0,600.0,600.0,47.85,600.0,600.0,600.0
100_75_50_31_0,600.0,600.0,600.0,9.1,2.79,600.0,600.0,27.0
100_75_50_31_1,600.0,600.0,600.0,18.42,2.65,600.0,600.0,12.98
100_75_50_31_2,600.0,600.0,600.0,11.24,4.16,600.0,600.0,10.47
100_75_50_31_3,600.0,600.0,600.0,12.46,3.77,600.0,600.0,12.49
100_75_50_31_4,600.0,600.0,600.0,7.19,4.26,600.0,600.0,8.99
100_75_50_31_5,600.0,600.0,600.0,3.01,3.43,600.0,600.0,10.97
100_75_50_31_6,600.0,600.0,600.0,34.54,4.72,600.0,600.0,22.44
100_75_50_31_7,600.0,600.0,600.0,6.61,3.36,600.0,600.0,22.3
100_75_50_31_8,600.0,600.0,600.0,3.07,4.08,600.0,600.0,10.83
100_75_50_31_9,600.0,600.0,600.0,20.01,3.51,600.0,600.0,25.0
10000_500_200_32_0,600.0,600.0,600.0,600.0,600.0,600.0,600.0,600.0
10000_500_200_32_1,600.0,600.0,600.0,600.0,600.0,600.0,600.0,600.0
10000_500_200_32_2,600.0,600.0,600.0,600.0,600.0,600.0,600.0,600.0
10000_500_200_32_3,600.0,600.0,600.0,600.0,600.0,600.0,600.0,600.0
10000_500_200_32_4,600.0,600.0,600.0,600.0,600.0,600.0,600.0,600.0
10000_500_200_32_5,600.0,600.0,600.0,600.0,600.0,600.0,600.0,600.0
10000_500_200_32_6,600.0,600.0,600.0,600.0,600.0,600.0,600.0,600.0
10000_500_200_32_7,600.0,600.0,600.0,600.0,600.0,600.0,600.0,600.0
10000_500_200_32_8,600.0,600.0,600.0,600.0,600.0,600.0,600.0,600.0
10000_500_200_32_9,600.0,600.0,600.0,600.0,600.0,600.0,600.0,600.0
1000_500_250_32_0,600.0,600.0,600.0,600.0,87.77,600.0,600.0,600.0
1000_500_250_32_1,600.0,600.0,600.0,600.0,101.12,600.0,600.0,600.0
1000_500_250_32_2,600.0,600.0,600.0,600.0,71.36,600.0,600.0,600.0
1000_500_250_32_3,600.0,600.0,600.0,600.0,82.12,600.0,600.0,600.0
1000_500_250_32_4,600.0,600.0,600.0,600.0,69.82,600.0,600.0,600.0
1000_500_250_32_5,600.0,600.0,600.0,600.0,62.39,600.0,600.0,600.0
1000_500_250_32_6,600.0,600.0,600.0,600.0,77.43,600.0,600.0,600.0
1000_500_250_32_7,600.0,600.0,600.0,600.0,74.11,600.0,600.0,600.0
1000_500_250_32_8,600.0,600.0,600.0,600.0,72.43,600.0,600.0,600.0
1000_500_250_32_9,600.0,600.0,600.0,600.0,70.85,600.0,600.0,600.0
500_250_100_32_0,600.0,600.0,600.0,600.0,24.21,600.0,600.0,600.0
500_250_100_32_1,600.0,600.0,600.0,493.81,17.45,600.0,600.0,600.0
500_250_100_32_2,600.0,600.0,600.0,600.0,19.07,600.0,600.0,405.83
500_250_100_32_3,600.0,600.0,600.0,600.0,32.0,600.0,600.0,600.0
500_250_100_32_4,600.0,600.0,600.0,600.0,28.53,600.0,600.0,600.0
500_250_100_32_5,600.0,600.0,600.0,600.0,27.1,600.0,600.0,600.0
500_250_100_32_6,600.0,600.0,600.0,600.0,24.39,600.0,600.0,600.0
500_250_100_32_7,600.0,600.0,600.0,600.0,26.55,600.0,600.0,600.0
500_250_100_32_8,600.0,600.0,600.0,600.0,25.6,600.0,600.0,580.25
500_250_100_32_9,600.0,600.0,600.0,600.0,26.81,600.0,600.0,600.0
100_75_50_32_0,600.0,600.0,600.0,4.34,2.88,600.0,600.0,4.72
100_75_50_32_1,600.0,600.0,600.0,4.4,4.08,600.0,600.0,4.0
100_75_50_32_2,600.0,600.0,600.0,2.64,2.63,600.0,600.0,1.91
100_75_50_32_3,600.0,600.0,600.0,2.51,1.61,600.0,600.0,8.47
100_75_50_32_4,600.0,600.0,600.0,4.57,3.07,600.0,600.0,6.21
100_75_50_32_5,600.0,600.0,600.0,4.3,3.52,600.0,600.0,4.26
100_75_50_32_6,600.0,600.0,600.0,5.42,2.12,600.0,600.0,3.49
100_75_50_32_7,600.0,600.0,600.0,7.02,3.95,600.0,600.0,5.57
100_75_50_32_8,600.0,600.0,600.0,9.57,1.89,600.0,600.0,4.34
100_75_50_32_9,600.0,600.0,600.0,4.03,2.71,600.0,600.0,5.14
10000_500_200_34_0,600.0,600.0,600.0,600.0,600.0,600.0,600.0,600.0
10000_500_200_34_1,600.0,600.0,600.0,600.0,600.0,600.0,600.0,600.0
10000_500_200_34_2,600.0,600.0,600.0,600.0,600.0,600.0,600.0,600.0
10000_500_200_34_3,600.0,600.0,600.0,600.0,600.0,600.0,600.0,600.0
10000_500_200_34_4,600.0,600.0,600.0,600.0,600.0,600.0,600.0,600.0
10000_500_200_34_5,600.0,600.0,600.0,600.0,600.0,600.0,600.0,600.0
10000_500_200_34_6,600.0,600.0,600.0,600.0,600.0,600.0,600.0,600.0
10000_500_200_34_7,600.0,600.0,600.0,600.0,600.0,600.0,600.0,600.0
10000_500_200_34_8,600.0,600.0,600.0,600.0,600.0,600.0,600.0,600.0
10000_500_200_34_9,600.0,600.0,600.0,600.0,600.0,600.0,600.0,600.0
1000_500_250_34_0,600.0,600.0,600.0,600.0,170.39,600.0,600.0,600.0
1000_500_250_34_1,600.0,600.0,600.0,600.0,83.53,600.0,600.0,600.0
1000_500_250_34_2,600.0,600.0,600.0,600.0,108.58,600.0,600.0,600.0
1000_500_250_34_3,600.0,600.0,600.0,600.0,122.28,600.0,600.0,600.0
1000_500_250_34_4,600.0,600.0,600.0,600.0,104.04,600.0,600.0,600.0
1000_500_250_34_5,600.0,600.0,600.0,600.0,98.07,600.0,600.0,600.0
1000_500_250_34_6,600.0,600.0,600.0,600.0,80.66,600.0,600.0,600.0
1000_500_250_34_7,600.0,600.0,600.0,600.0,107.3,600.0,600.0,600.0
1000_500_250_34_8,600.0,600.0,600.0,600.0,119.69,600.0,600.0,600.0
1000_500_250_34_9,600.0,600.0,600.0,600.0,135.93,600.0,600.0,600.0
500_250_100_34_0,600.0,600.0,600.0,600.0,21.03,600.0,600.0,600.0
500_250_100_34_1,600.0,600.0,600.0,600.0,41.02,600.0,600.0,600.0
500_250_100_34_2,600.0,600.0,600.0,371.35,44.2,600.0,600.0,600.0
500_250_100_34_3,600.0,600.0,600.0,306.27,33.93,600.0,600.0,576.93
500_250_100_34_4,600.0,600.0,600.0,573.82,35.41,600.0,600.0,407.18
500_250_100_34_5,600.0,600.0,600.0,599.95,52.07,600.0,600.0,600.0
500_250_100_34_6,600.0,600.0,600.0,431.98,27.31,600.0,600.0,316.98
500_250_100_34_7,600.0,600.0,600.0,425.39,20.1,600.0,600.0,600.0
500_250_100_34_8,600.0,600.0,600.0,509.55,37.58,600.0,600.0,600.0
500_250_100_34_9,600.0,600.0,600.0,306.75,44.1,600.0,600.0,481.16
100_75_50_34_0,600.0,600.0,600.0,6.91,2.07,600.0,600.0,3.58
100_75_50_34_1,600.0,600.0,600.0,1.35,2.98,600.0,589.73,2.1
100_75_50_34_2,600.0,600.0,600.0,1.92,2.54,600.0,600.0,13.22
100_75_50_34_3,600.0,600.0,600.0,5.09,3.47,600.0,600.0,4.93
100_75_50_34_4,600.0,600.0,600.0,3.37,3.34,600.0,600.0,3.28
100_75_50_34_5,600.0,600.0,600.0,2.46,2.34,600.0,600.0,1.51
100_75_50_34_6,600.0,600.0,600.0,5.94,2.37,600.0,600.0,2.01
100_75_50_34_7,600.0,600.0,600.0,1.85,3.09,600.0,600.0,2.31
100_75_50_34_8,600.0,600.0,600.0,4.39,2.84,600.0,600.0,5.16
100_75_50_34_9,600.0,600.0,600.0,7.76,2.29,600.0,600.0,1.35
10000_500_200_35_0,600.0,600.0,600.0,600.0,600.0,600.0,600.0,600.0
10000_500_200_35_1,600.0,600.0,600.0,600.0,600.0,600.0,600.0,600.0
10000_500_200_35_2,600.0,600.0,600.0,600.0,600.0,600.0,600.0,600.0
10000_500_200_35_3,600.0,600.0,600.0,600.0,600.0,600.0,600.0,600.0
10000_500_200_35_4,600.0,600.0,600.0,600.0,600.0,600.0,600.0,600.0
10000_500_200_35_5,600.0,600.0,600.0,600.0,600.0,600.0,600.0,600.0
10000_500_200_35_6,600.0,600.0,600.0,600.0,600.0,600.0,600.0,600.0
10000_500_200_35_7,600.0,600.0,600.0,600.0,600.0,600.0,600.0,600.0
10000_500_200_35_8,600.0,600.0,600.0,600.0,600.0,600.0,600.0,600.0
10000_500_200_35_9,600.0,600.0,600.0,600.0,600.0,600.0,600.0,600.0
1000_500_250_35_0,600.0,600.0,600.0,600.0,132.23,600.0,600.0,600.0
1000_500_250_35_1,600.0,600.0,600.0,600.0,125.05,600.0,600.0,600.0
1000_500_250_35_2,600.0,600.0,600.0,600.0,137.44,600.0,600.0,600.0
1000_500_250_35_3,600.0,600.0,600.0,600.0,120.96,600.0,600.0,600.0
1000_500_250_35_4,600.0,600.0,600.0,600.0,170.23,600.0,600.0,600.0
1000_500_250_35_5,600.0,600.0,600.0,600.0,111.27,600.0,600.0,600.0
1000_500_250_35_6,600.0,600.0,600.0,600.0,150.31,600.0,600.0,600.0
1000_500_250_35_7,600.0,600.0,600.0,600.0,101.05,600.0,600.0,600.0
1000_500_250_35_8,600.0,600.0,600.0,600.0,154.33,600.0,600.0,600.0
1000_500_250_35_9,600.0,600.0,600.0,600.0,135.69,600.0,600.0,600.0
500_250_100_35_0,600.0,600.0,600.0,600.0,32.71,600.0,600.0,600.0
500_250_100_35_1,600.0,600.0,600.0,600.0,37.56,600.0,600.0,600.0
500_250_100_35_2,600.0,600.0,600.0,600.0,39.89,600.0,600.0,600.0
500_250_100_35_3,600.0,600.0,600.0,600.0,32.33,600.0,600.0,600.0
500_250_100_35_4,600.0,600.0,600.0,600.0,41.63,600.0,600.0,600.0
500_250_100_35_5,600.0,600.0,600.0,600.0,40.09,600.0,600.0,600.0
500_250_100_35_6,600.0,600.0,600.0,600.0,30.32,600.0,600.0,600.0
500_250_100_35_7,600.0,600.0,600.0,439.22,22.58,600.0,600.0,600.0
500_250_100_35_8,600.0,600.0,600.0,600.0,45.24,600.0,600.0,600.0
500_250_100_35_9,600.0,600.0,600.0,600.0,32.01,600.0,600.0,600.0
100_75_50_35_0,600.0,600.0,600.0,9.74,2.57,600.0,600.0,7.12
100_75_50_35_1,600.0,600.0,600.0,12.95,2.87,600.0,600.0,11.5
100_75_50_35_2,600.0,600.0,600.0,3.23,3.62,600.0,600.0,4.29
100_75_50_35_3,600.0,600.0,600.0,11.14,3.13,600.0,600.0,11.39
100_75_50_35_4,600.0,600.0,600.0,9.47,4.04,600.0,600.0,14.15
100_75_50_35_5,600.0,600.0,600.0,9.97,2.89,600.0,600.0,9.29
100_75_50_35_6,600.0,600.0,600.0,8.56,3.65,600.0,600.0,10.25
100_75_50_35_7,600.0,600.0,600.0,12.98,3.1,600.0,600.0,13.67
100_75_50_35_8,600.0,600.0,600.0,7.09,3.26,600.0,600.0,6.18
100_75_50_35_9,600.0,600.0,600.0,19.18,3.09,600.0,600.0,18.22
10000_500_200_36_0,600.0,600.0,600.0,600.0,600.0,600.0,600.0,600.0
10000_500_200_36_1,600.0,600.0,600.0,600.0,600.0,600.0,600.0,600.0
10000_500_200_36_2,600.0,600.0,600.0,600.0,600.0,600.0,600.0,600.0
10000_500_200_36_3,600.0,600.0,600.0,600.0,600.0,600.0,600.0,600.0
10000_500_200_36_4,600.0,600.0,600.0,600.0,600.0,600.0,600.0,600.0
10000_500_200_36_5,600.0,600.0,600.0,600.0,600.0,600.0,600.0,600.0
10000_500_200_36_6,600.0,600.0,600.0,600.0,600.0,600.0,600.0,600.0
10000_500_200_36_7,600.0,600.0,600.0,600.0,600.0,600.0,600.0,600.0
10000_500_200_36_8,600.0,600.0,600.0,600.0,600.0,600.0,600.0,600.0
10000_500_200_36_9,600.0,600.0,600.0,600.0,600.0,600.0,600.0,600.0
1000_500_250_36_0,600.0,600.0,600.0,600.0,70.85,600.0,600.0,600.0
1000_500_250_36_1,600.0,600.0,600.0,600.0,98.53,600.0,600.0,600.0
1000_500_250_36_2,600.0,600.0,600.0,600.0,60.18,600.0,600.0,600.0
1000_500_250_36_3,600.0,600.0,600.0,600.0,75.65,600.0,600.0,600.0
1000_500_250_36_4,600.0,600.0,600.0,600.0,57.02,600.0,600.0,600.0
1000_500_250_36_5,600.0,600.0,600.0,600.0,64.2,600.0,600.0,600.0
1000_500_250_36_6,600.0,600.0,600.0,600.0,65.86,600.0,600.0,600.0
1000_500_250_36_7,600.0,600.0,600.0,600.0,56.64,600.0,600.0,600.0
1000_500_250_36_8,600.0,600.0,600.0,600.0,71.7,600.0,600.0,600.0
1000_500_250_36_9,600.0,600.0,600.0,600.0,74.03,600.0,600.0,600.0
500_250_100_36_0,600.0,600.0,600.0,600.0,22.1,600.0,600.0,600.0
500_250_100_36_1,600.0,600.0,600.0,249.53,22.84,600.0,600.0,503.17
500_250_100_36_2,600.0,600.0,600.0,583.67,19.37,600.0,600.0,600.0
500_250_100_36_3,600.0,600.0,600.0,508.36,29.95,600.0,600.0,514.67
500_250_100_36_4,600.0,600.0,600.0,576.34,19.75,600.0,600.0,451.3
500_250_100_36_5,600.0,600.0,600.0,508.6,26.15,600.0,600.0,585.14
500_250_100_36_6,600.0,600.0,600.0,493.17,17.46,600.0,600.0,600.0
500_250_100_36_7,600.0,600.0,600.0,287.63,24.42,600.0,600.0,546.57
500_250_100_36_8,600.0,600.0,600.0,230.16,21.35,600.0,600.0,448.63
500_250_100_36_9,600.0,600.0,600.0,222.75,23.35,600.0,600.0,184.83
100_75_50_36_0,600.0,600.0,600.0,2.04,1.88,600.0,337.37,2.48
100_75_50_36_1,600.0,600.0,600.0,1.39,3.44,600.0,600.0,1.56
100_75_50_36_2,600.0,600.0,600.0,1.41,1.79,600.0,325.9,1.59
100_75_50_36_3,600.0,600.0,600.0,3.23,2.06,600.0,454.81,0.95
100_75_50_36_4,600.0,600.0,600.0,1.51,2.97,600.0,501.29,1.86
100_75_50_36_5,600.0,600.0,600.0,1.67,1.92,600.0,557.68,2.66
100_75_50_36_6,600.0,600.0,600.0,1.07,1.09,600.0,583.46,1.48
100_75_50_36_7,600.0,600.0,600.0,2.95,2.96,600.0,600.0,3.35
100_75_50_36_8,600.0,600.0,600.0,5.66,1.58,600.0,600.0,9.49
100_75_50_36_9,600.0,600.0,600.0,2.77,2.25,600.0,600.0,1.33
