Generation 1 of 230
36771.00
Generation 2 of 230
36771.00
Generation 3 of 230
36771.00
TIMEOUT
Number of iterations = 3
Best Solution was found in iteration = 1
Time to find the best solution = 307.14
Best solution found has objective value = 36771.00
Time = 629.28
