Generation 1 of 230
99999.00
TIMEOUT
Number of iterations = 1
Best Solution was found in iteration = 1
Time to find the best solution = 1601.74
Best solution found has objective value = 99999.00
Time = 1601.74
