Generation 1 of 230
266461.00
TIMEOUT
Number of iterations = 1
Best Solution was found in iteration = 1
Time to find the best solution = 1542.54
Best solution found has objective value = 266461.00
Time = 1542.54
