Generation 1 of 230
240600.00
TIMEOUT
Number of iterations = 1
Best Solution was found in iteration = 1
Time to find the best solution = 1560.07
Best solution found has objective value = 240600.00
Time = 1560.07
