Generation 1 of 230
262786.00
TIMEOUT
Number of iterations = 1
Best Solution was found in iteration = 1
Time to find the best solution = 1494.26
Best solution found has objective value = 262786.00
Time = 1494.26
