Generation 1 of 230
99321.00
TIMEOUT
Number of iterations = 1
Best Solution was found in iteration = 1
Time to find the best solution = 1437.49
Best solution found has objective value = 99321.00
Time = 1437.49
