Generation 1 of 230
122562.00
TIMEOUT
Number of iterations = 1
Best Solution was found in iteration = 1
Time to find the best solution = 915.40
Best solution found has objective value = 122562.00
Time = 915.40
