Generation 1 of 230
39925.00
Generation 2 of 230
39925.00
Generation 3 of 230
39925.00
Generation 4 of 230
39925.00
Generation 5 of 230
39925.00
Generation 6 of 230
39925.00
Generation 7 of 230
39925.00
Generation 8 of 230
39925.00
Generation 9 of 230
39925.00
Generation 10 of 230
39925.00
Generation 11 of 230
39925.00
Generation 12 of 230
39925.00
Generation 13 of 230
39925.00
Generation 14 of 230
39925.00
Generation 15 of 230
39925.00
Generation 16 of 230
39925.00
Generation 17 of 230
39925.00
Generation 18 of 230
39925.00
Generation 19 of 230
39925.00
Generation 20 of 230
39925.00
Generation 21 of 230
39925.00
Generation 22 of 230
39925.00
Generation 23 of 230
39925.00
Generation 24 of 230
39925.00
Generation 25 of 230
39925.00
Generation 26 of 230
39925.00
Generation 27 of 230
39925.00
Generation 28 of 230
39925.00
Generation 29 of 230
39925.00
Generation 30 of 230
39925.00
Generation 31 of 230
39925.00
Generation 32 of 230
39925.00
Generation 33 of 230
39925.00
Generation 34 of 230
39925.00
Generation 35 of 230
39925.00
Generation 36 of 230
39925.00
Generation 37 of 230
39925.00
Generation 38 of 230
39925.00
Generation 39 of 230
39925.00
Generation 40 of 230
39925.00
Generation 41 of 230
39925.00
Generation 42 of 230
39925.00
Generation 43 of 230
39925.00
Generation 44 of 230
39925.00
Generation 45 of 230
39925.00
Generation 46 of 230
39925.00
TIMEOUT
Number of iterations = 46
Best Solution was found in iteration = 1
Time to find the best solution = 25.98
Best solution found has objective value = 39925.00
Time = 601.04
