Generation 1 of 230
24764.00
Generation 2 of 230
24764.00
Generation 3 of 230
24764.00
Generation 4 of 230
24764.00
TIMEOUT
Number of iterations = 4
Best Solution was found in iteration = 1
Time to find the best solution = 251.61
Best solution found has objective value = 24764.00
Time = 648.66
