Generation 1 of 230
16468.00
Generation 2 of 230
16468.00
Generation 3 of 230
16468.00
Generation 4 of 230
16468.00
Generation 5 of 230
16468.00
Generation 6 of 230
16468.00
Generation 7 of 230
16468.00
Generation 8 of 230
16468.00
Generation 9 of 230
16468.00
Generation 10 of 230
16468.00
Generation 11 of 230
16468.00
TIMEOUT
Number of iterations = 11
Best Solution was found in iteration = 1
Time to find the best solution = 102.57
Best solution found has objective value = 16468.00
Time = 640.71
