Generation 1 of 230
24757.00
Generation 2 of 230
24757.00
Generation 3 of 230
24757.00
Generation 4 of 230
24757.00
Generation 5 of 230
24757.00
TIMEOUT
Number of iterations = 5
Best Solution was found in iteration = 1
Time to find the best solution = 202.40
Best solution found has objective value = 24757.00
Time = 612.31
