instances,callsChange,callsChangeRemovedBIT,callsAdd,callsAddRemovedBIT,iteracoes
10000_500_200_2_0,0,0,10000,0,2000
10000_500_200_2_1,0,0,10000,0,2000
10000_500_200_2_2,0,0,10000,0,2000
10000_500_200_2_3,0,0,10000,0,2000
10000_500_200_2_4,0,0,10000,0,2000
10000_500_200_2_5,0,0,10000,0,2000
10000_500_200_2_6,0,0,10000,0,2000
10000_500_200_2_7,0,0,10000,0,2000
10000_500_200_2_8,0,0,10000,0,2000
10000_500_200_2_9,0,0,10000,0,2000
1000_500_250_2_0,1260336,0,1660788,0,2000
1000_500_250_2_1,867825,0,1123097,0,2000
1000_500_250_2_2,1355904,0,1768830,0,2000
1000_500_250_2_3,1308516,0,1699968,0,2000
1000_500_250_2_4,1115775,0,1440309,0,2000
1000_500_250_2_5,1204000,0,1562544,0,2000
1000_500_250_2_6,1057536,0,1380100,0,2000
1000_500_250_2_7,1565200,0,1992408,0,2000
1000_500_250_2_8,1064079,0,1375179,0,2000
1000_500_250_2_9,1182310,0,1538488,0,2000
500_250_100_2_0,3520100,0,4354710,0,2000
500_250_100_2_1,3132129,0,3996803,0,2000
500_250_100_2_2,3164118,0,4006328,0,2000
500_250_100_2_3,2963739,0,3832417,0,2000
500_250_100_2_4,3095697,0,3982635,0,2000
500_250_100_2_5,3236157,0,4040673,0,2000
500_250_100_2_6,3006972,0,3861396,0,2000
500_250_100_2_7,3230541,0,4104661,0,2000
500_250_100_2_8,3079104,0,3964206,0,2000
500_250_100_2_9,3061387,0,3858606,0,2000
100_75_50_2_0,12567346,0,15927299,0,2000
100_75_50_2_1,14266111,0,18594538,0,2000
100_75_50_2_2,13148212,0,17018861,0,2000
100_75_50_2_3,13405770,0,17134507,0,2000
100_75_50_2_4,13139931,0,16825652,0,2000
100_75_50_2_5,14092001,0,16987723,0,2000
100_75_50_2_6,12335452,0,15959660,0,2000
100_75_50_2_7,13545463,0,17322677,0,2000
100_75_50_2_8,12332850,0,15756112,0,2000
100_75_50_2_9,11759107,0,14819011,0,2000
10000_500_200_3_0,0,0,10000,0,2000
10000_500_200_3_1,0,0,10000,0,2000
10000_500_200_3_2,0,0,10000,0,2000
10000_500_200_3_3,0,0,10000,0,2000
10000_500_200_3_4,0,0,10000,0,2000
10000_500_200_3_5,0,0,10000,0,2000
10000_500_200_3_6,0,0,10000,0,2000
10000_500_200_3_7,0,0,10000,0,2000
10000_500_200_3_8,0,0,10000,0,2000
10000_500_200_3_9,0,0,10000,0,2000
1000_500_250_3_0,0,0,1000,0,2000
1000_500_250_3_1,0,0,1000,0,2000
1000_500_250_3_2,0,0,1000,0,2000
1000_500_250_3_3,0,0,1000,0,2000
1000_500_250_3_4,0,0,1000,0,2000
1000_500_250_3_5,0,0,1000,0,2000
1000_500_250_3_6,0,0,1000,0,2000
1000_500_250_3_7,0,0,1000,0,2000
1000_500_250_3_8,0,0,1000,0,2000
1000_500_250_3_9,0,0,1000,0,2000
500_250_100_3_0,0,0,500,0,2000
500_250_100_3_1,135780,0,336672,0,2000
500_250_100_3_2,0,0,500,0,2000
500_250_100_3_3,0,0,500,0,2000
500_250_100_3_4,0,0,500,0,2000
500_250_100_3_5,0,0,500,0,2000
500_250_100_3_6,0,0,500,0,2000
500_250_100_3_7,0,0,500,0,2000
500_250_100_3_8,114576,0,277180,0,2000
500_250_100_3_9,0,0,500,0,2000
100_75_50_3_0,1206784,0,2578136,0,2000
100_75_50_3_1,3068579,0,6178585,0,2000
100_75_50_3_2,2173921,0,4333772,0,2000
100_75_50_3_3,725044,0,1589201,0,2000
100_75_50_3_4,2502721,0,5117568,0,2000
100_75_50_3_5,1496927,0,3082646,0,2000
100_75_50_3_6,1319597,0,2725911,0,2000
100_75_50_3_7,1174073,0,2520360,0,2000
100_75_50_3_8,1934921,0,4185239,0,2000
100_75_50_3_9,1164455,0,2635336,0,2000
10000_500_200_4_0,0,0,10000,0,2000
10000_500_200_4_1,0,0,10000,0,2000
10000_500_200_4_2,0,0,10000,0,2000
10000_500_200_4_3,0,0,10000,0,2000
10000_500_200_4_4,0,0,10000,0,2000
10000_500_200_4_5,0,0,10000,0,2000
10000_500_200_4_6,0,0,10000,0,2000
10000_500_200_4_7,0,0,10000,0,2000
10000_500_200_4_8,0,0,10000,0,2000
10000_500_200_4_9,0,0,10000,0,2000
1000_500_250_4_0,709386,0,968592,0,2000
1000_500_250_4_1,587520,0,818524,0,2000
1000_500_250_4_2,461244,0,657474,0,2000
1000_500_250_4_3,713736,0,984592,0,2000
1000_500_250_4_4,957432,0,1318672,0,2000
1000_500_250_4_5,940032,0,1277108,0,2000
1000_500_250_4_6,598395,0,841389,0,2000
1000_500_250_4_7,350325,0,491043,0,2000
1000_500_250_4_8,0,0,1000,0,2000
1000_500_250_4_9,812308,0,1138128,0,2000
500_250_100_4_0,1269204,0,1691466,0,2000
500_250_100_4_1,1248819,0,1715873,0,2000
500_250_100_4_2,1165958,0,1571685,0,2000
500_250_100_4_3,1093494,0,1424110,0,2000
500_250_100_4_4,1386882,0,1806799,0,2000
500_250_100_4_5,1387113,0,1870003,0,2000
500_250_100_4_6,2104216,0,2830724,0,2000
500_250_100_4_7,1287095,0,1728844,0,2000
500_250_100_4_8,2366703,0,3202142,0,2000
500_250_100_4_9,1564089,0,2130725,0,2000
100_75_50_4_0,9766505,0,12991059,0,2000
100_75_50_4_1,7091563,0,9718187,0,2000
100_75_50_4_2,7383681,0,9459006,0,2000
100_75_50_4_3,11217017,0,15793887,0,2000
100_75_50_4_4,8668762,0,11137856,0,2000
100_75_50_4_5,11462215,0,14406820,0,2000
100_75_50_4_6,10614410,0,13710924,0,2000
100_75_50_4_7,9393141,0,11531172,0,2000
100_75_50_4_8,9973477,0,13581979,0,2000
100_75_50_4_9,9076339,0,12329364,0,2000
10000_500_200_6_0,0,0,10000,0,2000
10000_500_200_6_1,0,0,10000,0,2000
10000_500_200_6_2,0,0,10000,0,2000
10000_500_200_6_3,0,0,10000,0,2000
10000_500_200_6_4,0,0,10000,0,2000
10000_500_200_6_5,0,0,10000,0,2000
10000_500_200_6_6,0,0,10000,0,2000
10000_500_200_6_7,0,0,10000,0,2000
10000_500_200_6_8,0,0,10000,0,2000
10000_500_200_6_9,0,0,10000,0,2000
1000_500_250_6_0,1343775,0,1644819,0,2000
1000_500_250_6_1,1332456,0,1604232,0,2000
1000_500_250_6_2,523404,0,650320,0,2000
1000_500_250_6_3,814184,0,992946,0,2000
1000_500_250_6_4,1078272,0,1305820,0,2000
1000_500_250_6_5,1475775,0,1748715,0,2000
1000_500_250_6_6,1221276,0,1473312,0,2000
1000_500_250_6_7,1534806,0,1814681,0,2000
1000_500_250_6_8,1802836,0,2148008,0,2000
1000_500_250_6_9,1121589,0,1355681,0,2000
500_250_100_6_0,1443292,0,1665428,0,2000
500_250_100_6_1,1474620,0,1770372,0,2000
500_250_100_6_2,1749406,0,2039059,0,2000
500_250_100_6_3,1537724,0,1804392,0,2000
500_250_100_6_4,1847753,0,2153057,0,2000
500_250_100_6_5,1948987,0,2262387,0,2000
500_250_100_6_6,1859636,0,2185062,0,2000
500_250_100_6_7,2114399,0,2486603,0,2000
500_250_100_6_8,2062122,0,2469331,0,2000
500_250_100_6_9,2156279,0,2533947,0,2000
100_75_50_6_0,8192917,0,9798507,0,2000
100_75_50_6_1,11925946,0,14245581,0,2000
100_75_50_6_2,9780509,0,11850962,0,2000
100_75_50_6_3,9978891,0,11865514,0,2000
100_75_50_6_4,9880653,0,12007700,0,2000
100_75_50_6_5,10186038,0,11764715,0,2000
100_75_50_6_6,10892021,0,13031374,0,2000
100_75_50_6_7,11533187,0,13737278,0,2000
100_75_50_6_8,11714379,0,14022005,0,2000
100_75_50_6_9,9378294,0,11236232,0,2000
10000_500_200_7_0,0,0,10000,0,2000
10000_500_200_7_1,0,0,10000,0,2000
10000_500_200_7_2,0,0,10000,0,2000
10000_500_200_7_3,0,0,10000,0,2000
10000_500_200_7_4,0,0,10000,0,2000
10000_500_200_7_5,0,0,10000,0,2000
10000_500_200_7_6,0,0,10000,0,2000
10000_500_200_7_7,0,0,10000,0,2000
10000_500_200_7_8,0,0,10000,0,2000
10000_500_200_7_9,0,0,10000,0,2000
1000_500_250_7_0,0,0,1000,0,2000
1000_500_250_7_1,0,0,1000,0,2000
1000_500_250_7_2,0,0,1000,0,2000
1000_500_250_7_3,0,0,1000,0,2000
1000_500_250_7_4,0,0,1000,0,2000
1000_500_250_7_5,0,0,1000,0,2000
1000_500_250_7_6,0,0,1000,0,2000
1000_500_250_7_7,0,0,1000,0,2000
1000_500_250_7_8,0,0,1000,0,2000
1000_500_250_7_9,0,0,1000,0,2000
500_250_100_7_0,54636,0,137942,0,2000
500_250_100_7_1,0,0,500,0,2000
500_250_100_7_2,251104,0,609178,0,2000
500_250_100_7_3,0,0,500,0,2000
500_250_100_7_4,326495,0,692376,0,2000
500_250_100_7_5,0,0,500,0,2000
500_250_100_7_6,177567,0,408693,0,2000
500_250_100_7_7,0,0,500,0,2000
500_250_100_7_8,183300,0,395668,0,2000
500_250_100_7_9,145376,0,342296,0,2000
100_75_50_7_0,398624,0,944522,0,2000
100_75_50_7_1,1166256,0,2219482,0,2000
100_75_50_7_2,778722,0,1537857,0,2000
100_75_50_7_3,964809,0,2137952,0,2000
100_75_50_7_4,1455767,0,2849422,0,2000
100_75_50_7_5,1828962,0,3614764,0,2000
100_75_50_7_6,621528,0,1185721,0,2000
100_75_50_7_7,582763,0,1306988,0,2000
100_75_50_7_8,910375,0,2110092,0,2000
100_75_50_7_9,858898,0,2026754,0,2000
10000_500_200_8_0,0,0,10000,0,2000
10000_500_200_8_1,0,0,10000,0,2000
10000_500_200_8_2,0,0,10000,0,2000
10000_500_200_8_3,0,0,10000,0,2000
10000_500_200_8_4,0,0,10000,0,2000
10000_500_200_8_5,0,0,10000,0,2000
10000_500_200_8_6,0,0,10000,0,2000
10000_500_200_8_7,0,0,10000,0,2000
10000_500_200_8_8,0,0,10000,0,2000
10000_500_200_8_9,0,0,10000,0,2000
1000_500_250_8_0,116312,0,152298,0,2000
1000_500_250_8_1,1163120,0,1489206,0,2000
1000_500_250_8_2,0,0,1000,0,2000
1000_500_250_8_3,0,0,1000,0,2000
1000_500_250_8_4,59031,0,80803,0,2000
1000_500_250_8_5,1047948,0,1316838,0,2000
1000_500_250_8_6,1078272,0,1382524,0,2000
1000_500_250_8_7,639716,0,831004,0,2000
1000_500_250_8_8,697872,0,901209,0,2000
1000_500_250_8_9,1047948,0,1318014,0,2000
500_250_100_8_0,837520,0,995746,0,2000
500_250_100_8_1,971323,0,1191837,0,2000
500_250_100_8_2,715997,0,856090,0,2000
500_250_100_8_3,675344,0,794689,0,2000
500_250_100_8_4,260400,0,315258,0,2000
500_250_100_8_5,531525,0,659989,0,2000
500_250_100_8_6,878794,0,1058435,0,2000
500_250_100_8_7,649604,0,794742,0,2000
500_250_100_8_8,1407519,0,1775333,0,2000
500_250_100_8_9,563562,0,682253,0,2000
100_75_50_8_0,4352848,0,5487308,0,2000
100_75_50_8_1,9061596,0,11028737,0,2000
100_75_50_8_2,6439706,0,7804710,0,2000
100_75_50_8_3,7265672,0,9217366,0,2000
100_75_50_8_4,7399319,0,8970472,0,2000
100_75_50_8_5,14236728,0,16297151,0,2000
100_75_50_8_6,10083566,0,12041526,0,2000
100_75_50_8_7,10602348,0,12502879,0,2000
100_75_50_8_8,10129484,0,12169332,0,2000
100_75_50_8_9,5456434,0,6709941,0,2000
10000_500_200_10_0,0,0,10000,0,2000
10000_500_200_10_1,0,0,10000,0,2000
10000_500_200_10_2,0,0,10000,0,2000
10000_500_200_10_3,0,0,10000,0,2000
10000_500_200_10_4,0,0,10000,0,2000
10000_500_200_10_5,0,0,10000,0,2000
10000_500_200_10_6,0,0,10000,0,2000
10000_500_200_10_7,0,0,10000,0,2000
10000_500_200_10_8,0,0,10000,0,2000
10000_500_200_10_9,0,0,10000,0,2000
1000_500_250_10_0,824538,0,957754,0,2000
1000_500_250_10_1,982975,0,1143105,0,2000
1000_500_250_10_2,1209357,0,1405701,0,2000
1000_500_250_10_3,844956,0,985272,0,2000
1000_500_250_10_4,1031400,0,1189262,0,2000
1000_500_250_10_5,967472,0,1114472,0,2000
1000_500_250_10_6,1246275,0,1440079,0,2000
1000_500_250_10_7,965664,0,1121162,0,2000
1000_500_250_10_8,1069926,0,1248072,0,2000
1000_500_250_10_9,1051600,0,1217067,0,2000
500_250_100_10_0,952422,0,1071644,0,2000
500_250_100_10_1,1245930,0,1442029,0,2000
500_250_100_10_2,1486746,0,1685738,0,2000
500_250_100_10_3,1581740,0,1821299,0,2000
500_250_100_10_4,1110205,0,1272699,0,2000
500_250_100_10_5,1206763,0,1352537,0,2000
500_250_100_10_6,1541871,0,1771368,0,2000
500_250_100_10_7,1353298,0,1534508,0,2000
500_250_100_10_8,866101,0,979565,0,2000
500_250_100_10_9,1193074,0,1344788,0,2000
100_75_50_10_0,9590125,0,11358400,0,2000
100_75_50_10_1,13182037,0,15612614,0,2000
100_75_50_10_2,12006012,0,14293625,0,2000
100_75_50_10_3,12809036,0,15076485,0,2000
100_75_50_10_4,9911885,0,11863200,0,2000
100_75_50_10_5,13983849,0,16048125,0,2000
100_75_50_10_6,11534679,0,13552304,0,2000
100_75_50_10_7,14501619,0,16932770,0,2000
100_75_50_10_8,11140846,0,13208612,0,2000
100_75_50_10_9,12272786,0,14593553,0,2000
10000_500_200_11_0,0,0,10000,0,2000
10000_500_200_11_1,0,0,10000,0,2000
10000_500_200_11_2,0,0,10000,0,2000
10000_500_200_11_3,0,0,10000,0,2000
10000_500_200_11_4,0,0,10000,0,2000
10000_500_200_11_5,0,0,10000,0,2000
10000_500_200_11_6,0,0,10000,0,2000
10000_500_200_11_7,0,0,10000,0,2000
10000_500_200_11_8,0,0,10000,0,2000
10000_500_200_11_9,0,0,10000,0,2000
1000_500_250_11_0,0,0,1000,0,2000
1000_500_250_11_1,0,0,1000,0,2000
1000_500_250_11_2,0,0,1000,0,2000
1000_500_250_11_3,0,0,1000,0,2000
1000_500_250_11_4,0,0,1000,0,2000
1000_500_250_11_5,0,0,1000,0,2000
1000_500_250_11_6,0,0,1000,0,2000
1000_500_250_11_7,0,0,1000,0,2000
1000_500_250_11_8,0,0,1000,0,2000
1000_500_250_11_9,0,0,1000,0,2000
500_250_100_11_0,109668,0,250724,0,2000
500_250_100_11_1,112788,0,235214,0,2000
500_250_100_11_2,164844,0,386420,0,2000
500_250_100_11_3,191919,0,367915,0,2000
500_250_100_11_4,134400,0,271752,0,2000
500_250_100_11_5,112788,0,252706,0,2000
500_250_100_11_6,91390,0,206520,0,2000
500_250_100_11_7,0,0,500,0,2000
500_250_100_11_8,153600,0,297436,0,2000
500_250_100_11_9,147492,0,361816,0,2000
100_75_50_11_0,325354,0,793151,0,2000
100_75_50_11_1,427112,0,855395,0,2000
100_75_50_11_2,568143,0,1064239,0,2000
100_75_50_11_3,644515,0,1331473,0,2000
100_75_50_11_4,538994,0,990605,0,2000
100_75_50_11_5,849096,0,1531083,0,2000
100_75_50_11_6,508780,0,911499,0,2000
100_75_50_11_7,784664,0,1774300,0,2000
100_75_50_11_8,522996,0,1241515,0,2000
100_75_50_11_9,542078,0,1203632,0,2000
10000_500_200_12_0,0,0,10000,0,2000
10000_500_200_12_1,0,0,10000,0,2000
10000_500_200_12_2,0,0,10000,0,2000
10000_500_200_12_3,0,0,10000,0,2000
10000_500_200_12_4,447975,0,599153,0,2000
10000_500_200_12_5,0,0,10000,0,2000
10000_500_200_12_6,0,0,10000,0,2000
10000_500_200_12_7,0,0,10000,0,2000
10000_500_200_12_8,0,0,10000,0,2000
10000_500_200_12_9,0,0,10000,0,2000
1000_500_250_12_0,0,0,1000,0,2000
1000_500_250_12_1,724248,0,872869,0,2000
1000_500_250_12_2,799216,0,963044,0,2000
1000_500_250_12_3,537600,0,664901,0,2000
1000_500_250_12_4,307188,0,376462,0,2000
1000_500_250_12_5,757152,0,911186,0,2000
1000_500_250_12_6,789912,0,966466,0,2000
1000_500_250_12_7,205755,0,259029,0,2000
1000_500_250_12_8,201180,0,253228,0,2000
1000_500_250_12_9,746028,0,889057,0,2000
500_250_100_12_0,559559,0,629114,0,2000
500_250_100_12_1,685998,0,793155,0,2000
500_250_100_12_2,453944,0,520743,0,2000
500_250_100_12_3,575166,0,643146,0,2000
500_250_100_12_4,296223,0,342353,0,2000
500_250_100_12_5,316856,0,372838,0,2000
500_250_100_12_6,611897,0,691523,0,2000
500_250_100_12_7,415269,0,481414,0,2000
500_250_100_12_8,740052,0,891932,0,2000
500_250_100_12_9,739562,0,859695,0,2000
100_75_50_12_0,6434093,0,8136011,0,2000
100_75_50_12_1,11685688,0,14217628,0,2000
100_75_50_12_2,7500595,0,9256891,0,2000
100_75_50_12_3,10574694,0,13071265,0,2000
100_75_50_12_4,11858225,0,14245103,0,2000
100_75_50_12_5,15687104,0,17715436,0,2000
100_75_50_12_6,12923984,0,15463288,0,2000
100_75_50_12_7,12280456,0,14229195,0,2000
100_75_50_12_8,9324507,0,10909541,0,2000
100_75_50_12_9,8224089,0,9797205,0,2000
10000_500_200_14_0,0,0,10000,0,2000
10000_500_200_14_1,0,0,10000,0,2000
10000_500_200_14_2,0,0,10000,0,2000
10000_500_200_14_3,0,0,10000,0,2000
10000_500_200_14_4,0,0,10000,0,2000
10000_500_200_14_5,0,0,10000,0,2000
10000_500_200_14_6,0,0,10000,0,2000
10000_500_200_14_7,0,0,10000,0,2000
10000_500_200_14_8,0,0,10000,0,2000
10000_500_200_14_9,0,0,10000,0,2000
1000_500_250_14_0,1260336,0,1660788,0,2000
1000_500_250_14_1,743850,0,963984,0,2000
1000_500_250_14_2,1479168,0,1928928,0,2000
1000_500_250_14_3,1308516,0,1699968,0,2000
1000_500_250_14_4,1239750,0,1598956,0,2000
1000_500_250_14_5,1204000,0,1562544,0,2000
1000_500_250_14_6,1057536,0,1380100,0,2000
1000_500_250_14_7,1444800,0,1840030,0,2000
1000_500_250_14_8,945848,0,1223408,0,2000
1000_500_250_14_9,1182310,0,1538488,0,2000
500_250_100_14_0,3314444,0,4102672,0,2000
500_250_100_14_1,3457839,0,4402829,0,2000
500_250_100_14_2,3164118,0,4006328,0,2000
500_250_100_14_3,2837643,0,3672063,0,2000
500_250_100_14_4,3421407,0,4388199,0,2000
500_250_100_14_5,3236157,0,4040673,0,2000
500_250_100_14_6,3104685,0,3984119,0,2000
500_250_100_14_7,3166791,0,4023793,0,2000
500_250_100_14_8,3016056,0,3884464,0,2000
500_250_100_14_9,3092558,0,3898337,0,2000
100_75_50_14_0,12641498,0,16023395,0,2000
100_75_50_14_1,12616201,0,16439127,0,2000
100_75_50_14_2,13829942,0,17895033,0,2000
100_75_50_14_3,12909140,0,16501671,0,2000
100_75_50_14_4,13244447,0,16960052,0,2000
100_75_50_14_5,13606161,0,16402241,0,2000
100_75_50_14_6,12253162,0,15853436,0,2000
100_75_50_14_7,14007532,0,17915918,0,2000
100_75_50_14_8,13672610,0,17467413,0,2000
100_75_50_14_9,12093655,0,15242754,0,2000
10000_500_200_15_0,0,0,10000,0,2000
10000_500_200_15_1,0,0,10000,0,2000
10000_500_200_15_2,0,0,10000,0,2000
10000_500_200_15_3,0,0,10000,0,2000
10000_500_200_15_4,0,0,10000,0,2000
10000_500_200_15_5,0,0,10000,0,2000
10000_500_200_15_6,0,0,10000,0,2000
10000_500_200_15_7,0,0,10000,0,2000
10000_500_200_15_8,0,0,10000,0,2000
10000_500_200_15_9,0,0,10000,0,2000
1000_500_250_15_0,0,0,1000,0,2000
1000_500_250_15_1,0,0,1000,0,2000
1000_500_250_15_2,0,0,1000,0,2000
1000_500_250_15_3,0,0,1000,0,2000
1000_500_250_15_4,0,0,1000,0,2000
1000_500_250_15_5,0,0,1000,0,2000
1000_500_250_15_6,0,0,1000,0,2000
1000_500_250_15_7,0,0,1000,0,2000
1000_500_250_15_8,0,0,1000,0,2000
1000_500_250_15_9,0,0,1000,0,2000
500_250_100_15_0,0,0,500,0,2000
500_250_100_15_1,162936,0,403040,0,2000
500_250_100_15_2,0,0,500,0,2000
500_250_100_15_3,0,0,500,0,2000
500_250_100_15_4,0,0,500,0,2000
500_250_100_15_5,0,0,500,0,2000
500_250_100_15_6,0,0,500,0,2000
500_250_100_15_7,0,0,500,0,2000
500_250_100_15_8,257796,0,618134,0,2000
500_250_100_15_9,0,0,500,0,2000
100_75_50_15_0,1227486,0,2622657,0,2000
100_75_50_15_1,2789403,0,5615502,0,2000
100_75_50_15_2,2083157,0,4155736,0,2000
100_75_50_15_3,721726,0,1581907,0,2000
100_75_50_15_4,2302327,0,4702687,0,2000
100_75_50_15_5,1493552,0,3075942,0,2000
100_75_50_15_6,1356826,0,2802179,0,2000
100_75_50_15_7,1155197,0,2483040,0,2000
100_75_50_15_8,1989756,0,4301713,0,2000
100_75_50_15_9,1105881,0,2505106,0,2000
10000_500_200_16_0,0,0,10000,0,2000
10000_500_200_16_1,0,0,10000,0,2000
10000_500_200_16_2,0,0,10000,0,2000
10000_500_200_16_3,0,0,10000,0,2000
10000_500_200_16_4,0,0,10000,0,2000
10000_500_200_16_5,0,0,10000,0,2000
10000_500_200_16_6,0,0,10000,0,2000
10000_500_200_16_7,0,0,10000,0,2000
10000_500_200_16_8,0,0,10000,0,2000
10000_500_200_16_9,0,0,10000,0,2000
1000_500_250_16_0,709386,0,968592,0,2000
1000_500_250_16_1,587520,0,818524,0,2000
1000_500_250_16_2,461244,0,657474,0,2000
1000_500_250_16_3,832692,0,1147790,0,2000
1000_500_250_16_4,837753,0,1154793,0,2000
1000_500_250_16_5,940032,0,1277108,0,2000
1000_500_250_16_6,598395,0,841389,0,2000
1000_500_250_16_7,467100,0,653580,0,2000
1000_500_250_16_8,0,0,1000,0,2000
1000_500_250_16_9,928352,0,1299222,0,2000
500_250_100_16_0,1335036,0,1777302,0,2000
500_250_100_16_1,1248819,0,1715873,0,2000
500_250_100_16_2,1165958,0,1571685,0,2000
500_250_100_16_3,1093494,0,1424110,0,2000
500_250_100_16_4,1419798,0,1848195,0,2000
500_250_100_16_5,1265277,0,1704997,0,2000
500_250_100_16_6,2104216,0,2830724,0,2000
500_250_100_16_7,1287095,0,1728844,0,2000
500_250_100_16_8,2366703,0,3202142,0,2000
500_250_100_16_9,1564089,0,2130725,0,2000
100_75_50_16_0,9445277,0,12564076,0,2000
100_75_50_16_1,7093487,0,9720973,0,2000
100_75_50_16_2,7229246,0,9261249,0,2000
100_75_50_16_3,13508470,0,19015051,0,2000
100_75_50_16_4,8791562,0,11295796,0,2000
100_75_50_16_5,11769083,0,14795513,0,2000
100_75_50_16_6,10669957,0,13780809,0,2000
100_75_50_16_7,9280836,0,11392811,0,2000
100_75_50_16_8,8804324,0,11990292,0,2000
100_75_50_16_9,8309742,0,11289072,0,2000
10000_500_200_18_0,0,0,10000,0,2000
10000_500_200_18_1,0,0,10000,0,2000
10000_500_200_18_2,0,0,10000,0,2000
10000_500_200_18_3,0,0,10000,0,2000
10000_500_200_18_4,0,0,10000,0,2000
10000_500_200_18_5,0,0,10000,0,2000
10000_500_200_18_6,0,0,10000,0,2000
10000_500_200_18_7,0,0,10000,0,2000
10000_500_200_18_8,0,0,10000,0,2000
10000_500_200_18_9,0,0,10000,0,2000
1000_500_250_18_0,1397526,0,1709892,0,2000
1000_500_250_18_1,1276937,0,1538315,0,2000
1000_500_250_18_2,465248,0,579038,0,2000
1000_500_250_18_3,988652,0,1202036,0,2000
1000_500_250_18_4,1078272,0,1305820,0,2000
1000_500_250_18_5,1475775,0,1748715,0,2000
1000_500_250_18_6,1221276,0,1473312,0,2000
1000_500_250_18_7,1593837,0,1883690,0,2000
1000_500_250_18_8,1628368,0,1942364,0,2000
1000_500_250_18_9,826434,0,1004462,0,2000
500_250_100_18_0,1259548,0,1453012,0,2000
500_250_100_18_1,1460520,0,1752974,0,2000
500_250_100_18_2,1994812,0,2330179,0,2000
500_250_100_18_3,1692824,0,1990262,0,2000
500_250_100_18_4,1724465,0,2007339,0,2000
500_250_100_18_5,1965262,0,2281558,0,2000
500_250_100_18_6,1669941,0,1959692,0,2000
500_250_100_18_7,1919099,0,2260033,0,2000
500_250_100_18_8,1985067,0,2378918,0,2000
500_250_100_18_9,1989239,0,2341155,0,2000
100_75_50_18_0,8340578,0,9976850,0,2000
100_75_50_18_1,11248330,0,13437349,0,2000
100_75_50_18_2,9559310,0,11579685,0,2000
100_75_50_18_3,9554872,0,11360570,0,2000
100_75_50_18_4,8499334,0,10322021,0,2000
100_75_50_18_5,9870705,0,11403286,0,2000
100_75_50_18_6,10588700,0,12669999,0,2000
100_75_50_18_7,11705940,0,13945496,0,2000
100_75_50_18_8,10423321,0,12486335,0,2000
100_75_50_18_9,9192389,0,11012284,0,2000
10000_500_200_19_0,0,0,10000,0,2000
10000_500_200_19_1,0,0,10000,0,2000
10000_500_200_19_2,0,0,10000,0,2000
10000_500_200_19_3,0,0,10000,0,2000
10000_500_200_19_4,0,0,10000,0,2000
10000_500_200_19_5,0,0,10000,0,2000
10000_500_200_19_6,0,0,10000,0,2000
10000_500_200_19_7,0,0,10000,0,2000
10000_500_200_19_8,0,0,10000,0,2000
10000_500_200_19_9,0,0,10000,0,2000
1000_500_250_19_0,0,0,1000,0,2000
1000_500_250_19_1,0,0,1000,0,2000
1000_500_250_19_2,0,0,1000,0,2000
1000_500_250_19_3,0,0,1000,0,2000
1000_500_250_19_4,0,0,1000,0,2000
1000_500_250_19_5,0,0,1000,0,2000
1000_500_250_19_6,0,0,1000,0,2000
1000_500_250_19_7,0,0,1000,0,2000
1000_500_250_19_8,0,0,1000,0,2000
1000_500_250_19_9,0,0,1000,0,2000
500_250_100_19_0,191226,0,450152,0,2000
500_250_100_19_1,0,0,500,0,2000
500_250_100_19_2,251104,0,609178,0,2000
500_250_100_19_3,0,0,500,0,2000
500_250_100_19_4,326495,0,692376,0,2000
500_250_100_19_5,0,0,500,0,2000
500_250_100_19_6,177567,0,408693,0,2000
500_250_100_19_7,0,0,500,0,2000
500_250_100_19_8,211500,0,450914,0,2000
500_250_100_19_9,185024,0,428248,0,2000
100_75_50_19_0,386433,0,916357,0,2000
100_75_50_19_1,1125306,0,2141318,0,2000
100_75_50_19_2,739842,0,1457749,0,2000
100_75_50_19_3,974301,0,2160205,0,2000
100_75_50_19_4,1527839,0,2990418,0,2000
100_75_50_19_5,1715187,0,3395857,0,2000
100_75_50_19_6,616128,0,1176051,0,2000
100_75_50_19_7,620986,0,1392271,0,2000
100_75_50_19_8,956920,0,2217624,0,2000
100_75_50_19_9,890236,0,2103452,0,2000
10000_500_200_20_0,0,0,10000,0,2000
10000_500_200_20_1,0,0,10000,0,2000
10000_500_200_20_2,0,0,10000,0,2000
10000_500_200_20_3,0,0,10000,0,2000
10000_500_200_20_4,0,0,10000,0,2000
10000_500_200_20_5,0,0,10000,0,2000
10000_500_200_20_6,0,0,10000,0,2000
10000_500_200_20_7,0,0,10000,0,2000
10000_500_200_20_8,0,0,10000,0,2000
10000_500_200_20_9,0,0,10000,0,2000
1000_500_250_20_0,58156,0,77760,0,2000
1000_500_250_20_1,1279432,0,1632998,0,2000
1000_500_250_20_2,0,0,1000,0,2000
1000_500_250_20_3,0,0,1000,0,2000
1000_500_250_20_4,177093,0,235475,0,2000
1000_500_250_20_5,924660,0,1165360,0,2000
1000_500_250_20_6,1018368,0,1308162,0,2000
1000_500_250_20_7,581560,0,757160,0,2000
1000_500_250_20_8,639716,0,827835,0,2000
1000_500_250_20_9,863016,0,1092240,0,2000
500_250_100_20_0,911120,0,1081986,0,2000
500_250_100_20_1,971323,0,1191837,0,2000
500_250_100_20_2,715997,0,856090,0,2000
500_250_100_20_3,675344,0,794689,0,2000
500_250_100_20_4,276675,0,335013,0,2000
500_250_100_20_5,547800,0,679176,0,2000
500_250_100_20_6,878794,0,1058435,0,2000
500_250_100_20_7,649604,0,794742,0,2000
500_250_100_20_8,1407519,0,1775333,0,2000
500_250_100_20_9,563562,0,682253,0,2000
100_75_50_20_0,4601270,0,5801321,0,2000
100_75_50_20_1,10348791,0,12589475,0,2000
100_75_50_20_2,6874379,0,8326535,0,2000
100_75_50_20_3,7385699,0,9370005,0,2000
100_75_50_20_4,7573874,0,9183338,0,2000
100_75_50_20_5,13840092,0,15842931,0,2000
100_75_50_20_6,10165002,0,12139995,0,2000
100_75_50_20_7,10822697,0,12761875,0,2000
100_75_50_20_8,10272382,0,12342433,0,2000
100_75_50_20_9,5432242,0,6680427,0,2000
10000_500_200_22_0,0,0,10000,0,2000
10000_500_200_22_1,0,0,10000,0,2000
10000_500_200_22_2,0,0,10000,0,2000
10000_500_200_22_3,0,0,10000,0,2000
10000_500_200_22_4,0,0,10000,0,2000
10000_500_200_22_5,0,0,10000,0,2000
10000_500_200_22_6,0,0,10000,0,2000
10000_500_200_22_7,0,0,10000,0,2000
10000_500_200_22_8,0,0,10000,0,2000
10000_500_200_22_9,0,0,10000,0,2000
1000_500_250_22_0,899496,0,1043998,0,2000
1000_500_250_22_1,1100932,0,1278592,0,2000
1000_500_250_22_2,851029,0,994413,0,2000
1000_500_250_22_3,844956,0,985272,0,2000
1000_500_250_22_4,1031400,0,1189262,0,2000
1000_500_250_22_5,967472,0,1114472,0,2000
1000_500_250_22_6,1246275,0,1440079,0,2000
1000_500_250_22_7,965664,0,1121162,0,2000
1000_500_250_22_8,1069926,0,1248072,0,2000
1000_500_250_22_9,1051600,0,1217067,0,2000
500_250_100_22_0,918150,0,1032540,0,2000
500_250_100_22_1,1379229,0,1595014,0,2000
500_250_100_22_2,1486746,0,1685738,0,2000
500_250_100_22_3,1447340,0,1663677,0,2000
500_250_100_22_4,1089173,0,1248733,0,2000
500_250_100_22_5,1206763,0,1352537,0,2000
500_250_100_22_6,1621839,0,1862092,0,2000
500_250_100_22_7,1314985,0,1491177,0,2000
500_250_100_22_8,834553,0,944001,0,2000
500_250_100_22_9,1132352,0,1273666,0,2000
100_75_50_22_0,9429439,0,11167080,0,2000
100_75_50_22_1,13182037,0,15612614,0,2000
100_75_50_22_2,11133603,0,13254331,0,2000
100_75_50_22_3,12953548,0,15246733,0,2000
100_75_50_22_4,10278935,0,12304090,0,2000
100_75_50_22_5,14236650,0,16340271,0,2000
100_75_50_22_6,10853454,0,12748725,0,2000
100_75_50_22_7,14501619,0,16932770,0,2000
100_75_50_22_8,10742218,0,12729598,0,2000
100_75_50_22_9,12078100,0,14362871,0,2000
10000_500_200_23_0,0,0,10000,0,2000
10000_500_200_23_1,0,0,10000,0,2000
10000_500_200_23_2,0,0,10000,0,2000
10000_500_200_23_3,0,0,10000,0,2000
10000_500_200_23_4,0,0,10000,0,2000
10000_500_200_23_5,0,0,10000,0,2000
10000_500_200_23_6,0,0,10000,0,2000
10000_500_200_23_7,0,0,10000,0,2000
10000_500_200_23_8,0,0,10000,0,2000
10000_500_200_23_9,0,0,10000,0,2000
1000_500_250_23_0,0,0,1000,0,2000
1000_500_250_23_1,0,0,1000,0,2000
1000_500_250_23_2,0,0,1000,0,2000
1000_500_250_23_3,0,0,1000,0,2000
1000_500_250_23_4,0,0,1000,0,2000
1000_500_250_23_5,0,0,1000,0,2000
1000_500_250_23_6,0,0,1000,0,2000
1000_500_250_23_7,0,0,1000,0,2000
1000_500_250_23_8,0,0,1000,0,2000
1000_500_250_23_9,0,0,1000,0,2000
500_250_100_23_0,109668,0,250724,0,2000
500_250_100_23_1,112788,0,235214,0,2000
500_250_100_23_2,130140,0,313162,0,2000
500_250_100_23_3,191919,0,367915,0,2000
500_250_100_23_4,163200,0,327796,0,2000
500_250_100_23_5,112788,0,252706,0,2000
500_250_100_23_6,91390,0,206520,0,2000
500_250_100_23_7,0,0,500,0,2000
500_250_100_23_8,153600,0,297436,0,2000
500_250_100_23_9,147492,0,361816,0,2000
100_75_50_23_0,340069,0,828458,0,2000
100_75_50_23_1,415268,0,834168,0,2000
100_75_50_23_2,570660,0,1069168,0,2000
100_75_50_23_3,641487,0,1324050,0,2000
100_75_50_23_4,536738,0,986154,0,2000
100_75_50_23_5,781718,0,1406964,0,2000
100_75_50_23_6,445426,0,798712,0,2000
100_75_50_23_7,784100,0,1772796,0,2000
100_75_50_23_8,513496,0,1218346,0,2000
100_75_50_23_9,554546,0,1232927,0,2000
10000_500_200_24_0,0,0,10000,0,2000
10000_500_200_24_1,0,0,10000,0,2000
10000_500_200_24_2,0,0,10000,0,2000
10000_500_200_24_3,0,0,10000,0,2000
10000_500_200_24_4,447975,0,599153,0,2000
10000_500_200_24_5,0,0,10000,0,2000
10000_500_200_24_6,0,0,10000,0,2000
10000_500_200_24_7,0,0,10000,0,2000
10000_500_200_24_8,0,0,10000,0,2000
10000_500_200_24_9,0,0,10000,0,2000
1000_500_250_24_0,0,0,1000,0,2000
1000_500_250_24_1,724248,0,872869,0,2000
1000_500_250_24_2,799216,0,963044,0,2000
1000_500_250_24_3,537600,0,664901,0,2000
1000_500_250_24_4,263304,0,324172,0,2000
1000_500_250_24_5,757152,0,911186,0,2000
1000_500_250_24_6,789912,0,966466,0,2000
1000_500_250_24_7,41151,0,54983,0,2000
1000_500_250_24_8,120708,0,153964,0,2000
1000_500_250_24_9,746028,0,889057,0,2000
500_250_100_24_0,605792,0,680077,0,2000
500_250_100_24_1,673227,0,777704,0,2000
500_250_100_24_2,453944,0,520743,0,2000
500_250_100_24_3,575166,0,643146,0,2000
500_250_100_24_4,296223,0,342353,0,2000
500_250_100_24_5,295824,0,349164,0,2000
500_250_100_24_6,611897,0,691523,0,2000
500_250_100_24_7,415269,0,481414,0,2000
500_250_100_24_8,718110,0,865094,0,2000
500_250_100_24_9,739562,0,859695,0,2000
100_75_50_24_0,6434093,0,8136011,0,2000
100_75_50_24_1,12054698,0,14666657,0,2000
100_75_50_24_2,7500595,0,9256891,0,2000
100_75_50_24_3,10574694,0,13071265,0,2000
100_75_50_24_4,11858225,0,14245103,0,2000
100_75_50_24_5,15687104,0,17715436,0,2000
100_75_50_24_6,12923984,0,15463288,0,2000
100_75_50_24_7,11770754,0,13637837,0,2000
100_75_50_24_8,9685223,0,11329250,0,2000
100_75_50_24_9,7329331,0,8730601,0,2000
10000_500_200_26_0,0,0,10000,0,2000
10000_500_200_26_1,0,0,10000,0,2000
10000_500_200_26_2,0,0,10000,0,2000
10000_500_200_26_3,0,0,10000,0,2000
10000_500_200_26_4,0,0,10000,0,2000
10000_500_200_26_5,0,0,10000,0,2000
10000_500_200_26_6,0,0,10000,0,2000
10000_500_200_26_7,0,0,10000,0,2000
10000_500_200_26_8,0,0,10000,0,2000
10000_500_200_26_9,0,0,10000,0,2000
1000_500_250_26_0,1374912,0,1810780,0,2000
1000_500_250_26_1,867825,0,1123097,0,2000
1000_500_250_26_2,1355904,0,1768830,0,2000
1000_500_250_26_3,1308516,0,1699968,0,2000
1000_500_250_26_4,1115775,0,1440309,0,2000
1000_500_250_26_5,1083600,0,1407030,0,2000
1000_500_250_26_6,1175040,0,1532444,0,2000
1000_500_250_26_7,1444800,0,1840030,0,2000
1000_500_250_26_8,945848,0,1223408,0,2000
1000_500_250_26_9,1300541,0,1690909,0,2000
500_250_100_26_0,3074512,0,3807764,0,2000
500_250_100_26_1,3327555,0,4240571,0,2000
500_250_100_26_2,3164118,0,4006328,0,2000
500_250_100_26_3,3026787,0,3912455,0,2000
500_250_100_26_4,3128268,0,4023260,0,2000
500_250_100_26_5,3078537,0,3843827,0,2000
500_250_100_26_6,2974401,0,3820449,0,2000
500_250_100_26_7,3358041,0,4266075,0,2000
500_250_100_26_8,3142152,0,4043906,0,2000
500_250_100_26_9,3030216,0,3819020,0,2000
100_75_50_26_0,13576066,0,17203756,0,2000
100_75_50_26_1,13116875,0,17090811,0,2000
100_75_50_26_2,12901486,0,16695213,0,2000
100_75_50_26_3,13586573,0,17363052,0,2000
100_75_50_26_4,12818950,0,16418282,0,2000
100_75_50_26_5,15233586,0,18365568,0,2000
100_75_50_26_6,11442918,0,14799366,0,2000
100_75_50_26_7,12808170,0,16374573,0,2000
100_75_50_26_8,13016655,0,16634593,0,2000
100_75_50_26_9,12487639,0,15738552,0,2000
10000_500_200_27_0,0,0,10000,0,2000
10000_500_200_27_1,0,0,10000,0,2000
10000_500_200_27_2,0,0,10000,0,2000
10000_500_200_27_3,0,0,10000,0,2000
10000_500_200_27_4,0,0,10000,0,2000
10000_500_200_27_5,0,0,10000,0,2000
10000_500_200_27_6,0,0,10000,0,2000
10000_500_200_27_7,0,0,10000,0,2000
10000_500_200_27_8,0,0,10000,0,2000
10000_500_200_27_9,0,0,10000,0,2000
1000_500_250_27_0,0,0,1000,0,2000
1000_500_250_27_1,0,0,1000,0,2000
1000_500_250_27_2,0,0,1000,0,2000
1000_500_250_27_3,0,0,1000,0,2000
1000_500_250_27_4,0,0,1000,0,2000
1000_500_250_27_5,0,0,1000,0,2000
1000_500_250_27_6,0,0,1000,0,2000
1000_500_250_27_7,0,0,1000,0,2000
1000_500_250_27_8,0,0,1000,0,2000
1000_500_250_27_9,0,0,1000,0,2000
500_250_100_27_0,220248,0,575006,0,2000
500_250_100_27_1,108624,0,270174,0,2000
500_250_100_27_2,0,0,500,0,2000
500_250_100_27_3,0,0,500,0,2000
500_250_100_27_4,0,0,500,0,2000
500_250_100_27_5,0,0,500,0,2000
500_250_100_27_6,0,0,500,0,2000
500_250_100_27_7,0,0,500,0,2000
500_250_100_27_8,229152,0,550246,0,2000
500_250_100_27_9,0,0,500,0,2000
100_75_50_27_0,1225715,0,2618988,0,2000
100_75_50_27_1,2883546,0,5803900,0,2000
100_75_50_27_2,2128439,0,4244244,0,2000
100_75_50_27_3,723385,0,1585476,0,2000
100_75_50_27_4,2410230,0,4926566,0,2000
100_75_50_27_5,1551080,0,3197699,0,2000
100_75_50_27_6,1419005,0,2932732,0,2000
100_75_50_27_7,1105256,0,2376866,0,2000
100_75_50_27_8,2092525,0,4525662,0,2000
100_75_50_27_9,1115717,0,2528148,0,2000
10000_500_200_28_0,0,0,10000,0,2000
10000_500_200_28_1,0,0,10000,0,2000
10000_500_200_28_2,0,0,10000,0,2000
10000_500_200_28_3,0,0,10000,0,2000
10000_500_200_28_4,0,0,10000,0,2000
10000_500_200_28_5,0,0,10000,0,2000
10000_500_200_28_6,0,0,10000,0,2000
10000_500_200_28_7,0,0,10000,0,2000
10000_500_200_28_8,0,0,10000,0,2000
10000_500_200_28_9,0,0,10000,0,2000
1000_500_250_28_0,945848,0,1289316,0,2000
1000_500_250_28_1,705024,0,981274,0,2000
1000_500_250_28_2,345933,0,494053,0,2000
1000_500_250_28_3,713736,0,984592,0,2000
1000_500_250_28_4,1077111,0,1482501,0,2000
1000_500_250_28_5,1057536,0,1435432,0,2000
1000_500_250_28_6,718074,0,1008286,0,2000
1000_500_250_28_7,467100,0,653580,0,2000
1000_500_250_28_8,115311,0,163041,0,2000
1000_500_250_28_9,928352,0,1299222,0,2000
500_250_100_28_0,1335036,0,1777302,0,2000
500_250_100_28_1,1248819,0,1715873,0,2000
500_250_100_28_2,1165958,0,1571685,0,2000
500_250_100_28_3,1093494,0,1424110,0,2000
500_250_100_28_4,1353966,0,1764559,0,2000
500_250_100_28_5,1326195,0,1787741,0,2000
500_250_100_28_6,1946596,0,2624394,0,2000
500_250_100_28_7,1287095,0,1728844,0,2000
500_250_100_28_8,2366703,0,3202142,0,2000
500_250_100_28_9,1532918,0,2088678,0,2000
100_75_50_28_0,10266475,0,13658335,0,2000
100_75_50_28_1,6967379,0,9548210,0,2000
100_75_50_28_2,7237482,0,9271649,0,2000
100_75_50_28_3,10782384,0,15179701,0,2000
100_75_50_28_4,8554342,0,10990740,0,2000
100_75_50_28_5,11888180,0,14948181,0,2000
100_75_50_28_6,11427306,0,14759834,0,2000
100_75_50_28_7,9526248,0,11695309,0,2000
100_75_50_28_8,9397160,0,12798668,0,2000
100_75_50_28_9,8751199,0,11889200,0,2000
10000_500_200_30_0,0,0,10000,0,2000
10000_500_200_30_1,0,0,10000,0,2000
10000_500_200_30_2,0,0,10000,0,2000
10000_500_200_30_3,0,0,10000,0,2000
10000_500_200_30_4,0,0,10000,0,2000
10000_500_200_30_5,0,0,10000,0,2000
10000_500_200_30_6,0,0,10000,0,2000
10000_500_200_30_7,0,0,10000,0,2000
10000_500_200_30_8,0,0,10000,0,2000
10000_500_200_30_9,0,0,10000,0,2000
1000_500_250_30_0,1397526,0,1709892,0,2000
1000_500_250_30_1,1332456,0,1604232,0,2000
1000_500_250_30_2,407092,0,507662,0,2000
1000_500_250_30_3,872340,0,1062692,0,2000
1000_500_250_30_4,1257984,0,1520308,0,2000
1000_500_250_30_5,1416744,0,1679332,0,2000
1000_500_250_30_6,1279432,0,1542430,0,2000
1000_500_250_30_7,1593837,0,1883690,0,2000
1000_500_250_30_8,1628368,0,1942364,0,2000
1000_500_250_30_9,885465,0,1074785,0,2000
500_250_100_30_0,1176028,0,1353794,0,2000
500_250_100_30_1,1460520,0,1752974,0,2000
500_250_100_30_2,1864612,0,2177477,0,2000
500_250_100_30_3,1608224,0,1890262,0,2000
500_250_100_30_4,1724465,0,2007339,0,2000
500_250_100_30_5,1948987,0,2262387,0,2000
500_250_100_30_6,1748728,0,2054634,0,2000
500_250_100_30_7,1967924,0,2316632,0,2000
500_250_100_30_8,2092944,0,2506053,0,2000
500_250_100_30_9,2122871,0,2495035,0,2000
100_75_50_30_0,8983333,0,10742205,0,2000
100_75_50_30_1,11240206,0,13427621,0,2000
100_75_50_30_2,10098269,0,12233448,0,2000
100_75_50_30_3,10511102,0,12499556,0,2000
100_75_50_30_4,9410705,0,11434719,0,2000
100_75_50_30_5,9815840,0,11339947,0,2000
100_75_50_30_6,10846524,0,12976084,0,2000
100_75_50_30_7,11853157,0,14124515,0,2000
100_75_50_30_8,10519194,0,12600522,0,2000
100_75_50_30_9,9565979,0,11461920,0,2000
10000_500_200_31_0,0,0,10000,0,2000
10000_500_200_31_1,0,0,10000,0,2000
10000_500_200_31_2,0,0,10000,0,2000
10000_500_200_31_3,0,0,10000,0,2000
10000_500_200_31_4,0,0,10000,0,2000
10000_500_200_31_5,0,0,10000,0,2000
10000_500_200_31_6,0,0,10000,0,2000
10000_500_200_31_7,0,0,10000,0,2000
10000_500_200_31_8,0,0,10000,0,2000
10000_500_200_31_9,0,0,10000,0,2000
1000_500_250_31_0,0,0,1000,0,2000
1000_500_250_31_1,0,0,1000,0,2000
1000_500_250_31_2,0,0,1000,0,2000
1000_500_250_31_3,0,0,1000,0,2000
1000_500_250_31_4,0,0,1000,0,2000
1000_500_250_31_5,0,0,1000,0,2000
1000_500_250_31_6,0,0,1000,0,2000
1000_500_250_31_7,0,0,1000,0,2000
1000_500_250_31_8,0,0,1000,0,2000
1000_500_250_31_9,0,0,1000,0,2000
500_250_100_31_0,109272,0,267724,0,2000
500_250_100_31_1,0,0,500,0,2000
500_250_100_31_2,251104,0,609178,0,2000
500_250_100_31_3,0,0,500,0,2000
500_250_100_31_4,326495,0,692376,0,2000
500_250_100_31_5,0,0,500,0,2000
500_250_100_31_6,177567,0,408693,0,2000
500_250_100_31_7,0,0,500,0,2000
500_250_100_31_8,211500,0,450914,0,2000
500_250_100_31_9,92512,0,224440,0,2000
100_75_50_31_0,437632,0,1037918,0,2000
100_75_50_31_1,1171170,0,2228682,0,2000
100_75_50_31_2,761289,0,1502362,0,2000
100_75_50_31_3,969225,0,2149692,0,2000
100_75_50_31_4,1472966,0,2883167,0,2000
100_75_50_31_5,1843614,0,3643342,0,2000
100_75_50_31_6,626028,0,1194211,0,2000
100_75_50_31_7,611905,0,1370547,0,2000
100_75_50_31_8,1058178,0,2451402,0,2000
100_75_50_31_9,908236,0,2142939,0,2000
10000_500_200_32_0,0,0,10000,0,2000
10000_500_200_32_1,0,0,10000,0,2000
10000_500_200_32_2,0,0,10000,0,2000
10000_500_200_32_3,0,0,10000,0,2000
10000_500_200_32_4,0,0,10000,0,2000
10000_500_200_32_5,0,0,10000,0,2000
10000_500_200_32_6,0,0,10000,0,2000
10000_500_200_32_7,0,0,10000,0,2000
10000_500_200_32_8,0,0,10000,0,2000
10000_500_200_32_9,0,0,10000,0,2000
1000_500_250_32_0,116312,0,152298,0,2000
1000_500_250_32_1,1104964,0,1417078,0,2000
1000_500_250_32_2,0,0,1000,0,2000
1000_500_250_32_3,0,0,1000,0,2000
1000_500_250_32_4,177093,0,235475,0,2000
1000_500_250_32_5,986304,0,1241180,0,2000
1000_500_250_32_6,898560,0,1159284,0,2000
1000_500_250_32_7,697872,0,904770,0,2000
1000_500_250_32_8,639716,0,827835,0,2000
1000_500_250_32_9,863016,0,1092240,0,2000
500_250_100_32_0,911120,0,1081986,0,2000
500_250_100_32_1,971323,0,1191837,0,2000
500_250_100_32_2,715997,0,856090,0,2000
500_250_100_32_3,675344,0,794689,0,2000
500_250_100_32_4,260400,0,315258,0,2000
500_250_100_32_5,547800,0,679176,0,2000
500_250_100_32_6,895069,0,1077830,0,2000
500_250_100_32_7,649604,0,794742,0,2000
500_250_100_32_8,1347615,0,1701393,0,2000
500_250_100_32_9,563562,0,682253,0,2000
100_75_50_32_0,4602401,0,5802800,0,2000
100_75_50_32_1,8246286,0,10040367,0,2000
100_75_50_32_2,6684943,0,8099181,0,2000
100_75_50_32_3,7526750,0,9549905,0,2000
100_75_50_32_4,7706708,0,9342539,0,2000
100_75_50_32_5,15573719,0,17836742,0,2000
100_75_50_32_6,10403409,0,12426835,0,2000
100_75_50_32_7,10361696,0,12216637,0,2000
100_75_50_32_8,9857786,0,11844711,0,2000
100_75_50_32_9,5546911,0,6821117,0,2000
10000_500_200_34_0,0,0,10000,0,2000
10000_500_200_34_1,0,0,10000,0,2000
10000_500_200_34_2,0,0,10000,0,2000
10000_500_200_34_3,0,0,10000,0,2000
10000_500_200_34_4,0,0,10000,0,2000
10000_500_200_34_5,0,0,10000,0,2000
10000_500_200_34_6,0,0,10000,0,2000
10000_500_200_34_7,0,0,10000,0,2000
10000_500_200_34_8,0,0,10000,0,2000
10000_500_200_34_9,0,0,10000,0,2000
1000_500_250_34_0,899496,0,1043998,0,2000
1000_500_250_34_1,943656,0,1097916,0,2000
1000_500_250_34_2,1030193,0,1200163,0,2000
1000_500_250_34_3,844956,0,985272,0,2000
1000_500_250_34_4,988425,0,1140351,0,2000
1000_500_250_34_5,967472,0,1114472,0,2000
1000_500_250_34_6,1246275,0,1440079,0,2000
1000_500_250_34_7,965664,0,1121162,0,2000
1000_500_250_34_8,1069926,0,1248072,0,2000
1000_500_250_34_9,1051600,0,1217067,0,2000
500_250_100_34_0,952422,0,1071644,0,2000
500_250_100_34_1,1195635,0,1384656,0,2000
500_250_100_34_2,1522371,0,1726173,0,2000
500_250_100_34_3,1436369,0,1650462,0,2000
500_250_100_34_4,1110205,0,1272699,0,2000
500_250_100_34_5,1256059,0,1408021,0,2000
500_250_100_34_6,1717731,0,1972464,0,2000
500_250_100_34_7,1314985,0,1491177,0,2000
500_250_100_34_8,834553,0,944001,0,2000
500_250_100_34_9,1288074,0,1450596,0,2000
100_75_50_34_0,10084687,0,11943374,0,2000
100_75_50_34_1,13182037,0,15612614,0,2000
100_75_50_34_2,11638394,0,13855846,0,2000
100_75_50_34_3,13466744,0,15846728,0,2000
100_75_50_34_4,9727242,0,11639230,0,2000
100_75_50_34_5,13008731,0,14927215,0,2000
100_75_50_34_6,11207147,0,13168645,0,2000
100_75_50_34_7,14077154,0,16438345,0,2000
100_75_50_34_8,11207167,0,13287397,0,2000
100_75_50_34_9,11442650,0,13611061,0,2000
10000_500_200_35_0,0,0,10000,0,2000
10000_500_200_35_1,0,0,10000,0,2000
10000_500_200_35_2,0,0,10000,0,2000
10000_500_200_35_3,0,0,10000,0,2000
10000_500_200_35_4,0,0,10000,0,2000
10000_500_200_35_5,0,0,10000,0,2000
10000_500_200_35_6,0,0,10000,0,2000
10000_500_200_35_7,0,0,10000,0,2000
10000_500_200_35_8,0,0,10000,0,2000
10000_500_200_35_9,0,0,10000,0,2000
1000_500_250_35_0,0,0,1000,0,2000
1000_500_250_35_1,0,0,1000,0,2000
1000_500_250_35_2,0,0,1000,0,2000
1000_500_250_35_3,0,0,1000,0,2000
1000_500_250_35_4,0,0,1000,0,2000
1000_500_250_35_5,0,0,1000,0,2000
1000_500_250_35_6,0,0,1000,0,2000
1000_500_250_35_7,0,0,1000,0,2000
1000_500_250_35_8,0,0,1000,0,2000
1000_500_250_35_9,0,0,1000,0,2000
500_250_100_35_0,109668,0,250724,0,2000
500_250_100_35_1,112788,0,235214,0,2000
500_250_100_35_2,156168,0,368016,0,2000
500_250_100_35_3,191919,0,367915,0,2000
500_250_100_35_4,134400,0,271752,0,2000
500_250_100_35_5,112788,0,252706,0,2000
500_250_100_35_6,91390,0,206520,0,2000
500_250_100_35_7,0,0,500,0,2000
500_250_100_35_8,153600,0,297436,0,2000
500_250_100_35_9,147492,0,361816,0,2000
100_75_50_35_0,350994,0,855154,0,2000
100_75_50_35_1,394993,0,795332,0,2000
100_75_50_35_2,597207,0,1118103,0,2000
100_75_50_35_3,644515,0,1331473,0,2000
100_75_50_35_4,536738,0,986154,0,2000
100_75_50_35_5,858816,0,1549040,0,2000
100_75_50_35_6,484807,0,866411,0,2000
100_75_50_35_7,782408,0,1769004,0,2000
100_75_50_35_8,512071,0,1214815,0,2000
100_75_50_35_9,544067,0,1208386,0,2000
10000_500_200_36_0,0,0,10000,0,2000
10000_500_200_36_1,0,0,10000,0,2000
10000_500_200_36_2,0,0,10000,0,2000
10000_500_200_36_3,0,0,10000,0,2000
10000_500_200_36_4,447975,0,599153,0,2000
10000_500_200_36_5,0,0,10000,0,2000
10000_500_200_36_6,0,0,10000,0,2000
10000_500_200_36_7,0,0,10000,0,2000
10000_500_200_36_8,0,0,10000,0,2000
10000_500_200_36_9,0,0,10000,0,2000
1000_500_250_36_0,0,0,1000,0,2000
1000_500_250_36_1,724248,0,872869,0,2000
1000_500_250_36_2,799216,0,963044,0,2000
1000_500_250_36_3,537600,0,664901,0,2000
1000_500_250_36_4,351072,0,428738,0,2000
1000_500_250_36_5,757152,0,911186,0,2000
1000_500_250_36_6,789912,0,966466,0,2000
1000_500_250_36_7,41151,0,54983,0,2000
1000_500_250_36_8,241416,0,302678,0,2000
1000_500_250_36_9,746028,0,889057,0,2000
500_250_100_36_0,590381,0,663438,0,2000
500_250_100_36_1,685998,0,793155,0,2000
500_250_100_36_2,453944,0,520743,0,2000
500_250_100_36_3,575166,0,643146,0,2000
500_250_100_36_4,296223,0,342353,0,2000
500_250_100_36_5,327372,0,384594,0,2000
500_250_100_36_6,650210,0,734534,0,2000
500_250_100_36_7,415269,0,481414,0,2000
500_250_100_36_8,718110,0,865094,0,2000
500_250_100_36_9,739562,0,859695,0,2000
100_75_50_36_0,6434093,0,8136011,0,2000
100_75_50_36_1,11269467,0,13712129,0,2000
100_75_50_36_2,7500595,0,9256891,0,2000
100_75_50_36_3,10574694,0,13071265,0,2000
100_75_50_36_4,11858225,0,14245103,0,2000
100_75_50_36_5,15687104,0,17715436,0,2000
100_75_50_36_6,12923984,0,15463288,0,2000
100_75_50_36_7,12668204,0,14679039,0,2000
100_75_50_36_8,9190136,0,10752646,0,2000
100_75_50_36_9,7732415,0,9210334,0,2000
