iteration 0 sol 100000.00
iteration 1 sol 100000.00
iteration 2 sol 99996.00
iteration 3 sol 100000.00
iteration 4 sol 99995.00
iteration 5 sol 99993.00
iteration 6 sol 100000.00
iteration 7 sol 99982.00
iteration 8 sol 100000.00
iteration 9 sol 100000.00
iteration 10 sol 99984.00
iteration 11 sol 99994.00
iteration 12 sol 99991.00
iteration 13 sol 99996.00
iteration 14 sol 99999.00
iteration 15 sol 99986.00
iteration 16 sol 99986.00
iteration 17 sol 99997.00
iteration 18 sol 99988.00
iteration 19 sol 99999.00
iteration 20 sol 99992.00
iteration 21 sol 99991.00
iteration 22 sol 99988.00
iteration 23 sol 99988.00
iteration 24 sol 99999.00
iteration 25 sol 99987.00
iteration 26 sol 99983.00
iteration 27 sol 99990.00
iteration 28 sol 99982.00
iteration 29 sol 100000.00
iteration 30 sol 99993.00
iteration 31 sol 99996.00
iteration 32 sol 99992.00
iteration 33 sol 100000.00
iteration 34 sol 99992.00
iteration 35 sol 100000.00
iteration 36 sol 99998.00
iteration 37 sol 99994.00
iteration 38 sol 99991.00
iteration 39 sol 99993.00
iteration 40 sol 99998.00
iteration 41 sol 99984.00
iteration 42 sol 99991.00
iteration 43 sol 100000.00
iteration 44 sol 99993.00
iteration 45 sol 99996.00
iteration 46 sol 99985.00
iteration 47 sol 99986.00
iteration 48 sol 99992.00
iteration 49 sol 100000.00
iteration 50 sol 99991.00
iteration 51 sol 99980.00
iteration 52 sol 99996.00
iteration 53 sol 99998.00
iteration 54 sol 99999.00
iteration 55 sol 99993.00
iteration 56 sol 99998.00
iteration 57 sol 99989.00
iteration 58 sol 100000.00
iteration 59 sol 99998.00
iteration 60 sol 99984.00
iteration 61 sol 99994.00
iteration 62 sol 99986.00
iteration 63 sol 99995.00
iteration 64 sol 99990.00
iteration 65 sol 99982.00
iteration 66 sol 100000.00
iteration 67 sol 99988.00
iteration 68 sol 99998.00
iteration 69 sol 100000.00
iteration 70 sol 99985.00
iteration 71 sol 99982.00
iteration 72 sol 99985.00
iteration 73 sol 99986.00
iteration 74 sol 99987.00
iteration 75 sol 100000.00
iteration 76 sol 99997.00
iteration 77 sol 99993.00
iteration 78 sol 100000.00
iteration 79 sol 99994.00
iteration 80 sol 99988.00
iteration 81 sol 99989.00
iteration 82 sol 100000.00
iteration 83 sol 99994.00
iteration 84 sol 99993.00
iteration 85 sol 99990.00
iteration 86 sol 99993.00
iteration 87 sol 99996.00
iteration 88 sol 99993.00
iteration 89 sol 99990.00
iteration 90 sol 99982.00
iteration 91 sol 99997.00
iteration 92 sol 99984.00
iteration 93 sol 99997.00
iteration 94 sol 99995.00
iteration 95 sol 99989.00
iteration 96 sol 99981.00
iteration 97 sol 99987.00
iteration 98 sol 99989.00
iteration 99 sol 99992.00
iteration 100 sol 100000.00
iteration 101 sol 99983.00
iteration 102 sol 99994.00
iteration 103 sol 99999.00
iteration 104 sol 99995.00
iteration 105 sol 99981.00
iteration 106 sol 99998.00
iteration 107 sol 99990.00
iteration 108 sol 99985.00
iteration 109 sol 100000.00
iteration 110 sol 99995.00
iteration 111 sol 99984.00
iteration 112 sol 99980.00
iteration 113 sol 99995.00
iteration 114 sol 99983.00
iteration 115 sol 99989.00
iteration 116 sol 99996.00
iteration 117 sol 100000.00
iteration 118 sol 100000.00
iteration 119 sol 99995.00
iteration 120 sol 99993.00
iteration 121 sol 99980.00
iteration 122 sol 99980.00
iteration 123 sol 99994.00
iteration 124 sol 99999.00
iteration 125 sol 100000.00
iteration 126 sol 100000.00
iteration 127 sol 99980.00
iteration 128 sol 99984.00
iteration 129 sol 99994.00
iteration 130 sol 99989.00
iteration 131 sol 99981.00
iteration 132 sol 99998.00
iteration 133 sol 100000.00
iteration 134 sol 99996.00
iteration 135 sol 99986.00
iteration 136 sol 99995.00
iteration 137 sol 99995.00
iteration 138 sol 99993.00
iteration 139 sol 100000.00
iteration 140 sol 99984.00
iteration 141 sol 100000.00
iteration 142 sol 99994.00
iteration 143 sol 100000.00
iteration 144 sol 99996.00
iteration 145 sol 99997.00
iteration 146 sol 100000.00
iteration 147 sol 99982.00
iteration 148 sol 99988.00
iteration 149 sol 99990.00
iteration 150 sol 99999.00
iteration 151 sol 99998.00
iteration 152 sol 99982.00
iteration 153 sol 99982.00
iteration 154 sol 99984.00
iteration 155 sol 99998.00
iteration 156 sol 99989.00
iteration 157 sol 99993.00
iteration 158 sol 99997.00
iteration 159 sol 99995.00
iteration 160 sol 100000.00
iteration 161 sol 99993.00
iteration 162 sol 100000.00
iteration 163 sol 99993.00
iteration 164 sol 99995.00
iteration 165 sol 99987.00
iteration 166 sol 99994.00
iteration 167 sol 99999.00
iteration 168 sol 99983.00
iteration 169 sol 99983.00
iteration 170 sol 100000.00
iteration 171 sol 100000.00
iteration 172 sol 99986.00
iteration 173 sol 99995.00
iteration 174 sol 99989.00
iteration 175 sol 99986.00
iteration 176 sol 99995.00
iteration 177 sol 99996.00
iteration 178 sol 99980.00
iteration 179 sol 99994.00
iteration 180 sol 99987.00
iteration 181 sol 99999.00
iteration 182 sol 99988.00
iteration 183 sol 99988.00
iteration 184 sol 99993.00
iteration 185 sol 100000.00
iteration 186 sol 99985.00
iteration 187 sol 99999.00
iteration 188 sol 99991.00
iteration 189 sol 99993.00
iteration 190 sol 99990.00
iteration 191 sol 100000.00
iteration 192 sol 99985.00
iteration 193 sol 99981.00
iteration 194 sol 100000.00
iteration 195 sol 100000.00
iteration 196 sol 99995.00
iteration 197 sol 99997.00
iteration 198 sol 100000.00
iteration 199 sol 99995.00
iteration 200 sol 99990.00
iteration 201 sol 100000.00
iteration 202 sol 100000.00
iteration 203 sol 99990.00
iteration 204 sol 99982.00
iteration 205 sol 99980.00
iteration 206 sol 99996.00
iteration 207 sol 99999.00
iteration 208 sol 99992.00
iteration 209 sol 100000.00
iteration 210 sol 99994.00
iteration 211 sol 99992.00
iteration 212 sol 99985.00
iteration 213 sol 99993.00
iteration 214 sol 100000.00
iteration 215 sol 100000.00
iteration 216 sol 99991.00
iteration 217 sol 99992.00
iteration 218 sol 99990.00
iteration 219 sol 100000.00
iteration 220 sol 99992.00
iteration 221 sol 99988.00
iteration 222 sol 99980.00
iteration 223 sol 99996.00
iteration 224 sol 99997.00
iteration 225 sol 99980.00
iteration 226 sol 100000.00
iteration 227 sol 99992.00
iteration 228 sol 99988.00
iteration 229 sol 99998.00
iteration 230 sol 100000.00
iteration 231 sol 100000.00
iteration 232 sol 99985.00
iteration 233 sol 99997.00
iteration 234 sol 99985.00
iteration 235 sol 99998.00
iteration 236 sol 100000.00
iteration 237 sol 99998.00
iteration 238 sol 99996.00
iteration 239 sol 100000.00
iteration 240 sol 99989.00
iteration 241 sol 99980.00
iteration 242 sol 100000.00
iteration 243 sol 99980.00
iteration 244 sol 99985.00
iteration 245 sol 99992.00
iteration 246 sol 99996.00
iteration 247 sol 99984.00
iteration 248 sol 99981.00
iteration 249 sol 100000.00
iteration 250 sol 99995.00
iteration 251 sol 100000.00
iteration 252 sol 99981.00
iteration 253 sol 99982.00
iteration 254 sol 100000.00
iteration 255 sol 100000.00
iteration 256 sol 99998.00
iteration 257 sol 99980.00
iteration 258 sol 99987.00
iteration 259 sol 99989.00
iteration 260 sol 99981.00
iteration 261 sol 100000.00
iteration 262 sol 99989.00
iteration 263 sol 99983.00
iteration 264 sol 100000.00
iteration 265 sol 99990.00
iteration 266 sol 99987.00
iteration 267 sol 100000.00
iteration 268 sol 99999.00
iteration 269 sol 99999.00
iteration 270 sol 99995.00
iteration 271 sol 100000.00
iteration 272 sol 99986.00
iteration 273 sol 99987.00
iteration 274 sol 99987.00
iteration 275 sol 99986.00
iteration 276 sol 99992.00
iteration 277 sol 99985.00
iteration 278 sol 99988.00
iteration 279 sol 100000.00
iteration 280 sol 99982.00
iteration 281 sol 100000.00
iteration 282 sol 99996.00
iteration 283 sol 99992.00
iteration 284 sol 99996.00
iteration 285 sol 99985.00
iteration 286 sol 99986.00
iteration 287 sol 99984.00
iteration 288 sol 100000.00
iteration 289 sol 99996.00
iteration 290 sol 99999.00
iteration 291 sol 99985.00
iteration 292 sol 99986.00
iteration 293 sol 100000.00
iteration 294 sol 100000.00
iteration 295 sol 99987.00
iteration 296 sol 99995.00
iteration 297 sol 99996.00
iteration 298 sol 99988.00
iteration 299 sol 99991.00
iteration 300 sol 99993.00
iteration 301 sol 99995.00
iteration 302 sol 99980.00
iteration 303 sol 100000.00
iteration 304 sol 99987.00
iteration 305 sol 99981.00
iteration 306 sol 99992.00
iteration 307 sol 99983.00
iteration 308 sol 99984.00
iteration 309 sol 99986.00
iteration 310 sol 99998.00
iteration 311 sol 99992.00
iteration 312 sol 100000.00
iteration 313 sol 99983.00
iteration 314 sol 99986.00
iteration 315 sol 99991.00
iteration 316 sol 100000.00
iteration 317 sol 99992.00
iteration 318 sol 100000.00
iteration 319 sol 99989.00
iteration 320 sol 99999.00
iteration 321 sol 99999.00
iteration 322 sol 99986.00
iteration 323 sol 99990.00
iteration 324 sol 99998.00
iteration 325 sol 99993.00
iteration 326 sol 99994.00
iteration 327 sol 99983.00
iteration 328 sol 99999.00
iteration 329 sol 99980.00
iteration 330 sol 99994.00
iteration 331 sol 99988.00
iteration 332 sol 99991.00
iteration 333 sol 100000.00
iteration 334 sol 99991.00
iteration 335 sol 99989.00
iteration 336 sol 99993.00
iteration 337 sol 100000.00
iteration 338 sol 99982.00
iteration 339 sol 99992.00
iteration 340 sol 100000.00
iteration 341 sol 99988.00
iteration 342 sol 99999.00
iteration 343 sol 99982.00
iteration 344 sol 99990.00
iteration 345 sol 99999.00
iteration 346 sol 99991.00
iteration 347 sol 99995.00
iteration 348 sol 99993.00
iteration 349 sol 99983.00
iteration 350 sol 99991.00
iteration 351 sol 99984.00
iteration 352 sol 100000.00
iteration 353 sol 99986.00
iteration 354 sol 99990.00
iteration 355 sol 99980.00
iteration 356 sol 99998.00
iteration 357 sol 99981.00
iteration 358 sol 100000.00
iteration 359 sol 99990.00
iteration 360 sol 100000.00
iteration 361 sol 100000.00
iteration 362 sol 99997.00
iteration 363 sol 99998.00
iteration 364 sol 99980.00
iteration 365 sol 100000.00
iteration 366 sol 99988.00
iteration 367 sol 99984.00
iteration 368 sol 99980.00
iteration 369 sol 99981.00
iteration 370 sol 99981.00
iteration 371 sol 99996.00
iteration 372 sol 99994.00
iteration 373 sol 99984.00
iteration 374 sol 99993.00
iteration 375 sol 99987.00
iteration 376 sol 99997.00
iteration 377 sol 99999.00
iteration 378 sol 99989.00
iteration 379 sol 100000.00
iteration 380 sol 99981.00
iteration 381 sol 99992.00
iteration 382 sol 100000.00
iteration 383 sol 99993.00
iteration 384 sol 100000.00
iteration 385 sol 99999.00
iteration 386 sol 99982.00
iteration 387 sol 99991.00
iteration 388 sol 99997.00
iteration 389 sol 99990.00
iteration 390 sol 100000.00
iteration 391 sol 99982.00
iteration 392 sol 100000.00
iteration 393 sol 100000.00
iteration 394 sol 99989.00
iteration 395 sol 99989.00
iteration 396 sol 99993.00
iteration 397 sol 99996.00
iteration 398 sol 100000.00
iteration 399 sol 99989.00
iteration 400 sol 99982.00
iteration 401 sol 99998.00
iteration 402 sol 99984.00
iteration 403 sol 99996.00
iteration 404 sol 99997.00
iteration 405 sol 99980.00
iteration 406 sol 99995.00
iteration 407 sol 100000.00
iteration 408 sol 99991.00
iteration 409 sol 99988.00
iteration 410 sol 99999.00
iteration 411 sol 99989.00
iteration 412 sol 99987.00
iteration 413 sol 99989.00
iteration 414 sol 100000.00
iteration 415 sol 100000.00
iteration 416 sol 100000.00
iteration 417 sol 100000.00
iteration 418 sol 99998.00
iteration 419 sol 99983.00
iteration 420 sol 99989.00
iteration 421 sol 99997.00
iteration 422 sol 99984.00
iteration 423 sol 99988.00
iteration 424 sol 99992.00
iteration 425 sol 99999.00
iteration 426 sol 99990.00
iteration 427 sol 99985.00
iteration 428 sol 99994.00
iteration 429 sol 99996.00
iteration 430 sol 100000.00
iteration 431 sol 99993.00
iteration 432 sol 99983.00
iteration 433 sol 99980.00
iteration 434 sol 99984.00
iteration 435 sol 99996.00
iteration 436 sol 99991.00
iteration 437 sol 99981.00
iteration 438 sol 100000.00
iteration 439 sol 99998.00
iteration 440 sol 99995.00
iteration 441 sol 99998.00
iteration 442 sol 99997.00
iteration 443 sol 99986.00
iteration 444 sol 100000.00
iteration 445 sol 99981.00
iteration 446 sol 99982.00
iteration 447 sol 99994.00
iteration 448 sol 100000.00
iteration 449 sol 99986.00
iteration 450 sol 99983.00
iteration 451 sol 99997.00
iteration 452 sol 100000.00
iteration 453 sol 99984.00
iteration 454 sol 100000.00
iteration 455 sol 99988.00
iteration 456 sol 99994.00
iteration 457 sol 100000.00
iteration 458 sol 99997.00
iteration 459 sol 99988.00
iteration 460 sol 99982.00
iteration 461 sol 99983.00
iteration 462 sol 99985.00
iteration 463 sol 99995.00
iteration 464 sol 99996.00
iteration 465 sol 99988.00
iteration 466 sol 99986.00
iteration 467 sol 100000.00
iteration 468 sol 99982.00
iteration 469 sol 99997.00
iteration 470 sol 99983.00
iteration 471 sol 100000.00
iteration 472 sol 100000.00
iteration 473 sol 99981.00
iteration 474 sol 99988.00
iteration 475 sol 100000.00
iteration 476 sol 99992.00
iteration 477 sol 99992.00
iteration 478 sol 99995.00
iteration 479 sol 99989.00
iteration 480 sol 99998.00
iteration 481 sol 99990.00
iteration 482 sol 99990.00
iteration 483 sol 99985.00
iteration 484 sol 99983.00
iteration 485 sol 99986.00
iteration 486 sol 99990.00
iteration 487 sol 99993.00
iteration 488 sol 99988.00
iteration 489 sol 99993.00
iteration 490 sol 99987.00
iteration 491 sol 99981.00
iteration 492 sol 99996.00
iteration 493 sol 99989.00
iteration 494 sol 99989.00
iteration 495 sol 99985.00
iteration 496 sol 100000.00
iteration 497 sol 99987.00
iteration 498 sol 99986.00
iteration 499 sol 100000.00
iteration 500 sol 99988.00
iteration 501 sol 99995.00
iteration 502 sol 99985.00
iteration 503 sol 100000.00
iteration 504 sol 99996.00
iteration 505 sol 99981.00
iteration 506 sol 99986.00
iteration 507 sol 99996.00
iteration 508 sol 99988.00
iteration 509 sol 100000.00
iteration 510 sol 99994.00
iteration 511 sol 100000.00
iteration 512 sol 99981.00
iteration 513 sol 99996.00
iteration 514 sol 99996.00
iteration 515 sol 99990.00
iteration 516 sol 99987.00
iteration 517 sol 99982.00
iteration 518 sol 99992.00
iteration 519 sol 99995.00
iteration 520 sol 99996.00
iteration 521 sol 99999.00
iteration 522 sol 99986.00
iteration 523 sol 99998.00
iteration 524 sol 99985.00
iteration 525 sol 100000.00
iteration 526 sol 99990.00
iteration 527 sol 99992.00
iteration 528 sol 99994.00
iteration 529 sol 99994.00
iteration 530 sol 100000.00
iteration 531 sol 99990.00
iteration 532 sol 100000.00
iteration 533 sol 99983.00
iteration 534 sol 100000.00
iteration 535 sol 99995.00
iteration 536 sol 100000.00
iteration 537 sol 99987.00
iteration 538 sol 99983.00
iteration 539 sol 100000.00
iteration 540 sol 99981.00
iteration 541 sol 99981.00
iteration 542 sol 99998.00
iteration 543 sol 99994.00
iteration 544 sol 99995.00
iteration 545 sol 99985.00
iteration 546 sol 100000.00
iteration 547 sol 99981.00
iteration 548 sol 100000.00
iteration 549 sol 99993.00
iteration 550 sol 99998.00
iteration 551 sol 99984.00
iteration 552 sol 100000.00
iteration 553 sol 100000.00
iteration 554 sol 100000.00
iteration 555 sol 99990.00
iteration 556 sol 99989.00
iteration 557 sol 99994.00
iteration 558 sol 99997.00
iteration 559 sol 99987.00
iteration 560 sol 99990.00
iteration 561 sol 99999.00
iteration 562 sol 99994.00
iteration 563 sol 99992.00
iteration 564 sol 99997.00
iteration 565 sol 99985.00
iteration 566 sol 99996.00
iteration 567 sol 99983.00
iteration 568 sol 99981.00
iteration 569 sol 99986.00
iteration 570 sol 99988.00
iteration 571 sol 99984.00
iteration 572 sol 99983.00
iteration 573 sol 99988.00
iteration 574 sol 99987.00
iteration 575 sol 99987.00
iteration 576 sol 99982.00
iteration 577 sol 99985.00
iteration 578 sol 100000.00
iteration 579 sol 100000.00
iteration 580 sol 99991.00
iteration 581 sol 99999.00
iteration 582 sol 99993.00
iteration 583 sol 99984.00
iteration 584 sol 99981.00
iteration 585 sol 99982.00
iteration 586 sol 99998.00
iteration 587 sol 99989.00
iteration 588 sol 99980.00
iteration 589 sol 100000.00
iteration 590 sol 99992.00
iteration 591 sol 99999.00
iteration 592 sol 99985.00
iteration 593 sol 99999.00
iteration 594 sol 99982.00
iteration 595 sol 100000.00
iteration 596 sol 99988.00
iteration 597 sol 99993.00
iteration 598 sol 100000.00
iteration 599 sol 99992.00
iteration 600 sol 99989.00
iteration 601 sol 99999.00
iteration 602 sol 99996.00
iteration 603 sol 99988.00
iteration 604 sol 99986.00
iteration 605 sol 99984.00
iteration 606 sol 99985.00
iteration 607 sol 99988.00
iteration 608 sol 99986.00
iteration 609 sol 99993.00
iteration 610 sol 99984.00
iteration 611 sol 99981.00
iteration 612 sol 100000.00
iteration 613 sol 99981.00
iteration 614 sol 99988.00
iteration 615 sol 99995.00
iteration 616 sol 99982.00
iteration 617 sol 99989.00
iteration 618 sol 100000.00
iteration 619 sol 99980.00
iteration 620 sol 99990.00
iteration 621 sol 99990.00
iteration 622 sol 99984.00
iteration 623 sol 99993.00
iteration 624 sol 99993.00
iteration 625 sol 100000.00
iteration 626 sol 99981.00
iteration 627 sol 100000.00
iteration 628 sol 100000.00
iteration 629 sol 99990.00
iteration 630 sol 99992.00
iteration 631 sol 99997.00
iteration 632 sol 99983.00
iteration 633 sol 99996.00
iteration 634 sol 100000.00
iteration 635 sol 100000.00
iteration 636 sol 99992.00
iteration 637 sol 99997.00
iteration 638 sol 99985.00
iteration 639 sol 99981.00
iteration 640 sol 99987.00
iteration 641 sol 99996.00
iteration 642 sol 99981.00
iteration 643 sol 99987.00
iteration 644 sol 99985.00
iteration 645 sol 100000.00
iteration 646 sol 99999.00
iteration 647 sol 100000.00
iteration 648 sol 99989.00
iteration 649 sol 99999.00
iteration 650 sol 99981.00
iteration 651 sol 100000.00
iteration 652 sol 99998.00
iteration 653 sol 99998.00
iteration 654 sol 99995.00
iteration 655 sol 99985.00
iteration 656 sol 99984.00
iteration 657 sol 99988.00
iteration 658 sol 99988.00
iteration 659 sol 99996.00
iteration 660 sol 100000.00
iteration 661 sol 99992.00
iteration 662 sol 99985.00
iteration 663 sol 100000.00
iteration 664 sol 99988.00
iteration 665 sol 100000.00
iteration 666 sol 99998.00
iteration 667 sol 99994.00
iteration 668 sol 100000.00
iteration 669 sol 100000.00
iteration 670 sol 100000.00
iteration 671 sol 99999.00
iteration 672 sol 99995.00
iteration 673 sol 99985.00
iteration 674 sol 99984.00
iteration 675 sol 99980.00
iteration 676 sol 99996.00
iteration 677 sol 99986.00
Number of iterations = 678
Best Solution was found in iteration = 0
Time used by neighbor | Times each neighbor was used | Improvements
N_1 = 5.76 | 2157 | 1386
N_2 = 101.25 | 2157 | 1063
N_3 = 2.97 | 2157 | 799
N_4 = 237.02 | 2157 | 1
Time to find the best solution = 0.02
Solution = 100000.00
Time = 600.21
