iteration 0 sol 90842.00
iteration 1 sol 90568.00
iteration 2 sol 92697.00
iteration 3 sol 91475.00
iteration 4 sol 89762.00
iteration 5 sol 91576.00
iteration 6 sol 92296.00
iteration 7 sol 92704.00
iteration 8 sol 90045.00
iteration 9 sol 90602.00
iteration 10 sol 92606.00
iteration 11 sol 91669.00
iteration 12 sol 92051.00
iteration 13 sol 92881.00
iteration 14 sol 91122.00
iteration 15 sol 92737.00
iteration 16 sol 90746.00
iteration 17 sol 92583.00
iteration 18 sol 90941.00
iteration 19 sol 91324.00
iteration 20 sol 93698.00
iteration 21 sol 91926.00
iteration 22 sol 90658.00
iteration 23 sol 92161.00
iteration 24 sol 91731.00
iteration 25 sol 91820.00
iteration 26 sol 92861.00
iteration 27 sol 90063.00
iteration 28 sol 90789.00
iteration 29 sol 94399.00
iteration 30 sol 89779.00
iteration 31 sol 91761.00
iteration 32 sol 91765.00
iteration 33 sol 90336.00
iteration 34 sol 91650.00
iteration 35 sol 90772.00
iteration 36 sol 92979.00
iteration 37 sol 92597.00
iteration 38 sol 92338.00
iteration 39 sol 92856.00
iteration 40 sol 92554.00
iteration 41 sol 92176.00
iteration 42 sol 92721.00
iteration 43 sol 93327.00
iteration 44 sol 89545.00
iteration 45 sol 92761.00
iteration 46 sol 92749.00
iteration 47 sol 91699.00
iteration 48 sol 92930.00
iteration 49 sol 91347.00
iteration 50 sol 92041.00
iteration 51 sol 92180.00
iteration 52 sol 93084.00
iteration 53 sol 91770.00
iteration 54 sol 92797.00
iteration 55 sol 92409.00
iteration 56 sol 93002.00
iteration 57 sol 91208.00
iteration 58 sol 91806.00
iteration 59 sol 93214.00
iteration 60 sol 92141.00
iteration 61 sol 91607.00
iteration 62 sol 89039.00
iteration 63 sol 91895.00
iteration 64 sol 92722.00
iteration 65 sol 91235.00
iteration 66 sol 90974.00
iteration 67 sol 92561.00
iteration 68 sol 93153.00
iteration 69 sol 92801.00
iteration 70 sol 91902.00
iteration 71 sol 93252.00
iteration 72 sol 90775.00
iteration 73 sol 93061.00
iteration 74 sol 91628.00
iteration 75 sol 91527.00
iteration 76 sol 92746.00
iteration 77 sol 91810.00
iteration 78 sol 91640.00
iteration 79 sol 93709.00
iteration 80 sol 91151.00
iteration 81 sol 91798.00
iteration 82 sol 93074.00
iteration 83 sol 91693.00
iteration 84 sol 92116.00
iteration 85 sol 90326.00
iteration 86 sol 94209.00
iteration 87 sol 93615.00
iteration 88 sol 93271.00
iteration 89 sol 91478.00
iteration 90 sol 91262.00
iteration 91 sol 91181.00
iteration 92 sol 90411.00
iteration 93 sol 90803.00
iteration 94 sol 90614.00
iteration 95 sol 92460.00
iteration 96 sol 93086.00
iteration 97 sol 90736.00
iteration 98 sol 92023.00
iteration 99 sol 92524.00
iteration 100 sol 91980.00
iteration 101 sol 91753.00
iteration 102 sol 91330.00
iteration 103 sol 91634.00
iteration 104 sol 92845.00
iteration 105 sol 93192.00
iteration 106 sol 92513.00
iteration 107 sol 92435.00
iteration 108 sol 93121.00
iteration 109 sol 91327.00
iteration 110 sol 91772.00
iteration 111 sol 92391.00
iteration 112 sol 92038.00
iteration 113 sol 93133.00
iteration 114 sol 90657.00
iteration 115 sol 92478.00
iteration 116 sol 92018.00
iteration 117 sol 93024.00
iteration 118 sol 92278.00
iteration 119 sol 92329.00
iteration 120 sol 90969.00
iteration 121 sol 92262.00
iteration 122 sol 91553.00
iteration 123 sol 91686.00
iteration 124 sol 93459.00
iteration 125 sol 91403.00
iteration 126 sol 91870.00
iteration 127 sol 91992.00
iteration 128 sol 93096.00
iteration 129 sol 92076.00
iteration 130 sol 91876.00
iteration 131 sol 93551.00
iteration 132 sol 93458.00
iteration 133 sol 92089.00
iteration 134 sol 90825.00
iteration 135 sol 90915.00
iteration 136 sol 90847.00
iteration 137 sol 91731.00
iteration 138 sol 92181.00
iteration 139 sol 92535.00
iteration 140 sol 91985.00
iteration 141 sol 91305.00
iteration 142 sol 91991.00
iteration 143 sol 90969.00
iteration 144 sol 91324.00
iteration 145 sol 93297.00
iteration 146 sol 92738.00
iteration 147 sol 91254.00
iteration 148 sol 91562.00
iteration 149 sol 91836.00
iteration 150 sol 91839.00
iteration 151 sol 91470.00
iteration 152 sol 91565.00
iteration 153 sol 91208.00
iteration 154 sol 91814.00
iteration 155 sol 91591.00
iteration 156 sol 90229.00
iteration 157 sol 94038.00
iteration 158 sol 93469.00
iteration 159 sol 92190.00
iteration 160 sol 92584.00
iteration 161 sol 92046.00
iteration 162 sol 91627.00
iteration 163 sol 90929.00
iteration 164 sol 92202.00
iteration 165 sol 92280.00
iteration 166 sol 93769.00
iteration 167 sol 92160.00
iteration 168 sol 91580.00
iteration 169 sol 90850.00
iteration 170 sol 93008.00
iteration 171 sol 91789.00
iteration 172 sol 91902.00
iteration 173 sol 91770.00
iteration 174 sol 91895.00
iteration 175 sol 92889.00
iteration 176 sol 92693.00
iteration 177 sol 91764.00
iteration 178 sol 93301.00
iteration 179 sol 91338.00
iteration 180 sol 92179.00
iteration 181 sol 92138.00
iteration 182 sol 90261.00
iteration 183 sol 91493.00
iteration 184 sol 91027.00
iteration 185 sol 91710.00
iteration 186 sol 90784.00
iteration 187 sol 92546.00
iteration 188 sol 90313.00
iteration 189 sol 90892.00
iteration 190 sol 91126.00
iteration 191 sol 92169.00
iteration 192 sol 92733.00
iteration 193 sol 91204.00
iteration 194 sol 91652.00
iteration 195 sol 92411.00
iteration 196 sol 92651.00
iteration 197 sol 92633.00
iteration 198 sol 93229.00
iteration 199 sol 90855.00
iteration 200 sol 91066.00
iteration 201 sol 91390.00
iteration 202 sol 92765.00
iteration 203 sol 92202.00
iteration 204 sol 91513.00
iteration 205 sol 92932.00
iteration 206 sol 90788.00
iteration 207 sol 93153.00
iteration 208 sol 90461.00
iteration 209 sol 92137.00
iteration 210 sol 90296.00
iteration 211 sol 92327.00
iteration 212 sol 91498.00
iteration 213 sol 91754.00
iteration 214 sol 91453.00
iteration 215 sol 91256.00
iteration 216 sol 92823.00
iteration 217 sol 92238.00
iteration 218 sol 91175.00
iteration 219 sol 90447.00
iteration 220 sol 92192.00
iteration 221 sol 92458.00
iteration 222 sol 92655.00
iteration 223 sol 91082.00
iteration 224 sol 91739.00
iteration 225 sol 91557.00
iteration 226 sol 94271.00
iteration 227 sol 92492.00
iteration 228 sol 91734.00
iteration 229 sol 92039.00
iteration 230 sol 91709.00
iteration 231 sol 91750.00
iteration 232 sol 91664.00
iteration 233 sol 92263.00
iteration 234 sol 90513.00
iteration 235 sol 92702.00
iteration 236 sol 93154.00
iteration 237 sol 92749.00
iteration 238 sol 91351.00
iteration 239 sol 92895.00
iteration 240 sol 92720.00
iteration 241 sol 92759.00
iteration 242 sol 92777.00
iteration 243 sol 92204.00
iteration 244 sol 92833.00
iteration 245 sol 92475.00
iteration 246 sol 92988.00
iteration 247 sol 92312.00
iteration 248 sol 92953.00
iteration 249 sol 92794.00
iteration 250 sol 93951.00
iteration 251 sol 92477.00
iteration 252 sol 91037.00
iteration 253 sol 92023.00
iteration 254 sol 93464.00
iteration 255 sol 91676.00
iteration 256 sol 91382.00
iteration 257 sol 91281.00
iteration 258 sol 91813.00
iteration 259 sol 91060.00
iteration 260 sol 90930.00
iteration 261 sol 91379.00
iteration 262 sol 91813.00
iteration 263 sol 91555.00
iteration 264 sol 91839.00
iteration 265 sol 91254.00
iteration 266 sol 92519.00
iteration 267 sol 91935.00
iteration 268 sol 92384.00
iteration 269 sol 93763.00
iteration 270 sol 94143.00
iteration 271 sol 92500.00
iteration 272 sol 91905.00
iteration 273 sol 92097.00
iteration 274 sol 91589.00
iteration 275 sol 90671.00
iteration 276 sol 91526.00
iteration 277 sol 91650.00
iteration 278 sol 93183.00
iteration 279 sol 91686.00
iteration 280 sol 92170.00
iteration 281 sol 92183.00
iteration 282 sol 93939.00
iteration 283 sol 93200.00
iteration 284 sol 90988.00
iteration 285 sol 90846.00
iteration 286 sol 90529.00
iteration 287 sol 93310.00
iteration 288 sol 92219.00
iteration 289 sol 91858.00
iteration 290 sol 93120.00
iteration 291 sol 90971.00
iteration 292 sol 91503.00
iteration 293 sol 90358.00
iteration 294 sol 92679.00
iteration 295 sol 93197.00
iteration 296 sol 91237.00
iteration 297 sol 92221.00
iteration 298 sol 90570.00
iteration 299 sol 89955.00
iteration 300 sol 91937.00
iteration 301 sol 91323.00
iteration 302 sol 91523.00
iteration 303 sol 92219.00
iteration 304 sol 91490.00
iteration 305 sol 94032.00
iteration 306 sol 92902.00
iteration 307 sol 92169.00
iteration 308 sol 90728.00
iteration 309 sol 92001.00
iteration 310 sol 91855.00
iteration 311 sol 91345.00
iteration 312 sol 91465.00
iteration 313 sol 92612.00
iteration 314 sol 93966.00
iteration 315 sol 92021.00
iteration 316 sol 92250.00
iteration 317 sol 92099.00
iteration 318 sol 91124.00
iteration 319 sol 92447.00
iteration 320 sol 93584.00
iteration 321 sol 91373.00
iteration 322 sol 93755.00
iteration 323 sol 91487.00
iteration 324 sol 91623.00
iteration 325 sol 91221.00
iteration 326 sol 93785.00
iteration 327 sol 90655.00
iteration 328 sol 92585.00
iteration 329 sol 92252.00
iteration 330 sol 91615.00
iteration 331 sol 92532.00
iteration 332 sol 91596.00
iteration 333 sol 92955.00
iteration 334 sol 91646.00
iteration 335 sol 93837.00
iteration 336 sol 93944.00
iteration 337 sol 91859.00
iteration 338 sol 90556.00
iteration 339 sol 91926.00
iteration 340 sol 92751.00
iteration 341 sol 92906.00
iteration 342 sol 92315.00
iteration 343 sol 92824.00
iteration 344 sol 92453.00
iteration 345 sol 91804.00
iteration 346 sol 92439.00
iteration 347 sol 91869.00
iteration 348 sol 91136.00
iteration 349 sol 92259.00
iteration 350 sol 91812.00
iteration 351 sol 91611.00
iteration 352 sol 92739.00
iteration 353 sol 89602.00
iteration 354 sol 93529.00
iteration 355 sol 91935.00
iteration 356 sol 93164.00
iteration 357 sol 90893.00
iteration 358 sol 89780.00
iteration 359 sol 92456.00
iteration 360 sol 90199.00
iteration 361 sol 93018.00
iteration 362 sol 90274.00
iteration 363 sol 91606.00
iteration 364 sol 91010.00
iteration 365 sol 92414.00
iteration 366 sol 91820.00
iteration 367 sol 92244.00
iteration 368 sol 92697.00
iteration 369 sol 90294.00
iteration 370 sol 90918.00
iteration 371 sol 93374.00
iteration 372 sol 91536.00
iteration 373 sol 90851.00
iteration 374 sol 92081.00
iteration 375 sol 91499.00
iteration 376 sol 92979.00
iteration 377 sol 91058.00
iteration 378 sol 91678.00
iteration 379 sol 90371.00
iteration 380 sol 90632.00
iteration 381 sol 91378.00
iteration 382 sol 90478.00
iteration 383 sol 91684.00
iteration 384 sol 91753.00
iteration 385 sol 91462.00
iteration 386 sol 91829.00
iteration 387 sol 93230.00
iteration 388 sol 91454.00
iteration 389 sol 91514.00
iteration 390 sol 92356.00
iteration 391 sol 92129.00
iteration 392 sol 91587.00
iteration 393 sol 90842.00
iteration 394 sol 92949.00
iteration 395 sol 92420.00
iteration 396 sol 90486.00
iteration 397 sol 91811.00
iteration 398 sol 93505.00
iteration 399 sol 92490.00
iteration 400 sol 91102.00
iteration 401 sol 91726.00
iteration 402 sol 90715.00
iteration 403 sol 93398.00
iteration 404 sol 92771.00
iteration 405 sol 90608.00
iteration 406 sol 90972.00
iteration 407 sol 90831.00
iteration 408 sol 91474.00
iteration 409 sol 93468.00
iteration 410 sol 92343.00
iteration 411 sol 91436.00
iteration 412 sol 91834.00
iteration 413 sol 92828.00
iteration 414 sol 93938.00
iteration 415 sol 91742.00
iteration 416 sol 93297.00
iteration 417 sol 93234.00
iteration 418 sol 90988.00
iteration 419 sol 91738.00
iteration 420 sol 91054.00
iteration 421 sol 91150.00
iteration 422 sol 89815.00
iteration 423 sol 92272.00
iteration 424 sol 92092.00
iteration 425 sol 91262.00
iteration 426 sol 91115.00
iteration 427 sol 93180.00
iteration 428 sol 93000.00
iteration 429 sol 91151.00
iteration 430 sol 91610.00
iteration 431 sol 93460.00
iteration 432 sol 91056.00
iteration 433 sol 92109.00
iteration 434 sol 91591.00
iteration 435 sol 91489.00
iteration 436 sol 92166.00
iteration 437 sol 91615.00
iteration 438 sol 90676.00
iteration 439 sol 91908.00
iteration 440 sol 91437.00
iteration 441 sol 93398.00
iteration 442 sol 89683.00
iteration 443 sol 92950.00
iteration 444 sol 91686.00
iteration 445 sol 91483.00
iteration 446 sol 91249.00
iteration 447 sol 93733.00
iteration 448 sol 93680.00
iteration 449 sol 90643.00
iteration 450 sol 91901.00
iteration 451 sol 92220.00
iteration 452 sol 90792.00
iteration 453 sol 93557.00
iteration 454 sol 90496.00
iteration 455 sol 92908.00
iteration 456 sol 90734.00
iteration 457 sol 93399.00
iteration 458 sol 92230.00
iteration 459 sol 92668.00
iteration 460 sol 92955.00
iteration 461 sol 92827.00
iteration 462 sol 91180.00
iteration 463 sol 92212.00
iteration 464 sol 92469.00
iteration 465 sol 92524.00
iteration 466 sol 92235.00
iteration 467 sol 92918.00
iteration 468 sol 93028.00
iteration 469 sol 91960.00
iteration 470 sol 90968.00
iteration 471 sol 91019.00
iteration 472 sol 91127.00
iteration 473 sol 90696.00
iteration 474 sol 91425.00
iteration 475 sol 90704.00
iteration 476 sol 90955.00
iteration 477 sol 91015.00
iteration 478 sol 91775.00
iteration 479 sol 93121.00
iteration 480 sol 92518.00
iteration 481 sol 92661.00
iteration 482 sol 93303.00
iteration 483 sol 90809.00
iteration 484 sol 93069.00
iteration 485 sol 92638.00
iteration 486 sol 90986.00
iteration 487 sol 92499.00
iteration 488 sol 91516.00
iteration 489 sol 92039.00
iteration 490 sol 91737.00
iteration 491 sol 90471.00
iteration 492 sol 91601.00
iteration 493 sol 91854.00
iteration 494 sol 91434.00
iteration 495 sol 92327.00
iteration 496 sol 92163.00
iteration 497 sol 92527.00
iteration 498 sol 92254.00
iteration 499 sol 91278.00
iteration 500 sol 92399.00
iteration 501 sol 92453.00
iteration 502 sol 92000.00
iteration 503 sol 90631.00
iteration 504 sol 90193.00
iteration 505 sol 93477.00
iteration 506 sol 92069.00
iteration 507 sol 92121.00
iteration 508 sol 90281.00
iteration 509 sol 90933.00
iteration 510 sol 93069.00
iteration 511 sol 92458.00
iteration 512 sol 94394.00
iteration 513 sol 89892.00
iteration 514 sol 92194.00
iteration 515 sol 92035.00
iteration 516 sol 92800.00
iteration 517 sol 92585.00
iteration 518 sol 93172.00
iteration 519 sol 92384.00
iteration 520 sol 91946.00
iteration 521 sol 93643.00
iteration 522 sol 91754.00
iteration 523 sol 91189.00
iteration 524 sol 93049.00
iteration 525 sol 91821.00
iteration 526 sol 91581.00
iteration 527 sol 90721.00
iteration 528 sol 90766.00
iteration 529 sol 92048.00
iteration 530 sol 92537.00
iteration 531 sol 90351.00
iteration 532 sol 93177.00
iteration 533 sol 93746.00
iteration 534 sol 91907.00
iteration 535 sol 91707.00
iteration 536 sol 92554.00
iteration 537 sol 92165.00
iteration 538 sol 90755.00
iteration 539 sol 91182.00
iteration 540 sol 92280.00
iteration 541 sol 91798.00
iteration 542 sol 90578.00
iteration 543 sol 92011.00
iteration 544 sol 91817.00
iteration 545 sol 90409.00
iteration 546 sol 91663.00
iteration 547 sol 91034.00
iteration 548 sol 92569.00
iteration 549 sol 92299.00
iteration 550 sol 91995.00
iteration 551 sol 92134.00
iteration 552 sol 91190.00
iteration 553 sol 90728.00
iteration 554 sol 92871.00
iteration 555 sol 90892.00
iteration 556 sol 91742.00
iteration 557 sol 93218.00
iteration 558 sol 91460.00
iteration 559 sol 92290.00
iteration 560 sol 90025.00
iteration 561 sol 92136.00
iteration 562 sol 90791.00
iteration 563 sol 92579.00
iteration 564 sol 91455.00
iteration 565 sol 93419.00
iteration 566 sol 91102.00
iteration 567 sol 93187.00
iteration 568 sol 91905.00
iteration 569 sol 91211.00
iteration 570 sol 92708.00
iteration 571 sol 91044.00
iteration 572 sol 92859.00
iteration 573 sol 90533.00
iteration 574 sol 91824.00
iteration 575 sol 91116.00
iteration 576 sol 91945.00
iteration 577 sol 91149.00
iteration 578 sol 93247.00
iteration 579 sol 91958.00
iteration 580 sol 90699.00
iteration 581 sol 92591.00
iteration 582 sol 91568.00
iteration 583 sol 90844.00
iteration 584 sol 91856.00
iteration 585 sol 94009.00
iteration 586 sol 91294.00
iteration 587 sol 89891.00
iteration 588 sol 93465.00
iteration 589 sol 90158.00
iteration 590 sol 91477.00
iteration 591 sol 92268.00
iteration 592 sol 92240.00
iteration 593 sol 93024.00
iteration 594 sol 91160.00
iteration 595 sol 93596.00
iteration 596 sol 91706.00
iteration 597 sol 92684.00
iteration 598 sol 91690.00
iteration 599 sol 92769.00
iteration 600 sol 92195.00
iteration 601 sol 91111.00
iteration 602 sol 91665.00
iteration 603 sol 92895.00
iteration 604 sol 92306.00
iteration 605 sol 90772.00
iteration 606 sol 91509.00
iteration 607 sol 92952.00
iteration 608 sol 90094.00
iteration 609 sol 91412.00
iteration 610 sol 91641.00
iteration 611 sol 92882.00
iteration 612 sol 93106.00
iteration 613 sol 93243.00
iteration 614 sol 90296.00
iteration 615 sol 92269.00
iteration 616 sol 92655.00
iteration 617 sol 92096.00
iteration 618 sol 91942.00
iteration 619 sol 90388.00
iteration 620 sol 89995.00
iteration 621 sol 94733.00
iteration 622 sol 92638.00
iteration 623 sol 91568.00
iteration 624 sol 93000.00
iteration 625 sol 92402.00
iteration 626 sol 91927.00
iteration 627 sol 91395.00
iteration 628 sol 92642.00
iteration 629 sol 91927.00
iteration 630 sol 89432.00
iteration 631 sol 90762.00
iteration 632 sol 93474.00
iteration 633 sol 91466.00
iteration 634 sol 91656.00
iteration 635 sol 92554.00
iteration 636 sol 92194.00
iteration 637 sol 89979.00
iteration 638 sol 92599.00
iteration 639 sol 92601.00
iteration 640 sol 91928.00
iteration 641 sol 92924.00
iteration 642 sol 90561.00
iteration 643 sol 92935.00
iteration 644 sol 92940.00
iteration 645 sol 90057.00
iteration 646 sol 91851.00
iteration 647 sol 91939.00
iteration 648 sol 90823.00
iteration 649 sol 92461.00
iteration 650 sol 92166.00
iteration 651 sol 91111.00
iteration 652 sol 92902.00
iteration 653 sol 92632.00
iteration 654 sol 91619.00
iteration 655 sol 92898.00
iteration 656 sol 92264.00
iteration 657 sol 92168.00
iteration 658 sol 92783.00
iteration 659 sol 91159.00
iteration 660 sol 91834.00
iteration 661 sol 91024.00
iteration 662 sol 91317.00
iteration 663 sol 91982.00
iteration 664 sol 91519.00
iteration 665 sol 93260.00
iteration 666 sol 92841.00
iteration 667 sol 91497.00
iteration 668 sol 91580.00
iteration 669 sol 92452.00
iteration 670 sol 90752.00
iteration 671 sol 91821.00
iteration 672 sol 91079.00
iteration 673 sol 91177.00
iteration 674 sol 91639.00
iteration 675 sol 93192.00
iteration 676 sol 91084.00
iteration 677 sol 94119.00
iteration 678 sol 92561.00
iteration 679 sol 91956.00
iteration 680 sol 93056.00
iteration 681 sol 92886.00
iteration 682 sol 92333.00
iteration 683 sol 91306.00
iteration 684 sol 91588.00
iteration 685 sol 91918.00
iteration 686 sol 92347.00
iteration 687 sol 91667.00
iteration 688 sol 91713.00
iteration 689 sol 93110.00
iteration 690 sol 92466.00
iteration 691 sol 92669.00
iteration 692 sol 92445.00
iteration 693 sol 90368.00
iteration 694 sol 90581.00
iteration 695 sol 92809.00
iteration 696 sol 92049.00
iteration 697 sol 92060.00
iteration 698 sol 93361.00
iteration 699 sol 91945.00
iteration 700 sol 91939.00
iteration 701 sol 92887.00
iteration 702 sol 92334.00
iteration 703 sol 93234.00
iteration 704 sol 92523.00
iteration 705 sol 90121.00
iteration 706 sol 91548.00
iteration 707 sol 91507.00
iteration 708 sol 91776.00
iteration 709 sol 92281.00
iteration 710 sol 92900.00
iteration 711 sol 90789.00
iteration 712 sol 92161.00
iteration 713 sol 93811.00
iteration 714 sol 89852.00
iteration 715 sol 92457.00
iteration 716 sol 89927.00
iteration 717 sol 91775.00
iteration 718 sol 90559.00
iteration 719 sol 91289.00
iteration 720 sol 92141.00
iteration 721 sol 92807.00
iteration 722 sol 92163.00
iteration 723 sol 91703.00
iteration 724 sol 92028.00
iteration 725 sol 91497.00
iteration 726 sol 92497.00
iteration 727 sol 90403.00
iteration 728 sol 92078.00
iteration 729 sol 90332.00
iteration 730 sol 90783.00
iteration 731 sol 93280.00
iteration 732 sol 92839.00
iteration 733 sol 93935.00
iteration 734 sol 90757.00
iteration 735 sol 92494.00
iteration 736 sol 92258.00
iteration 737 sol 92103.00
iteration 738 sol 93969.00
iteration 739 sol 90519.00
iteration 740 sol 93208.00
iteration 741 sol 94165.00
iteration 742 sol 92803.00
iteration 743 sol 91414.00
iteration 744 sol 90995.00
iteration 745 sol 92397.00
iteration 746 sol 93033.00
iteration 747 sol 93526.00
iteration 748 sol 92037.00
iteration 749 sol 92207.00
iteration 750 sol 89820.00
iteration 751 sol 91634.00
iteration 752 sol 91483.00
iteration 753 sol 91258.00
iteration 754 sol 92188.00
iteration 755 sol 92136.00
iteration 756 sol 92086.00
iteration 757 sol 90361.00
iteration 758 sol 89975.00
iteration 759 sol 92091.00
iteration 760 sol 93142.00
iteration 761 sol 93155.00
iteration 762 sol 91337.00
iteration 763 sol 93382.00
iteration 764 sol 91613.00
iteration 765 sol 92518.00
iteration 766 sol 92200.00
iteration 767 sol 91657.00
iteration 768 sol 92954.00
iteration 769 sol 92131.00
iteration 770 sol 93727.00
iteration 771 sol 91875.00
iteration 772 sol 91716.00
iteration 773 sol 91063.00
iteration 774 sol 90483.00
iteration 775 sol 91311.00
iteration 776 sol 93039.00
iteration 777 sol 93156.00
iteration 778 sol 91308.00
iteration 779 sol 92282.00
iteration 780 sol 94067.00
iteration 781 sol 90345.00
iteration 782 sol 93065.00
iteration 783 sol 92553.00
iteration 784 sol 91273.00
iteration 785 sol 92608.00
iteration 786 sol 92780.00
iteration 787 sol 92281.00
iteration 788 sol 92832.00
iteration 789 sol 92676.00
iteration 790 sol 91844.00
iteration 791 sol 94614.00
iteration 792 sol 92054.00
iteration 793 sol 92360.00
iteration 794 sol 91905.00
iteration 795 sol 92261.00
iteration 796 sol 91982.00
iteration 797 sol 91892.00
iteration 798 sol 90331.00
iteration 799 sol 91414.00
iteration 800 sol 91353.00
iteration 801 sol 93421.00
iteration 802 sol 91317.00
iteration 803 sol 91906.00
iteration 804 sol 92715.00
iteration 805 sol 90998.00
iteration 806 sol 90810.00
iteration 807 sol 92775.00
iteration 808 sol 92008.00
iteration 809 sol 93406.00
iteration 810 sol 93321.00
iteration 811 sol 91128.00
iteration 812 sol 90197.00
iteration 813 sol 91918.00
iteration 814 sol 93865.00
iteration 815 sol 92808.00
iteration 816 sol 91400.00
iteration 817 sol 92757.00
iteration 818 sol 92532.00
iteration 819 sol 92317.00
iteration 820 sol 92153.00
iteration 821 sol 92147.00
iteration 822 sol 92912.00
iteration 823 sol 90496.00
iteration 824 sol 91702.00
iteration 825 sol 90604.00
iteration 826 sol 91191.00
iteration 827 sol 91496.00
iteration 828 sol 91062.00
iteration 829 sol 92670.00
iteration 830 sol 92618.00
iteration 831 sol 90298.00
iteration 832 sol 91629.00
iteration 833 sol 91283.00
iteration 834 sol 92646.00
iteration 835 sol 92192.00
iteration 836 sol 90592.00
iteration 837 sol 92153.00
iteration 838 sol 93353.00
iteration 839 sol 91323.00
iteration 840 sol 93879.00
iteration 841 sol 93428.00
iteration 842 sol 92179.00
iteration 843 sol 90807.00
iteration 844 sol 92549.00
iteration 845 sol 91190.00
iteration 846 sol 91185.00
iteration 847 sol 92133.00
iteration 848 sol 91424.00
iteration 849 sol 91334.00
iteration 850 sol 92012.00
iteration 851 sol 92094.00
iteration 852 sol 92007.00
iteration 853 sol 92008.00
iteration 854 sol 93371.00
iteration 855 sol 90685.00
iteration 856 sol 91249.00
iteration 857 sol 94376.00
iteration 858 sol 93286.00
iteration 859 sol 91308.00
iteration 860 sol 91925.00
iteration 861 sol 92130.00
iteration 862 sol 93162.00
iteration 863 sol 91216.00
iteration 864 sol 91873.00
iteration 865 sol 92502.00
iteration 866 sol 91759.00
iteration 867 sol 91269.00
iteration 868 sol 92067.00
iteration 869 sol 91296.00
iteration 870 sol 91887.00
iteration 871 sol 92794.00
iteration 872 sol 90966.00
iteration 873 sol 91104.00
iteration 874 sol 91830.00
iteration 875 sol 91279.00
iteration 876 sol 91109.00
iteration 877 sol 93588.00
iteration 878 sol 92328.00
iteration 879 sol 92513.00
iteration 880 sol 92437.00
iteration 881 sol 93364.00
iteration 882 sol 91413.00
iteration 883 sol 92307.00
iteration 884 sol 92586.00
iteration 885 sol 92397.00
iteration 886 sol 91459.00
iteration 887 sol 90379.00
iteration 888 sol 92516.00
iteration 889 sol 93269.00
iteration 890 sol 90755.00
iteration 891 sol 91989.00
iteration 892 sol 90972.00
iteration 893 sol 91742.00
iteration 894 sol 90321.00
iteration 895 sol 93745.00
iteration 896 sol 91186.00
iteration 897 sol 92253.00
iteration 898 sol 90690.00
iteration 899 sol 91119.00
iteration 900 sol 91154.00
iteration 901 sol 91927.00
iteration 902 sol 91142.00
iteration 903 sol 92647.00
iteration 904 sol 91473.00
iteration 905 sol 91014.00
iteration 906 sol 91752.00
iteration 907 sol 90982.00
iteration 908 sol 92246.00
iteration 909 sol 92421.00
iteration 910 sol 92280.00
iteration 911 sol 91209.00
iteration 912 sol 92848.00
iteration 913 sol 93044.00
iteration 914 sol 90767.00
iteration 915 sol 90531.00
iteration 916 sol 94324.00
iteration 917 sol 92786.00
iteration 918 sol 91755.00
iteration 919 sol 90904.00
iteration 920 sol 90782.00
iteration 921 sol 93380.00
iteration 922 sol 89995.00
iteration 923 sol 92141.00
iteration 924 sol 92473.00
iteration 925 sol 90582.00
iteration 926 sol 92570.00
iteration 927 sol 93439.00
iteration 928 sol 91627.00
iteration 929 sol 93621.00
iteration 930 sol 90636.00
iteration 931 sol 89999.00
iteration 932 sol 92342.00
iteration 933 sol 92102.00
iteration 934 sol 92920.00
iteration 935 sol 92039.00
iteration 936 sol 89802.00
iteration 937 sol 90878.00
iteration 938 sol 91760.00
iteration 939 sol 93253.00
iteration 940 sol 91534.00
iteration 941 sol 92913.00
iteration 942 sol 92135.00
iteration 943 sol 92764.00
iteration 944 sol 91640.00
iteration 945 sol 90660.00
iteration 946 sol 91714.00
iteration 947 sol 93406.00
iteration 948 sol 91274.00
iteration 949 sol 92649.00
iteration 950 sol 92376.00
iteration 951 sol 91582.00
iteration 952 sol 90746.00
iteration 953 sol 93575.00
iteration 954 sol 91790.00
iteration 955 sol 91587.00
iteration 956 sol 91763.00
iteration 957 sol 91664.00
iteration 958 sol 93015.00
iteration 959 sol 93736.00
iteration 960 sol 91948.00
iteration 961 sol 92077.00
iteration 962 sol 93184.00
iteration 963 sol 92785.00
iteration 964 sol 92552.00
iteration 965 sol 90692.00
iteration 966 sol 92865.00
iteration 967 sol 92419.00
iteration 968 sol 89525.00
iteration 969 sol 91642.00
iteration 970 sol 93148.00
iteration 971 sol 92176.00
iteration 972 sol 92157.00
iteration 973 sol 91193.00
iteration 974 sol 91407.00
iteration 975 sol 91270.00
iteration 976 sol 91131.00
iteration 977 sol 93259.00
iteration 978 sol 92340.00
iteration 979 sol 92094.00
iteration 980 sol 92359.00
iteration 981 sol 92121.00
Number of iterations = 982
Best Solution was found in iteration = 621
Time used by neighbor | Times each neighbor was used | Improvements
N_1 = 1.72 | 2006 | 0
N_2 = 8.28 | 2006 | 0
N_3 = 26.41 | 2006 | 0
N_4 = 210.33 | 2006 | 42
Time to find the best solution = 381.52
Solution = 94733.00
Time = 600.59
