iteration 0 sol 92183.00
iteration 1 sol 91061.00
iteration 2 sol 93429.00
iteration 3 sol 92327.00
iteration 4 sol 92489.00
iteration 5 sol 92915.00
iteration 6 sol 91787.00
iteration 7 sol 92074.00
iteration 8 sol 91826.00
iteration 9 sol 91551.00
iteration 10 sol 91246.00
iteration 11 sol 92691.00
iteration 12 sol 91461.00
iteration 13 sol 92006.00
iteration 14 sol 93023.00
iteration 15 sol 89633.00
iteration 16 sol 90475.00
iteration 17 sol 90773.00
iteration 18 sol 92729.00
iteration 19 sol 91944.00
iteration 20 sol 91712.00
iteration 21 sol 92471.00
iteration 22 sol 92737.00
iteration 23 sol 92632.00
iteration 24 sol 92016.00
iteration 25 sol 94466.00
iteration 26 sol 92087.00
iteration 27 sol 92344.00
iteration 28 sol 91168.00
iteration 29 sol 90401.00
iteration 30 sol 93849.00
iteration 31 sol 93314.00
iteration 32 sol 92594.00
iteration 33 sol 93301.00
iteration 34 sol 90243.00
iteration 35 sol 92668.00
iteration 36 sol 92855.00
iteration 37 sol 92646.00
iteration 38 sol 92599.00
iteration 39 sol 92731.00
iteration 40 sol 91321.00
iteration 41 sol 91318.00
iteration 42 sol 91023.00
iteration 43 sol 90600.00
iteration 44 sol 92077.00
iteration 45 sol 93017.00
iteration 46 sol 92237.00
iteration 47 sol 92773.00
iteration 48 sol 92448.00
iteration 49 sol 91027.00
iteration 50 sol 92994.00
iteration 51 sol 90769.00
iteration 52 sol 91190.00
iteration 53 sol 93329.00
iteration 54 sol 92031.00
iteration 55 sol 90035.00
iteration 56 sol 92892.00
iteration 57 sol 92601.00
iteration 58 sol 91302.00
iteration 59 sol 91385.00
iteration 60 sol 91873.00
iteration 61 sol 92726.00
iteration 62 sol 91783.00
iteration 63 sol 92786.00
iteration 64 sol 94098.00
iteration 65 sol 92425.00
iteration 66 sol 91820.00
iteration 67 sol 91711.00
iteration 68 sol 91492.00
iteration 69 sol 93850.00
iteration 70 sol 91798.00
iteration 71 sol 90589.00
iteration 72 sol 90888.00
iteration 73 sol 92616.00
iteration 74 sol 92276.00
iteration 75 sol 91997.00
iteration 76 sol 92437.00
iteration 77 sol 92734.00
iteration 78 sol 92021.00
iteration 79 sol 92187.00
iteration 80 sol 92125.00
iteration 81 sol 92463.00
iteration 82 sol 91614.00
iteration 83 sol 92207.00
iteration 84 sol 91698.00
iteration 85 sol 94277.00
iteration 86 sol 91747.00
iteration 87 sol 92758.00
iteration 88 sol 91588.00
iteration 89 sol 92254.00
iteration 90 sol 91458.00
iteration 91 sol 92041.00
iteration 92 sol 91713.00
iteration 93 sol 91914.00
iteration 94 sol 91138.00
iteration 95 sol 93232.00
iteration 96 sol 93155.00
iteration 97 sol 92083.00
iteration 98 sol 92921.00
iteration 99 sol 90714.00
iteration 100 sol 90627.00
iteration 101 sol 91150.00
iteration 102 sol 92094.00
iteration 103 sol 91841.00
iteration 104 sol 93164.00
iteration 105 sol 91546.00
iteration 106 sol 92641.00
iteration 107 sol 92927.00
iteration 108 sol 93869.00
iteration 109 sol 91645.00
iteration 110 sol 90740.00
iteration 111 sol 92833.00
iteration 112 sol 91143.00
iteration 113 sol 92555.00
iteration 114 sol 92822.00
iteration 115 sol 92770.00
iteration 116 sol 91057.00
iteration 117 sol 92181.00
iteration 118 sol 91770.00
iteration 119 sol 92421.00
iteration 120 sol 92487.00
iteration 121 sol 91991.00
iteration 122 sol 91241.00
iteration 123 sol 93147.00
iteration 124 sol 91849.00
iteration 125 sol 92739.00
iteration 126 sol 91749.00
iteration 127 sol 91959.00
iteration 128 sol 93114.00
iteration 129 sol 91612.00
iteration 130 sol 91936.00
iteration 131 sol 92248.00
iteration 132 sol 90705.00
iteration 133 sol 90684.00
iteration 134 sol 92317.00
iteration 135 sol 91428.00
iteration 136 sol 91812.00
iteration 137 sol 91154.00
iteration 138 sol 90664.00
iteration 139 sol 92314.00
iteration 140 sol 92432.00
iteration 141 sol 92793.00
iteration 142 sol 92254.00
iteration 143 sol 90579.00
iteration 144 sol 93007.00
iteration 145 sol 91877.00
iteration 146 sol 92350.00
iteration 147 sol 92654.00
iteration 148 sol 91953.00
iteration 149 sol 93298.00
iteration 150 sol 91032.00
iteration 151 sol 91271.00
iteration 152 sol 93487.00
iteration 153 sol 91894.00
iteration 154 sol 91128.00
iteration 155 sol 92188.00
iteration 156 sol 90280.00
iteration 157 sol 92809.00
iteration 158 sol 92316.00
iteration 159 sol 91234.00
iteration 160 sol 91893.00
iteration 161 sol 92752.00
iteration 162 sol 93629.00
iteration 163 sol 90424.00
iteration 164 sol 90304.00
iteration 165 sol 92789.00
iteration 166 sol 91335.00
iteration 167 sol 92019.00
iteration 168 sol 91318.00
iteration 169 sol 92652.00
iteration 170 sol 92563.00
iteration 171 sol 90443.00
iteration 172 sol 92041.00
iteration 173 sol 91315.00
iteration 174 sol 90438.00
iteration 175 sol 92405.00
iteration 176 sol 93174.00
iteration 177 sol 93073.00
iteration 178 sol 91873.00
iteration 179 sol 93200.00
iteration 180 sol 92965.00
iteration 181 sol 93108.00
iteration 182 sol 93520.00
iteration 183 sol 93653.00
iteration 184 sol 91731.00
iteration 185 sol 91909.00
iteration 186 sol 92205.00
iteration 187 sol 93254.00
iteration 188 sol 90211.00
iteration 189 sol 91299.00
iteration 190 sol 93108.00
iteration 191 sol 94289.00
iteration 192 sol 91551.00
iteration 193 sol 90607.00
iteration 194 sol 92107.00
iteration 195 sol 94815.00
iteration 196 sol 89238.00
iteration 197 sol 92688.00
iteration 198 sol 92732.00
iteration 199 sol 91858.00
iteration 200 sol 91305.00
iteration 201 sol 91997.00
iteration 202 sol 91197.00
iteration 203 sol 90934.00
iteration 204 sol 92242.00
iteration 205 sol 91696.00
iteration 206 sol 92861.00
iteration 207 sol 93163.00
iteration 208 sol 91824.00
iteration 209 sol 92413.00
iteration 210 sol 90449.00
iteration 211 sol 93036.00
iteration 212 sol 91981.00
iteration 213 sol 92691.00
iteration 214 sol 91635.00
iteration 215 sol 91899.00
iteration 216 sol 93000.00
iteration 217 sol 90701.00
iteration 218 sol 91253.00
iteration 219 sol 92515.00
iteration 220 sol 90644.00
iteration 221 sol 90808.00
iteration 222 sol 94306.00
iteration 223 sol 94057.00
iteration 224 sol 91066.00
iteration 225 sol 94592.00
iteration 226 sol 93131.00
iteration 227 sol 93014.00
iteration 228 sol 94377.00
iteration 229 sol 91123.00
iteration 230 sol 92593.00
iteration 231 sol 91104.00
iteration 232 sol 90546.00
iteration 233 sol 92774.00
iteration 234 sol 89690.00
iteration 235 sol 92151.00
iteration 236 sol 90210.00
iteration 237 sol 91826.00
iteration 238 sol 91007.00
iteration 239 sol 92480.00
iteration 240 sol 93275.00
iteration 241 sol 91161.00
iteration 242 sol 92656.00
iteration 243 sol 92475.00
iteration 244 sol 92079.00
iteration 245 sol 91453.00
iteration 246 sol 91087.00
iteration 247 sol 91465.00
iteration 248 sol 93806.00
iteration 249 sol 92020.00
iteration 250 sol 93852.00
iteration 251 sol 93330.00
iteration 252 sol 92629.00
iteration 253 sol 89877.00
iteration 254 sol 92973.00
iteration 255 sol 90267.00
iteration 256 sol 90641.00
iteration 257 sol 91851.00
iteration 258 sol 91840.00
iteration 259 sol 91466.00
iteration 260 sol 92436.00
iteration 261 sol 90844.00
iteration 262 sol 91885.00
iteration 263 sol 92400.00
iteration 264 sol 91048.00
iteration 265 sol 91191.00
iteration 266 sol 90758.00
iteration 267 sol 92586.00
iteration 268 sol 92700.00
iteration 269 sol 91978.00
iteration 270 sol 91069.00
iteration 271 sol 91906.00
iteration 272 sol 92519.00
iteration 273 sol 93040.00
iteration 274 sol 90460.00
iteration 275 sol 92544.00
iteration 276 sol 92296.00
iteration 277 sol 91301.00
iteration 278 sol 91814.00
iteration 279 sol 93420.00
iteration 280 sol 92588.00
iteration 281 sol 92118.00
iteration 282 sol 91214.00
iteration 283 sol 92185.00
iteration 284 sol 92330.00
iteration 285 sol 93325.00
iteration 286 sol 92853.00
iteration 287 sol 92289.00
iteration 288 sol 91295.00
iteration 289 sol 92897.00
iteration 290 sol 91393.00
iteration 291 sol 92904.00
iteration 292 sol 91424.00
iteration 293 sol 90646.00
iteration 294 sol 91733.00
iteration 295 sol 90370.00
iteration 296 sol 92540.00
iteration 297 sol 90042.00
iteration 298 sol 91486.00
iteration 299 sol 91800.00
iteration 300 sol 93221.00
iteration 301 sol 94175.00
iteration 302 sol 92306.00
iteration 303 sol 92723.00
iteration 304 sol 93712.00
iteration 305 sol 90684.00
iteration 306 sol 91955.00
iteration 307 sol 91671.00
iteration 308 sol 90885.00
iteration 309 sol 91345.00
iteration 310 sol 91381.00
iteration 311 sol 93104.00
iteration 312 sol 91600.00
iteration 313 sol 93692.00
iteration 314 sol 91002.00
iteration 315 sol 93112.00
iteration 316 sol 92502.00
iteration 317 sol 91003.00
iteration 318 sol 92020.00
iteration 319 sol 92094.00
iteration 320 sol 92148.00
iteration 321 sol 92586.00
iteration 322 sol 92427.00
iteration 323 sol 92751.00
iteration 324 sol 92175.00
iteration 325 sol 91095.00
iteration 326 sol 91525.00
iteration 327 sol 91541.00
iteration 328 sol 93880.00
iteration 329 sol 92064.00
iteration 330 sol 93261.00
iteration 331 sol 90268.00
iteration 332 sol 92067.00
iteration 333 sol 92948.00
iteration 334 sol 92957.00
iteration 335 sol 90550.00
iteration 336 sol 91467.00
iteration 337 sol 91939.00
iteration 338 sol 90633.00
iteration 339 sol 90600.00
iteration 340 sol 91079.00
iteration 341 sol 92292.00
iteration 342 sol 93166.00
iteration 343 sol 91700.00
iteration 344 sol 92972.00
iteration 345 sol 92199.00
iteration 346 sol 91204.00
iteration 347 sol 91147.00
iteration 348 sol 92578.00
iteration 349 sol 92329.00
iteration 350 sol 89964.00
iteration 351 sol 91495.00
iteration 352 sol 92630.00
iteration 353 sol 90923.00
iteration 354 sol 92212.00
iteration 355 sol 92573.00
iteration 356 sol 91244.00
iteration 357 sol 90410.00
iteration 358 sol 91941.00
iteration 359 sol 91899.00
iteration 360 sol 90392.00
iteration 361 sol 91095.00
iteration 362 sol 92523.00
iteration 363 sol 92472.00
iteration 364 sol 92218.00
iteration 365 sol 92027.00
iteration 366 sol 92238.00
iteration 367 sol 93773.00
iteration 368 sol 90706.00
iteration 369 sol 93486.00
iteration 370 sol 92298.00
iteration 371 sol 93303.00
iteration 372 sol 91466.00
iteration 373 sol 93096.00
iteration 374 sol 91871.00
iteration 375 sol 91455.00
iteration 376 sol 91904.00
iteration 377 sol 92475.00
iteration 378 sol 92796.00
iteration 379 sol 90775.00
iteration 380 sol 91349.00
iteration 381 sol 92052.00
iteration 382 sol 91241.00
iteration 383 sol 91063.00
iteration 384 sol 93679.00
iteration 385 sol 92492.00
iteration 386 sol 91270.00
iteration 387 sol 92954.00
iteration 388 sol 93574.00
iteration 389 sol 91942.00
iteration 390 sol 91485.00
iteration 391 sol 92255.00
iteration 392 sol 92663.00
iteration 393 sol 91232.00
iteration 394 sol 92075.00
iteration 395 sol 91239.00
iteration 396 sol 92545.00
iteration 397 sol 94055.00
iteration 398 sol 90912.00
iteration 399 sol 93690.00
iteration 400 sol 92326.00
iteration 401 sol 91745.00
iteration 402 sol 90717.00
iteration 403 sol 92435.00
iteration 404 sol 93269.00
iteration 405 sol 93446.00
iteration 406 sol 92636.00
iteration 407 sol 92614.00
iteration 408 sol 90164.00
iteration 409 sol 91573.00
iteration 410 sol 93056.00
iteration 411 sol 91447.00
iteration 412 sol 92107.00
iteration 413 sol 92605.00
iteration 414 sol 91197.00
iteration 415 sol 94200.00
iteration 416 sol 92198.00
iteration 417 sol 92772.00
iteration 418 sol 91175.00
iteration 419 sol 92904.00
iteration 420 sol 91863.00
iteration 421 sol 92823.00
iteration 422 sol 91360.00
iteration 423 sol 91996.00
iteration 424 sol 92406.00
iteration 425 sol 91694.00
iteration 426 sol 92396.00
iteration 427 sol 91681.00
iteration 428 sol 92980.00
iteration 429 sol 91729.00
iteration 430 sol 90438.00
iteration 431 sol 90930.00
iteration 432 sol 92279.00
iteration 433 sol 92642.00
iteration 434 sol 92072.00
iteration 435 sol 91685.00
iteration 436 sol 91239.00
iteration 437 sol 91627.00
iteration 438 sol 92998.00
iteration 439 sol 91283.00
iteration 440 sol 93874.00
iteration 441 sol 92596.00
iteration 442 sol 91786.00
iteration 443 sol 93277.00
iteration 444 sol 90862.00
iteration 445 sol 90286.00
iteration 446 sol 92806.00
iteration 447 sol 92785.00
iteration 448 sol 93076.00
iteration 449 sol 91931.00
iteration 450 sol 91331.00
iteration 451 sol 92578.00
iteration 452 sol 92214.00
iteration 453 sol 90321.00
iteration 454 sol 92621.00
iteration 455 sol 91928.00
iteration 456 sol 91553.00
iteration 457 sol 92545.00
iteration 458 sol 92615.00
iteration 459 sol 92912.00
iteration 460 sol 92666.00
iteration 461 sol 92931.00
iteration 462 sol 91018.00
iteration 463 sol 91953.00
iteration 464 sol 91660.00
iteration 465 sol 90889.00
iteration 466 sol 90008.00
iteration 467 sol 91017.00
iteration 468 sol 93592.00
iteration 469 sol 92180.00
iteration 470 sol 93119.00
iteration 471 sol 92578.00
iteration 472 sol 92415.00
iteration 473 sol 90899.00
iteration 474 sol 92142.00
iteration 475 sol 91664.00
iteration 476 sol 91288.00
iteration 477 sol 90286.00
iteration 478 sol 90794.00
iteration 479 sol 91579.00
iteration 480 sol 91156.00
iteration 481 sol 91985.00
iteration 482 sol 93067.00
iteration 483 sol 92667.00
iteration 484 sol 91147.00
iteration 485 sol 92316.00
iteration 486 sol 92938.00
iteration 487 sol 90245.00
iteration 488 sol 92122.00
iteration 489 sol 91659.00
iteration 490 sol 91203.00
iteration 491 sol 91264.00
iteration 492 sol 92982.00
iteration 493 sol 91455.00
iteration 494 sol 91935.00
iteration 495 sol 92014.00
iteration 496 sol 93185.00
iteration 497 sol 92926.00
iteration 498 sol 92543.00
iteration 499 sol 92378.00
iteration 500 sol 89751.00
iteration 501 sol 92881.00
iteration 502 sol 92751.00
iteration 503 sol 92720.00
iteration 504 sol 90701.00
iteration 505 sol 91073.00
iteration 506 sol 92169.00
iteration 507 sol 91354.00
iteration 508 sol 92264.00
iteration 509 sol 91548.00
iteration 510 sol 90843.00
iteration 511 sol 91281.00
iteration 512 sol 93309.00
iteration 513 sol 91663.00
iteration 514 sol 90101.00
iteration 515 sol 91501.00
iteration 516 sol 93885.00
iteration 517 sol 92116.00
iteration 518 sol 91874.00
iteration 519 sol 92102.00
iteration 520 sol 91578.00
iteration 521 sol 93216.00
iteration 522 sol 90203.00
iteration 523 sol 91602.00
iteration 524 sol 90209.00
iteration 525 sol 91662.00
iteration 526 sol 92770.00
iteration 527 sol 93438.00
iteration 528 sol 90524.00
iteration 529 sol 92005.00
iteration 530 sol 93003.00
iteration 531 sol 91568.00
iteration 532 sol 91651.00
iteration 533 sol 93056.00
iteration 534 sol 94332.00
iteration 535 sol 91667.00
iteration 536 sol 92690.00
iteration 537 sol 92339.00
iteration 538 sol 93416.00
iteration 539 sol 90512.00
iteration 540 sol 91183.00
iteration 541 sol 93126.00
iteration 542 sol 90429.00
iteration 543 sol 89929.00
iteration 544 sol 90101.00
iteration 545 sol 91807.00
iteration 546 sol 90752.00
iteration 547 sol 91522.00
iteration 548 sol 92824.00
iteration 549 sol 93055.00
iteration 550 sol 91599.00
iteration 551 sol 92010.00
iteration 552 sol 91499.00
iteration 553 sol 90127.00
iteration 554 sol 92650.00
iteration 555 sol 90119.00
iteration 556 sol 91663.00
iteration 557 sol 91677.00
iteration 558 sol 90338.00
iteration 559 sol 92570.00
iteration 560 sol 93652.00
iteration 561 sol 92650.00
iteration 562 sol 90000.00
iteration 563 sol 92611.00
iteration 564 sol 90548.00
iteration 565 sol 92122.00
iteration 566 sol 91664.00
iteration 567 sol 91257.00
iteration 568 sol 91084.00
iteration 569 sol 91586.00
iteration 570 sol 93064.00
iteration 571 sol 91615.00
iteration 572 sol 93260.00
iteration 573 sol 92376.00
iteration 574 sol 90425.00
iteration 575 sol 91574.00
iteration 576 sol 92196.00
iteration 577 sol 92351.00
iteration 578 sol 92722.00
iteration 579 sol 91906.00
iteration 580 sol 90286.00
iteration 581 sol 93721.00
iteration 582 sol 92521.00
iteration 583 sol 92511.00
iteration 584 sol 91157.00
iteration 585 sol 92910.00
iteration 586 sol 92642.00
iteration 587 sol 92213.00
iteration 588 sol 93849.00
iteration 589 sol 93981.00
iteration 590 sol 92420.00
iteration 591 sol 92093.00
iteration 592 sol 93320.00
iteration 593 sol 90065.00
iteration 594 sol 91090.00
iteration 595 sol 91461.00
iteration 596 sol 91359.00
iteration 597 sol 92003.00
iteration 598 sol 93026.00
iteration 599 sol 92368.00
iteration 600 sol 91563.00
iteration 601 sol 93032.00
iteration 602 sol 90671.00
iteration 603 sol 92458.00
iteration 604 sol 91509.00
iteration 605 sol 92621.00
iteration 606 sol 91405.00
iteration 607 sol 91678.00
iteration 608 sol 92289.00
iteration 609 sol 90871.00
iteration 610 sol 92796.00
iteration 611 sol 91749.00
iteration 612 sol 92448.00
iteration 613 sol 93219.00
iteration 614 sol 93570.00
iteration 615 sol 92180.00
iteration 616 sol 90985.00
iteration 617 sol 89767.00
iteration 618 sol 92932.00
iteration 619 sol 91589.00
iteration 620 sol 91947.00
iteration 621 sol 93359.00
iteration 622 sol 92305.00
iteration 623 sol 93246.00
iteration 624 sol 92802.00
iteration 625 sol 91341.00
iteration 626 sol 89916.00
iteration 627 sol 91376.00
iteration 628 sol 92998.00
iteration 629 sol 91542.00
iteration 630 sol 92068.00
iteration 631 sol 90978.00
iteration 632 sol 92355.00
iteration 633 sol 92536.00
iteration 634 sol 90484.00
iteration 635 sol 92135.00
iteration 636 sol 90997.00
iteration 637 sol 91012.00
iteration 638 sol 91212.00
iteration 639 sol 92395.00
iteration 640 sol 91085.00
iteration 641 sol 91457.00
iteration 642 sol 93440.00
iteration 643 sol 91509.00
iteration 644 sol 92592.00
iteration 645 sol 92429.00
iteration 646 sol 91400.00
iteration 647 sol 91738.00
iteration 648 sol 93281.00
iteration 649 sol 92512.00
iteration 650 sol 93718.00
iteration 651 sol 90731.00
iteration 652 sol 92067.00
iteration 653 sol 91878.00
iteration 654 sol 92039.00
iteration 655 sol 91844.00
iteration 656 sol 93300.00
iteration 657 sol 93030.00
iteration 658 sol 91291.00
iteration 659 sol 92843.00
iteration 660 sol 91604.00
iteration 661 sol 90468.00
iteration 662 sol 92052.00
iteration 663 sol 92161.00
iteration 664 sol 91105.00
iteration 665 sol 92082.00
iteration 666 sol 92430.00
iteration 667 sol 90297.00
iteration 668 sol 91800.00
iteration 669 sol 92540.00
iteration 670 sol 90292.00
iteration 671 sol 91348.00
iteration 672 sol 93049.00
iteration 673 sol 90490.00
iteration 674 sol 90570.00
iteration 675 sol 93944.00
iteration 676 sol 91315.00
iteration 677 sol 91048.00
iteration 678 sol 91602.00
iteration 679 sol 92920.00
iteration 680 sol 91079.00
iteration 681 sol 92447.00
iteration 682 sol 90857.00
iteration 683 sol 92154.00
iteration 684 sol 91117.00
iteration 685 sol 90068.00
iteration 686 sol 92560.00
iteration 687 sol 90498.00
iteration 688 sol 92302.00
iteration 689 sol 93174.00
iteration 690 sol 91752.00
iteration 691 sol 92219.00
iteration 692 sol 90641.00
iteration 693 sol 90147.00
iteration 694 sol 91252.00
iteration 695 sol 92054.00
iteration 696 sol 93106.00
iteration 697 sol 93718.00
iteration 698 sol 92671.00
iteration 699 sol 92009.00
iteration 700 sol 91475.00
iteration 701 sol 92114.00
iteration 702 sol 92562.00
iteration 703 sol 90559.00
iteration 704 sol 92534.00
iteration 705 sol 91905.00
iteration 706 sol 91476.00
iteration 707 sol 92033.00
iteration 708 sol 91751.00
iteration 709 sol 91979.00
iteration 710 sol 90168.00
iteration 711 sol 89703.00
iteration 712 sol 93001.00
iteration 713 sol 93104.00
iteration 714 sol 91506.00
iteration 715 sol 92461.00
iteration 716 sol 91659.00
iteration 717 sol 91894.00
iteration 718 sol 93118.00
iteration 719 sol 91898.00
iteration 720 sol 91423.00
iteration 721 sol 90532.00
iteration 722 sol 93210.00
iteration 723 sol 92411.00
iteration 724 sol 92159.00
iteration 725 sol 91228.00
iteration 726 sol 92578.00
iteration 727 sol 91694.00
iteration 728 sol 92141.00
iteration 729 sol 91993.00
iteration 730 sol 91392.00
iteration 731 sol 92659.00
iteration 732 sol 91416.00
iteration 733 sol 92288.00
iteration 734 sol 90881.00
iteration 735 sol 91792.00
iteration 736 sol 93588.00
iteration 737 sol 91841.00
iteration 738 sol 91651.00
iteration 739 sol 90722.00
iteration 740 sol 92834.00
iteration 741 sol 91358.00
iteration 742 sol 91517.00
iteration 743 sol 91786.00
iteration 744 sol 90414.00
iteration 745 sol 93683.00
iteration 746 sol 91178.00
iteration 747 sol 92779.00
iteration 748 sol 91864.00
iteration 749 sol 91733.00
iteration 750 sol 92731.00
iteration 751 sol 92445.00
iteration 752 sol 92211.00
iteration 753 sol 92820.00
iteration 754 sol 91564.00
iteration 755 sol 92772.00
iteration 756 sol 92351.00
iteration 757 sol 91981.00
iteration 758 sol 92434.00
iteration 759 sol 90934.00
iteration 760 sol 91518.00
iteration 761 sol 93231.00
iteration 762 sol 94079.00
iteration 763 sol 91094.00
iteration 764 sol 91163.00
iteration 765 sol 91841.00
iteration 766 sol 92280.00
iteration 767 sol 92150.00
iteration 768 sol 92235.00
iteration 769 sol 92203.00
iteration 770 sol 91725.00
iteration 771 sol 91413.00
iteration 772 sol 90612.00
iteration 773 sol 93912.00
iteration 774 sol 92322.00
iteration 775 sol 92473.00
iteration 776 sol 93185.00
iteration 777 sol 92066.00
iteration 778 sol 92440.00
iteration 779 sol 92386.00
iteration 780 sol 91550.00
iteration 781 sol 92546.00
iteration 782 sol 93011.00
iteration 783 sol 93181.00
iteration 784 sol 92137.00
iteration 785 sol 90954.00
iteration 786 sol 91396.00
iteration 787 sol 90314.00
iteration 788 sol 90731.00
iteration 789 sol 92261.00
iteration 790 sol 92378.00
iteration 791 sol 90375.00
iteration 792 sol 94686.00
iteration 793 sol 92711.00
iteration 794 sol 92005.00
iteration 795 sol 91378.00
iteration 796 sol 92578.00
iteration 797 sol 92070.00
iteration 798 sol 91590.00
iteration 799 sol 93028.00
iteration 800 sol 91602.00
iteration 801 sol 92113.00
iteration 802 sol 91196.00
iteration 803 sol 91751.00
iteration 804 sol 92933.00
iteration 805 sol 91718.00
iteration 806 sol 92063.00
iteration 807 sol 91482.00
iteration 808 sol 92832.00
iteration 809 sol 91947.00
iteration 810 sol 92965.00
iteration 811 sol 91441.00
iteration 812 sol 92813.00
iteration 813 sol 90304.00
iteration 814 sol 93623.00
iteration 815 sol 91388.00
iteration 816 sol 92414.00
iteration 817 sol 89673.00
iteration 818 sol 92780.00
iteration 819 sol 91994.00
iteration 820 sol 93127.00
iteration 821 sol 91293.00
iteration 822 sol 91312.00
iteration 823 sol 91681.00
iteration 824 sol 92413.00
iteration 825 sol 90918.00
iteration 826 sol 93362.00
iteration 827 sol 90321.00
iteration 828 sol 91626.00
iteration 829 sol 91128.00
iteration 830 sol 91757.00
iteration 831 sol 90868.00
iteration 832 sol 91435.00
iteration 833 sol 92134.00
iteration 834 sol 92567.00
iteration 835 sol 91847.00
iteration 836 sol 91041.00
iteration 837 sol 92553.00
iteration 838 sol 91761.00
iteration 839 sol 90906.00
iteration 840 sol 92580.00
iteration 841 sol 92016.00
iteration 842 sol 91317.00
iteration 843 sol 91553.00
iteration 844 sol 92422.00
iteration 845 sol 91874.00
iteration 846 sol 91746.00
iteration 847 sol 92460.00
iteration 848 sol 91382.00
iteration 849 sol 90499.00
iteration 850 sol 91093.00
iteration 851 sol 91793.00
iteration 852 sol 90117.00
iteration 853 sol 91559.00
iteration 854 sol 90703.00
iteration 855 sol 91458.00
iteration 856 sol 92836.00
iteration 857 sol 92988.00
iteration 858 sol 92982.00
iteration 859 sol 92702.00
iteration 860 sol 90964.00
iteration 861 sol 92835.00
iteration 862 sol 93848.00
iteration 863 sol 92930.00
iteration 864 sol 91267.00
iteration 865 sol 93070.00
iteration 866 sol 92713.00
iteration 867 sol 93253.00
iteration 868 sol 92743.00
iteration 869 sol 92582.00
iteration 870 sol 93466.00
iteration 871 sol 92787.00
iteration 872 sol 91626.00
iteration 873 sol 91645.00
iteration 874 sol 93110.00
iteration 875 sol 92043.00
iteration 876 sol 91109.00
iteration 877 sol 92718.00
iteration 878 sol 91184.00
iteration 879 sol 92063.00
iteration 880 sol 91649.00
iteration 881 sol 92459.00
iteration 882 sol 91902.00
iteration 883 sol 92943.00
iteration 884 sol 92283.00
iteration 885 sol 91519.00
iteration 886 sol 92820.00
iteration 887 sol 91717.00
iteration 888 sol 91783.00
iteration 889 sol 93699.00
iteration 890 sol 92351.00
iteration 891 sol 90606.00
iteration 892 sol 93176.00
iteration 893 sol 90963.00
iteration 894 sol 93478.00
iteration 895 sol 92602.00
iteration 896 sol 92960.00
iteration 897 sol 92600.00
iteration 898 sol 91807.00
iteration 899 sol 91736.00
iteration 900 sol 91494.00
iteration 901 sol 93219.00
iteration 902 sol 91876.00
iteration 903 sol 92015.00
iteration 904 sol 92599.00
iteration 905 sol 90783.00
iteration 906 sol 92843.00
iteration 907 sol 91558.00
iteration 908 sol 92774.00
iteration 909 sol 93272.00
iteration 910 sol 90928.00
iteration 911 sol 92127.00
iteration 912 sol 92893.00
iteration 913 sol 91450.00
iteration 914 sol 91923.00
iteration 915 sol 93162.00
iteration 916 sol 92613.00
iteration 917 sol 91607.00
iteration 918 sol 92430.00
iteration 919 sol 90518.00
iteration 920 sol 92227.00
iteration 921 sol 90724.00
iteration 922 sol 91692.00
iteration 923 sol 91267.00
iteration 924 sol 91208.00
iteration 925 sol 91244.00
iteration 926 sol 92444.00
iteration 927 sol 89146.00
iteration 928 sol 90691.00
iteration 929 sol 90042.00
iteration 930 sol 91076.00
iteration 931 sol 91250.00
iteration 932 sol 92025.00
iteration 933 sol 91164.00
iteration 934 sol 93753.00
iteration 935 sol 92121.00
iteration 936 sol 92264.00
iteration 937 sol 90198.00
iteration 938 sol 91245.00
iteration 939 sol 91833.00
iteration 940 sol 90964.00
iteration 941 sol 92255.00
iteration 942 sol 92005.00
iteration 943 sol 90833.00
iteration 944 sol 92434.00
iteration 945 sol 93733.00
iteration 946 sol 91978.00
iteration 947 sol 91871.00
iteration 948 sol 91343.00
iteration 949 sol 90604.00
iteration 950 sol 91767.00
iteration 951 sol 89889.00
iteration 952 sol 90222.00
iteration 953 sol 92439.00
iteration 954 sol 91617.00
iteration 955 sol 92819.00
iteration 956 sol 91956.00
iteration 957 sol 90898.00
iteration 958 sol 92847.00
iteration 959 sol 92560.00
iteration 960 sol 91662.00
iteration 961 sol 92029.00
iteration 962 sol 91884.00
iteration 963 sol 92622.00
iteration 964 sol 90716.00
iteration 965 sol 92508.00
iteration 966 sol 93603.00
iteration 967 sol 92678.00
iteration 968 sol 91339.00
iteration 969 sol 91068.00
iteration 970 sol 91814.00
iteration 971 sol 91405.00
iteration 972 sol 91591.00
iteration 973 sol 91253.00
iteration 974 sol 90591.00
iteration 975 sol 93534.00
iteration 976 sol 93465.00
iteration 977 sol 92067.00
iteration 978 sol 92515.00
iteration 979 sol 92819.00
iteration 980 sol 92348.00
iteration 981 sol 92306.00
iteration 982 sol 93124.00
iteration 983 sol 92936.00
iteration 984 sol 92717.00
Number of iterations = 985
Best Solution was found in iteration = 195
Time used by neighbor | Times each neighbor was used | Improvements
N_1 = 1.64 | 1970 | 0
N_2 = 8.15 | 1970 | 0
N_3 = 26.16 | 1970 | 0
N_4 = 211.08 | 1970 | 0
Time to find the best solution = 114.11
Solution = 94815.00
Time = 600.09
