iteration 0 sol 10703473.00
iteration 1 sol 10702265.00
iteration 2 sol 10703019.00
iteration 3 sol 10701865.00
iteration 4 sol 10702794.00
iteration 5 sol 10702237.00
iteration 6 sol 10702780.00
iteration 7 sol 10701582.00
iteration 8 sol 10702119.00
iteration 9 sol 10703164.00
iteration 10 sol 10701911.00
iteration 11 sol 10702642.00
iteration 12 sol 10703000.00
iteration 13 sol 10702828.00
iteration 14 sol 10702782.00
iteration 15 sol 10701286.00
iteration 16 sol 10702687.00
iteration 17 sol 10702317.00
iteration 18 sol 10702590.00
iteration 19 sol 10702263.00
iteration 20 sol 10702414.00
iteration 21 sol 10702710.00
iteration 22 sol 10703050.00
iteration 23 sol 10703792.00
iteration 24 sol 10702581.00
iteration 25 sol 10702689.00
iteration 26 sol 10703512.00
iteration 27 sol 10703370.00
iteration 28 sol 10703188.00
iteration 29 sol 10703094.00
iteration 30 sol 10702803.00
iteration 31 sol 10702107.00
iteration 32 sol 10703470.00
iteration 33 sol 10701810.00
iteration 34 sol 10702712.00
iteration 35 sol 10703173.00
iteration 36 sol 10702368.00
iteration 37 sol 10703324.00
iteration 38 sol 10701545.00
iteration 39 sol 10702997.00
iteration 40 sol 10702585.00
iteration 41 sol 10702473.00
iteration 42 sol 10702106.00
iteration 43 sol 10701532.00
iteration 44 sol 10701167.00
iteration 45 sol 10702446.00
iteration 46 sol 10702233.00
iteration 47 sol 10702115.00
iteration 48 sol 10702291.00
iteration 49 sol 10703010.00
iteration 50 sol 10702846.00
iteration 51 sol 10702522.00
iteration 52 sol 10702575.00
iteration 53 sol 10702592.00
iteration 54 sol 10701817.00
iteration 55 sol 10703168.00
iteration 56 sol 10702384.00
iteration 57 sol 10702296.00
iteration 58 sol 10701475.00
iteration 59 sol 10703669.00
iteration 60 sol 10701824.00
iteration 61 sol 10702666.00
iteration 62 sol 10702162.00
iteration 63 sol 10703214.00
iteration 64 sol 10702608.00
iteration 65 sol 10702366.00
iteration 66 sol 10702565.00
iteration 67 sol 10703032.00
iteration 68 sol 10701793.00
iteration 69 sol 10702908.00
iteration 70 sol 10703306.00
iteration 71 sol 10702598.00
iteration 72 sol 10703877.00
iteration 73 sol 10702774.00
iteration 74 sol 10703808.00
iteration 75 sol 10703685.00
iteration 76 sol 10703253.00
iteration 77 sol 10702142.00
iteration 78 sol 10702533.00
iteration 79 sol 10701611.00
iteration 80 sol 10702821.00
iteration 81 sol 10703035.00
iteration 82 sol 10702975.00
iteration 83 sol 10702647.00
iteration 84 sol 10702846.00
iteration 85 sol 10703308.00
iteration 86 sol 10703018.00
iteration 87 sol 10702518.00
iteration 88 sol 10702912.00
iteration 89 sol 10701915.00
iteration 90 sol 10702517.00
iteration 91 sol 10702707.00
iteration 92 sol 10702414.00
iteration 93 sol 10702750.00
iteration 94 sol 10702982.00
iteration 95 sol 10703479.00
iteration 96 sol 10702778.00
iteration 97 sol 10702403.00
iteration 98 sol 10702253.00
iteration 99 sol 10702706.00
iteration 100 sol 10701999.00
iteration 101 sol 10702420.00
iteration 102 sol 10702298.00
iteration 103 sol 10702980.00
iteration 104 sol 10703247.00
iteration 105 sol 10702503.00
iteration 106 sol 10703876.00
iteration 107 sol 10702227.00
iteration 108 sol 10702263.00
iteration 109 sol 10702596.00
iteration 110 sol 10701609.00
iteration 111 sol 10703140.00
iteration 112 sol 10702714.00
iteration 113 sol 10702333.00
iteration 114 sol 10703409.00
iteration 115 sol 10702073.00
iteration 116 sol 10703238.00
iteration 117 sol 10701459.00
iteration 118 sol 10702794.00
iteration 119 sol 10702753.00
iteration 120 sol 10702855.00
iteration 121 sol 10702818.00
iteration 122 sol 10701672.00
iteration 123 sol 10702803.00
iteration 124 sol 10702351.00
iteration 125 sol 10702596.00
iteration 126 sol 10702989.00
iteration 127 sol 10703144.00
iteration 128 sol 10703754.00
iteration 129 sol 10703074.00
iteration 130 sol 10703469.00
iteration 131 sol 10702902.00
iteration 132 sol 10702084.00
iteration 133 sol 10703063.00
iteration 134 sol 10701875.00
iteration 135 sol 10703472.00
iteration 136 sol 10702596.00
iteration 137 sol 10701042.00
iteration 138 sol 10702737.00
iteration 139 sol 10702333.00
iteration 140 sol 10701850.00
iteration 141 sol 10702038.00
iteration 142 sol 10701812.00
iteration 143 sol 10702908.00
iteration 144 sol 10702598.00
iteration 145 sol 10702575.00
iteration 146 sol 10702154.00
iteration 147 sol 10703109.00
iteration 148 sol 10702662.00
iteration 149 sol 10702617.00
iteration 150 sol 10703691.00
iteration 151 sol 10702286.00
iteration 152 sol 10703041.00
iteration 153 sol 10701381.00
iteration 154 sol 10702988.00
iteration 155 sol 10702770.00
iteration 156 sol 10702447.00
iteration 157 sol 10702006.00
iteration 158 sol 10702643.00
iteration 159 sol 10702835.00
iteration 160 sol 10703182.00
iteration 161 sol 10702936.00
iteration 162 sol 10703179.00
iteration 163 sol 10703124.00
iteration 164 sol 10701760.00
iteration 165 sol 10702789.00
iteration 166 sol 10702568.00
iteration 167 sol 10702277.00
iteration 168 sol 10701585.00
iteration 169 sol 10702228.00
iteration 170 sol 10703677.00
iteration 171 sol 10702192.00
iteration 172 sol 10702515.00
iteration 173 sol 10701910.00
iteration 174 sol 10703061.00
iteration 175 sol 10702969.00
iteration 176 sol 10703067.00
iteration 177 sol 10703241.00
iteration 178 sol 10703640.00
iteration 179 sol 10702662.00
iteration 180 sol 10702272.00
iteration 181 sol 10702674.00
iteration 182 sol 10702520.00
iteration 183 sol 10702574.00
iteration 184 sol 10701741.00
iteration 185 sol 10702418.00
iteration 186 sol 10702016.00
iteration 187 sol 10702820.00
iteration 188 sol 10703171.00
iteration 189 sol 10702349.00
iteration 190 sol 10701954.00
iteration 191 sol 10702123.00
iteration 192 sol 10703375.00
iteration 193 sol 10703322.00
iteration 194 sol 10703317.00
iteration 195 sol 10702817.00
iteration 196 sol 10703238.00
iteration 197 sol 10702874.00
iteration 198 sol 10702021.00
iteration 199 sol 10703674.00
iteration 200 sol 10702193.00
iteration 201 sol 10703190.00
iteration 202 sol 10702375.00
iteration 203 sol 10702924.00
iteration 204 sol 10703385.00
iteration 205 sol 10703106.00
iteration 206 sol 10702866.00
iteration 207 sol 10701359.00
iteration 208 sol 10701977.00
iteration 209 sol 10702117.00
iteration 210 sol 10703446.00
iteration 211 sol 10702575.00
iteration 212 sol 10702688.00
iteration 213 sol 10703247.00
iteration 214 sol 10703050.00
iteration 215 sol 10702907.00
iteration 216 sol 10702479.00
iteration 217 sol 10702875.00
iteration 218 sol 10703237.00
iteration 219 sol 10702163.00
iteration 220 sol 10702301.00
iteration 221 sol 10702674.00
iteration 222 sol 10702510.00
iteration 223 sol 10703152.00
iteration 224 sol 10702207.00
iteration 225 sol 10704029.00
iteration 226 sol 10701962.00
iteration 227 sol 10703022.00
iteration 228 sol 10703184.00
iteration 229 sol 10703834.00
iteration 230 sol 10702296.00
iteration 231 sol 10702825.00
iteration 232 sol 10703126.00
iteration 233 sol 10702625.00
iteration 234 sol 10702568.00
iteration 235 sol 10702438.00
iteration 236 sol 10702488.00
iteration 237 sol 10703025.00
iteration 238 sol 10703248.00
iteration 239 sol 10703068.00
iteration 240 sol 10701863.00
iteration 241 sol 10702478.00
iteration 242 sol 10702034.00
iteration 243 sol 10703169.00
iteration 244 sol 10703378.00
iteration 245 sol 10702926.00
iteration 246 sol 10703709.00
iteration 247 sol 10701509.00
iteration 248 sol 10702800.00
iteration 249 sol 10702202.00
iteration 250 sol 10702916.00
iteration 251 sol 10703673.00
iteration 252 sol 10703663.00
iteration 253 sol 10703646.00
iteration 254 sol 10703097.00
iteration 255 sol 10702990.00
iteration 256 sol 10702756.00
iteration 257 sol 10702944.00
iteration 258 sol 10702188.00
iteration 259 sol 10701790.00
iteration 260 sol 10703182.00
iteration 261 sol 10702220.00
iteration 262 sol 10702530.00
iteration 263 sol 10703523.00
iteration 264 sol 10702324.00
iteration 265 sol 10702564.00
iteration 266 sol 10702086.00
iteration 267 sol 10702235.00
iteration 268 sol 10701413.00
iteration 269 sol 10703280.00
iteration 270 sol 10702774.00
iteration 271 sol 10702626.00
iteration 272 sol 10703267.00
iteration 273 sol 10702309.00
iteration 274 sol 10702767.00
iteration 275 sol 10702379.00
iteration 276 sol 10702742.00
iteration 277 sol 10703124.00
iteration 278 sol 10702568.00
iteration 279 sol 10701621.00
iteration 280 sol 10702127.00
iteration 281 sol 10703200.00
iteration 282 sol 10703235.00
iteration 283 sol 10701917.00
iteration 284 sol 10702294.00
iteration 285 sol 10702253.00
iteration 286 sol 10702396.00
iteration 287 sol 10702011.00
iteration 288 sol 10702103.00
iteration 289 sol 10703031.00
iteration 290 sol 10702633.00
iteration 291 sol 10702409.00
iteration 292 sol 10702637.00
iteration 293 sol 10703222.00
iteration 294 sol 10702398.00
iteration 295 sol 10704071.00
iteration 296 sol 10702822.00
iteration 297 sol 10703589.00
iteration 298 sol 10702453.00
iteration 299 sol 10702989.00
iteration 300 sol 10702157.00
iteration 301 sol 10702347.00
iteration 302 sol 10702174.00
iteration 303 sol 10702557.00
iteration 304 sol 10703641.00
iteration 305 sol 10702049.00
iteration 306 sol 10703187.00
iteration 307 sol 10702501.00
iteration 308 sol 10703598.00
iteration 309 sol 10702265.00
iteration 310 sol 10702072.00
iteration 311 sol 10702204.00
iteration 312 sol 10702081.00
iteration 313 sol 10702617.00
iteration 314 sol 10701512.00
iteration 315 sol 10703175.00
iteration 316 sol 10703033.00
iteration 317 sol 10702338.00
iteration 318 sol 10702975.00
iteration 319 sol 10702186.00
iteration 320 sol 10702240.00
iteration 321 sol 10703230.00
iteration 322 sol 10703026.00
iteration 323 sol 10703052.00
iteration 324 sol 10702469.00
iteration 325 sol 10702371.00
iteration 326 sol 10702762.00
iteration 327 sol 10702250.00
iteration 328 sol 10702086.00
iteration 329 sol 10703574.00
iteration 330 sol 10702908.00
iteration 331 sol 10703450.00
iteration 332 sol 10701615.00
iteration 333 sol 10702972.00
iteration 334 sol 10703029.00
iteration 335 sol 10703008.00
iteration 336 sol 10703134.00
iteration 337 sol 10702578.00
iteration 338 sol 10703343.00
iteration 339 sol 10703392.00
iteration 340 sol 10702495.00
iteration 341 sol 10703347.00
iteration 342 sol 10702644.00
iteration 343 sol 10703391.00
iteration 344 sol 10701847.00
iteration 345 sol 10701836.00
iteration 346 sol 10703190.00
iteration 347 sol 10703446.00
iteration 348 sol 10703634.00
iteration 349 sol 10702919.00
iteration 350 sol 10703055.00
iteration 351 sol 10702303.00
iteration 352 sol 10703050.00
iteration 353 sol 10702421.00
iteration 354 sol 10702458.00
iteration 355 sol 10702746.00
iteration 356 sol 10703503.00
iteration 357 sol 10703674.00
iteration 358 sol 10702619.00
iteration 359 sol 10703477.00
iteration 360 sol 10701777.00
iteration 361 sol 10702189.00
iteration 362 sol 10703667.00
iteration 363 sol 10703670.00
iteration 364 sol 10702756.00
iteration 365 sol 10702910.00
iteration 366 sol 10703349.00
iteration 367 sol 10703001.00
iteration 368 sol 10702646.00
iteration 369 sol 10703339.00
iteration 370 sol 10702047.00
iteration 371 sol 10702935.00
iteration 372 sol 10702192.00
iteration 373 sol 10701404.00
iteration 374 sol 10702738.00
iteration 375 sol 10701489.00
iteration 376 sol 10702719.00
iteration 377 sol 10702709.00
iteration 378 sol 10702727.00
iteration 379 sol 10703059.00
iteration 380 sol 10703399.00
iteration 381 sol 10703267.00
iteration 382 sol 10702441.00
iteration 383 sol 10702916.00
iteration 384 sol 10703730.00
iteration 385 sol 10701677.00
iteration 386 sol 10703338.00
iteration 387 sol 10703145.00
iteration 388 sol 10702058.00
iteration 389 sol 10702995.00
iteration 390 sol 10702806.00
iteration 391 sol 10702111.00
iteration 392 sol 10702780.00
iteration 393 sol 10702296.00
iteration 394 sol 10702614.00
iteration 395 sol 10702006.00
iteration 396 sol 10702625.00
iteration 397 sol 10703442.00
iteration 398 sol 10703379.00
iteration 399 sol 10702807.00
iteration 400 sol 10703071.00
iteration 401 sol 10702992.00
iteration 402 sol 10702783.00
iteration 403 sol 10702814.00
iteration 404 sol 10702377.00
iteration 405 sol 10702842.00
iteration 406 sol 10702225.00
iteration 407 sol 10701319.00
iteration 408 sol 10702817.00
iteration 409 sol 10703744.00
iteration 410 sol 10702821.00
iteration 411 sol 10702128.00
iteration 412 sol 10703706.00
iteration 413 sol 10703251.00
iteration 414 sol 10703253.00
iteration 415 sol 10702854.00
iteration 416 sol 10702814.00
iteration 417 sol 10702407.00
iteration 418 sol 10702194.00
iteration 419 sol 10702145.00
iteration 420 sol 10702430.00
iteration 421 sol 10703027.00
iteration 422 sol 10702864.00
iteration 423 sol 10703037.00
iteration 424 sol 10702610.00
iteration 425 sol 10702764.00
iteration 426 sol 10702864.00
iteration 427 sol 10702056.00
iteration 428 sol 10702129.00
iteration 429 sol 10702507.00
iteration 430 sol 10702199.00
iteration 431 sol 10703704.00
iteration 432 sol 10701999.00
iteration 433 sol 10703122.00
iteration 434 sol 10702481.00
iteration 435 sol 10703142.00
iteration 436 sol 10703570.00
iteration 437 sol 10703354.00
iteration 438 sol 10702856.00
iteration 439 sol 10702461.00
iteration 440 sol 10702203.00
iteration 441 sol 10703468.00
iteration 442 sol 10703190.00
iteration 443 sol 10702332.00
iteration 444 sol 10702760.00
iteration 445 sol 10703216.00
iteration 446 sol 10702526.00
iteration 447 sol 10702895.00
iteration 448 sol 10702189.00
iteration 449 sol 10703218.00
iteration 450 sol 10702488.00
iteration 451 sol 10703054.00
iteration 452 sol 10703317.00
iteration 453 sol 10702516.00
iteration 454 sol 10703160.00
iteration 455 sol 10703066.00
iteration 456 sol 10702998.00
iteration 457 sol 10703255.00
iteration 458 sol 10702693.00
iteration 459 sol 10702557.00
iteration 460 sol 10701649.00
iteration 461 sol 10702704.00
iteration 462 sol 10703079.00
iteration 463 sol 10703670.00
iteration 464 sol 10702958.00
iteration 465 sol 10702276.00
iteration 466 sol 10702708.00
iteration 467 sol 10702651.00
iteration 468 sol 10701752.00
iteration 469 sol 10702492.00
iteration 470 sol 10703587.00
iteration 471 sol 10703122.00
iteration 472 sol 10702680.00
iteration 473 sol 10702479.00
iteration 474 sol 10701495.00
iteration 475 sol 10702200.00
iteration 476 sol 10703274.00
iteration 477 sol 10704279.00
iteration 478 sol 10702911.00
iteration 479 sol 10702547.00
iteration 480 sol 10702279.00
iteration 481 sol 10702929.00
iteration 482 sol 10702393.00
iteration 483 sol 10703030.00
iteration 484 sol 10702472.00
iteration 485 sol 10703064.00
iteration 486 sol 10702623.00
iteration 487 sol 10703325.00
iteration 488 sol 10702004.00
iteration 489 sol 10702656.00
iteration 490 sol 10702396.00
iteration 491 sol 10703742.00
iteration 492 sol 10702747.00
iteration 493 sol 10702047.00
iteration 494 sol 10703024.00
iteration 495 sol 10703663.00
iteration 496 sol 10702510.00
iteration 497 sol 10702013.00
iteration 498 sol 10703485.00
iteration 499 sol 10701555.00
iteration 500 sol 10702759.00
iteration 501 sol 10703165.00
iteration 502 sol 10701932.00
iteration 503 sol 10702272.00
iteration 504 sol 10703465.00
iteration 505 sol 10703135.00
iteration 506 sol 10702477.00
iteration 507 sol 10701685.00
iteration 508 sol 10702940.00
iteration 509 sol 10701749.00
iteration 510 sol 10703147.00
iteration 511 sol 10702974.00
iteration 512 sol 10702507.00
iteration 513 sol 10702184.00
iteration 514 sol 10702863.00
iteration 515 sol 10702362.00
iteration 516 sol 10702421.00
iteration 517 sol 10702938.00
iteration 518 sol 10702670.00
iteration 519 sol 10702795.00
iteration 520 sol 10702967.00
iteration 521 sol 10703518.00
iteration 522 sol 10702962.00
iteration 523 sol 10702286.00
iteration 524 sol 10702773.00
iteration 525 sol 10703307.00
iteration 526 sol 10701902.00
iteration 527 sol 10702589.00
iteration 528 sol 10702865.00
iteration 529 sol 10703427.00
iteration 530 sol 10702602.00
iteration 531 sol 10701919.00
iteration 532 sol 10702376.00
iteration 533 sol 10702182.00
iteration 534 sol 10702269.00
iteration 535 sol 10701049.00
iteration 536 sol 10702054.00
iteration 537 sol 10700922.00
iteration 538 sol 10702304.00
iteration 539 sol 10702566.00
iteration 540 sol 10702625.00
iteration 541 sol 10703781.00
iteration 542 sol 10702261.00
iteration 543 sol 10702971.00
iteration 544 sol 10702646.00
iteration 545 sol 10702338.00
iteration 546 sol 10702876.00
iteration 547 sol 10702900.00
iteration 548 sol 10703099.00
iteration 549 sol 10702775.00
iteration 550 sol 10701794.00
iteration 551 sol 10702473.00
iteration 552 sol 10701527.00
iteration 553 sol 10702195.00
iteration 554 sol 10702659.00
iteration 555 sol 10702455.00
iteration 556 sol 10701725.00
iteration 557 sol 10701606.00
iteration 558 sol 10701853.00
iteration 559 sol 10702459.00
iteration 560 sol 10702582.00
iteration 561 sol 10701648.00
iteration 562 sol 10703387.00
iteration 563 sol 10703133.00
iteration 564 sol 10703188.00
iteration 565 sol 10702765.00
iteration 566 sol 10704011.00
iteration 567 sol 10702416.00
iteration 568 sol 10703352.00
iteration 569 sol 10702483.00
iteration 570 sol 10702829.00
iteration 571 sol 10703430.00
iteration 572 sol 10703223.00
iteration 573 sol 10702945.00
iteration 574 sol 10702431.00
iteration 575 sol 10702841.00
iteration 576 sol 10702866.00
iteration 577 sol 10702120.00
iteration 578 sol 10701710.00
iteration 579 sol 10703114.00
iteration 580 sol 10702642.00
iteration 581 sol 10702141.00
iteration 582 sol 10702818.00
iteration 583 sol 10702969.00
iteration 584 sol 10701986.00
iteration 585 sol 10701985.00
iteration 586 sol 10703246.00
iteration 587 sol 10702066.00
iteration 588 sol 10702744.00
iteration 589 sol 10702802.00
iteration 590 sol 10702435.00
iteration 591 sol 10703126.00
iteration 592 sol 10702563.00
iteration 593 sol 10703002.00
iteration 594 sol 10702961.00
iteration 595 sol 10702905.00
iteration 596 sol 10702359.00
iteration 597 sol 10702402.00
iteration 598 sol 10703368.00
iteration 599 sol 10702390.00
iteration 600 sol 10703044.00
iteration 601 sol 10702712.00
iteration 602 sol 10701602.00
iteration 603 sol 10703076.00
iteration 604 sol 10701447.00
iteration 605 sol 10702561.00
iteration 606 sol 10702273.00
iteration 607 sol 10702476.00
iteration 608 sol 10702371.00
iteration 609 sol 10702178.00
iteration 610 sol 10703544.00
iteration 611 sol 10703687.00
iteration 612 sol 10702806.00
iteration 613 sol 10702100.00
iteration 614 sol 10702757.00
iteration 615 sol 10703421.00
iteration 616 sol 10702425.00
iteration 617 sol 10702805.00
iteration 618 sol 10703237.00
iteration 619 sol 10702320.00
iteration 620 sol 10702468.00
iteration 621 sol 10701803.00
iteration 622 sol 10701984.00
iteration 623 sol 10703560.00
iteration 624 sol 10702704.00
iteration 625 sol 10701869.00
iteration 626 sol 10703161.00
iteration 627 sol 10701891.00
iteration 628 sol 10702326.00
iteration 629 sol 10702373.00
iteration 630 sol 10701633.00
iteration 631 sol 10703653.00
iteration 632 sol 10702367.00
iteration 633 sol 10703319.00
iteration 634 sol 10702550.00
iteration 635 sol 10703051.00
iteration 636 sol 10703166.00
iteration 637 sol 10702682.00
iteration 638 sol 10702676.00
iteration 639 sol 10702285.00
iteration 640 sol 10702807.00
iteration 641 sol 10702107.00
iteration 642 sol 10702357.00
iteration 643 sol 10702531.00
iteration 644 sol 10702752.00
iteration 645 sol 10703633.00
iteration 646 sol 10702042.00
iteration 647 sol 10702045.00
Number of iterations = 648
Best Solution was found in iteration = 477
Time used by neighbor | Times each neighbor was used | Improvements
N_1 = 3.90 | 30531 | 5474
N_2 = 125.56 | 30531 | 18807
N_3 = 4.03 | 30531 | 2159
N_4 = 452.24 | 30531 | 27560
Time to find the best solution = 453.10
Solution = 10704279.00
Time = 600.00
