iteration 0 sol 532426.00
iteration 1 sol 532187.00
iteration 2 sol 532257.00
iteration 3 sol 532612.00
iteration 4 sol 532612.00
iteration 5 sol 532573.00
iteration 6 sol 532427.00
iteration 7 sol 532319.00
iteration 8 sol 532470.00
iteration 9 sol 532341.00
iteration 10 sol 532075.00
iteration 11 sol 532122.00
iteration 12 sol 532406.00
iteration 13 sol 532299.00
iteration 14 sol 532541.00
iteration 15 sol 532310.00
iteration 16 sol 532364.00
iteration 17 sol 532551.00
iteration 18 sol 532431.00
iteration 19 sol 532510.00
iteration 20 sol 532494.00
iteration 21 sol 532426.00
iteration 22 sol 532509.00
iteration 23 sol 532299.00
iteration 24 sol 532305.00
iteration 25 sol 532454.00
iteration 26 sol 532500.00
iteration 27 sol 532539.00
iteration 28 sol 532421.00
iteration 29 sol 532253.00
iteration 30 sol 532491.00
iteration 31 sol 532651.00
iteration 32 sol 532314.00
iteration 33 sol 532315.00
iteration 34 sol 532473.00
iteration 35 sol 532433.00
iteration 36 sol 532210.00
iteration 37 sol 532482.00
iteration 38 sol 532515.00
iteration 39 sol 532490.00
iteration 40 sol 532380.00
iteration 41 sol 532632.00
iteration 42 sol 532547.00
iteration 43 sol 532387.00
iteration 44 sol 532471.00
iteration 45 sol 532282.00
iteration 46 sol 532325.00
iteration 47 sol 532375.00
iteration 48 sol 532678.00
iteration 49 sol 532429.00
iteration 50 sol 532548.00
iteration 51 sol 532287.00
iteration 52 sol 532398.00
iteration 53 sol 532501.00
iteration 54 sol 532574.00
iteration 55 sol 532305.00
iteration 56 sol 532642.00
iteration 57 sol 532558.00
iteration 58 sol 532683.00
iteration 59 sol 532414.00
iteration 60 sol 532562.00
iteration 61 sol 532260.00
iteration 62 sol 532327.00
iteration 63 sol 532361.00
iteration 64 sol 532398.00
iteration 65 sol 532598.00
iteration 66 sol 532455.00
iteration 67 sol 532703.00
iteration 68 sol 532586.00
iteration 69 sol 532378.00
iteration 70 sol 532373.00
iteration 71 sol 532237.00
iteration 72 sol 532324.00
iteration 73 sol 532525.00
iteration 74 sol 532475.00
iteration 75 sol 532601.00
iteration 76 sol 532450.00
iteration 77 sol 532372.00
iteration 78 sol 532468.00
iteration 79 sol 532532.00
iteration 80 sol 532336.00
iteration 81 sol 532581.00
iteration 82 sol 532623.00
iteration 83 sol 532420.00
iteration 84 sol 532592.00
iteration 85 sol 532596.00
iteration 86 sol 532369.00
iteration 87 sol 532322.00
iteration 88 sol 532558.00
iteration 89 sol 532471.00
iteration 90 sol 532467.00
iteration 91 sol 532299.00
iteration 92 sol 532566.00
iteration 93 sol 532496.00
iteration 94 sol 532243.00
iteration 95 sol 532159.00
iteration 96 sol 532391.00
iteration 97 sol 532521.00
iteration 98 sol 532503.00
iteration 99 sol 532425.00
iteration 100 sol 532416.00
iteration 101 sol 532594.00
iteration 102 sol 532631.00
iteration 103 sol 532506.00
iteration 104 sol 532445.00
iteration 105 sol 532381.00
iteration 106 sol 532764.00
iteration 107 sol 532323.00
iteration 108 sol 532494.00
iteration 109 sol 532515.00
iteration 110 sol 532605.00
iteration 111 sol 532544.00
iteration 112 sol 532483.00
iteration 113 sol 532456.00
iteration 114 sol 532572.00
iteration 115 sol 532515.00
iteration 116 sol 532534.00
iteration 117 sol 532183.00
iteration 118 sol 532393.00
iteration 119 sol 532378.00
iteration 120 sol 532228.00
iteration 121 sol 532335.00
iteration 122 sol 532488.00
iteration 123 sol 532487.00
iteration 124 sol 532544.00
iteration 125 sol 532344.00
iteration 126 sol 532450.00
iteration 127 sol 532318.00
iteration 128 sol 532487.00
iteration 129 sol 532439.00
iteration 130 sol 532497.00
iteration 131 sol 532651.00
iteration 132 sol 532455.00
iteration 133 sol 532419.00
iteration 134 sol 532645.00
iteration 135 sol 532408.00
iteration 136 sol 532459.00
iteration 137 sol 532248.00
iteration 138 sol 532533.00
iteration 139 sol 532693.00
iteration 140 sol 532416.00
iteration 141 sol 532448.00
iteration 142 sol 532437.00
iteration 143 sol 532347.00
iteration 144 sol 532427.00
iteration 145 sol 532472.00
iteration 146 sol 532339.00
iteration 147 sol 532623.00
iteration 148 sol 532638.00
iteration 149 sol 532314.00
iteration 150 sol 532536.00
iteration 151 sol 532342.00
iteration 152 sol 532490.00
iteration 153 sol 532433.00
iteration 154 sol 532588.00
iteration 155 sol 532447.00
iteration 156 sol 532488.00
iteration 157 sol 532381.00
iteration 158 sol 532396.00
iteration 159 sol 532209.00
iteration 160 sol 532304.00
iteration 161 sol 532550.00
iteration 162 sol 532472.00
iteration 163 sol 532521.00
iteration 164 sol 532377.00
iteration 165 sol 532294.00
iteration 166 sol 532407.00
iteration 167 sol 532205.00
iteration 168 sol 532515.00
iteration 169 sol 532575.00
iteration 170 sol 532491.00
iteration 171 sol 532365.00
iteration 172 sol 532432.00
iteration 173 sol 532387.00
iteration 174 sol 532470.00
iteration 175 sol 532376.00
iteration 176 sol 532505.00
iteration 177 sol 532474.00
iteration 178 sol 532651.00
iteration 179 sol 532295.00
iteration 180 sol 532549.00
iteration 181 sol 532267.00
iteration 182 sol 532555.00
iteration 183 sol 532558.00
iteration 184 sol 532513.00
iteration 185 sol 532443.00
iteration 186 sol 532478.00
iteration 187 sol 532451.00
iteration 188 sol 532362.00
iteration 189 sol 532348.00
iteration 190 sol 532410.00
iteration 191 sol 532591.00
iteration 192 sol 532479.00
iteration 193 sol 532248.00
iteration 194 sol 532298.00
iteration 195 sol 532495.00
iteration 196 sol 532370.00
iteration 197 sol 532471.00
iteration 198 sol 532225.00
iteration 199 sol 532615.00
iteration 200 sol 532478.00
iteration 201 sol 532320.00
iteration 202 sol 532280.00
iteration 203 sol 532482.00
iteration 204 sol 532563.00
iteration 205 sol 532537.00
iteration 206 sol 532287.00
iteration 207 sol 532362.00
iteration 208 sol 532670.00
iteration 209 sol 532579.00
iteration 210 sol 532281.00
iteration 211 sol 532399.00
iteration 212 sol 532473.00
iteration 213 sol 532455.00
iteration 214 sol 532494.00
iteration 215 sol 532613.00
iteration 216 sol 532284.00
iteration 217 sol 532505.00
iteration 218 sol 532509.00
iteration 219 sol 532435.00
iteration 220 sol 532478.00
iteration 221 sol 532559.00
iteration 222 sol 532332.00
iteration 223 sol 532425.00
iteration 224 sol 532633.00
iteration 225 sol 532313.00
iteration 226 sol 532475.00
iteration 227 sol 532453.00
iteration 228 sol 532652.00
iteration 229 sol 532321.00
iteration 230 sol 532465.00
iteration 231 sol 532639.00
iteration 232 sol 532570.00
iteration 233 sol 532513.00
iteration 234 sol 532204.00
iteration 235 sol 532492.00
iteration 236 sol 532421.00
iteration 237 sol 532374.00
iteration 238 sol 532251.00
iteration 239 sol 532616.00
iteration 240 sol 532589.00
iteration 241 sol 532239.00
iteration 242 sol 532370.00
iteration 243 sol 532582.00
iteration 244 sol 532437.00
iteration 245 sol 532423.00
iteration 246 sol 532432.00
iteration 247 sol 532515.00
iteration 248 sol 532442.00
iteration 249 sol 532507.00
iteration 250 sol 532565.00
iteration 251 sol 532424.00
iteration 252 sol 532414.00
iteration 253 sol 532560.00
iteration 254 sol 532555.00
iteration 255 sol 532499.00
iteration 256 sol 532509.00
iteration 257 sol 532348.00
iteration 258 sol 532648.00
iteration 259 sol 532480.00
iteration 260 sol 532598.00
iteration 261 sol 532422.00
iteration 262 sol 532403.00
iteration 263 sol 532452.00
iteration 264 sol 532208.00
iteration 265 sol 532622.00
iteration 266 sol 532517.00
iteration 267 sol 532604.00
iteration 268 sol 532365.00
iteration 269 sol 532430.00
iteration 270 sol 532457.00
iteration 271 sol 532533.00
iteration 272 sol 532452.00
iteration 273 sol 532559.00
iteration 274 sol 532540.00
iteration 275 sol 532218.00
iteration 276 sol 532635.00
iteration 277 sol 532626.00
iteration 278 sol 532393.00
iteration 279 sol 532470.00
iteration 280 sol 532509.00
iteration 281 sol 532146.00
iteration 282 sol 532502.00
iteration 283 sol 532317.00
iteration 284 sol 532348.00
iteration 285 sol 532558.00
iteration 286 sol 532446.00
iteration 287 sol 532363.00
iteration 288 sol 532396.00
iteration 289 sol 532279.00
iteration 290 sol 532560.00
iteration 291 sol 532458.00
iteration 292 sol 532531.00
iteration 293 sol 532420.00
iteration 294 sol 532651.00
iteration 295 sol 532254.00
iteration 296 sol 532539.00
iteration 297 sol 532463.00
iteration 298 sol 532431.00
iteration 299 sol 532185.00
iteration 300 sol 532557.00
iteration 301 sol 532428.00
iteration 302 sol 532340.00
iteration 303 sol 532440.00
iteration 304 sol 532484.00
iteration 305 sol 532549.00
iteration 306 sol 532675.00
iteration 307 sol 532560.00
iteration 308 sol 532144.00
iteration 309 sol 532454.00
iteration 310 sol 532411.00
iteration 311 sol 532470.00
iteration 312 sol 532391.00
iteration 313 sol 532611.00
iteration 314 sol 532654.00
iteration 315 sol 532520.00
iteration 316 sol 532499.00
iteration 317 sol 532612.00
iteration 318 sol 532432.00
iteration 319 sol 532267.00
iteration 320 sol 532477.00
iteration 321 sol 532543.00
iteration 322 sol 532352.00
iteration 323 sol 532425.00
iteration 324 sol 532454.00
iteration 325 sol 532347.00
iteration 326 sol 532363.00
iteration 327 sol 532500.00
iteration 328 sol 532507.00
iteration 329 sol 532384.00
iteration 330 sol 532243.00
iteration 331 sol 532530.00
iteration 332 sol 532529.00
iteration 333 sol 532385.00
iteration 334 sol 532530.00
iteration 335 sol 532351.00
iteration 336 sol 532492.00
iteration 337 sol 532328.00
iteration 338 sol 532429.00
iteration 339 sol 532434.00
iteration 340 sol 532353.00
iteration 341 sol 532602.00
iteration 342 sol 532240.00
iteration 343 sol 532634.00
iteration 344 sol 532244.00
iteration 345 sol 532322.00
iteration 346 sol 532451.00
iteration 347 sol 532301.00
iteration 348 sol 532450.00
iteration 349 sol 532450.00
iteration 350 sol 532639.00
iteration 351 sol 532395.00
iteration 352 sol 532306.00
iteration 353 sol 532455.00
iteration 354 sol 532533.00
iteration 355 sol 532505.00
iteration 356 sol 532613.00
iteration 357 sol 532500.00
iteration 358 sol 532447.00
iteration 359 sol 532343.00
iteration 360 sol 532449.00
iteration 361 sol 532336.00
iteration 362 sol 532611.00
iteration 363 sol 532311.00
iteration 364 sol 532426.00
iteration 365 sol 532351.00
iteration 366 sol 532377.00
iteration 367 sol 532549.00
iteration 368 sol 532566.00
iteration 369 sol 532404.00
iteration 370 sol 532421.00
iteration 371 sol 532463.00
iteration 372 sol 532507.00
iteration 373 sol 532323.00
iteration 374 sol 532323.00
iteration 375 sol 532195.00
iteration 376 sol 532247.00
iteration 377 sol 532499.00
iteration 378 sol 532435.00
iteration 379 sol 532549.00
iteration 380 sol 532606.00
iteration 381 sol 532368.00
iteration 382 sol 532472.00
iteration 383 sol 532386.00
iteration 384 sol 532436.00
iteration 385 sol 532536.00
iteration 386 sol 532487.00
iteration 387 sol 532520.00
iteration 388 sol 532712.00
iteration 389 sol 532602.00
iteration 390 sol 532281.00
iteration 391 sol 532495.00
iteration 392 sol 532131.00
iteration 393 sol 532553.00
iteration 394 sol 532447.00
iteration 395 sol 532553.00
iteration 396 sol 532354.00
iteration 397 sol 532605.00
iteration 398 sol 532463.00
iteration 399 sol 532655.00
iteration 400 sol 532511.00
iteration 401 sol 532366.00
iteration 402 sol 532222.00
iteration 403 sol 532551.00
iteration 404 sol 532623.00
iteration 405 sol 532658.00
iteration 406 sol 532489.00
iteration 407 sol 532460.00
iteration 408 sol 532496.00
iteration 409 sol 532381.00
iteration 410 sol 532336.00
iteration 411 sol 532592.00
iteration 412 sol 532605.00
iteration 413 sol 532593.00
iteration 414 sol 532362.00
iteration 415 sol 532601.00
iteration 416 sol 532352.00
iteration 417 sol 532542.00
iteration 418 sol 532380.00
iteration 419 sol 532374.00
iteration 420 sol 532314.00
iteration 421 sol 532567.00
iteration 422 sol 532582.00
iteration 423 sol 532568.00
iteration 424 sol 532480.00
iteration 425 sol 532520.00
iteration 426 sol 532589.00
iteration 427 sol 532687.00
iteration 428 sol 532464.00
iteration 429 sol 532279.00
iteration 430 sol 532592.00
iteration 431 sol 532509.00
iteration 432 sol 532501.00
iteration 433 sol 532534.00
iteration 434 sol 532392.00
iteration 435 sol 532546.00
iteration 436 sol 532658.00
iteration 437 sol 532440.00
iteration 438 sol 532491.00
iteration 439 sol 532289.00
iteration 440 sol 532428.00
iteration 441 sol 532468.00
iteration 442 sol 532411.00
iteration 443 sol 532476.00
iteration 444 sol 532488.00
iteration 445 sol 532504.00
iteration 446 sol 532564.00
iteration 447 sol 532579.00
iteration 448 sol 532480.00
iteration 449 sol 532641.00
iteration 450 sol 532393.00
iteration 451 sol 532303.00
iteration 452 sol 532169.00
iteration 453 sol 532457.00
iteration 454 sol 532480.00
iteration 455 sol 532423.00
iteration 456 sol 532532.00
iteration 457 sol 532387.00
iteration 458 sol 532548.00
iteration 459 sol 532511.00
iteration 460 sol 532439.00
iteration 461 sol 532411.00
iteration 462 sol 532247.00
iteration 463 sol 532328.00
iteration 464 sol 532462.00
iteration 465 sol 532381.00
iteration 466 sol 532422.00
iteration 467 sol 532652.00
iteration 468 sol 532530.00
iteration 469 sol 532269.00
iteration 470 sol 532588.00
iteration 471 sol 532430.00
iteration 472 sol 532505.00
iteration 473 sol 532517.00
iteration 474 sol 532611.00
iteration 475 sol 532295.00
iteration 476 sol 532749.00
iteration 477 sol 532457.00
iteration 478 sol 532528.00
iteration 479 sol 532655.00
iteration 480 sol 532428.00
iteration 481 sol 532530.00
iteration 482 sol 532458.00
iteration 483 sol 532733.00
iteration 484 sol 532394.00
iteration 485 sol 532411.00
iteration 486 sol 532469.00
iteration 487 sol 532490.00
iteration 488 sol 532275.00
iteration 489 sol 532437.00
iteration 490 sol 532179.00
iteration 491 sol 532490.00
iteration 492 sol 532573.00
iteration 493 sol 532266.00
iteration 494 sol 532506.00
iteration 495 sol 532261.00
iteration 496 sol 532579.00
iteration 497 sol 532390.00
iteration 498 sol 532434.00
iteration 499 sol 532491.00
iteration 500 sol 532555.00
iteration 501 sol 532627.00
iteration 502 sol 532379.00
iteration 503 sol 532477.00
iteration 504 sol 532639.00
iteration 505 sol 532714.00
iteration 506 sol 532250.00
iteration 507 sol 532364.00
iteration 508 sol 532468.00
iteration 509 sol 532287.00
iteration 510 sol 532673.00
iteration 511 sol 532339.00
iteration 512 sol 532720.00
iteration 513 sol 532360.00
iteration 514 sol 532336.00
iteration 515 sol 532241.00
iteration 516 sol 532354.00
iteration 517 sol 532584.00
iteration 518 sol 532382.00
iteration 519 sol 532523.00
iteration 520 sol 532527.00
iteration 521 sol 532481.00
iteration 522 sol 532288.00
iteration 523 sol 532294.00
iteration 524 sol 532450.00
iteration 525 sol 532417.00
iteration 526 sol 532502.00
iteration 527 sol 532647.00
iteration 528 sol 532480.00
iteration 529 sol 532528.00
iteration 530 sol 532357.00
iteration 531 sol 532456.00
iteration 532 sol 532435.00
iteration 533 sol 531995.00
iteration 534 sol 532387.00
iteration 535 sol 532456.00
iteration 536 sol 532514.00
iteration 537 sol 532219.00
iteration 538 sol 532473.00
iteration 539 sol 532461.00
iteration 540 sol 532437.00
iteration 541 sol 532315.00
iteration 542 sol 532615.00
iteration 543 sol 532688.00
iteration 544 sol 532600.00
iteration 545 sol 532509.00
iteration 546 sol 532383.00
iteration 547 sol 532341.00
iteration 548 sol 532552.00
iteration 549 sol 532273.00
iteration 550 sol 532494.00
iteration 551 sol 532336.00
iteration 552 sol 532508.00
iteration 553 sol 532412.00
iteration 554 sol 532318.00
iteration 555 sol 532442.00
iteration 556 sol 532427.00
iteration 557 sol 532407.00
iteration 558 sol 532503.00
iteration 559 sol 532400.00
iteration 560 sol 532488.00
iteration 561 sol 532692.00
iteration 562 sol 532379.00
iteration 563 sol 532525.00
iteration 564 sol 532476.00
iteration 565 sol 532409.00
iteration 566 sol 532573.00
iteration 567 sol 532419.00
iteration 568 sol 532142.00
iteration 569 sol 532345.00
iteration 570 sol 532560.00
iteration 571 sol 532546.00
iteration 572 sol 532469.00
iteration 573 sol 532568.00
iteration 574 sol 532584.00
iteration 575 sol 532319.00
iteration 576 sol 532354.00
iteration 577 sol 532437.00
iteration 578 sol 532539.00
iteration 579 sol 532612.00
iteration 580 sol 532510.00
iteration 581 sol 532407.00
iteration 582 sol 532505.00
iteration 583 sol 532376.00
iteration 584 sol 532514.00
iteration 585 sol 532581.00
iteration 586 sol 532546.00
iteration 587 sol 532369.00
iteration 588 sol 532510.00
iteration 589 sol 532461.00
iteration 590 sol 532639.00
iteration 591 sol 532432.00
iteration 592 sol 532653.00
iteration 593 sol 532589.00
iteration 594 sol 532552.00
iteration 595 sol 532419.00
iteration 596 sol 532208.00
iteration 597 sol 532264.00
iteration 598 sol 532449.00
iteration 599 sol 532549.00
iteration 600 sol 532432.00
iteration 601 sol 532386.00
iteration 602 sol 532200.00
iteration 603 sol 532361.00
iteration 604 sol 532339.00
iteration 605 sol 532463.00
iteration 606 sol 532432.00
iteration 607 sol 532471.00
iteration 608 sol 532506.00
iteration 609 sol 532626.00
iteration 610 sol 532308.00
iteration 611 sol 532531.00
iteration 612 sol 532554.00
iteration 613 sol 532458.00
iteration 614 sol 532579.00
iteration 615 sol 532701.00
iteration 616 sol 532407.00
iteration 617 sol 532470.00
iteration 618 sol 532545.00
iteration 619 sol 532240.00
iteration 620 sol 532139.00
iteration 621 sol 532319.00
iteration 622 sol 532455.00
iteration 623 sol 532503.00
iteration 624 sol 532369.00
iteration 625 sol 532613.00
iteration 626 sol 532339.00
iteration 627 sol 532336.00
iteration 628 sol 532533.00
iteration 629 sol 532579.00
iteration 630 sol 532412.00
iteration 631 sol 532516.00
iteration 632 sol 532489.00
iteration 633 sol 532365.00
iteration 634 sol 532542.00
iteration 635 sol 532571.00
iteration 636 sol 532346.00
iteration 637 sol 532581.00
iteration 638 sol 532501.00
iteration 639 sol 532619.00
iteration 640 sol 532568.00
iteration 641 sol 532640.00
iteration 642 sol 532590.00
iteration 643 sol 532608.00
iteration 644 sol 532460.00
iteration 645 sol 532590.00
iteration 646 sol 532554.00
iteration 647 sol 532226.00
iteration 648 sol 532443.00
iteration 649 sol 532577.00
iteration 650 sol 532608.00
iteration 651 sol 532518.00
iteration 652 sol 532530.00
iteration 653 sol 532563.00
iteration 654 sol 532576.00
iteration 655 sol 532568.00
iteration 656 sol 532021.00
iteration 657 sol 532471.00
iteration 658 sol 532222.00
iteration 659 sol 532447.00
iteration 660 sol 532385.00
iteration 661 sol 532477.00
iteration 662 sol 532401.00
iteration 663 sol 532354.00
iteration 664 sol 532406.00
iteration 665 sol 532408.00
iteration 666 sol 532636.00
iteration 667 sol 532165.00
iteration 668 sol 532435.00
iteration 669 sol 532614.00
iteration 670 sol 532184.00
iteration 671 sol 532326.00
iteration 672 sol 532441.00
iteration 673 sol 532567.00
iteration 674 sol 532522.00
iteration 675 sol 532598.00
iteration 676 sol 532354.00
iteration 677 sol 532498.00
iteration 678 sol 532554.00
iteration 679 sol 532182.00
iteration 680 sol 532405.00
iteration 681 sol 532611.00
iteration 682 sol 532442.00
iteration 683 sol 532499.00
iteration 684 sol 532635.00
iteration 685 sol 532448.00
iteration 686 sol 532402.00
iteration 687 sol 532317.00
iteration 688 sol 532592.00
iteration 689 sol 532423.00
iteration 690 sol 532490.00
iteration 691 sol 532183.00
iteration 692 sol 532372.00
iteration 693 sol 532598.00
iteration 694 sol 532483.00
iteration 695 sol 532391.00
iteration 696 sol 532442.00
iteration 697 sol 532258.00
iteration 698 sol 532330.00
iteration 699 sol 532218.00
iteration 700 sol 532604.00
iteration 701 sol 532412.00
iteration 702 sol 532427.00
iteration 703 sol 532358.00
iteration 704 sol 532564.00
iteration 705 sol 532201.00
iteration 706 sol 532544.00
iteration 707 sol 532406.00
iteration 708 sol 532372.00
iteration 709 sol 532504.00
iteration 710 sol 532308.00
iteration 711 sol 532593.00
iteration 712 sol 532504.00
iteration 713 sol 532185.00
iteration 714 sol 532350.00
iteration 715 sol 532480.00
iteration 716 sol 532535.00
iteration 717 sol 532620.00
iteration 718 sol 532458.00
iteration 719 sol 532638.00
iteration 720 sol 532377.00
iteration 721 sol 532348.00
iteration 722 sol 532277.00
iteration 723 sol 532204.00
iteration 724 sol 532416.00
iteration 725 sol 532597.00
iteration 726 sol 532394.00
iteration 727 sol 532430.00
iteration 728 sol 532317.00
iteration 729 sol 532618.00
iteration 730 sol 532506.00
iteration 731 sol 532449.00
iteration 732 sol 532523.00
iteration 733 sol 532494.00
iteration 734 sol 532310.00
iteration 735 sol 532337.00
iteration 736 sol 532424.00
iteration 737 sol 532610.00
iteration 738 sol 532467.00
iteration 739 sol 532422.00
iteration 740 sol 532620.00
iteration 741 sol 532592.00
iteration 742 sol 532303.00
iteration 743 sol 532520.00
iteration 744 sol 532491.00
iteration 745 sol 532384.00
iteration 746 sol 532383.00
iteration 747 sol 532468.00
iteration 748 sol 532524.00
iteration 749 sol 532375.00
iteration 750 sol 532475.00
iteration 751 sol 532616.00
iteration 752 sol 532151.00
iteration 753 sol 532170.00
iteration 754 sol 532461.00
iteration 755 sol 532502.00
iteration 756 sol 532527.00
iteration 757 sol 532768.00
iteration 758 sol 532474.00
iteration 759 sol 532510.00
iteration 760 sol 532457.00
iteration 761 sol 532382.00
iteration 762 sol 532365.00
iteration 763 sol 532404.00
iteration 764 sol 532351.00
iteration 765 sol 532426.00
iteration 766 sol 532360.00
iteration 767 sol 532573.00
iteration 768 sol 532354.00
iteration 769 sol 532462.00
iteration 770 sol 532387.00
iteration 771 sol 532512.00
iteration 772 sol 532488.00
iteration 773 sol 532224.00
iteration 774 sol 532515.00
iteration 775 sol 532425.00
iteration 776 sol 532474.00
iteration 777 sol 532371.00
iteration 778 sol 532479.00
iteration 779 sol 532478.00
iteration 780 sol 532699.00
iteration 781 sol 532469.00
iteration 782 sol 532365.00
iteration 783 sol 532424.00
iteration 784 sol 532310.00
iteration 785 sol 532475.00
iteration 786 sol 532714.00
iteration 787 sol 532598.00
iteration 788 sol 532575.00
iteration 789 sol 532539.00
iteration 790 sol 532510.00
iteration 791 sol 532387.00
iteration 792 sol 532425.00
iteration 793 sol 532436.00
iteration 794 sol 532330.00
iteration 795 sol 532510.00
iteration 796 sol 532418.00
iteration 797 sol 532388.00
iteration 798 sol 532258.00
iteration 799 sol 532478.00
iteration 800 sol 532450.00
iteration 801 sol 532650.00
iteration 802 sol 532209.00
iteration 803 sol 532222.00
iteration 804 sol 532406.00
iteration 805 sol 532531.00
iteration 806 sol 532566.00
iteration 807 sol 532570.00
iteration 808 sol 532400.00
iteration 809 sol 532438.00
iteration 810 sol 532262.00
iteration 811 sol 532507.00
iteration 812 sol 532593.00
iteration 813 sol 532454.00
iteration 814 sol 532171.00
iteration 815 sol 532527.00
iteration 816 sol 532261.00
iteration 817 sol 532692.00
iteration 818 sol 532591.00
iteration 819 sol 532272.00
iteration 820 sol 532413.00
iteration 821 sol 532037.00
iteration 822 sol 532343.00
iteration 823 sol 532475.00
iteration 824 sol 532405.00
iteration 825 sol 532535.00
iteration 826 sol 532585.00
iteration 827 sol 532445.00
iteration 828 sol 532384.00
iteration 829 sol 532370.00
iteration 830 sol 532204.00
iteration 831 sol 532536.00
iteration 832 sol 532386.00
iteration 833 sol 532639.00
iteration 834 sol 532742.00
iteration 835 sol 532643.00
iteration 836 sol 532471.00
iteration 837 sol 532507.00
iteration 838 sol 532516.00
iteration 839 sol 532346.00
iteration 840 sol 532552.00
iteration 841 sol 532574.00
iteration 842 sol 532523.00
iteration 843 sol 532410.00
iteration 844 sol 532382.00
iteration 845 sol 532597.00
iteration 846 sol 532559.00
iteration 847 sol 532438.00
iteration 848 sol 532462.00
iteration 849 sol 532459.00
iteration 850 sol 532638.00
iteration 851 sol 532611.00
iteration 852 sol 532344.00
iteration 853 sol 532476.00
iteration 854 sol 532575.00
iteration 855 sol 532509.00
iteration 856 sol 532590.00
iteration 857 sol 532356.00
iteration 858 sol 532549.00
iteration 859 sol 532550.00
iteration 860 sol 532454.00
iteration 861 sol 532244.00
iteration 862 sol 532335.00
iteration 863 sol 532326.00
iteration 864 sol 532318.00
iteration 865 sol 532403.00
iteration 866 sol 532471.00
iteration 867 sol 532436.00
iteration 868 sol 532495.00
iteration 869 sol 532549.00
iteration 870 sol 532384.00
iteration 871 sol 532370.00
iteration 872 sol 532618.00
iteration 873 sol 532231.00
iteration 874 sol 532393.00
iteration 875 sol 532509.00
iteration 876 sol 532156.00
iteration 877 sol 532542.00
iteration 878 sol 532390.00
iteration 879 sol 532379.00
iteration 880 sol 532270.00
iteration 881 sol 532390.00
iteration 882 sol 532291.00
iteration 883 sol 532634.00
iteration 884 sol 532704.00
iteration 885 sol 532286.00
iteration 886 sol 532409.00
iteration 887 sol 532519.00
iteration 888 sol 532539.00
iteration 889 sol 532305.00
iteration 890 sol 532362.00
iteration 891 sol 532507.00
iteration 892 sol 532297.00
iteration 893 sol 532283.00
iteration 894 sol 532285.00
iteration 895 sol 532247.00
iteration 896 sol 532485.00
iteration 897 sol 532192.00
iteration 898 sol 532611.00
iteration 899 sol 532338.00
iteration 900 sol 532199.00
iteration 901 sol 532366.00
iteration 902 sol 532501.00
iteration 903 sol 532424.00
iteration 904 sol 532534.00
iteration 905 sol 532446.00
iteration 906 sol 532307.00
iteration 907 sol 532640.00
iteration 908 sol 532399.00
iteration 909 sol 532305.00
iteration 910 sol 532452.00
iteration 911 sol 532598.00
iteration 912 sol 532546.00
iteration 913 sol 532297.00
iteration 914 sol 532362.00
iteration 915 sol 532185.00
iteration 916 sol 532305.00
iteration 917 sol 532396.00
iteration 918 sol 532341.00
iteration 919 sol 532545.00
iteration 920 sol 532222.00
iteration 921 sol 532570.00
iteration 922 sol 532468.00
iteration 923 sol 532409.00
iteration 924 sol 532367.00
iteration 925 sol 532487.00
iteration 926 sol 532667.00
iteration 927 sol 532254.00
iteration 928 sol 532559.00
iteration 929 sol 532451.00
iteration 930 sol 532522.00
iteration 931 sol 532419.00
iteration 932 sol 532548.00
iteration 933 sol 532396.00
iteration 934 sol 532377.00
iteration 935 sol 532567.00
iteration 936 sol 532260.00
iteration 937 sol 532231.00
iteration 938 sol 532379.00
iteration 939 sol 532434.00
iteration 940 sol 532243.00
iteration 941 sol 532201.00
iteration 942 sol 532693.00
iteration 943 sol 532458.00
iteration 944 sol 532557.00
iteration 945 sol 532521.00
iteration 946 sol 532497.00
iteration 947 sol 532424.00
iteration 948 sol 532288.00
iteration 949 sol 532491.00
iteration 950 sol 532256.00
iteration 951 sol 532366.00
iteration 952 sol 532578.00
iteration 953 sol 532408.00
iteration 954 sol 532480.00
iteration 955 sol 532609.00
iteration 956 sol 532528.00
iteration 957 sol 532441.00
iteration 958 sol 532443.00
iteration 959 sol 532186.00
iteration 960 sol 532147.00
iteration 961 sol 532521.00
iteration 962 sol 532270.00
iteration 963 sol 532443.00
iteration 964 sol 532706.00
iteration 965 sol 532334.00
iteration 966 sol 532371.00
iteration 967 sol 532336.00
iteration 968 sol 531968.00
iteration 969 sol 532327.00
iteration 970 sol 532585.00
iteration 971 sol 532508.00
iteration 972 sol 532327.00
iteration 973 sol 532687.00
iteration 974 sol 532644.00
iteration 975 sol 532533.00
iteration 976 sol 532243.00
iteration 977 sol 532462.00
iteration 978 sol 532483.00
iteration 979 sol 532353.00
iteration 980 sol 532384.00
iteration 981 sol 532539.00
iteration 982 sol 532406.00
iteration 983 sol 532432.00
iteration 984 sol 532511.00
iteration 985 sol 532393.00
iteration 986 sol 532340.00
iteration 987 sol 532645.00
iteration 988 sol 532325.00
iteration 989 sol 532490.00
iteration 990 sol 532475.00
iteration 991 sol 532437.00
iteration 992 sol 532583.00
iteration 993 sol 532444.00
iteration 994 sol 532527.00
iteration 995 sol 532475.00
iteration 996 sol 532412.00
iteration 997 sol 532512.00
iteration 998 sol 532371.00
iteration 999 sol 532470.00
iteration 1000 sol 532602.00
iteration 1001 sol 532284.00
iteration 1002 sol 532542.00
iteration 1003 sol 532402.00
iteration 1004 sol 532338.00
iteration 1005 sol 532442.00
iteration 1006 sol 532380.00
iteration 1007 sol 532444.00
iteration 1008 sol 532504.00
iteration 1009 sol 532438.00
iteration 1010 sol 532385.00
iteration 1011 sol 532539.00
iteration 1012 sol 532561.00
iteration 1013 sol 532474.00
iteration 1014 sol 532326.00
iteration 1015 sol 532341.00
iteration 1016 sol 532428.00
iteration 1017 sol 532469.00
iteration 1018 sol 532533.00
iteration 1019 sol 532199.00
iteration 1020 sol 532466.00
iteration 1021 sol 532526.00
iteration 1022 sol 532501.00
iteration 1023 sol 532384.00
iteration 1024 sol 532606.00
iteration 1025 sol 532119.00
iteration 1026 sol 532289.00
iteration 1027 sol 532620.00
iteration 1028 sol 532575.00
iteration 1029 sol 532479.00
iteration 1030 sol 532410.00
iteration 1031 sol 532394.00
iteration 1032 sol 532507.00
iteration 1033 sol 532563.00
iteration 1034 sol 532529.00
iteration 1035 sol 532189.00
iteration 1036 sol 532626.00
iteration 1037 sol 532307.00
iteration 1038 sol 532273.00
iteration 1039 sol 532226.00
iteration 1040 sol 532395.00
iteration 1041 sol 532489.00
iteration 1042 sol 532151.00
iteration 1043 sol 532725.00
iteration 1044 sol 532473.00
iteration 1045 sol 532377.00
iteration 1046 sol 532448.00
iteration 1047 sol 532325.00
iteration 1048 sol 532519.00
iteration 1049 sol 532557.00
iteration 1050 sol 532483.00
iteration 1051 sol 532443.00
iteration 1052 sol 532339.00
iteration 1053 sol 532449.00
iteration 1054 sol 532510.00
iteration 1055 sol 532344.00
iteration 1056 sol 532449.00
iteration 1057 sol 532356.00
iteration 1058 sol 532556.00
iteration 1059 sol 532670.00
iteration 1060 sol 532362.00
iteration 1061 sol 532604.00
iteration 1062 sol 532135.00
iteration 1063 sol 532471.00
iteration 1064 sol 532462.00
iteration 1065 sol 532453.00
iteration 1066 sol 532451.00
iteration 1067 sol 532268.00
iteration 1068 sol 532523.00
iteration 1069 sol 532512.00
iteration 1070 sol 532474.00
iteration 1071 sol 532430.00
iteration 1072 sol 532476.00
iteration 1073 sol 532430.00
iteration 1074 sol 532415.00
iteration 1075 sol 532445.00
iteration 1076 sol 532595.00
iteration 1077 sol 532265.00
iteration 1078 sol 532161.00
iteration 1079 sol 532506.00
iteration 1080 sol 532642.00
iteration 1081 sol 532508.00
iteration 1082 sol 532078.00
iteration 1083 sol 532342.00
iteration 1084 sol 532396.00
iteration 1085 sol 532390.00
iteration 1086 sol 532486.00
iteration 1087 sol 532300.00
iteration 1088 sol 532561.00
iteration 1089 sol 532486.00
iteration 1090 sol 532403.00
iteration 1091 sol 532425.00
iteration 1092 sol 532424.00
iteration 1093 sol 532493.00
iteration 1094 sol 532362.00
iteration 1095 sol 532535.00
iteration 1096 sol 532591.00
iteration 1097 sol 532462.00
iteration 1098 sol 532253.00
iteration 1099 sol 532365.00
iteration 1100 sol 532475.00
iteration 1101 sol 532466.00
iteration 1102 sol 532453.00
iteration 1103 sol 532351.00
iteration 1104 sol 532442.00
iteration 1105 sol 532440.00
iteration 1106 sol 532424.00
iteration 1107 sol 532290.00
iteration 1108 sol 532314.00
iteration 1109 sol 532548.00
iteration 1110 sol 532407.00
iteration 1111 sol 532456.00
iteration 1112 sol 532438.00
iteration 1113 sol 532398.00
iteration 1114 sol 532497.00
iteration 1115 sol 532285.00
iteration 1116 sol 532569.00
iteration 1117 sol 532632.00
iteration 1118 sol 532328.00
iteration 1119 sol 532495.00
iteration 1120 sol 532540.00
iteration 1121 sol 532672.00
iteration 1122 sol 532570.00
iteration 1123 sol 532496.00
iteration 1124 sol 532445.00
iteration 1125 sol 532243.00
iteration 1126 sol 532485.00
iteration 1127 sol 532477.00
iteration 1128 sol 532387.00
iteration 1129 sol 532503.00
iteration 1130 sol 532413.00
iteration 1131 sol 532394.00
iteration 1132 sol 532393.00
iteration 1133 sol 532595.00
iteration 1134 sol 532318.00
iteration 1135 sol 532557.00
iteration 1136 sol 532420.00
iteration 1137 sol 532511.00
iteration 1138 sol 532520.00
iteration 1139 sol 532445.00
iteration 1140 sol 532422.00
iteration 1141 sol 532605.00
iteration 1142 sol 532442.00
iteration 1143 sol 532438.00
iteration 1144 sol 532554.00
iteration 1145 sol 532377.00
iteration 1146 sol 532512.00
iteration 1147 sol 532635.00
iteration 1148 sol 532340.00
iteration 1149 sol 532492.00
iteration 1150 sol 532431.00
iteration 1151 sol 532554.00
iteration 1152 sol 532455.00
iteration 1153 sol 532570.00
iteration 1154 sol 532486.00
iteration 1155 sol 532381.00
iteration 1156 sol 532511.00
iteration 1157 sol 532558.00
iteration 1158 sol 532330.00
iteration 1159 sol 532196.00
iteration 1160 sol 532377.00
iteration 1161 sol 532404.00
iteration 1162 sol 532475.00
iteration 1163 sol 532444.00
iteration 1164 sol 532370.00
iteration 1165 sol 532526.00
iteration 1166 sol 532372.00
iteration 1167 sol 532341.00
iteration 1168 sol 532420.00
iteration 1169 sol 532667.00
iteration 1170 sol 532371.00
iteration 1171 sol 532564.00
iteration 1172 sol 532407.00
iteration 1173 sol 532652.00
iteration 1174 sol 532556.00
iteration 1175 sol 532593.00
iteration 1176 sol 532451.00
iteration 1177 sol 532600.00
iteration 1178 sol 532457.00
iteration 1179 sol 532257.00
iteration 1180 sol 532185.00
iteration 1181 sol 532673.00
iteration 1182 sol 532419.00
iteration 1183 sol 532423.00
iteration 1184 sol 532376.00
iteration 1185 sol 532568.00
iteration 1186 sol 532341.00
iteration 1187 sol 532511.00
iteration 1188 sol 532496.00
iteration 1189 sol 532696.00
iteration 1190 sol 532493.00
iteration 1191 sol 532395.00
iteration 1192 sol 532450.00
iteration 1193 sol 532610.00
iteration 1194 sol 532292.00
iteration 1195 sol 532453.00
iteration 1196 sol 532394.00
iteration 1197 sol 532407.00
iteration 1198 sol 532412.00
iteration 1199 sol 532355.00
iteration 1200 sol 532615.00
iteration 1201 sol 532416.00
iteration 1202 sol 532473.00
iteration 1203 sol 532549.00
iteration 1204 sol 532575.00
iteration 1205 sol 532591.00
iteration 1206 sol 532415.00
iteration 1207 sol 532329.00
iteration 1208 sol 532577.00
iteration 1209 sol 532463.00
iteration 1210 sol 532351.00
iteration 1211 sol 532463.00
iteration 1212 sol 532281.00
iteration 1213 sol 532545.00
iteration 1214 sol 532578.00
iteration 1215 sol 532354.00
iteration 1216 sol 532451.00
iteration 1217 sol 532610.00
iteration 1218 sol 532482.00
iteration 1219 sol 532466.00
iteration 1220 sol 532540.00
iteration 1221 sol 532374.00
iteration 1222 sol 532504.00
iteration 1223 sol 532259.00
iteration 1224 sol 532198.00
iteration 1225 sol 532582.00
iteration 1226 sol 532496.00
iteration 1227 sol 532431.00
iteration 1228 sol 532476.00
iteration 1229 sol 532561.00
iteration 1230 sol 532695.00
iteration 1231 sol 532369.00
iteration 1232 sol 532415.00
iteration 1233 sol 532358.00
iteration 1234 sol 532470.00
iteration 1235 sol 532537.00
iteration 1236 sol 532575.00
iteration 1237 sol 532234.00
iteration 1238 sol 532457.00
iteration 1239 sol 532498.00
iteration 1240 sol 532444.00
iteration 1241 sol 532309.00
iteration 1242 sol 532606.00
iteration 1243 sol 532444.00
iteration 1244 sol 532578.00
iteration 1245 sol 532558.00
iteration 1246 sol 532541.00
iteration 1247 sol 532515.00
iteration 1248 sol 532483.00
iteration 1249 sol 532488.00
iteration 1250 sol 532380.00
iteration 1251 sol 532296.00
iteration 1252 sol 532356.00
iteration 1253 sol 532426.00
iteration 1254 sol 532466.00
iteration 1255 sol 532422.00
iteration 1256 sol 532448.00
iteration 1257 sol 532664.00
iteration 1258 sol 532266.00
iteration 1259 sol 532251.00
iteration 1260 sol 532454.00
iteration 1261 sol 532380.00
iteration 1262 sol 532401.00
iteration 1263 sol 532495.00
iteration 1264 sol 532462.00
iteration 1265 sol 532608.00
iteration 1266 sol 532347.00
iteration 1267 sol 532412.00
iteration 1268 sol 532483.00
iteration 1269 sol 532548.00
iteration 1270 sol 532564.00
iteration 1271 sol 532502.00
iteration 1272 sol 532437.00
iteration 1273 sol 532393.00
iteration 1274 sol 532320.00
iteration 1275 sol 532571.00
iteration 1276 sol 532339.00
iteration 1277 sol 532619.00
iteration 1278 sol 532394.00
iteration 1279 sol 532239.00
iteration 1280 sol 532463.00
iteration 1281 sol 532340.00
iteration 1282 sol 532428.00
iteration 1283 sol 532507.00
iteration 1284 sol 532367.00
iteration 1285 sol 532702.00
iteration 1286 sol 532633.00
iteration 1287 sol 532367.00
iteration 1288 sol 532643.00
iteration 1289 sol 532493.00
iteration 1290 sol 532325.00
iteration 1291 sol 532633.00
iteration 1292 sol 532346.00
iteration 1293 sol 532501.00
iteration 1294 sol 531889.00
iteration 1295 sol 532262.00
iteration 1296 sol 532604.00
iteration 1297 sol 532503.00
iteration 1298 sol 532455.00
iteration 1299 sol 532619.00
iteration 1300 sol 532433.00
iteration 1301 sol 532565.00
iteration 1302 sol 532386.00
iteration 1303 sol 532580.00
iteration 1304 sol 532463.00
iteration 1305 sol 532272.00
iteration 1306 sol 532350.00
iteration 1307 sol 532507.00
iteration 1308 sol 532434.00
iteration 1309 sol 532548.00
iteration 1310 sol 532589.00
iteration 1311 sol 532343.00
iteration 1312 sol 532476.00
iteration 1313 sol 532371.00
iteration 1314 sol 532447.00
iteration 1315 sol 532581.00
iteration 1316 sol 532519.00
iteration 1317 sol 532554.00
iteration 1318 sol 532286.00
iteration 1319 sol 532545.00
iteration 1320 sol 532413.00
iteration 1321 sol 532448.00
iteration 1322 sol 532253.00
iteration 1323 sol 532239.00
iteration 1324 sol 532451.00
iteration 1325 sol 532338.00
iteration 1326 sol 532522.00
iteration 1327 sol 532376.00
iteration 1328 sol 532312.00
iteration 1329 sol 532506.00
iteration 1330 sol 532578.00
iteration 1331 sol 532634.00
iteration 1332 sol 532428.00
iteration 1333 sol 532403.00
iteration 1334 sol 532335.00
iteration 1335 sol 532207.00
iteration 1336 sol 532457.00
iteration 1337 sol 532252.00
iteration 1338 sol 532495.00
iteration 1339 sol 532338.00
iteration 1340 sol 532339.00
iteration 1341 sol 532581.00
iteration 1342 sol 532470.00
iteration 1343 sol 532710.00
iteration 1344 sol 532395.00
iteration 1345 sol 532463.00
iteration 1346 sol 532392.00
iteration 1347 sol 532703.00
iteration 1348 sol 532415.00
iteration 1349 sol 532291.00
iteration 1350 sol 532513.00
iteration 1351 sol 532370.00
iteration 1352 sol 532595.00
iteration 1353 sol 532308.00
iteration 1354 sol 532449.00
iteration 1355 sol 532539.00
iteration 1356 sol 532489.00
iteration 1357 sol 532627.00
iteration 1358 sol 532519.00
iteration 1359 sol 532383.00
iteration 1360 sol 531936.00
iteration 1361 sol 532491.00
iteration 1362 sol 532373.00
iteration 1363 sol 532531.00
iteration 1364 sol 532377.00
iteration 1365 sol 532495.00
iteration 1366 sol 532610.00
iteration 1367 sol 532515.00
iteration 1368 sol 532465.00
iteration 1369 sol 532681.00
iteration 1370 sol 532445.00
iteration 1371 sol 532379.00
iteration 1372 sol 532357.00
iteration 1373 sol 532233.00
iteration 1374 sol 532627.00
iteration 1375 sol 532520.00
iteration 1376 sol 532296.00
iteration 1377 sol 532340.00
iteration 1378 sol 532296.00
iteration 1379 sol 532289.00
iteration 1380 sol 532505.00
iteration 1381 sol 532499.00
iteration 1382 sol 532406.00
iteration 1383 sol 532596.00
iteration 1384 sol 532449.00
iteration 1385 sol 532668.00
iteration 1386 sol 532385.00
iteration 1387 sol 532478.00
iteration 1388 sol 532595.00
iteration 1389 sol 532405.00
iteration 1390 sol 532684.00
iteration 1391 sol 532434.00
iteration 1392 sol 532423.00
iteration 1393 sol 532560.00
iteration 1394 sol 532449.00
iteration 1395 sol 532409.00
iteration 1396 sol 532681.00
iteration 1397 sol 532213.00
iteration 1398 sol 532549.00
iteration 1399 sol 532558.00
iteration 1400 sol 532350.00
iteration 1401 sol 532524.00
iteration 1402 sol 532462.00
iteration 1403 sol 532248.00
iteration 1404 sol 532412.00
iteration 1405 sol 532499.00
iteration 1406 sol 532519.00
iteration 1407 sol 532555.00
iteration 1408 sol 532404.00
iteration 1409 sol 532494.00
iteration 1410 sol 532568.00
iteration 1411 sol 532505.00
iteration 1412 sol 532408.00
iteration 1413 sol 532516.00
iteration 1414 sol 532475.00
iteration 1415 sol 532446.00
iteration 1416 sol 532249.00
iteration 1417 sol 532476.00
iteration 1418 sol 532501.00
iteration 1419 sol 532459.00
iteration 1420 sol 532487.00
iteration 1421 sol 532316.00
iteration 1422 sol 532562.00
iteration 1423 sol 532435.00
iteration 1424 sol 532609.00
iteration 1425 sol 532538.00
iteration 1426 sol 532534.00
iteration 1427 sol 532542.00
iteration 1428 sol 532699.00
iteration 1429 sol 532424.00
iteration 1430 sol 532624.00
iteration 1431 sol 532367.00
iteration 1432 sol 532555.00
iteration 1433 sol 532601.00
iteration 1434 sol 532141.00
iteration 1435 sol 532472.00
iteration 1436 sol 532481.00
iteration 1437 sol 532368.00
iteration 1438 sol 532426.00
iteration 1439 sol 532440.00
iteration 1440 sol 532440.00
iteration 1441 sol 532358.00
iteration 1442 sol 532470.00
iteration 1443 sol 532581.00
iteration 1444 sol 532714.00
iteration 1445 sol 532254.00
iteration 1446 sol 532400.00
iteration 1447 sol 532503.00
iteration 1448 sol 532454.00
iteration 1449 sol 532503.00
iteration 1450 sol 532532.00
iteration 1451 sol 532383.00
iteration 1452 sol 532448.00
iteration 1453 sol 532531.00
iteration 1454 sol 532181.00
iteration 1455 sol 532385.00
iteration 1456 sol 532348.00
iteration 1457 sol 532413.00
iteration 1458 sol 532436.00
iteration 1459 sol 532360.00
iteration 1460 sol 532495.00
iteration 1461 sol 532696.00
iteration 1462 sol 532535.00
iteration 1463 sol 532253.00
iteration 1464 sol 532356.00
iteration 1465 sol 532491.00
iteration 1466 sol 532565.00
iteration 1467 sol 532404.00
iteration 1468 sol 532291.00
iteration 1469 sol 532470.00
iteration 1470 sol 532566.00
iteration 1471 sol 532222.00
iteration 1472 sol 532474.00
iteration 1473 sol 532488.00
iteration 1474 sol 532482.00
iteration 1475 sol 532383.00
iteration 1476 sol 532412.00
iteration 1477 sol 532595.00
iteration 1478 sol 532453.00
iteration 1479 sol 532634.00
iteration 1480 sol 532435.00
iteration 1481 sol 532441.00
iteration 1482 sol 532480.00
iteration 1483 sol 532385.00
iteration 1484 sol 532455.00
iteration 1485 sol 532394.00
iteration 1486 sol 532550.00
iteration 1487 sol 532538.00
iteration 1488 sol 532465.00
iteration 1489 sol 532336.00
iteration 1490 sol 532473.00
iteration 1491 sol 532401.00
iteration 1492 sol 532512.00
iteration 1493 sol 532291.00
iteration 1494 sol 532413.00
iteration 1495 sol 532571.00
iteration 1496 sol 532242.00
iteration 1497 sol 532225.00
iteration 1498 sol 532394.00
iteration 1499 sol 532403.00
iteration 1500 sol 532601.00
iteration 1501 sol 532495.00
iteration 1502 sol 532393.00
iteration 1503 sol 532470.00
iteration 1504 sol 532218.00
iteration 1505 sol 532493.00
iteration 1506 sol 532547.00
iteration 1507 sol 532481.00
iteration 1508 sol 532663.00
iteration 1509 sol 532483.00
iteration 1510 sol 532539.00
iteration 1511 sol 532535.00
iteration 1512 sol 532506.00
iteration 1513 sol 532491.00
iteration 1514 sol 532414.00
iteration 1515 sol 532446.00
iteration 1516 sol 532514.00
iteration 1517 sol 532534.00
iteration 1518 sol 532609.00
iteration 1519 sol 532482.00
iteration 1520 sol 532267.00
iteration 1521 sol 532655.00
iteration 1522 sol 532402.00
iteration 1523 sol 532407.00
iteration 1524 sol 532400.00
iteration 1525 sol 532564.00
iteration 1526 sol 532568.00
iteration 1527 sol 532329.00
iteration 1528 sol 532398.00
iteration 1529 sol 532484.00
iteration 1530 sol 532588.00
iteration 1531 sol 532253.00
iteration 1532 sol 532597.00
iteration 1533 sol 532521.00
iteration 1534 sol 532498.00
iteration 1535 sol 532263.00
iteration 1536 sol 532455.00
iteration 1537 sol 532626.00
iteration 1538 sol 532199.00
iteration 1539 sol 532505.00
iteration 1540 sol 532438.00
iteration 1541 sol 532412.00
iteration 1542 sol 532440.00
iteration 1543 sol 532401.00
iteration 1544 sol 532473.00
iteration 1545 sol 532517.00
iteration 1546 sol 532603.00
iteration 1547 sol 532521.00
iteration 1548 sol 532606.00
iteration 1549 sol 532207.00
iteration 1550 sol 532469.00
iteration 1551 sol 532444.00
iteration 1552 sol 532403.00
iteration 1553 sol 532687.00
iteration 1554 sol 532410.00
iteration 1555 sol 532234.00
iteration 1556 sol 532316.00
iteration 1557 sol 532368.00
iteration 1558 sol 532475.00
iteration 1559 sol 532414.00
iteration 1560 sol 532476.00
iteration 1561 sol 532585.00
iteration 1562 sol 532327.00
iteration 1563 sol 532495.00
iteration 1564 sol 532424.00
iteration 1565 sol 532613.00
iteration 1566 sol 532502.00
iteration 1567 sol 532428.00
iteration 1568 sol 532432.00
iteration 1569 sol 532219.00
iteration 1570 sol 532380.00
iteration 1571 sol 532652.00
iteration 1572 sol 532568.00
iteration 1573 sol 532482.00
iteration 1574 sol 532196.00
iteration 1575 sol 532278.00
iteration 1576 sol 532525.00
iteration 1577 sol 532517.00
iteration 1578 sol 532346.00
iteration 1579 sol 532601.00
iteration 1580 sol 532461.00
iteration 1581 sol 532615.00
iteration 1582 sol 532647.00
iteration 1583 sol 532405.00
iteration 1584 sol 532392.00
iteration 1585 sol 532285.00
iteration 1586 sol 532490.00
iteration 1587 sol 532548.00
iteration 1588 sol 532633.00
iteration 1589 sol 532222.00
iteration 1590 sol 532373.00
iteration 1591 sol 532281.00
iteration 1592 sol 532430.00
iteration 1593 sol 531993.00
iteration 1594 sol 532387.00
iteration 1595 sol 532354.00
iteration 1596 sol 532409.00
iteration 1597 sol 532458.00
iteration 1598 sol 532556.00
iteration 1599 sol 532556.00
iteration 1600 sol 532263.00
iteration 1601 sol 532256.00
iteration 1602 sol 532518.00
iteration 1603 sol 532478.00
iteration 1604 sol 532257.00
iteration 1605 sol 532456.00
iteration 1606 sol 532512.00
iteration 1607 sol 532564.00
iteration 1608 sol 532473.00
iteration 1609 sol 532441.00
iteration 1610 sol 532228.00
iteration 1611 sol 532523.00
iteration 1612 sol 532323.00
iteration 1613 sol 532402.00
iteration 1614 sol 532200.00
iteration 1615 sol 532441.00
iteration 1616 sol 532280.00
iteration 1617 sol 532410.00
iteration 1618 sol 532495.00
iteration 1619 sol 532370.00
iteration 1620 sol 532336.00
iteration 1621 sol 532680.00
iteration 1622 sol 532339.00
iteration 1623 sol 532211.00
iteration 1624 sol 532468.00
iteration 1625 sol 532358.00
iteration 1626 sol 532535.00
iteration 1627 sol 532349.00
iteration 1628 sol 532450.00
iteration 1629 sol 532546.00
iteration 1630 sol 532561.00
iteration 1631 sol 532376.00
iteration 1632 sol 532403.00
iteration 1633 sol 532591.00
iteration 1634 sol 532341.00
iteration 1635 sol 532530.00
iteration 1636 sol 532478.00
iteration 1637 sol 532139.00
iteration 1638 sol 532498.00
iteration 1639 sol 532618.00
iteration 1640 sol 532525.00
iteration 1641 sol 532473.00
iteration 1642 sol 532334.00
iteration 1643 sol 532561.00
iteration 1644 sol 532228.00
iteration 1645 sol 532528.00
iteration 1646 sol 532532.00
iteration 1647 sol 532522.00
iteration 1648 sol 532515.00
iteration 1649 sol 532562.00
iteration 1650 sol 532450.00
iteration 1651 sol 532384.00
iteration 1652 sol 532535.00
iteration 1653 sol 532402.00
iteration 1654 sol 532358.00
iteration 1655 sol 532458.00
iteration 1656 sol 532378.00
iteration 1657 sol 532498.00
iteration 1658 sol 532352.00
iteration 1659 sol 532424.00
iteration 1660 sol 532420.00
iteration 1661 sol 532422.00
iteration 1662 sol 532398.00
iteration 1663 sol 532394.00
iteration 1664 sol 532609.00
iteration 1665 sol 532622.00
iteration 1666 sol 532438.00
iteration 1667 sol 532302.00
iteration 1668 sol 532362.00
iteration 1669 sol 532382.00
iteration 1670 sol 532616.00
iteration 1671 sol 532353.00
iteration 1672 sol 532356.00
iteration 1673 sol 532463.00
iteration 1674 sol 532481.00
iteration 1675 sol 532468.00
iteration 1676 sol 532482.00
iteration 1677 sol 532277.00
iteration 1678 sol 532346.00
iteration 1679 sol 532250.00
iteration 1680 sol 532438.00
iteration 1681 sol 532513.00
iteration 1682 sol 532483.00
iteration 1683 sol 532648.00
iteration 1684 sol 532447.00
iteration 1685 sol 532364.00
iteration 1686 sol 532682.00
iteration 1687 sol 532369.00
iteration 1688 sol 532554.00
iteration 1689 sol 532348.00
iteration 1690 sol 532360.00
iteration 1691 sol 532223.00
iteration 1692 sol 532195.00
iteration 1693 sol 532463.00
iteration 1694 sol 532496.00
iteration 1695 sol 532538.00
iteration 1696 sol 532499.00
iteration 1697 sol 532331.00
iteration 1698 sol 532727.00
iteration 1699 sol 532583.00
iteration 1700 sol 532531.00
iteration 1701 sol 532251.00
iteration 1702 sol 532276.00
iteration 1703 sol 532471.00
iteration 1704 sol 532569.00
iteration 1705 sol 532411.00
iteration 1706 sol 532088.00
iteration 1707 sol 532538.00
iteration 1708 sol 532514.00
iteration 1709 sol 532469.00
iteration 1710 sol 532647.00
iteration 1711 sol 532455.00
iteration 1712 sol 532456.00
iteration 1713 sol 532389.00
iteration 1714 sol 532167.00
iteration 1715 sol 532412.00
iteration 1716 sol 532582.00
iteration 1717 sol 532418.00
iteration 1718 sol 532577.00
iteration 1719 sol 532452.00
iteration 1720 sol 532638.00
iteration 1721 sol 532453.00
iteration 1722 sol 532542.00
iteration 1723 sol 532481.00
iteration 1724 sol 532491.00
iteration 1725 sol 532612.00
iteration 1726 sol 532508.00
iteration 1727 sol 532509.00
iteration 1728 sol 532496.00
iteration 1729 sol 532429.00
iteration 1730 sol 532489.00
iteration 1731 sol 532415.00
iteration 1732 sol 532589.00
iteration 1733 sol 532655.00
iteration 1734 sol 532403.00
iteration 1735 sol 532153.00
iteration 1736 sol 532207.00
iteration 1737 sol 532367.00
iteration 1738 sol 532240.00
iteration 1739 sol 532446.00
iteration 1740 sol 532494.00
iteration 1741 sol 532418.00
iteration 1742 sol 532310.00
iteration 1743 sol 532281.00
iteration 1744 sol 532437.00
iteration 1745 sol 532349.00
iteration 1746 sol 532444.00
iteration 1747 sol 532609.00
iteration 1748 sol 532207.00
iteration 1749 sol 532328.00
iteration 1750 sol 532585.00
iteration 1751 sol 532447.00
iteration 1752 sol 532562.00
iteration 1753 sol 532563.00
iteration 1754 sol 532511.00
iteration 1755 sol 532556.00
iteration 1756 sol 532391.00
iteration 1757 sol 532373.00
iteration 1758 sol 532484.00
iteration 1759 sol 532434.00
iteration 1760 sol 532543.00
iteration 1761 sol 532325.00
iteration 1762 sol 532404.00
iteration 1763 sol 532368.00
iteration 1764 sol 532425.00
iteration 1765 sol 532069.00
iteration 1766 sol 532496.00
iteration 1767 sol 532230.00
iteration 1768 sol 532462.00
iteration 1769 sol 532396.00
iteration 1770 sol 532239.00
iteration 1771 sol 532573.00
iteration 1772 sol 532370.00
iteration 1773 sol 532595.00
iteration 1774 sol 532384.00
iteration 1775 sol 532564.00
iteration 1776 sol 532322.00
iteration 1777 sol 532408.00
iteration 1778 sol 532567.00
iteration 1779 sol 532374.00
iteration 1780 sol 532301.00
iteration 1781 sol 532464.00
iteration 1782 sol 532306.00
iteration 1783 sol 532036.00
iteration 1784 sol 532653.00
iteration 1785 sol 532570.00
iteration 1786 sol 532597.00
iteration 1787 sol 532358.00
iteration 1788 sol 532551.00
iteration 1789 sol 532489.00
iteration 1790 sol 532380.00
iteration 1791 sol 532445.00
iteration 1792 sol 532623.00
iteration 1793 sol 532413.00
iteration 1794 sol 532705.00
iteration 1795 sol 532613.00
iteration 1796 sol 532415.00
iteration 1797 sol 532532.00
iteration 1798 sol 532600.00
iteration 1799 sol 532304.00
iteration 1800 sol 532477.00
iteration 1801 sol 532268.00
iteration 1802 sol 532438.00
iteration 1803 sol 532523.00
iteration 1804 sol 532352.00
iteration 1805 sol 532263.00
iteration 1806 sol 532336.00
iteration 1807 sol 532339.00
iteration 1808 sol 532232.00
iteration 1809 sol 532385.00
iteration 1810 sol 532628.00
iteration 1811 sol 532484.00
iteration 1812 sol 532308.00
iteration 1813 sol 532599.00
iteration 1814 sol 532633.00
iteration 1815 sol 532490.00
iteration 1816 sol 532482.00
iteration 1817 sol 532537.00
iteration 1818 sol 532532.00
iteration 1819 sol 532670.00
iteration 1820 sol 532538.00
iteration 1821 sol 532346.00
iteration 1822 sol 532665.00
iteration 1823 sol 532415.00
iteration 1824 sol 532655.00
iteration 1825 sol 532331.00
iteration 1826 sol 532130.00
iteration 1827 sol 532321.00
iteration 1828 sol 532507.00
iteration 1829 sol 532437.00
iteration 1830 sol 532550.00
iteration 1831 sol 532589.00
iteration 1832 sol 532420.00
iteration 1833 sol 532473.00
iteration 1834 sol 532425.00
iteration 1835 sol 532600.00
iteration 1836 sol 532468.00
iteration 1837 sol 532293.00
iteration 1838 sol 532537.00
iteration 1839 sol 532233.00
iteration 1840 sol 532482.00
iteration 1841 sol 532581.00
iteration 1842 sol 532574.00
iteration 1843 sol 532584.00
iteration 1844 sol 532478.00
iteration 1845 sol 532522.00
iteration 1846 sol 532645.00
iteration 1847 sol 532563.00
iteration 1848 sol 532391.00
iteration 1849 sol 532453.00
iteration 1850 sol 532449.00
iteration 1851 sol 532465.00
iteration 1852 sol 532433.00
iteration 1853 sol 532396.00
iteration 1854 sol 532395.00
iteration 1855 sol 532472.00
iteration 1856 sol 532508.00
iteration 1857 sol 532211.00
iteration 1858 sol 532119.00
iteration 1859 sol 532354.00
iteration 1860 sol 532348.00
iteration 1861 sol 532162.00
iteration 1862 sol 532172.00
iteration 1863 sol 532389.00
iteration 1864 sol 532623.00
iteration 1865 sol 532605.00
iteration 1866 sol 532521.00
iteration 1867 sol 532369.00
iteration 1868 sol 532407.00
iteration 1869 sol 532165.00
iteration 1870 sol 532676.00
iteration 1871 sol 532478.00
iteration 1872 sol 532432.00
iteration 1873 sol 532663.00
iteration 1874 sol 532496.00
iteration 1875 sol 532161.00
iteration 1876 sol 532443.00
iteration 1877 sol 532497.00
iteration 1878 sol 532498.00
iteration 1879 sol 532561.00
iteration 1880 sol 532563.00
iteration 1881 sol 532329.00
iteration 1882 sol 532523.00
iteration 1883 sol 532487.00
iteration 1884 sol 532567.00
iteration 1885 sol 532588.00
iteration 1886 sol 532669.00
iteration 1887 sol 532379.00
iteration 1888 sol 532553.00
iteration 1889 sol 532503.00
iteration 1890 sol 532508.00
iteration 1891 sol 532535.00
iteration 1892 sol 532504.00
iteration 1893 sol 532345.00
iteration 1894 sol 532482.00
iteration 1895 sol 532390.00
iteration 1896 sol 532521.00
iteration 1897 sol 532443.00
iteration 1898 sol 532647.00
iteration 1899 sol 532438.00
iteration 1900 sol 532434.00
iteration 1901 sol 532511.00
iteration 1902 sol 532349.00
iteration 1903 sol 532409.00
iteration 1904 sol 532279.00
iteration 1905 sol 532333.00
iteration 1906 sol 532724.00
iteration 1907 sol 532475.00
iteration 1908 sol 532564.00
iteration 1909 sol 532443.00
iteration 1910 sol 532535.00
iteration 1911 sol 532621.00
iteration 1912 sol 532621.00
iteration 1913 sol 532472.00
iteration 1914 sol 532298.00
iteration 1915 sol 532270.00
iteration 1916 sol 532459.00
iteration 1917 sol 532441.00
iteration 1918 sol 532092.00
iteration 1919 sol 532346.00
iteration 1920 sol 532564.00
iteration 1921 sol 532475.00
iteration 1922 sol 532439.00
iteration 1923 sol 532486.00
iteration 1924 sol 532526.00
iteration 1925 sol 532467.00
iteration 1926 sol 532501.00
iteration 1927 sol 532427.00
iteration 1928 sol 532531.00
iteration 1929 sol 532384.00
iteration 1930 sol 532693.00
iteration 1931 sol 532562.00
iteration 1932 sol 532405.00
iteration 1933 sol 532545.00
iteration 1934 sol 532353.00
iteration 1935 sol 532458.00
iteration 1936 sol 532476.00
iteration 1937 sol 532479.00
iteration 1938 sol 532333.00
iteration 1939 sol 532547.00
iteration 1940 sol 532376.00
iteration 1941 sol 532580.00
iteration 1942 sol 532396.00
iteration 1943 sol 532423.00
iteration 1944 sol 532510.00
iteration 1945 sol 532427.00
iteration 1946 sol 532517.00
iteration 1947 sol 532625.00
iteration 1948 sol 532289.00
iteration 1949 sol 532623.00
iteration 1950 sol 532478.00
iteration 1951 sol 532131.00
iteration 1952 sol 532316.00
iteration 1953 sol 532188.00
iteration 1954 sol 532596.00
iteration 1955 sol 532303.00
iteration 1956 sol 532599.00
iteration 1957 sol 532455.00
iteration 1958 sol 532465.00
iteration 1959 sol 532545.00
iteration 1960 sol 532106.00
iteration 1961 sol 532167.00
iteration 1962 sol 532592.00
iteration 1963 sol 532483.00
iteration 1964 sol 532569.00
iteration 1965 sol 532680.00
iteration 1966 sol 532539.00
iteration 1967 sol 532365.00
iteration 1968 sol 532630.00
iteration 1969 sol 532210.00
iteration 1970 sol 532228.00
iteration 1971 sol 532489.00
iteration 1972 sol 532553.00
iteration 1973 sol 532682.00
iteration 1974 sol 532460.00
iteration 1975 sol 532621.00
iteration 1976 sol 532570.00
iteration 1977 sol 532513.00
iteration 1978 sol 532367.00
iteration 1979 sol 532511.00
iteration 1980 sol 532422.00
iteration 1981 sol 532518.00
iteration 1982 sol 532409.00
iteration 1983 sol 532429.00
iteration 1984 sol 532653.00
iteration 1985 sol 532296.00
iteration 1986 sol 532493.00
iteration 1987 sol 532555.00
iteration 1988 sol 532287.00
iteration 1989 sol 532335.00
iteration 1990 sol 532433.00
iteration 1991 sol 532579.00
iteration 1992 sol 532475.00
iteration 1993 sol 532595.00
iteration 1994 sol 532523.00
iteration 1995 sol 532315.00
iteration 1996 sol 532635.00
iteration 1997 sol 532298.00
iteration 1998 sol 532466.00
iteration 1999 sol 532590.00
Number of iterations = 2000
Best Solution was found in iteration = 757
Time used by neighbor | Times each neighbor was used | Improvements
N_1 = 1.19 | 49900 | 9494
N_2 = 35.07 | 49900 | 31613
N_3 = 1.00 | 49900 | 3289
N_4 = 84.12 | 49900 | 41383
Time to find the best solution = 48.13
Solution = 532768.00
Time = 131.49
