iteration 0 sol 521557750.00
iteration 1 sol 524914278.00
iteration 2 sol 522801358.00
iteration 3 sol 522349326.00
iteration 4 sol 521798846.00
iteration 5 sol 521415414.00
iteration 6 sol 521659875.00
iteration 7 sol 521896711.00
iteration 8 sol 522364556.00
iteration 9 sol 524381345.00
iteration 10 sol 524951583.00
iteration 11 sol 526038420.00
iteration 12 sol 519594753.00
iteration 13 sol 521741117.00
iteration 14 sol 525381906.00
iteration 15 sol 523915588.00
iteration 16 sol 522680228.00
iteration 17 sol 522294388.00
iteration 18 sol 522601974.00
iteration 19 sol 520509199.00
iteration 20 sol 524912501.00
iteration 21 sol 521553189.00
iteration 22 sol 522530651.00
iteration 23 sol 523607709.00
iteration 24 sol 523685913.00
iteration 25 sol 523383895.00
iteration 26 sol 523123010.00
iteration 27 sol 522953810.00
iteration 28 sol 525329332.00
iteration 29 sol 523635310.00
iteration 30 sol 520955686.00
iteration 31 sol 523104240.00
iteration 32 sol 524955342.00
iteration 33 sol 522816829.00
iteration 34 sol 522440348.00
iteration 35 sol 523066544.00
iteration 36 sol 522076198.00
iteration 37 sol 520328286.00
iteration 38 sol 524130082.00
iteration 39 sol 523287985.00
iteration 40 sol 523711980.00
iteration 41 sol 522052461.00
iteration 42 sol 521429906.00
iteration 43 sol 522554665.00
iteration 44 sol 522129545.00
iteration 45 sol 523000628.00
iteration 46 sol 523139044.00
iteration 47 sol 522308298.00
iteration 48 sol 522527632.00
iteration 49 sol 522859300.00
iteration 50 sol 522030851.00
iteration 51 sol 521548569.00
iteration 52 sol 520656489.00
iteration 53 sol 522140799.00
iteration 54 sol 521577925.00
iteration 55 sol 523343093.00
iteration 56 sol 523251270.00
iteration 57 sol 522095103.00
iteration 58 sol 525962879.00
iteration 59 sol 522276464.00
iteration 60 sol 520713684.00
iteration 61 sol 521749993.00
iteration 62 sol 521315972.00
iteration 63 sol 520220580.00
iteration 64 sol 522073487.00
iteration 65 sol 519364975.00
iteration 66 sol 524438644.00
iteration 67 sol 524618458.00
iteration 68 sol 524037002.00
iteration 69 sol 525538763.00
iteration 70 sol 522651451.00
iteration 71 sol 522787032.00
iteration 72 sol 523660490.00
iteration 73 sol 523699516.00
iteration 74 sol 521483522.00
iteration 75 sol 522877841.00
iteration 76 sol 525598144.00
iteration 77 sol 521204079.00
iteration 78 sol 522703862.00
iteration 79 sol 521999118.00
iteration 80 sol 522317684.00
iteration 81 sol 523037679.00
iteration 82 sol 521750131.00
iteration 83 sol 520261660.00
iteration 84 sol 522920095.00
iteration 85 sol 521195376.00
iteration 86 sol 520081252.00
iteration 87 sol 522428119.00
iteration 88 sol 525301890.00
iteration 89 sol 524515092.00
iteration 90 sol 522198544.00
iteration 91 sol 524652490.00
iteration 92 sol 522591196.00
iteration 93 sol 522693248.00
iteration 94 sol 520688365.00
iteration 95 sol 522597180.00
iteration 96 sol 524258548.00
iteration 97 sol 524581202.00
iteration 98 sol 523174307.00
iteration 99 sol 521382290.00
iteration 100 sol 523740853.00
iteration 101 sol 518989615.00
iteration 102 sol 523735059.00
iteration 103 sol 523456518.00
iteration 104 sol 520837665.00
iteration 105 sol 523638303.00
iteration 106 sol 523427667.00
iteration 107 sol 522109204.00
iteration 108 sol 524588733.00
iteration 109 sol 518064018.00
iteration 110 sol 522940188.00
iteration 111 sol 521553199.00
iteration 112 sol 522770516.00
iteration 113 sol 522147192.00
iteration 114 sol 524161680.00
iteration 115 sol 521687853.00
iteration 116 sol 522189242.00
iteration 117 sol 522214181.00
iteration 118 sol 522377480.00
iteration 119 sol 521841621.00
iteration 120 sol 522274976.00
iteration 121 sol 523211439.00
iteration 122 sol 523681020.00
iteration 123 sol 521142318.00
iteration 124 sol 522840998.00
iteration 125 sol 522372159.00
iteration 126 sol 522404686.00
iteration 127 sol 524149838.00
iteration 128 sol 525266012.00
iteration 129 sol 524688015.00
iteration 130 sol 521072820.00
iteration 131 sol 523589086.00
iteration 132 sol 522108905.00
iteration 133 sol 522490679.00
iteration 134 sol 519620500.00
iteration 135 sol 524274340.00
iteration 136 sol 523670145.00
iteration 137 sol 522571384.00
iteration 138 sol 523865882.00
iteration 139 sol 522263911.00
iteration 140 sol 522241007.00
iteration 141 sol 521631978.00
iteration 142 sol 523720994.00
iteration 143 sol 523928507.00
iteration 144 sol 521879078.00
iteration 145 sol 526421117.00
iteration 146 sol 521118474.00
iteration 147 sol 523574259.00
iteration 148 sol 523650843.00
iteration 149 sol 525111962.00
iteration 150 sol 526540519.00
iteration 151 sol 522673646.00
iteration 152 sol 523867257.00
iteration 153 sol 522420598.00
iteration 154 sol 522190267.00
iteration 155 sol 523391886.00
iteration 156 sol 524252360.00
iteration 157 sol 525601111.00
iteration 158 sol 522592757.00
iteration 159 sol 522029967.00
iteration 160 sol 521017233.00
iteration 161 sol 520673377.00
iteration 162 sol 522690018.00
iteration 163 sol 519985805.00
iteration 164 sol 520472560.00
iteration 165 sol 521156789.00
iteration 166 sol 523754282.00
iteration 167 sol 522871260.00
iteration 168 sol 524656122.00
iteration 169 sol 521218044.00
iteration 170 sol 521978631.00
iteration 171 sol 522841961.00
iteration 172 sol 524181587.00
iteration 173 sol 522528937.00
iteration 174 sol 522134825.00
iteration 175 sol 522155021.00
iteration 176 sol 518967975.00
iteration 177 sol 522317795.00
iteration 178 sol 520276969.00
iteration 179 sol 521272463.00
iteration 180 sol 521329959.00
iteration 181 sol 526002904.00
iteration 182 sol 521993964.00
iteration 183 sol 523850634.00
iteration 184 sol 525061039.00
iteration 185 sol 522451123.00
iteration 186 sol 523716280.00
iteration 187 sol 522531117.00
iteration 188 sol 522203842.00
iteration 189 sol 522027249.00
iteration 190 sol 524340225.00
iteration 191 sol 523723901.00
iteration 192 sol 519990067.00
iteration 193 sol 521582277.00
iteration 194 sol 522024346.00
iteration 195 sol 521750883.00
iteration 196 sol 522752416.00
iteration 197 sol 521636341.00
iteration 198 sol 524009789.00
iteration 199 sol 523447919.00
iteration 200 sol 521852816.00
iteration 201 sol 522438173.00
iteration 202 sol 525375996.00
iteration 203 sol 523432046.00
iteration 204 sol 524974964.00
iteration 205 sol 521920468.00
iteration 206 sol 523286210.00
iteration 207 sol 524424528.00
iteration 208 sol 522824907.00
iteration 209 sol 525712355.00
iteration 210 sol 521513011.00
iteration 211 sol 524917827.00
iteration 212 sol 519023537.00
iteration 213 sol 525555573.00
iteration 214 sol 521499131.00
iteration 215 sol 521854310.00
iteration 216 sol 520579001.00
iteration 217 sol 522888888.00
iteration 218 sol 520151904.00
iteration 219 sol 522662900.00
iteration 220 sol 524100280.00
iteration 221 sol 520352434.00
iteration 222 sol 523141943.00
iteration 223 sol 524250541.00
iteration 224 sol 524476986.00
iteration 225 sol 520487904.00
iteration 226 sol 521055099.00
iteration 227 sol 519304034.00
iteration 228 sol 524244266.00
iteration 229 sol 521909810.00
iteration 230 sol 520173708.00
iteration 231 sol 520200118.00
iteration 232 sol 523533931.00
iteration 233 sol 524789774.00
iteration 234 sol 522484500.00
iteration 235 sol 523555801.00
iteration 236 sol 523445383.00
iteration 237 sol 522562708.00
iteration 238 sol 523838916.00
iteration 239 sol 523143599.00
iteration 240 sol 524997607.00
iteration 241 sol 522265228.00
iteration 242 sol 523278254.00
iteration 243 sol 524923981.00
iteration 244 sol 522026473.00
iteration 245 sol 520384785.00
iteration 246 sol 523460472.00
iteration 247 sol 522084554.00
iteration 248 sol 524902277.00
iteration 249 sol 522849087.00
iteration 250 sol 521093205.00
iteration 251 sol 520744623.00
iteration 252 sol 522960973.00
iteration 253 sol 520827673.00
iteration 254 sol 520945146.00
iteration 255 sol 523633247.00
iteration 256 sol 522923768.00
iteration 257 sol 522745124.00
iteration 258 sol 521714988.00
iteration 259 sol 522359776.00
iteration 260 sol 522953500.00
iteration 261 sol 523222151.00
iteration 262 sol 521331317.00
iteration 263 sol 524925105.00
iteration 264 sol 521960868.00
iteration 265 sol 522161941.00
iteration 266 sol 522984167.00
iteration 267 sol 523320547.00
iteration 268 sol 523852446.00
iteration 269 sol 525282273.00
iteration 270 sol 520881581.00
iteration 271 sol 523402151.00
iteration 272 sol 525492199.00
iteration 273 sol 523522573.00
iteration 274 sol 522508739.00
iteration 275 sol 522689248.00
iteration 276 sol 522947442.00
iteration 277 sol 522373427.00
iteration 278 sol 521898838.00
iteration 279 sol 523173344.00
iteration 280 sol 521941995.00
iteration 281 sol 520996092.00
iteration 282 sol 522319388.00
iteration 283 sol 523148385.00
iteration 284 sol 520975060.00
iteration 285 sol 521813235.00
iteration 286 sol 524756829.00
iteration 287 sol 520492671.00
iteration 288 sol 522550762.00
iteration 289 sol 518952647.00
iteration 290 sol 521997957.00
iteration 291 sol 523668963.00
iteration 292 sol 520617443.00
iteration 293 sol 521321567.00
iteration 294 sol 521667971.00
iteration 295 sol 524927996.00
iteration 296 sol 517690592.00
iteration 297 sol 523136955.00
iteration 298 sol 521795709.00
iteration 299 sol 522057774.00
iteration 300 sol 522047145.00
iteration 301 sol 519992107.00
iteration 302 sol 523235637.00
iteration 303 sol 522223860.00
iteration 304 sol 524676803.00
iteration 305 sol 523391722.00
iteration 306 sol 523312918.00
iteration 307 sol 522115375.00
iteration 308 sol 523183174.00
iteration 309 sol 525146329.00
iteration 310 sol 524155083.00
iteration 311 sol 521899220.00
iteration 312 sol 523065606.00
iteration 313 sol 521995849.00
iteration 314 sol 521005729.00
iteration 315 sol 521728817.00
iteration 316 sol 522627633.00
iteration 317 sol 521559197.00
iteration 318 sol 521287839.00
iteration 319 sol 526368947.00
iteration 320 sol 523697362.00
iteration 321 sol 521361037.00
iteration 322 sol 521195280.00
iteration 323 sol 522673616.00
iteration 324 sol 524227696.00
iteration 325 sol 521952798.00
iteration 326 sol 523867159.00
iteration 327 sol 521148726.00
iteration 328 sol 520210839.00
iteration 329 sol 522756983.00
iteration 330 sol 523299233.00
iteration 331 sol 523115210.00
iteration 332 sol 521745281.00
iteration 333 sol 521645030.00
iteration 334 sol 521983888.00
iteration 335 sol 522028963.00
iteration 336 sol 522881851.00
iteration 337 sol 524746520.00
iteration 338 sol 523955497.00
iteration 339 sol 520458518.00
iteration 340 sol 521817794.00
iteration 341 sol 523142483.00
iteration 342 sol 522446760.00
iteration 343 sol 521232728.00
iteration 344 sol 524621677.00
iteration 345 sol 525081038.00
iteration 346 sol 522510119.00
iteration 347 sol 523101884.00
iteration 348 sol 523553803.00
iteration 349 sol 523797522.00
iteration 350 sol 522401536.00
iteration 351 sol 522361731.00
iteration 352 sol 521321364.00
iteration 353 sol 522625884.00
iteration 354 sol 524468842.00
iteration 355 sol 522236370.00
iteration 356 sol 521389753.00
iteration 357 sol 523427397.00
iteration 358 sol 522835470.00
iteration 359 sol 519240093.00
iteration 360 sol 522740843.00
iteration 361 sol 521390593.00
iteration 362 sol 520643512.00
iteration 363 sol 521304718.00
iteration 364 sol 523392376.00
iteration 365 sol 520483399.00
iteration 366 sol 523575114.00
iteration 367 sol 522221172.00
iteration 368 sol 522818962.00
iteration 369 sol 523176852.00
iteration 370 sol 522062843.00
iteration 371 sol 524852293.00
iteration 372 sol 520755497.00
iteration 373 sol 522160668.00
iteration 374 sol 521322471.00
iteration 375 sol 523265691.00
iteration 376 sol 523997333.00
iteration 377 sol 521164273.00
iteration 378 sol 523724435.00
iteration 379 sol 519082972.00
iteration 380 sol 521965797.00
iteration 381 sol 520820871.00
iteration 382 sol 521286922.00
iteration 383 sol 522160962.00
iteration 384 sol 522421058.00
iteration 385 sol 520569617.00
iteration 386 sol 521929974.00
iteration 387 sol 522229485.00
iteration 388 sol 524329338.00
iteration 389 sol 522999634.00
iteration 390 sol 523751725.00
iteration 391 sol 524573590.00
iteration 392 sol 524833472.00
iteration 393 sol 524939310.00
iteration 394 sol 523600592.00
iteration 395 sol 523524673.00
iteration 396 sol 521748950.00
iteration 397 sol 524097255.00
iteration 398 sol 521818868.00
iteration 399 sol 522770594.00
iteration 400 sol 524819003.00
iteration 401 sol 521946371.00
iteration 402 sol 523514852.00
iteration 403 sol 523761009.00
iteration 404 sol 520657664.00
iteration 405 sol 522357151.00
iteration 406 sol 521103512.00
iteration 407 sol 521744562.00
iteration 408 sol 522246684.00
iteration 409 sol 522506216.00
iteration 410 sol 525297300.00
iteration 411 sol 522946071.00
iteration 412 sol 520268957.00
iteration 413 sol 521433880.00
iteration 414 sol 522978895.00
iteration 415 sol 524152114.00
iteration 416 sol 520628863.00
iteration 417 sol 522113688.00
iteration 418 sol 522618289.00
iteration 419 sol 521878480.00
iteration 420 sol 522638740.00
iteration 421 sol 522155350.00
iteration 422 sol 524127087.00
iteration 423 sol 522516468.00
iteration 424 sol 524656694.00
iteration 425 sol 520987759.00
iteration 426 sol 520176066.00
iteration 427 sol 521822254.00
iteration 428 sol 523198542.00
iteration 429 sol 523460595.00
iteration 430 sol 521665293.00
iteration 431 sol 522557228.00
iteration 432 sol 522705362.00
iteration 433 sol 524105285.00
iteration 434 sol 521586821.00
iteration 435 sol 523134116.00
iteration 436 sol 523551758.00
iteration 437 sol 523991034.00
iteration 438 sol 522248673.00
iteration 439 sol 522831928.00
iteration 440 sol 524271247.00
iteration 441 sol 521948629.00
iteration 442 sol 521726846.00
iteration 443 sol 521389497.00
iteration 444 sol 522674862.00
iteration 445 sol 526210840.00
iteration 446 sol 522458969.00
iteration 447 sol 525004994.00
iteration 448 sol 523507078.00
iteration 449 sol 524558138.00
iteration 450 sol 521365032.00
iteration 451 sol 521992615.00
iteration 452 sol 523026099.00
iteration 453 sol 522046066.00
iteration 454 sol 522102884.00
iteration 455 sol 522855970.00
iteration 456 sol 522118013.00
iteration 457 sol 524068830.00
iteration 458 sol 523774635.00
iteration 459 sol 523402472.00
iteration 460 sol 522416021.00
iteration 461 sol 522407596.00
iteration 462 sol 523520976.00
iteration 463 sol 524682765.00
iteration 464 sol 524090173.00
iteration 465 sol 523903919.00
iteration 466 sol 522650296.00
iteration 467 sol 521692373.00
iteration 468 sol 524111089.00
iteration 469 sol 522257060.00
iteration 470 sol 526967646.00
iteration 471 sol 523788113.00
iteration 472 sol 524943332.00
iteration 473 sol 523671974.00
iteration 474 sol 525224823.00
iteration 475 sol 523350294.00
iteration 476 sol 522728185.00
iteration 477 sol 525503769.00
iteration 478 sol 520506143.00
iteration 479 sol 524385652.00
iteration 480 sol 520650134.00
iteration 481 sol 520913396.00
iteration 482 sol 524389307.00
iteration 483 sol 523194996.00
iteration 484 sol 522120344.00
iteration 485 sol 523488361.00
iteration 486 sol 522186066.00
iteration 487 sol 521246724.00
iteration 488 sol 526471230.00
iteration 489 sol 526708416.00
iteration 490 sol 523694769.00
iteration 491 sol 522542393.00
iteration 492 sol 522191555.00
iteration 493 sol 522456420.00
iteration 494 sol 523783542.00
iteration 495 sol 520461540.00
iteration 496 sol 523135290.00
iteration 497 sol 524615607.00
iteration 498 sol 521506480.00
iteration 499 sol 521590115.00
iteration 500 sol 524196221.00
iteration 501 sol 524966059.00
iteration 502 sol 520923281.00
iteration 503 sol 520583730.00
iteration 504 sol 523672413.00
iteration 505 sol 525754171.00
iteration 506 sol 523995789.00
iteration 507 sol 523102333.00
iteration 508 sol 522948508.00
iteration 509 sol 521061068.00
iteration 510 sol 523403273.00
iteration 511 sol 520552435.00
iteration 512 sol 522493038.00
iteration 513 sol 524113430.00
iteration 514 sol 526205159.00
iteration 515 sol 522759584.00
iteration 516 sol 523019595.00
iteration 517 sol 521505222.00
iteration 518 sol 519956404.00
iteration 519 sol 523712557.00
iteration 520 sol 520595260.00
iteration 521 sol 522649977.00
iteration 522 sol 521367388.00
iteration 523 sol 520775659.00
iteration 524 sol 521221483.00
iteration 525 sol 519916714.00
iteration 526 sol 522564561.00
iteration 527 sol 523369814.00
iteration 528 sol 524005182.00
iteration 529 sol 522609150.00
iteration 530 sol 522422899.00
iteration 531 sol 520624619.00
iteration 532 sol 523565368.00
iteration 533 sol 519930619.00
iteration 534 sol 521473357.00
iteration 535 sol 521103579.00
iteration 536 sol 521449430.00
iteration 537 sol 523478673.00
iteration 538 sol 522197429.00
iteration 539 sol 522069498.00
iteration 540 sol 522971123.00
iteration 541 sol 521040695.00
iteration 542 sol 524214689.00
iteration 543 sol 521528939.00
iteration 544 sol 523279980.00
iteration 545 sol 520812805.00
iteration 546 sol 522880463.00
iteration 547 sol 521541367.00
iteration 548 sol 521149562.00
iteration 549 sol 521451649.00
iteration 550 sol 520760085.00
iteration 551 sol 524480553.00
iteration 552 sol 522810087.00
iteration 553 sol 523866613.00
iteration 554 sol 519657180.00
iteration 555 sol 525874781.00
iteration 556 sol 522361801.00
iteration 557 sol 524164693.00
iteration 558 sol 523471331.00
iteration 559 sol 523903491.00
iteration 560 sol 525143483.00
iteration 561 sol 521668763.00
iteration 562 sol 522713672.00
iteration 563 sol 522363219.00
iteration 564 sol 523667219.00
iteration 565 sol 521947754.00
iteration 566 sol 523359854.00
iteration 567 sol 520753473.00
iteration 568 sol 521563236.00
iteration 569 sol 521275623.00
iteration 570 sol 526343358.00
iteration 571 sol 521067406.00
iteration 572 sol 520722329.00
iteration 573 sol 522347295.00
iteration 574 sol 525026134.00
iteration 575 sol 523171730.00
iteration 576 sol 521757865.00
iteration 577 sol 521024440.00
iteration 578 sol 522727033.00
iteration 579 sol 520507151.00
iteration 580 sol 523933121.00
iteration 581 sol 524396961.00
iteration 582 sol 522743616.00
iteration 583 sol 521981216.00
iteration 584 sol 520475818.00
iteration 585 sol 519177634.00
iteration 586 sol 522027802.00
iteration 587 sol 524543260.00
iteration 588 sol 522472821.00
iteration 589 sol 523119816.00
iteration 590 sol 521167475.00
iteration 591 sol 521407126.00
iteration 592 sol 524595676.00
iteration 593 sol 523020104.00
iteration 594 sol 521163556.00
iteration 595 sol 524747132.00
iteration 596 sol 523019307.00
iteration 597 sol 524348451.00
iteration 598 sol 521632815.00
iteration 599 sol 522821785.00
iteration 600 sol 523069013.00
iteration 601 sol 524803370.00
iteration 602 sol 521680168.00
iteration 603 sol 524188379.00
iteration 604 sol 521486608.00
iteration 605 sol 522677204.00
iteration 606 sol 524288820.00
iteration 607 sol 521345959.00
iteration 608 sol 524394847.00
iteration 609 sol 524884232.00
iteration 610 sol 522431105.00
iteration 611 sol 521858369.00
iteration 612 sol 522243818.00
iteration 613 sol 521668707.00
iteration 614 sol 523299559.00
iteration 615 sol 524362958.00
iteration 616 sol 520271441.00
iteration 617 sol 522901609.00
iteration 618 sol 523147980.00
iteration 619 sol 521498978.00
iteration 620 sol 522859690.00
iteration 621 sol 522345370.00
iteration 622 sol 522331587.00
iteration 623 sol 524497019.00
iteration 624 sol 520692628.00
iteration 625 sol 519557026.00
iteration 626 sol 524201256.00
iteration 627 sol 523524256.00
iteration 628 sol 521391052.00
iteration 629 sol 521196296.00
iteration 630 sol 523150905.00
iteration 631 sol 522696405.00
iteration 632 sol 523865471.00
iteration 633 sol 521266426.00
iteration 634 sol 522512650.00
iteration 635 sol 524830531.00
iteration 636 sol 523826973.00
iteration 637 sol 523444893.00
iteration 638 sol 521808799.00
iteration 639 sol 521634750.00
iteration 640 sol 523531335.00
iteration 641 sol 522383385.00
iteration 642 sol 522688490.00
iteration 643 sol 524769010.00
iteration 644 sol 522465704.00
iteration 645 sol 523940219.00
iteration 646 sol 520182296.00
iteration 647 sol 521697811.00
iteration 648 sol 522978553.00
iteration 649 sol 522726030.00
iteration 650 sol 522740952.00
iteration 651 sol 522988657.00
iteration 652 sol 523435587.00
iteration 653 sol 523825701.00
iteration 654 sol 522286386.00
iteration 655 sol 523246823.00
iteration 656 sol 524657023.00
iteration 657 sol 520824285.00
iteration 658 sol 523048363.00
iteration 659 sol 521817433.00
iteration 660 sol 520944454.00
iteration 661 sol 521426119.00
iteration 662 sol 521600394.00
iteration 663 sol 523721482.00
iteration 664 sol 523694679.00
iteration 665 sol 523151565.00
iteration 666 sol 522686554.00
iteration 667 sol 523130095.00
iteration 668 sol 522847050.00
iteration 669 sol 521788239.00
iteration 670 sol 521619105.00
iteration 671 sol 523302156.00
iteration 672 sol 523180114.00
iteration 673 sol 521543523.00
iteration 674 sol 525271014.00
iteration 675 sol 522214141.00
iteration 676 sol 521991061.00
iteration 677 sol 523893192.00
iteration 678 sol 522559537.00
iteration 679 sol 523332327.00
iteration 680 sol 520359560.00
iteration 681 sol 523817339.00
iteration 682 sol 520601788.00
iteration 683 sol 520141081.00
iteration 684 sol 520275050.00
iteration 685 sol 523317346.00
iteration 686 sol 522446825.00
iteration 687 sol 523906151.00
iteration 688 sol 522468116.00
iteration 689 sol 523207753.00
iteration 690 sol 521300241.00
iteration 691 sol 523513342.00
iteration 692 sol 520848167.00
iteration 693 sol 524430519.00
iteration 694 sol 523648065.00
iteration 695 sol 523908132.00
iteration 696 sol 525012531.00
iteration 697 sol 523270117.00
iteration 698 sol 523679117.00
iteration 699 sol 523872814.00
iteration 700 sol 522719623.00
iteration 701 sol 523888575.00
iteration 702 sol 525188893.00
iteration 703 sol 521570741.00
iteration 704 sol 519833245.00
iteration 705 sol 524810510.00
iteration 706 sol 520491053.00
iteration 707 sol 523982944.00
iteration 708 sol 523284830.00
iteration 709 sol 524715445.00
iteration 710 sol 521424904.00
iteration 711 sol 521333706.00
iteration 712 sol 522787358.00
iteration 713 sol 523187010.00
iteration 714 sol 523434596.00
iteration 715 sol 526831287.00
iteration 716 sol 522753634.00
iteration 717 sol 523013818.00
iteration 718 sol 524416426.00
iteration 719 sol 523766382.00
iteration 720 sol 523560144.00
iteration 721 sol 521428489.00
iteration 722 sol 523086253.00
iteration 723 sol 524200176.00
iteration 724 sol 521407431.00
iteration 725 sol 525165206.00
iteration 726 sol 521989546.00
iteration 727 sol 520850526.00
iteration 728 sol 520885364.00
iteration 729 sol 521950461.00
iteration 730 sol 524013478.00
iteration 731 sol 520457594.00
iteration 732 sol 521385828.00
iteration 733 sol 523031612.00
iteration 734 sol 522136946.00
iteration 735 sol 522073840.00
iteration 736 sol 522872100.00
iteration 737 sol 522315920.00
iteration 738 sol 521266438.00
iteration 739 sol 520307548.00
iteration 740 sol 523422283.00
iteration 741 sol 523813097.00
iteration 742 sol 522746081.00
iteration 743 sol 522822743.00
iteration 744 sol 523138944.00
iteration 745 sol 522098685.00
iteration 746 sol 520881599.00
iteration 747 sol 521608336.00
iteration 748 sol 523403413.00
iteration 749 sol 522206085.00
iteration 750 sol 521546753.00
iteration 751 sol 524558033.00
iteration 752 sol 522932028.00
iteration 753 sol 524424459.00
iteration 754 sol 524777479.00
iteration 755 sol 523375354.00
iteration 756 sol 524753792.00
iteration 757 sol 522332643.00
iteration 758 sol 520848750.00
iteration 759 sol 522059062.00
iteration 760 sol 523405142.00
iteration 761 sol 522572388.00
iteration 762 sol 521114851.00
iteration 763 sol 521585580.00
iteration 764 sol 521018656.00
iteration 765 sol 524561966.00
iteration 766 sol 521470884.00
iteration 767 sol 522472473.00
iteration 768 sol 521256936.00
iteration 769 sol 523773478.00
iteration 770 sol 520012161.00
iteration 771 sol 521560058.00
iteration 772 sol 521626150.00
iteration 773 sol 522676276.00
iteration 774 sol 522622679.00
iteration 775 sol 522164075.00
iteration 776 sol 523263741.00
iteration 777 sol 520882699.00
iteration 778 sol 520734726.00
iteration 779 sol 520985378.00
iteration 780 sol 522767665.00
iteration 781 sol 520269501.00
iteration 782 sol 525211551.00
iteration 783 sol 522082727.00
iteration 784 sol 522182926.00
iteration 785 sol 521456458.00
iteration 786 sol 523511512.00
iteration 787 sol 521739635.00
iteration 788 sol 522295803.00
iteration 789 sol 524631131.00
iteration 790 sol 521815963.00
iteration 791 sol 523065972.00
iteration 792 sol 524049142.00
iteration 793 sol 521523794.00
iteration 794 sol 526843862.00
iteration 795 sol 523257127.00
Number of iterations = 796
Best Solution was found in iteration = 470
Time used by neighbor | Times each neighbor was used | Improvements
N_1 = 31.89 | 5820 | 521
N_2 = 332.05 | 5820 | 5220
N_3 = 5.43 | 5820 | 911
N_4 = 220.06 | 5820 | 2887
Time to find the best solution = 351.76
Solution = 526967646.00
Time = 600.06
