iteration 0 sol 227763704.00
iteration 1 sol 227851285.00
iteration 2 sol 228263675.00
iteration 3 sol 228321575.00
iteration 4 sol 228190703.00
iteration 5 sol 228513330.00
iteration 6 sol 228381628.00
iteration 7 sol 227938834.00
iteration 8 sol 228300494.00
iteration 9 sol 227675038.00
iteration 10 sol 228230728.00
iteration 11 sol 227930792.00
iteration 12 sol 228545693.00
iteration 13 sol 228127396.00
iteration 14 sol 227620872.00
iteration 15 sol 228359250.00
iteration 16 sol 227830112.00
iteration 17 sol 228489972.00
iteration 18 sol 228584464.00
iteration 19 sol 227664943.00
iteration 20 sol 228415954.00
iteration 21 sol 227992639.00
iteration 22 sol 228551001.00
iteration 23 sol 227723210.00
iteration 24 sol 228521174.00
iteration 25 sol 228311300.00
iteration 26 sol 228148110.00
iteration 27 sol 228243704.00
iteration 28 sol 228652612.00
iteration 29 sol 228046659.00
iteration 30 sol 228300853.00
iteration 31 sol 227443256.00
iteration 32 sol 227946303.00
iteration 33 sol 228337802.00
iteration 34 sol 227598262.00
iteration 35 sol 228522426.00
iteration 36 sol 228382628.00
iteration 37 sol 228258575.00
iteration 38 sol 228221138.00
iteration 39 sol 228346533.00
iteration 40 sol 228497616.00
iteration 41 sol 228215369.00
iteration 42 sol 228265739.00
iteration 43 sol 228214117.00
iteration 44 sol 227727144.00
iteration 45 sol 228407953.00
iteration 46 sol 228290993.00
iteration 47 sol 228510417.00
iteration 48 sol 228374078.00
iteration 49 sol 228268308.00
iteration 50 sol 227880944.00
iteration 51 sol 228533520.00
iteration 52 sol 228096846.00
iteration 53 sol 227666061.00
iteration 54 sol 227858197.00
iteration 55 sol 228313293.00
iteration 56 sol 227725602.00
iteration 57 sol 228443269.00
iteration 58 sol 228245189.00
iteration 59 sol 228107632.00
iteration 60 sol 228296513.00
iteration 61 sol 228020169.00
iteration 62 sol 228167538.00
iteration 63 sol 228395369.00
iteration 64 sol 228177550.00
iteration 65 sol 228337525.00
iteration 66 sol 227985507.00
iteration 67 sol 228523053.00
iteration 68 sol 228299488.00
iteration 69 sol 228587237.00
iteration 70 sol 228275300.00
iteration 71 sol 227956582.00
iteration 72 sol 228275774.00
iteration 73 sol 227999284.00
iteration 74 sol 228392109.00
iteration 75 sol 228350972.00
iteration 76 sol 228229555.00
iteration 77 sol 227930960.00
iteration 78 sol 228370156.00
iteration 79 sol 228182050.00
iteration 80 sol 227671599.00
iteration 81 sol 228331434.00
iteration 82 sol 228594644.00
iteration 83 sol 228251136.00
iteration 84 sol 227832066.00
iteration 85 sol 228223036.00
iteration 86 sol 228211358.00
iteration 87 sol 228385670.00
iteration 88 sol 228635416.00
iteration 89 sol 228148948.00
iteration 90 sol 227937965.00
iteration 91 sol 228545144.00
iteration 92 sol 228214189.00
iteration 93 sol 227931663.00
iteration 94 sol 228149070.00
iteration 95 sol 228362599.00
iteration 96 sol 228244939.00
iteration 97 sol 227598006.00
iteration 98 sol 228367069.00
iteration 99 sol 228378900.00
iteration 100 sol 228237136.00
iteration 101 sol 228320754.00
iteration 102 sol 228025725.00
iteration 103 sol 228451831.00
iteration 104 sol 227894851.00
iteration 105 sol 228215464.00
iteration 106 sol 228231609.00
iteration 107 sol 227943848.00
iteration 108 sol 228509884.00
iteration 109 sol 228343865.00
iteration 110 sol 228459237.00
iteration 111 sol 227593517.00
iteration 112 sol 227930705.00
iteration 113 sol 228156212.00
iteration 114 sol 227618231.00
iteration 115 sol 228241741.00
iteration 116 sol 228371134.00
iteration 117 sol 228155989.00
iteration 118 sol 228663548.00
iteration 119 sol 228120937.00
iteration 120 sol 228176813.00
iteration 121 sol 228097895.00
iteration 122 sol 228579100.00
iteration 123 sol 228541218.00
iteration 124 sol 228012052.00
iteration 125 sol 227960695.00
iteration 126 sol 228660815.00
iteration 127 sol 228440848.00
iteration 128 sol 227884204.00
iteration 129 sol 228523120.00
iteration 130 sol 228491196.00
iteration 131 sol 228302913.00
iteration 132 sol 228181202.00
iteration 133 sol 227927258.00
iteration 134 sol 227824286.00
iteration 135 sol 228160422.00
iteration 136 sol 227943372.00
iteration 137 sol 228434418.00
iteration 138 sol 228356898.00
iteration 139 sol 227988750.00
iteration 140 sol 228102705.00
iteration 141 sol 228131998.00
iteration 142 sol 228412027.00
iteration 143 sol 227861103.00
iteration 144 sol 227955580.00
iteration 145 sol 228385306.00
iteration 146 sol 227922912.00
iteration 147 sol 228464382.00
iteration 148 sol 228225343.00
iteration 149 sol 228486248.00
iteration 150 sol 228461961.00
iteration 151 sol 228502600.00
iteration 152 sol 228200602.00
iteration 153 sol 228329655.00
iteration 154 sol 228619603.00
iteration 155 sol 228072880.00
iteration 156 sol 227983190.00
iteration 157 sol 228376265.00
iteration 158 sol 228350182.00
iteration 159 sol 228094191.00
iteration 160 sol 228253948.00
iteration 161 sol 228071918.00
iteration 162 sol 228504125.00
iteration 163 sol 228312433.00
iteration 164 sol 228380205.00
iteration 165 sol 227880495.00
iteration 166 sol 228128880.00
iteration 167 sol 228470215.00
iteration 168 sol 227337773.00
iteration 169 sol 228024386.00
iteration 170 sol 228196359.00
iteration 171 sol 228091820.00
iteration 172 sol 228244198.00
iteration 173 sol 228392761.00
iteration 174 sol 228302828.00
iteration 175 sol 228513201.00
iteration 176 sol 228039115.00
iteration 177 sol 228462998.00
iteration 178 sol 227786500.00
iteration 179 sol 228296118.00
iteration 180 sol 227765377.00
iteration 181 sol 228304930.00
iteration 182 sol 227783074.00
iteration 183 sol 228103001.00
iteration 184 sol 228334190.00
iteration 185 sol 228391133.00
iteration 186 sol 228513975.00
iteration 187 sol 227648613.00
iteration 188 sol 227956948.00
iteration 189 sol 227859703.00
iteration 190 sol 228185261.00
iteration 191 sol 227762369.00
iteration 192 sol 228505504.00
iteration 193 sol 228359229.00
iteration 194 sol 228381895.00
iteration 195 sol 227925193.00
iteration 196 sol 228196084.00
iteration 197 sol 228418447.00
iteration 198 sol 228354437.00
iteration 199 sol 228516086.00
iteration 200 sol 228501469.00
iteration 201 sol 228509315.00
iteration 202 sol 227933762.00
iteration 203 sol 228411974.00
iteration 204 sol 227755793.00
iteration 205 sol 228392618.00
iteration 206 sol 228529207.00
iteration 207 sol 228050494.00
iteration 208 sol 228561496.00
iteration 209 sol 228464566.00
iteration 210 sol 228119535.00
iteration 211 sol 228270906.00
iteration 212 sol 228457334.00
iteration 213 sol 227708582.00
iteration 214 sol 228463870.00
iteration 215 sol 228064585.00
iteration 216 sol 228083673.00
iteration 217 sol 228349542.00
iteration 218 sol 228461313.00
iteration 219 sol 228214298.00
iteration 220 sol 227933642.00
iteration 221 sol 228342974.00
iteration 222 sol 228313942.00
iteration 223 sol 228281775.00
iteration 224 sol 227834158.00
iteration 225 sol 228192247.00
iteration 226 sol 228392161.00
iteration 227 sol 228426787.00
iteration 228 sol 228410197.00
iteration 229 sol 227872776.00
iteration 230 sol 228187475.00
iteration 231 sol 228376505.00
iteration 232 sol 228450284.00
iteration 233 sol 228151696.00
iteration 234 sol 228314821.00
iteration 235 sol 228112560.00
iteration 236 sol 227657492.00
iteration 237 sol 228191165.00
iteration 238 sol 228338145.00
iteration 239 sol 228334831.00
iteration 240 sol 227963530.00
iteration 241 sol 228490059.00
iteration 242 sol 228346067.00
iteration 243 sol 228055809.00
iteration 244 sol 228628125.00
iteration 245 sol 227931544.00
iteration 246 sol 227785879.00
iteration 247 sol 228065557.00
iteration 248 sol 228100131.00
iteration 249 sol 228030497.00
iteration 250 sol 228021650.00
iteration 251 sol 228108673.00
iteration 252 sol 228568587.00
iteration 253 sol 228311935.00
iteration 254 sol 227553844.00
iteration 255 sol 228463400.00
iteration 256 sol 228362001.00
iteration 257 sol 227779775.00
iteration 258 sol 228367699.00
iteration 259 sol 228592961.00
iteration 260 sol 228558785.00
iteration 261 sol 228110332.00
iteration 262 sol 228034192.00
iteration 263 sol 228428721.00
iteration 264 sol 228268215.00
iteration 265 sol 228414489.00
iteration 266 sol 228477872.00
iteration 267 sol 228423923.00
iteration 268 sol 228023213.00
iteration 269 sol 228212374.00
iteration 270 sol 227961789.00
iteration 271 sol 227844635.00
iteration 272 sol 228110999.00
iteration 273 sol 228288999.00
iteration 274 sol 227714556.00
iteration 275 sol 228066375.00
iteration 276 sol 227965328.00
iteration 277 sol 228016118.00
iteration 278 sol 228420673.00
iteration 279 sol 228270449.00
iteration 280 sol 228531023.00
iteration 281 sol 228417453.00
iteration 282 sol 228363225.00
iteration 283 sol 227963987.00
iteration 284 sol 228294399.00
iteration 285 sol 227947601.00
iteration 286 sol 228450367.00
iteration 287 sol 228671268.00
iteration 288 sol 228599443.00
iteration 289 sol 228478448.00
iteration 290 sol 227772327.00
iteration 291 sol 228272328.00
iteration 292 sol 227764883.00
iteration 293 sol 228338102.00
iteration 294 sol 227886415.00
iteration 295 sol 228243362.00
iteration 296 sol 228470605.00
iteration 297 sol 228463222.00
iteration 298 sol 227834509.00
iteration 299 sol 228520848.00
iteration 300 sol 228266612.00
iteration 301 sol 228220289.00
iteration 302 sol 228030827.00
iteration 303 sol 227972515.00
iteration 304 sol 228341319.00
iteration 305 sol 227781615.00
iteration 306 sol 228372520.00
iteration 307 sol 228514386.00
iteration 308 sol 228138334.00
iteration 309 sol 227604761.00
iteration 310 sol 227985818.00
iteration 311 sol 228025085.00
iteration 312 sol 228668654.00
iteration 313 sol 228256001.00
iteration 314 sol 228580740.00
iteration 315 sol 228061757.00
iteration 316 sol 228438821.00
iteration 317 sol 228198783.00
iteration 318 sol 228389285.00
iteration 319 sol 228570732.00
iteration 320 sol 227952784.00
iteration 321 sol 228148303.00
iteration 322 sol 228265950.00
iteration 323 sol 228235618.00
iteration 324 sol 228146796.00
iteration 325 sol 228075526.00
iteration 326 sol 227744204.00
iteration 327 sol 228221654.00
iteration 328 sol 228057688.00
iteration 329 sol 228296521.00
iteration 330 sol 228049162.00
iteration 331 sol 227879642.00
iteration 332 sol 228463080.00
iteration 333 sol 227546136.00
iteration 334 sol 228063139.00
iteration 335 sol 228227463.00
iteration 336 sol 228186688.00
iteration 337 sol 228631802.00
iteration 338 sol 228617116.00
iteration 339 sol 228255387.00
iteration 340 sol 227826491.00
iteration 341 sol 228017637.00
iteration 342 sol 228086773.00
iteration 343 sol 228322429.00
iteration 344 sol 228111379.00
iteration 345 sol 228124365.00
iteration 346 sol 227995109.00
iteration 347 sol 228430729.00
iteration 348 sol 228210080.00
iteration 349 sol 228229634.00
iteration 350 sol 228262221.00
iteration 351 sol 228230130.00
iteration 352 sol 228072118.00
iteration 353 sol 228379705.00
iteration 354 sol 228036861.00
iteration 355 sol 228534283.00
iteration 356 sol 228220811.00
iteration 357 sol 228066176.00
iteration 358 sol 228266895.00
iteration 359 sol 228354591.00
iteration 360 sol 228561886.00
iteration 361 sol 228083485.00
iteration 362 sol 228225436.00
iteration 363 sol 227947220.00
iteration 364 sol 228149430.00
iteration 365 sol 228248203.00
iteration 366 sol 228495673.00
iteration 367 sol 228010949.00
iteration 368 sol 228157640.00
iteration 369 sol 227873707.00
iteration 370 sol 228171061.00
iteration 371 sol 228333117.00
iteration 372 sol 227810190.00
iteration 373 sol 227910503.00
iteration 374 sol 227792713.00
iteration 375 sol 228376321.00
iteration 376 sol 228479698.00
iteration 377 sol 228381949.00
iteration 378 sol 228452550.00
iteration 379 sol 228192746.00
iteration 380 sol 228002151.00
iteration 381 sol 228620077.00
iteration 382 sol 228223666.00
iteration 383 sol 228377330.00
iteration 384 sol 227955143.00
iteration 385 sol 228407503.00
iteration 386 sol 227746453.00
iteration 387 sol 228389755.00
iteration 388 sol 228085924.00
iteration 389 sol 228153321.00
iteration 390 sol 228328929.00
iteration 391 sol 228370746.00
iteration 392 sol 227345185.00
iteration 393 sol 227756300.00
iteration 394 sol 228335463.00
iteration 395 sol 228569589.00
iteration 396 sol 227961088.00
iteration 397 sol 228125234.00
iteration 398 sol 228220074.00
iteration 399 sol 228133055.00
iteration 400 sol 228036879.00
iteration 401 sol 228452211.00
iteration 402 sol 228404400.00
iteration 403 sol 228039459.00
iteration 404 sol 228384733.00
iteration 405 sol 228181788.00
iteration 406 sol 228578891.00
iteration 407 sol 228387727.00
iteration 408 sol 228184785.00
iteration 409 sol 228634928.00
iteration 410 sol 227998736.00
iteration 411 sol 228142209.00
iteration 412 sol 228409622.00
iteration 413 sol 228414816.00
iteration 414 sol 228006526.00
iteration 415 sol 228592370.00
iteration 416 sol 228284203.00
iteration 417 sol 228136753.00
iteration 418 sol 228395477.00
iteration 419 sol 228375019.00
iteration 420 sol 228213350.00
iteration 421 sol 228172963.00
iteration 422 sol 228503156.00
iteration 423 sol 228431862.00
iteration 424 sol 228464527.00
iteration 425 sol 228599954.00
iteration 426 sol 228351416.00
iteration 427 sol 228345920.00
iteration 428 sol 228311548.00
iteration 429 sol 228288517.00
iteration 430 sol 228441638.00
iteration 431 sol 228253491.00
iteration 432 sol 227829718.00
iteration 433 sol 228546225.00
iteration 434 sol 227677361.00
iteration 435 sol 228092120.00
iteration 436 sol 228427506.00
iteration 437 sol 228513067.00
iteration 438 sol 228329389.00
iteration 439 sol 228395426.00
iteration 440 sol 228319391.00
iteration 441 sol 227901050.00
iteration 442 sol 228152153.00
iteration 443 sol 227983686.00
iteration 444 sol 228327501.00
iteration 445 sol 228370778.00
iteration 446 sol 228277717.00
iteration 447 sol 228391103.00
iteration 448 sol 228282975.00
iteration 449 sol 228404165.00
iteration 450 sol 228245440.00
iteration 451 sol 227803432.00
iteration 452 sol 228282190.00
iteration 453 sol 227919245.00
iteration 454 sol 228427594.00
iteration 455 sol 228587834.00
iteration 456 sol 227960092.00
iteration 457 sol 228280843.00
iteration 458 sol 227783363.00
iteration 459 sol 228517594.00
iteration 460 sol 228295297.00
iteration 461 sol 228523416.00
iteration 462 sol 228501097.00
iteration 463 sol 227971936.00
iteration 464 sol 228080878.00
iteration 465 sol 228367782.00
iteration 466 sol 228450871.00
iteration 467 sol 227967125.00
iteration 468 sol 228248225.00
iteration 469 sol 228285583.00
iteration 470 sol 227689512.00
iteration 471 sol 228477729.00
iteration 472 sol 227823476.00
iteration 473 sol 227799002.00
iteration 474 sol 227651189.00
iteration 475 sol 228337482.00
iteration 476 sol 227784667.00
iteration 477 sol 228347876.00
iteration 478 sol 228553574.00
iteration 479 sol 227913084.00
iteration 480 sol 228415830.00
iteration 481 sol 227655099.00
iteration 482 sol 228228865.00
iteration 483 sol 228297073.00
iteration 484 sol 227907430.00
iteration 485 sol 228371014.00
iteration 486 sol 228602656.00
iteration 487 sol 227751819.00
iteration 488 sol 228537777.00
iteration 489 sol 228492324.00
iteration 490 sol 228526502.00
iteration 491 sol 228188131.00
iteration 492 sol 228164235.00
iteration 493 sol 228329450.00
iteration 494 sol 228076885.00
iteration 495 sol 228019591.00
iteration 496 sol 228123157.00
iteration 497 sol 228218322.00
iteration 498 sol 228352918.00
iteration 499 sol 227999259.00
iteration 500 sol 228359350.00
iteration 501 sol 228503467.00
iteration 502 sol 228501638.00
iteration 503 sol 227901814.00
iteration 504 sol 228530098.00
iteration 505 sol 228161275.00
iteration 506 sol 228059701.00
iteration 507 sol 228428675.00
iteration 508 sol 228006513.00
iteration 509 sol 228384232.00
iteration 510 sol 228602016.00
iteration 511 sol 228267773.00
iteration 512 sol 228091387.00
iteration 513 sol 228589066.00
iteration 514 sol 228560890.00
iteration 515 sol 228537591.00
iteration 516 sol 228008212.00
iteration 517 sol 228383198.00
iteration 518 sol 228497856.00
iteration 519 sol 228238562.00
iteration 520 sol 228423641.00
iteration 521 sol 227647468.00
iteration 522 sol 228434618.00
iteration 523 sol 227761127.00
iteration 524 sol 228241099.00
iteration 525 sol 228249716.00
iteration 526 sol 228256353.00
iteration 527 sol 228464402.00
iteration 528 sol 228258580.00
iteration 529 sol 228253048.00
iteration 530 sol 228228380.00
iteration 531 sol 228145272.00
iteration 532 sol 228430757.00
iteration 533 sol 228269109.00
iteration 534 sol 228428759.00
iteration 535 sol 227863356.00
iteration 536 sol 228207609.00
iteration 537 sol 228408557.00
iteration 538 sol 227755723.00
iteration 539 sol 227944820.00
iteration 540 sol 228551359.00
iteration 541 sol 228045393.00
iteration 542 sol 227977832.00
iteration 543 sol 228153298.00
iteration 544 sol 228317161.00
iteration 545 sol 228260688.00
iteration 546 sol 228096659.00
iteration 547 sol 228505091.00
iteration 548 sol 228361504.00
iteration 549 sol 228426804.00
iteration 550 sol 228292013.00
iteration 551 sol 228403914.00
iteration 552 sol 227758462.00
iteration 553 sol 227948916.00
iteration 554 sol 228200201.00
iteration 555 sol 228244835.00
iteration 556 sol 228178441.00
iteration 557 sol 228340886.00
iteration 558 sol 228335512.00
iteration 559 sol 227885219.00
iteration 560 sol 228377722.00
iteration 561 sol 228450298.00
iteration 562 sol 227694163.00
iteration 563 sol 228274607.00
iteration 564 sol 228472295.00
iteration 565 sol 227967550.00
iteration 566 sol 228617150.00
iteration 567 sol 228073662.00
iteration 568 sol 228520383.00
iteration 569 sol 228533683.00
iteration 570 sol 228496749.00
iteration 571 sol 228144908.00
iteration 572 sol 228212555.00
iteration 573 sol 228333908.00
iteration 574 sol 228174100.00
iteration 575 sol 227969748.00
iteration 576 sol 228425437.00
iteration 577 sol 228300933.00
iteration 578 sol 228458799.00
iteration 579 sol 228190979.00
iteration 580 sol 228512496.00
iteration 581 sol 228192764.00
iteration 582 sol 228335160.00
iteration 583 sol 228334306.00
iteration 584 sol 228448045.00
iteration 585 sol 228402645.00
iteration 586 sol 228392869.00
iteration 587 sol 228314359.00
iteration 588 sol 228490924.00
iteration 589 sol 228501706.00
iteration 590 sol 228566440.00
iteration 591 sol 227956889.00
iteration 592 sol 228625289.00
iteration 593 sol 227812093.00
iteration 594 sol 227356833.00
iteration 595 sol 228305640.00
iteration 596 sol 227968743.00
iteration 597 sol 228134542.00
iteration 598 sol 228275284.00
iteration 599 sol 227891020.00
iteration 600 sol 227885116.00
iteration 601 sol 228457670.00
iteration 602 sol 228315984.00
iteration 603 sol 227843127.00
iteration 604 sol 227895966.00
iteration 605 sol 228553211.00
iteration 606 sol 227622642.00
iteration 607 sol 228331171.00
iteration 608 sol 228517347.00
iteration 609 sol 228368828.00
iteration 610 sol 228074906.00
iteration 611 sol 228376031.00
iteration 612 sol 228489448.00
iteration 613 sol 227966341.00
iteration 614 sol 228413457.00
iteration 615 sol 228371093.00
iteration 616 sol 228612956.00
iteration 617 sol 228113128.00
iteration 618 sol 227905969.00
iteration 619 sol 228486365.00
iteration 620 sol 227968475.00
iteration 621 sol 228223470.00
iteration 622 sol 228009244.00
iteration 623 sol 228231274.00
iteration 624 sol 228372763.00
iteration 625 sol 228219274.00
iteration 626 sol 228290431.00
iteration 627 sol 228404102.00
iteration 628 sol 228086219.00
iteration 629 sol 227841022.00
iteration 630 sol 228183556.00
iteration 631 sol 227978901.00
iteration 632 sol 228319490.00
iteration 633 sol 228592693.00
iteration 634 sol 228171645.00
iteration 635 sol 228656450.00
iteration 636 sol 227917658.00
iteration 637 sol 227768706.00
iteration 638 sol 228316225.00
iteration 639 sol 228160954.00
iteration 640 sol 227912730.00
iteration 641 sol 228269764.00
iteration 642 sol 228427184.00
iteration 643 sol 228066322.00
iteration 644 sol 227933694.00
iteration 645 sol 227755733.00
iteration 646 sol 228500133.00
iteration 647 sol 228346216.00
iteration 648 sol 228568037.00
iteration 649 sol 228791796.00
iteration 650 sol 227608045.00
iteration 651 sol 227983362.00
iteration 652 sol 228591522.00
iteration 653 sol 227756330.00
iteration 654 sol 228251316.00
iteration 655 sol 228258484.00
iteration 656 sol 228472438.00
iteration 657 sol 228062663.00
iteration 658 sol 227883079.00
iteration 659 sol 228548989.00
iteration 660 sol 227919346.00
iteration 661 sol 228580316.00
iteration 662 sol 227895857.00
iteration 663 sol 228465909.00
iteration 664 sol 228273880.00
iteration 665 sol 227975689.00
iteration 666 sol 227819924.00
iteration 667 sol 228202902.00
iteration 668 sol 228382588.00
iteration 669 sol 228381585.00
iteration 670 sol 227810760.00
iteration 671 sol 227996979.00
iteration 672 sol 228359210.00
iteration 673 sol 228278648.00
iteration 674 sol 228312398.00
iteration 675 sol 228228126.00
iteration 676 sol 227982891.00
iteration 677 sol 228528115.00
iteration 678 sol 228608457.00
iteration 679 sol 228392881.00
iteration 680 sol 228580184.00
iteration 681 sol 228219501.00
iteration 682 sol 227998166.00
iteration 683 sol 227628748.00
iteration 684 sol 227987558.00
iteration 685 sol 228513535.00
iteration 686 sol 227999169.00
iteration 687 sol 228378295.00
iteration 688 sol 228276395.00
iteration 689 sol 227742913.00
iteration 690 sol 228174373.00
iteration 691 sol 228149000.00
iteration 692 sol 228184485.00
iteration 693 sol 228448547.00
iteration 694 sol 228433341.00
iteration 695 sol 227847230.00
iteration 696 sol 228645738.00
iteration 697 sol 228332567.00
iteration 698 sol 228404811.00
iteration 699 sol 228201142.00
iteration 700 sol 228185642.00
iteration 701 sol 228032971.00
iteration 702 sol 228437337.00
iteration 703 sol 228451569.00
iteration 704 sol 228182118.00
iteration 705 sol 228290111.00
iteration 706 sol 228375285.00
iteration 707 sol 228086190.00
iteration 708 sol 228111028.00
iteration 709 sol 227912103.00
iteration 710 sol 228216589.00
iteration 711 sol 227883823.00
iteration 712 sol 228290650.00
iteration 713 sol 228008555.00
iteration 714 sol 227607215.00
iteration 715 sol 228092558.00
iteration 716 sol 228158194.00
iteration 717 sol 228403328.00
iteration 718 sol 228515426.00
iteration 719 sol 228495800.00
iteration 720 sol 227832597.00
iteration 721 sol 227726812.00
iteration 722 sol 228319404.00
iteration 723 sol 228203183.00
iteration 724 sol 227996036.00
iteration 725 sol 228067219.00
iteration 726 sol 228494459.00
iteration 727 sol 228488219.00
iteration 728 sol 228519369.00
iteration 729 sol 228257957.00
iteration 730 sol 228257809.00
iteration 731 sol 228391956.00
iteration 732 sol 228293193.00
iteration 733 sol 227900231.00
iteration 734 sol 228449213.00
iteration 735 sol 228509965.00
iteration 736 sol 228612713.00
iteration 737 sol 228117397.00
iteration 738 sol 228027765.00
iteration 739 sol 227832507.00
iteration 740 sol 228536052.00
iteration 741 sol 227956580.00
iteration 742 sol 228464817.00
iteration 743 sol 228318877.00
iteration 744 sol 227730141.00
iteration 745 sol 228146448.00
iteration 746 sol 228503307.00
iteration 747 sol 228121441.00
iteration 748 sol 228297799.00
iteration 749 sol 228564927.00
iteration 750 sol 228039712.00
iteration 751 sol 228163493.00
iteration 752 sol 228454908.00
iteration 753 sol 228587637.00
iteration 754 sol 228422559.00
iteration 755 sol 228200178.00
iteration 756 sol 228351397.00
iteration 757 sol 228688913.00
iteration 758 sol 228390839.00
iteration 759 sol 227882761.00
iteration 760 sol 227407678.00
iteration 761 sol 228159040.00
iteration 762 sol 228267987.00
iteration 763 sol 228194780.00
iteration 764 sol 228387782.00
iteration 765 sol 227537632.00
iteration 766 sol 228464080.00
iteration 767 sol 228338891.00
iteration 768 sol 227497898.00
iteration 769 sol 228475189.00
iteration 770 sol 227781925.00
iteration 771 sol 228459020.00
iteration 772 sol 228318666.00
iteration 773 sol 228447116.00
iteration 774 sol 228116720.00
iteration 775 sol 227875177.00
iteration 776 sol 228459995.00
iteration 777 sol 228404529.00
iteration 778 sol 227840357.00
iteration 779 sol 227815769.00
iteration 780 sol 228443516.00
iteration 781 sol 228291910.00
iteration 782 sol 227932218.00
iteration 783 sol 227851565.00
iteration 784 sol 227908098.00
iteration 785 sol 228325625.00
iteration 786 sol 228226751.00
iteration 787 sol 227889838.00
iteration 788 sol 228171661.00
iteration 789 sol 228024081.00
iteration 790 sol 228399631.00
iteration 791 sol 228310759.00
iteration 792 sol 228299436.00
iteration 793 sol 228371610.00
iteration 794 sol 228461060.00
iteration 795 sol 228396780.00
iteration 796 sol 228526459.00
iteration 797 sol 228070441.00
iteration 798 sol 228325695.00
iteration 799 sol 227771488.00
iteration 800 sol 228301686.00
iteration 801 sol 227887105.00
iteration 802 sol 228271394.00
iteration 803 sol 228372663.00
iteration 804 sol 227974458.00
iteration 805 sol 228471007.00
iteration 806 sol 228366226.00
iteration 807 sol 228248319.00
iteration 808 sol 228191408.00
iteration 809 sol 227844470.00
iteration 810 sol 227912333.00
iteration 811 sol 228364758.00
iteration 812 sol 228390245.00
iteration 813 sol 228574674.00
iteration 814 sol 228447171.00
iteration 815 sol 228021534.00
iteration 816 sol 228032307.00
iteration 817 sol 227933335.00
iteration 818 sol 228138564.00
iteration 819 sol 228385608.00
iteration 820 sol 228287570.00
iteration 821 sol 227691448.00
iteration 822 sol 228438960.00
iteration 823 sol 228501876.00
iteration 824 sol 227753404.00
iteration 825 sol 228507124.00
iteration 826 sol 228334215.00
iteration 827 sol 227936215.00
iteration 828 sol 228410253.00
iteration 829 sol 227700349.00
iteration 830 sol 228354866.00
iteration 831 sol 228331562.00
iteration 832 sol 228333478.00
iteration 833 sol 228394407.00
iteration 834 sol 228312839.00
iteration 835 sol 228225251.00
iteration 836 sol 228488939.00
iteration 837 sol 227704428.00
iteration 838 sol 227999121.00
iteration 839 sol 228249278.00
iteration 840 sol 228504989.00
iteration 841 sol 228332047.00
iteration 842 sol 228086036.00
iteration 843 sol 228266267.00
iteration 844 sol 228499007.00
iteration 845 sol 228382333.00
iteration 846 sol 228390347.00
iteration 847 sol 227813641.00
iteration 848 sol 228483315.00
iteration 849 sol 227690792.00
iteration 850 sol 227832754.00
iteration 851 sol 228247923.00
iteration 852 sol 227958462.00
iteration 853 sol 228330367.00
iteration 854 sol 228153707.00
iteration 855 sol 228228546.00
iteration 856 sol 228372905.00
iteration 857 sol 227907308.00
iteration 858 sol 228501088.00
iteration 859 sol 228484859.00
iteration 860 sol 227947858.00
iteration 861 sol 228332056.00
iteration 862 sol 227636502.00
iteration 863 sol 228375726.00
iteration 864 sol 228350751.00
iteration 865 sol 228021301.00
iteration 866 sol 228289341.00
iteration 867 sol 228097367.00
iteration 868 sol 228029018.00
iteration 869 sol 228188677.00
iteration 870 sol 227387968.00
iteration 871 sol 227631706.00
iteration 872 sol 228212958.00
iteration 873 sol 227170621.00
iteration 874 sol 227716784.00
iteration 875 sol 228494961.00
iteration 876 sol 228204359.00
iteration 877 sol 228364681.00
iteration 878 sol 228481647.00
iteration 879 sol 227994179.00
iteration 880 sol 228160954.00
iteration 881 sol 227647259.00
iteration 882 sol 228464109.00
iteration 883 sol 228242019.00
iteration 884 sol 228422002.00
iteration 885 sol 228285389.00
iteration 886 sol 227916157.00
iteration 887 sol 228395183.00
iteration 888 sol 227777826.00
iteration 889 sol 228506774.00
iteration 890 sol 228655216.00
iteration 891 sol 227712564.00
iteration 892 sol 228503174.00
iteration 893 sol 228306686.00
iteration 894 sol 228158955.00
iteration 895 sol 228408721.00
iteration 896 sol 227711115.00
iteration 897 sol 227932619.00
iteration 898 sol 228311307.00
iteration 899 sol 228026446.00
iteration 900 sol 228337876.00
iteration 901 sol 228384065.00
iteration 902 sol 228649976.00
iteration 903 sol 228274439.00
iteration 904 sol 228320136.00
iteration 905 sol 228360679.00
iteration 906 sol 228509217.00
iteration 907 sol 228072312.00
iteration 908 sol 228620390.00
iteration 909 sol 228339353.00
iteration 910 sol 227866547.00
iteration 911 sol 228542197.00
iteration 912 sol 227857720.00
iteration 913 sol 228463977.00
iteration 914 sol 228291272.00
iteration 915 sol 228259068.00
iteration 916 sol 228484376.00
iteration 917 sol 228078002.00
iteration 918 sol 228239210.00
iteration 919 sol 228258321.00
iteration 920 sol 228218437.00
iteration 921 sol 228396116.00
iteration 922 sol 228518329.00
iteration 923 sol 228107208.00
iteration 924 sol 227813209.00
iteration 925 sol 228550063.00
iteration 926 sol 228225952.00
iteration 927 sol 227516680.00
iteration 928 sol 227982636.00
iteration 929 sol 228572243.00
iteration 930 sol 228497053.00
iteration 931 sol 228249455.00
iteration 932 sol 227863465.00
iteration 933 sol 228326209.00
iteration 934 sol 228432878.00
iteration 935 sol 228709574.00
iteration 936 sol 228188464.00
iteration 937 sol 228513725.00
iteration 938 sol 228235779.00
iteration 939 sol 228109300.00
iteration 940 sol 228452162.00
iteration 941 sol 228349072.00
iteration 942 sol 228322626.00
iteration 943 sol 228257503.00
iteration 944 sol 228004242.00
iteration 945 sol 228410628.00
iteration 946 sol 227901288.00
iteration 947 sol 228536316.00
iteration 948 sol 227809079.00
iteration 949 sol 227827225.00
iteration 950 sol 228067225.00
iteration 951 sol 228432936.00
iteration 952 sol 228249901.00
iteration 953 sol 227727339.00
iteration 954 sol 228525348.00
iteration 955 sol 228102541.00
iteration 956 sol 227893365.00
iteration 957 sol 228307248.00
iteration 958 sol 228429701.00
iteration 959 sol 228423780.00
iteration 960 sol 228677508.00
iteration 961 sol 228194483.00
iteration 962 sol 227861906.00
iteration 963 sol 228567337.00
iteration 964 sol 228497087.00
iteration 965 sol 228370095.00
iteration 966 sol 228468118.00
iteration 967 sol 228479319.00
iteration 968 sol 228345023.00
iteration 969 sol 228005134.00
iteration 970 sol 227909369.00
iteration 971 sol 228037916.00
iteration 972 sol 227874665.00
iteration 973 sol 227893622.00
iteration 974 sol 227978563.00
iteration 975 sol 227862023.00
iteration 976 sol 228152087.00
iteration 977 sol 227859377.00
iteration 978 sol 228263313.00
iteration 979 sol 227592410.00
iteration 980 sol 228559632.00
iteration 981 sol 228395802.00
iteration 982 sol 228551009.00
iteration 983 sol 228159892.00
iteration 984 sol 227997359.00
iteration 985 sol 228278408.00
iteration 986 sol 228606823.00
iteration 987 sol 227203353.00
iteration 988 sol 228266664.00
iteration 989 sol 228274459.00
iteration 990 sol 228414155.00
iteration 991 sol 228516767.00
iteration 992 sol 228287464.00
iteration 993 sol 228403212.00
iteration 994 sol 228637968.00
iteration 995 sol 228289135.00
iteration 996 sol 228340739.00
iteration 997 sol 227814519.00
iteration 998 sol 228396958.00
iteration 999 sol 228481216.00
iteration 1000 sol 228532028.00
iteration 1001 sol 227974299.00
iteration 1002 sol 228104059.00
iteration 1003 sol 228148629.00
iteration 1004 sol 228102007.00
iteration 1005 sol 228133069.00
iteration 1006 sol 227759913.00
iteration 1007 sol 228081558.00
iteration 1008 sol 228033575.00
iteration 1009 sol 228425732.00
iteration 1010 sol 228293481.00
iteration 1011 sol 228294362.00
iteration 1012 sol 228598436.00
iteration 1013 sol 227699180.00
iteration 1014 sol 228398265.00
iteration 1015 sol 228127450.00
iteration 1016 sol 228020330.00
iteration 1017 sol 227837833.00
iteration 1018 sol 228520895.00
iteration 1019 sol 228151094.00
iteration 1020 sol 228281754.00
iteration 1021 sol 228315542.00
iteration 1022 sol 227853558.00
iteration 1023 sol 228038263.00
iteration 1024 sol 228264118.00
iteration 1025 sol 227676874.00
iteration 1026 sol 228544013.00
iteration 1027 sol 228419973.00
iteration 1028 sol 228449513.00
iteration 1029 sol 228552986.00
iteration 1030 sol 228491645.00
iteration 1031 sol 228215175.00
iteration 1032 sol 227901139.00
iteration 1033 sol 228520350.00
iteration 1034 sol 227860408.00
iteration 1035 sol 228365127.00
iteration 1036 sol 228168676.00
iteration 1037 sol 227949220.00
iteration 1038 sol 227931174.00
iteration 1039 sol 228206264.00
iteration 1040 sol 228305836.00
iteration 1041 sol 228115018.00
iteration 1042 sol 228255883.00
iteration 1043 sol 228457980.00
iteration 1044 sol 228135798.00
iteration 1045 sol 228511872.00
iteration 1046 sol 228544819.00
iteration 1047 sol 227964283.00
iteration 1048 sol 228580361.00
iteration 1049 sol 228573671.00
iteration 1050 sol 227998130.00
iteration 1051 sol 228440396.00
iteration 1052 sol 228296303.00
iteration 1053 sol 228617172.00
iteration 1054 sol 228640759.00
iteration 1055 sol 228278020.00
iteration 1056 sol 227883777.00
iteration 1057 sol 228296400.00
iteration 1058 sol 227866194.00
iteration 1059 sol 228397647.00
iteration 1060 sol 228366380.00
iteration 1061 sol 228019549.00
iteration 1062 sol 227669711.00
iteration 1063 sol 228621503.00
iteration 1064 sol 228373583.00
iteration 1065 sol 228382893.00
iteration 1066 sol 227959310.00
iteration 1067 sol 228412313.00
iteration 1068 sol 228462697.00
iteration 1069 sol 227981552.00
iteration 1070 sol 228657152.00
iteration 1071 sol 227830701.00
iteration 1072 sol 227713954.00
iteration 1073 sol 228071409.00
iteration 1074 sol 227621938.00
iteration 1075 sol 227535576.00
iteration 1076 sol 227910049.00
iteration 1077 sol 228099152.00
iteration 1078 sol 228166495.00
iteration 1079 sol 227897041.00
iteration 1080 sol 228440816.00
iteration 1081 sol 227879347.00
iteration 1082 sol 228540931.00
iteration 1083 sol 227835263.00
iteration 1084 sol 228249956.00
iteration 1085 sol 228657905.00
iteration 1086 sol 228713410.00
iteration 1087 sol 227583779.00
iteration 1088 sol 227626957.00
iteration 1089 sol 227716864.00
iteration 1090 sol 228553862.00
iteration 1091 sol 228426329.00
iteration 1092 sol 228012109.00
iteration 1093 sol 227952227.00
iteration 1094 sol 228515059.00
iteration 1095 sol 228126953.00
iteration 1096 sol 227907463.00
iteration 1097 sol 228131889.00
iteration 1098 sol 228247456.00
iteration 1099 sol 228272340.00
iteration 1100 sol 227775132.00
iteration 1101 sol 228280549.00
iteration 1102 sol 227940709.00
iteration 1103 sol 228430173.00
iteration 1104 sol 227847398.00
iteration 1105 sol 227628128.00
iteration 1106 sol 228022496.00
iteration 1107 sol 228572013.00
iteration 1108 sol 228163301.00
iteration 1109 sol 228195510.00
iteration 1110 sol 228335648.00
iteration 1111 sol 228326491.00
iteration 1112 sol 228561126.00
iteration 1113 sol 227995134.00
iteration 1114 sol 227937513.00
iteration 1115 sol 227568938.00
iteration 1116 sol 227805243.00
iteration 1117 sol 228044880.00
iteration 1118 sol 227902319.00
iteration 1119 sol 228160939.00
iteration 1120 sol 228360355.00
iteration 1121 sol 227926443.00
iteration 1122 sol 228491930.00
iteration 1123 sol 228262617.00
iteration 1124 sol 227938084.00
iteration 1125 sol 228094828.00
iteration 1126 sol 228341626.00
iteration 1127 sol 227833762.00
iteration 1128 sol 228473159.00
iteration 1129 sol 228505993.00
iteration 1130 sol 228411349.00
iteration 1131 sol 228090515.00
iteration 1132 sol 227815819.00
iteration 1133 sol 228739526.00
iteration 1134 sol 228451126.00
iteration 1135 sol 228416941.00
iteration 1136 sol 227953380.00
iteration 1137 sol 228410998.00
iteration 1138 sol 227995676.00
iteration 1139 sol 228503043.00
iteration 1140 sol 228285425.00
iteration 1141 sol 228296250.00
iteration 1142 sol 228130684.00
iteration 1143 sol 228123943.00
iteration 1144 sol 228256749.00
iteration 1145 sol 228100282.00
iteration 1146 sol 227997892.00
iteration 1147 sol 228383038.00
iteration 1148 sol 228558821.00
iteration 1149 sol 228131551.00
iteration 1150 sol 228187031.00
iteration 1151 sol 228415245.00
iteration 1152 sol 227808760.00
iteration 1153 sol 228366001.00
iteration 1154 sol 228365231.00
iteration 1155 sol 228344092.00
iteration 1156 sol 228116759.00
iteration 1157 sol 228217860.00
iteration 1158 sol 228546434.00
iteration 1159 sol 228462566.00
iteration 1160 sol 228528358.00
iteration 1161 sol 227976412.00
iteration 1162 sol 228572172.00
iteration 1163 sol 228280752.00
iteration 1164 sol 228044898.00
iteration 1165 sol 228176243.00
iteration 1166 sol 228518507.00
iteration 1167 sol 228406371.00
iteration 1168 sol 228093116.00
iteration 1169 sol 228419112.00
iteration 1170 sol 228344358.00
iteration 1171 sol 227864066.00
iteration 1172 sol 228412524.00
iteration 1173 sol 228515243.00
iteration 1174 sol 228315036.00
iteration 1175 sol 228458862.00
iteration 1176 sol 228062410.00
iteration 1177 sol 228276727.00
iteration 1178 sol 227973234.00
iteration 1179 sol 227893564.00
iteration 1180 sol 228462581.00
iteration 1181 sol 228235672.00
iteration 1182 sol 228458273.00
iteration 1183 sol 228073574.00
iteration 1184 sol 228097925.00
iteration 1185 sol 228379612.00
iteration 1186 sol 227765705.00
iteration 1187 sol 227743478.00
iteration 1188 sol 227800068.00
iteration 1189 sol 228429320.00
iteration 1190 sol 227904502.00
iteration 1191 sol 228226401.00
iteration 1192 sol 228230160.00
iteration 1193 sol 228401925.00
iteration 1194 sol 227989938.00
iteration 1195 sol 228079875.00
iteration 1196 sol 227950003.00
iteration 1197 sol 228786574.00
iteration 1198 sol 228197433.00
iteration 1199 sol 228368431.00
iteration 1200 sol 228396337.00
iteration 1201 sol 228126826.00
iteration 1202 sol 228113664.00
iteration 1203 sol 228197924.00
iteration 1204 sol 228174128.00
iteration 1205 sol 228021310.00
iteration 1206 sol 228588306.00
iteration 1207 sol 228562713.00
iteration 1208 sol 228386144.00
iteration 1209 sol 228406073.00
iteration 1210 sol 228399392.00
iteration 1211 sol 228507339.00
iteration 1212 sol 228342130.00
iteration 1213 sol 227989777.00
iteration 1214 sol 228516352.00
iteration 1215 sol 228293307.00
iteration 1216 sol 228412113.00
iteration 1217 sol 227944724.00
iteration 1218 sol 228429034.00
iteration 1219 sol 228184795.00
iteration 1220 sol 228343809.00
iteration 1221 sol 228442776.00
iteration 1222 sol 228467559.00
iteration 1223 sol 228015318.00
iteration 1224 sol 228442393.00
iteration 1225 sol 228603662.00
iteration 1226 sol 228533619.00
iteration 1227 sol 228132448.00
iteration 1228 sol 228367261.00
iteration 1229 sol 228440735.00
iteration 1230 sol 228440601.00
iteration 1231 sol 228336788.00
iteration 1232 sol 228049793.00
iteration 1233 sol 227887745.00
iteration 1234 sol 228450548.00
iteration 1235 sol 228184863.00
iteration 1236 sol 228514976.00
iteration 1237 sol 228349215.00
iteration 1238 sol 228474710.00
iteration 1239 sol 228189412.00
iteration 1240 sol 228101863.00
iteration 1241 sol 227488709.00
iteration 1242 sol 228228795.00
iteration 1243 sol 228619293.00
iteration 1244 sol 228388427.00
iteration 1245 sol 228257700.00
iteration 1246 sol 228362282.00
iteration 1247 sol 228446290.00
iteration 1248 sol 228269440.00
iteration 1249 sol 228322858.00
iteration 1250 sol 228440141.00
iteration 1251 sol 228542411.00
iteration 1252 sol 228137105.00
iteration 1253 sol 228703956.00
iteration 1254 sol 228696939.00
iteration 1255 sol 228412979.00
iteration 1256 sol 228288980.00
iteration 1257 sol 228583391.00
iteration 1258 sol 228254217.00
iteration 1259 sol 228429505.00
iteration 1260 sol 227692041.00
iteration 1261 sol 228479441.00
iteration 1262 sol 228118126.00
iteration 1263 sol 227692957.00
iteration 1264 sol 228391384.00
iteration 1265 sol 227924178.00
iteration 1266 sol 228508631.00
iteration 1267 sol 228209039.00
iteration 1268 sol 228606834.00
iteration 1269 sol 228428205.00
iteration 1270 sol 228233763.00
iteration 1271 sol 228060443.00
iteration 1272 sol 228375902.00
iteration 1273 sol 227708723.00
iteration 1274 sol 228173541.00
iteration 1275 sol 228226932.00
iteration 1276 sol 228491981.00
iteration 1277 sol 227687982.00
iteration 1278 sol 227893076.00
iteration 1279 sol 228387240.00
iteration 1280 sol 228376393.00
iteration 1281 sol 228205606.00
iteration 1282 sol 228285838.00
iteration 1283 sol 228271451.00
iteration 1284 sol 228311618.00
iteration 1285 sol 228266681.00
iteration 1286 sol 227485885.00
iteration 1287 sol 227980613.00
iteration 1288 sol 228374191.00
iteration 1289 sol 227882677.00
iteration 1290 sol 228208632.00
iteration 1291 sol 228494637.00
iteration 1292 sol 228464568.00
iteration 1293 sol 228266522.00
iteration 1294 sol 228229706.00
iteration 1295 sol 228229298.00
iteration 1296 sol 227865757.00
iteration 1297 sol 227747061.00
iteration 1298 sol 228400985.00
iteration 1299 sol 228531223.00
iteration 1300 sol 227970985.00
iteration 1301 sol 228340626.00
iteration 1302 sol 228426522.00
iteration 1303 sol 228420309.00
iteration 1304 sol 227871224.00
iteration 1305 sol 227935239.00
iteration 1306 sol 228110473.00
iteration 1307 sol 228295568.00
iteration 1308 sol 228178000.00
iteration 1309 sol 227650176.00
iteration 1310 sol 228097864.00
iteration 1311 sol 228012249.00
iteration 1312 sol 228369350.00
iteration 1313 sol 227949469.00
iteration 1314 sol 228274615.00
iteration 1315 sol 228451606.00
iteration 1316 sol 228510791.00
iteration 1317 sol 228339900.00
iteration 1318 sol 228477008.00
iteration 1319 sol 228331065.00
iteration 1320 sol 228243287.00
iteration 1321 sol 228341985.00
iteration 1322 sol 228494735.00
iteration 1323 sol 228432380.00
iteration 1324 sol 227821556.00
iteration 1325 sol 227798191.00
iteration 1326 sol 227910738.00
iteration 1327 sol 228440353.00
iteration 1328 sol 227924129.00
iteration 1329 sol 228264412.00
iteration 1330 sol 227805917.00
iteration 1331 sol 228548789.00
iteration 1332 sol 228493360.00
iteration 1333 sol 227936293.00
iteration 1334 sol 228421806.00
iteration 1335 sol 227930824.00
iteration 1336 sol 228504127.00
iteration 1337 sol 228406274.00
iteration 1338 sol 227735203.00
iteration 1339 sol 227823878.00
iteration 1340 sol 228445012.00
iteration 1341 sol 228111704.00
iteration 1342 sol 228519280.00
iteration 1343 sol 227751723.00
iteration 1344 sol 228378097.00
iteration 1345 sol 227989089.00
iteration 1346 sol 228480648.00
iteration 1347 sol 228341968.00
iteration 1348 sol 228036134.00
iteration 1349 sol 228410419.00
iteration 1350 sol 228197628.00
iteration 1351 sol 228500715.00
iteration 1352 sol 228256533.00
iteration 1353 sol 228212583.00
iteration 1354 sol 228402612.00
iteration 1355 sol 228110246.00
iteration 1356 sol 228073550.00
iteration 1357 sol 227675760.00
iteration 1358 sol 228331463.00
iteration 1359 sol 228460503.00
iteration 1360 sol 228160505.00
iteration 1361 sol 227970335.00
iteration 1362 sol 228256216.00
iteration 1363 sol 228741814.00
iteration 1364 sol 228536966.00
iteration 1365 sol 228084333.00
iteration 1366 sol 228019086.00
iteration 1367 sol 228501424.00
iteration 1368 sol 228362806.00
iteration 1369 sol 227855338.00
iteration 1370 sol 228330816.00
iteration 1371 sol 227651134.00
iteration 1372 sol 228108925.00
iteration 1373 sol 228265164.00
iteration 1374 sol 228374106.00
iteration 1375 sol 228437106.00
iteration 1376 sol 228160310.00
iteration 1377 sol 227726396.00
iteration 1378 sol 228296891.00
iteration 1379 sol 227840569.00
iteration 1380 sol 227813695.00
iteration 1381 sol 228367966.00
iteration 1382 sol 228199432.00
iteration 1383 sol 228305462.00
iteration 1384 sol 228493729.00
iteration 1385 sol 228056109.00
iteration 1386 sol 228574177.00
iteration 1387 sol 228314523.00
iteration 1388 sol 228513830.00
iteration 1389 sol 228231512.00
iteration 1390 sol 228388057.00
iteration 1391 sol 228156561.00
iteration 1392 sol 228428431.00
iteration 1393 sol 228391382.00
iteration 1394 sol 228486991.00
iteration 1395 sol 228677182.00
iteration 1396 sol 228242409.00
iteration 1397 sol 228444316.00
iteration 1398 sol 228500408.00
iteration 1399 sol 228365693.00
iteration 1400 sol 228594119.00
iteration 1401 sol 228204315.00
iteration 1402 sol 228299142.00
iteration 1403 sol 228524574.00
iteration 1404 sol 228259510.00
iteration 1405 sol 228087848.00
iteration 1406 sol 228218656.00
iteration 1407 sol 228530541.00
iteration 1408 sol 228380207.00
iteration 1409 sol 228397766.00
iteration 1410 sol 228048607.00
iteration 1411 sol 228313989.00
iteration 1412 sol 227809283.00
iteration 1413 sol 228478826.00
iteration 1414 sol 228423449.00
iteration 1415 sol 227893895.00
iteration 1416 sol 227734878.00
iteration 1417 sol 227617036.00
iteration 1418 sol 228466733.00
iteration 1419 sol 227880087.00
iteration 1420 sol 227722268.00
iteration 1421 sol 228551882.00
iteration 1422 sol 228373094.00
iteration 1423 sol 227896507.00
iteration 1424 sol 228138356.00
iteration 1425 sol 228246362.00
iteration 1426 sol 227929672.00
iteration 1427 sol 228234480.00
iteration 1428 sol 228304719.00
iteration 1429 sol 228332081.00
iteration 1430 sol 228341206.00
iteration 1431 sol 228092611.00
iteration 1432 sol 228396761.00
iteration 1433 sol 228398904.00
iteration 1434 sol 228088603.00
iteration 1435 sol 228382836.00
iteration 1436 sol 228369069.00
iteration 1437 sol 228538085.00
iteration 1438 sol 228428640.00
iteration 1439 sol 228638022.00
iteration 1440 sol 228047170.00
iteration 1441 sol 228495493.00
iteration 1442 sol 227853897.00
iteration 1443 sol 227880361.00
iteration 1444 sol 228374768.00
iteration 1445 sol 227951112.00
iteration 1446 sol 227897198.00
iteration 1447 sol 227978415.00
iteration 1448 sol 228411661.00
iteration 1449 sol 228041178.00
iteration 1450 sol 228051205.00
iteration 1451 sol 228476356.00
iteration 1452 sol 228037260.00
iteration 1453 sol 227978065.00
iteration 1454 sol 227660169.00
iteration 1455 sol 228547840.00
iteration 1456 sol 228680635.00
iteration 1457 sol 227976902.00
iteration 1458 sol 228308313.00
iteration 1459 sol 227839841.00
iteration 1460 sol 227694558.00
iteration 1461 sol 228113692.00
iteration 1462 sol 228211346.00
iteration 1463 sol 228333335.00
iteration 1464 sol 228469777.00
iteration 1465 sol 228020092.00
iteration 1466 sol 228088346.00
iteration 1467 sol 228072811.00
iteration 1468 sol 227581676.00
iteration 1469 sol 228587824.00
iteration 1470 sol 228340229.00
iteration 1471 sol 228127783.00
iteration 1472 sol 228345072.00
iteration 1473 sol 228539312.00
iteration 1474 sol 228357198.00
iteration 1475 sol 228351815.00
iteration 1476 sol 228536533.00
iteration 1477 sol 228414596.00
iteration 1478 sol 228298746.00
iteration 1479 sol 227710197.00
iteration 1480 sol 228131809.00
iteration 1481 sol 228268390.00
iteration 1482 sol 228182433.00
iteration 1483 sol 227570635.00
iteration 1484 sol 228335000.00
iteration 1485 sol 227857039.00
iteration 1486 sol 228369500.00
iteration 1487 sol 228521236.00
iteration 1488 sol 227598802.00
iteration 1489 sol 228046749.00
iteration 1490 sol 228418248.00
iteration 1491 sol 228259704.00
iteration 1492 sol 228468772.00
iteration 1493 sol 228032531.00
iteration 1494 sol 228415755.00
iteration 1495 sol 228052134.00
iteration 1496 sol 228106122.00
iteration 1497 sol 228440211.00
iteration 1498 sol 228323061.00
iteration 1499 sol 228388208.00
iteration 1500 sol 228370169.00
iteration 1501 sol 227490473.00
iteration 1502 sol 228359989.00
iteration 1503 sol 228447786.00
iteration 1504 sol 228487643.00
iteration 1505 sol 228238012.00
iteration 1506 sol 228476111.00
iteration 1507 sol 228440289.00
iteration 1508 sol 227858161.00
iteration 1509 sol 228387336.00
iteration 1510 sol 228270122.00
iteration 1511 sol 227605597.00
iteration 1512 sol 227782786.00
iteration 1513 sol 228398313.00
iteration 1514 sol 227733965.00
iteration 1515 sol 228429200.00
iteration 1516 sol 227873941.00
iteration 1517 sol 227962065.00
iteration 1518 sol 228297191.00
iteration 1519 sol 228264490.00
iteration 1520 sol 227961498.00
iteration 1521 sol 228043370.00
iteration 1522 sol 228302357.00
iteration 1523 sol 228246379.00
iteration 1524 sol 227670885.00
iteration 1525 sol 227912326.00
iteration 1526 sol 227851327.00
iteration 1527 sol 227550683.00
iteration 1528 sol 228115564.00
iteration 1529 sol 228375538.00
iteration 1530 sol 228347564.00
iteration 1531 sol 228217444.00
iteration 1532 sol 227674084.00
iteration 1533 sol 227896745.00
iteration 1534 sol 228254913.00
iteration 1535 sol 228490956.00
iteration 1536 sol 227710251.00
iteration 1537 sol 228197362.00
iteration 1538 sol 227960552.00
iteration 1539 sol 228266426.00
iteration 1540 sol 228267465.00
iteration 1541 sol 228343499.00
iteration 1542 sol 228146476.00
iteration 1543 sol 228042350.00
iteration 1544 sol 228378564.00
iteration 1545 sol 228474469.00
iteration 1546 sol 228159097.00
iteration 1547 sol 228426964.00
iteration 1548 sol 228364024.00
iteration 1549 sol 228336867.00
iteration 1550 sol 228217581.00
iteration 1551 sol 228349349.00
iteration 1552 sol 228283171.00
iteration 1553 sol 228540811.00
iteration 1554 sol 228240921.00
iteration 1555 sol 228163488.00
iteration 1556 sol 227861323.00
iteration 1557 sol 227633069.00
iteration 1558 sol 228639943.00
iteration 1559 sol 228283270.00
iteration 1560 sol 228345244.00
iteration 1561 sol 228479454.00
iteration 1562 sol 228382103.00
iteration 1563 sol 228495179.00
iteration 1564 sol 228119748.00
iteration 1565 sol 228201654.00
iteration 1566 sol 228236536.00
iteration 1567 sol 228061419.00
iteration 1568 sol 228531708.00
iteration 1569 sol 228303776.00
iteration 1570 sol 227830398.00
iteration 1571 sol 228395524.00
iteration 1572 sol 228578092.00
iteration 1573 sol 228176646.00
iteration 1574 sol 228263393.00
iteration 1575 sol 228309840.00
iteration 1576 sol 228349762.00
iteration 1577 sol 228326077.00
iteration 1578 sol 228065603.00
iteration 1579 sol 227895070.00
iteration 1580 sol 228439266.00
iteration 1581 sol 228191582.00
iteration 1582 sol 228330640.00
iteration 1583 sol 228383709.00
iteration 1584 sol 228491966.00
iteration 1585 sol 227724054.00
iteration 1586 sol 228386945.00
iteration 1587 sol 228012955.00
iteration 1588 sol 228547938.00
iteration 1589 sol 228068538.00
iteration 1590 sol 228138742.00
iteration 1591 sol 228500973.00
iteration 1592 sol 228252639.00
iteration 1593 sol 228368770.00
iteration 1594 sol 227979738.00
iteration 1595 sol 228407587.00
iteration 1596 sol 228221999.00
iteration 1597 sol 228360821.00
iteration 1598 sol 228595830.00
iteration 1599 sol 228016345.00
iteration 1600 sol 228094245.00
iteration 1601 sol 227909906.00
iteration 1602 sol 227971572.00
iteration 1603 sol 228227967.00
iteration 1604 sol 227911898.00
iteration 1605 sol 227895514.00
iteration 1606 sol 227872278.00
iteration 1607 sol 228452174.00
iteration 1608 sol 227865249.00
iteration 1609 sol 228479579.00
iteration 1610 sol 228033909.00
iteration 1611 sol 228067225.00
iteration 1612 sol 227937467.00
iteration 1613 sol 228339554.00
iteration 1614 sol 227835491.00
iteration 1615 sol 227558062.00
iteration 1616 sol 227844058.00
iteration 1617 sol 227961429.00
iteration 1618 sol 228492779.00
iteration 1619 sol 227626837.00
iteration 1620 sol 228073810.00
iteration 1621 sol 228288334.00
iteration 1622 sol 228079778.00
iteration 1623 sol 228646560.00
iteration 1624 sol 228228098.00
iteration 1625 sol 228175075.00
iteration 1626 sol 227701276.00
iteration 1627 sol 228076080.00
iteration 1628 sol 228019188.00
iteration 1629 sol 227828001.00
iteration 1630 sol 227674234.00
iteration 1631 sol 228396302.00
iteration 1632 sol 228150828.00
iteration 1633 sol 228379874.00
iteration 1634 sol 227385481.00
iteration 1635 sol 228353013.00
iteration 1636 sol 228482705.00
iteration 1637 sol 228618532.00
iteration 1638 sol 228034286.00
iteration 1639 sol 228416626.00
iteration 1640 sol 228627814.00
iteration 1641 sol 228292542.00
iteration 1642 sol 228026536.00
iteration 1643 sol 227440216.00
iteration 1644 sol 228344355.00
iteration 1645 sol 227890052.00
iteration 1646 sol 228018386.00
iteration 1647 sol 228224113.00
iteration 1648 sol 228156025.00
iteration 1649 sol 228465410.00
iteration 1650 sol 227419638.00
iteration 1651 sol 228342105.00
iteration 1652 sol 227632458.00
iteration 1653 sol 228385830.00
iteration 1654 sol 228160336.00
iteration 1655 sol 228403760.00
iteration 1656 sol 228255545.00
iteration 1657 sol 228202070.00
iteration 1658 sol 228386024.00
iteration 1659 sol 228415811.00
iteration 1660 sol 228370696.00
iteration 1661 sol 227927392.00
iteration 1662 sol 227878347.00
iteration 1663 sol 228071945.00
iteration 1664 sol 228428295.00
iteration 1665 sol 228271565.00
iteration 1666 sol 228441031.00
iteration 1667 sol 228371054.00
iteration 1668 sol 228030003.00
iteration 1669 sol 228508056.00
iteration 1670 sol 227631223.00
iteration 1671 sol 227935861.00
iteration 1672 sol 228592750.00
iteration 1673 sol 228236590.00
iteration 1674 sol 228019244.00
iteration 1675 sol 227805245.00
iteration 1676 sol 227669393.00
iteration 1677 sol 228491670.00
iteration 1678 sol 227984732.00
iteration 1679 sol 228276360.00
iteration 1680 sol 228396185.00
iteration 1681 sol 227965151.00
iteration 1682 sol 228064051.00
iteration 1683 sol 228645486.00
iteration 1684 sol 228418172.00
iteration 1685 sol 228516229.00
iteration 1686 sol 228292714.00
iteration 1687 sol 228501185.00
iteration 1688 sol 227925538.00
iteration 1689 sol 228364116.00
iteration 1690 sol 228217592.00
iteration 1691 sol 228422699.00
iteration 1692 sol 228544364.00
iteration 1693 sol 227856310.00
iteration 1694 sol 228245024.00
iteration 1695 sol 228504091.00
iteration 1696 sol 228406882.00
iteration 1697 sol 228383620.00
iteration 1698 sol 228120577.00
iteration 1699 sol 227820907.00
iteration 1700 sol 228280163.00
iteration 1701 sol 228355136.00
iteration 1702 sol 228482213.00
iteration 1703 sol 228073187.00
iteration 1704 sol 228104223.00
iteration 1705 sol 228178236.00
iteration 1706 sol 227892801.00
iteration 1707 sol 228112279.00
iteration 1708 sol 228188887.00
iteration 1709 sol 228485243.00
iteration 1710 sol 228515206.00
iteration 1711 sol 227886770.00
iteration 1712 sol 228027161.00
iteration 1713 sol 227909721.00
iteration 1714 sol 228151698.00
iteration 1715 sol 228131376.00
iteration 1716 sol 227819381.00
iteration 1717 sol 228451227.00
iteration 1718 sol 228379258.00
iteration 1719 sol 227938918.00
iteration 1720 sol 228216948.00
iteration 1721 sol 228220953.00
iteration 1722 sol 228040296.00
iteration 1723 sol 228058698.00
iteration 1724 sol 228508528.00
iteration 1725 sol 228082780.00
iteration 1726 sol 228484375.00
iteration 1727 sol 228546485.00
iteration 1728 sol 228555062.00
iteration 1729 sol 227843481.00
iteration 1730 sol 227846448.00
iteration 1731 sol 228087971.00
iteration 1732 sol 227964022.00
iteration 1733 sol 228266343.00
iteration 1734 sol 228622351.00
iteration 1735 sol 227845442.00
iteration 1736 sol 228347242.00
iteration 1737 sol 227783055.00
iteration 1738 sol 228232551.00
iteration 1739 sol 228411359.00
iteration 1740 sol 228248756.00
iteration 1741 sol 228413971.00
iteration 1742 sol 228456701.00
iteration 1743 sol 228201840.00
iteration 1744 sol 228055743.00
iteration 1745 sol 228460949.00
iteration 1746 sol 228050717.00
iteration 1747 sol 227659849.00
iteration 1748 sol 228665021.00
iteration 1749 sol 228594168.00
iteration 1750 sol 228314470.00
iteration 1751 sol 228214824.00
iteration 1752 sol 228514677.00
iteration 1753 sol 227633553.00
iteration 1754 sol 228559004.00
iteration 1755 sol 227899548.00
iteration 1756 sol 228047996.00
iteration 1757 sol 227756975.00
iteration 1758 sol 228422973.00
iteration 1759 sol 228435057.00
iteration 1760 sol 228121509.00
iteration 1761 sol 228442603.00
iteration 1762 sol 228410147.00
iteration 1763 sol 228391254.00
iteration 1764 sol 227880407.00
iteration 1765 sol 228417741.00
iteration 1766 sol 228410897.00
iteration 1767 sol 228386338.00
iteration 1768 sol 228031178.00
iteration 1769 sol 227469918.00
iteration 1770 sol 228328188.00
iteration 1771 sol 228504709.00
iteration 1772 sol 227618318.00
iteration 1773 sol 227807594.00
iteration 1774 sol 228426789.00
iteration 1775 sol 228404560.00
iteration 1776 sol 228060542.00
iteration 1777 sol 228078526.00
iteration 1778 sol 227850885.00
iteration 1779 sol 228285074.00
iteration 1780 sol 228453198.00
iteration 1781 sol 228218728.00
iteration 1782 sol 227958082.00
iteration 1783 sol 228391813.00
iteration 1784 sol 228421246.00
iteration 1785 sol 227607964.00
iteration 1786 sol 227868205.00
iteration 1787 sol 228016969.00
iteration 1788 sol 228031985.00
iteration 1789 sol 228239988.00
iteration 1790 sol 228388418.00
iteration 1791 sol 228252198.00
iteration 1792 sol 227961586.00
iteration 1793 sol 227862773.00
iteration 1794 sol 227994946.00
iteration 1795 sol 228273482.00
iteration 1796 sol 228174687.00
iteration 1797 sol 228470407.00
iteration 1798 sol 228078634.00
iteration 1799 sol 228615586.00
iteration 1800 sol 228235681.00
iteration 1801 sol 228321278.00
iteration 1802 sol 228231123.00
iteration 1803 sol 228435641.00
iteration 1804 sol 228448154.00
iteration 1805 sol 228390641.00
iteration 1806 sol 227706996.00
iteration 1807 sol 228463364.00
iteration 1808 sol 228197884.00
iteration 1809 sol 228525693.00
iteration 1810 sol 228045820.00
iteration 1811 sol 227626862.00
iteration 1812 sol 228337320.00
iteration 1813 sol 227422030.00
iteration 1814 sol 228181372.00
iteration 1815 sol 228215095.00
iteration 1816 sol 228483074.00
iteration 1817 sol 228089619.00
iteration 1818 sol 228066975.00
iteration 1819 sol 228241999.00
iteration 1820 sol 228270211.00
iteration 1821 sol 228103496.00
iteration 1822 sol 228481884.00
iteration 1823 sol 228241115.00
iteration 1824 sol 228324309.00
iteration 1825 sol 227819395.00
iteration 1826 sol 227719232.00
iteration 1827 sol 228448363.00
iteration 1828 sol 227850006.00
iteration 1829 sol 227499079.00
iteration 1830 sol 228198977.00
iteration 1831 sol 228136539.00
iteration 1832 sol 228273692.00
iteration 1833 sol 228392051.00
iteration 1834 sol 228529370.00
iteration 1835 sol 227844471.00
iteration 1836 sol 228323782.00
iteration 1837 sol 228687716.00
iteration 1838 sol 227959465.00
iteration 1839 sol 227933673.00
iteration 1840 sol 228408900.00
iteration 1841 sol 228151579.00
iteration 1842 sol 228172924.00
iteration 1843 sol 228486726.00
iteration 1844 sol 227898701.00
iteration 1845 sol 228525657.00
iteration 1846 sol 228381554.00
iteration 1847 sol 227805044.00
iteration 1848 sol 228547120.00
iteration 1849 sol 227952132.00
iteration 1850 sol 227882844.00
iteration 1851 sol 228354495.00
iteration 1852 sol 228257524.00
iteration 1853 sol 228383218.00
iteration 1854 sol 228596009.00
iteration 1855 sol 228091824.00
iteration 1856 sol 228326669.00
iteration 1857 sol 228581485.00
iteration 1858 sol 228516626.00
iteration 1859 sol 227968554.00
iteration 1860 sol 227778147.00
iteration 1861 sol 227624191.00
iteration 1862 sol 228022716.00
iteration 1863 sol 228389186.00
iteration 1864 sol 227734296.00
iteration 1865 sol 227746276.00
iteration 1866 sol 228449424.00
iteration 1867 sol 227758417.00
iteration 1868 sol 228258154.00
iteration 1869 sol 228203210.00
iteration 1870 sol 228604857.00
iteration 1871 sol 228450907.00
iteration 1872 sol 228297306.00
iteration 1873 sol 227714597.00
iteration 1874 sol 228086955.00
iteration 1875 sol 227732208.00
iteration 1876 sol 228238540.00
iteration 1877 sol 228344539.00
iteration 1878 sol 228251254.00
iteration 1879 sol 227718948.00
iteration 1880 sol 228392489.00
iteration 1881 sol 228133668.00
iteration 1882 sol 228020265.00
iteration 1883 sol 228426474.00
iteration 1884 sol 228193576.00
iteration 1885 sol 228481423.00
iteration 1886 sol 227802028.00
iteration 1887 sol 228477502.00
iteration 1888 sol 228285625.00
iteration 1889 sol 228314579.00
iteration 1890 sol 228083711.00
iteration 1891 sol 228001995.00
iteration 1892 sol 228268399.00
iteration 1893 sol 228197712.00
iteration 1894 sol 227804624.00
iteration 1895 sol 228516570.00
iteration 1896 sol 228564631.00
iteration 1897 sol 228097569.00
iteration 1898 sol 228534559.00
iteration 1899 sol 227838658.00
iteration 1900 sol 228093861.00
iteration 1901 sol 228238099.00
iteration 1902 sol 228275991.00
iteration 1903 sol 228232351.00
iteration 1904 sol 228167048.00
iteration 1905 sol 228325167.00
iteration 1906 sol 227927476.00
iteration 1907 sol 228057926.00
iteration 1908 sol 228503867.00
iteration 1909 sol 228443028.00
iteration 1910 sol 227944860.00
iteration 1911 sol 228281769.00
iteration 1912 sol 227753133.00
iteration 1913 sol 228419489.00
iteration 1914 sol 228409492.00
iteration 1915 sol 228260913.00
iteration 1916 sol 228183474.00
iteration 1917 sol 228558338.00
iteration 1918 sol 228200932.00
iteration 1919 sol 228671695.00
iteration 1920 sol 228262118.00
iteration 1921 sol 227728498.00
iteration 1922 sol 228258295.00
iteration 1923 sol 227991436.00
iteration 1924 sol 228066838.00
iteration 1925 sol 228563261.00
iteration 1926 sol 228582117.00
iteration 1927 sol 228321627.00
iteration 1928 sol 228182989.00
iteration 1929 sol 228313250.00
iteration 1930 sol 228338709.00
iteration 1931 sol 227662327.00
iteration 1932 sol 228104663.00
iteration 1933 sol 228161288.00
iteration 1934 sol 228236252.00
iteration 1935 sol 227835260.00
iteration 1936 sol 227941156.00
iteration 1937 sol 228339920.00
iteration 1938 sol 227838180.00
iteration 1939 sol 227761299.00
iteration 1940 sol 228324637.00
iteration 1941 sol 228036143.00
iteration 1942 sol 227859296.00
iteration 1943 sol 228433192.00
iteration 1944 sol 228345386.00
iteration 1945 sol 228029485.00
iteration 1946 sol 227793932.00
iteration 1947 sol 227883134.00
iteration 1948 sol 228103730.00
iteration 1949 sol 228133525.00
iteration 1950 sol 228406175.00
iteration 1951 sol 228498331.00
iteration 1952 sol 228324279.00
iteration 1953 sol 228291581.00
iteration 1954 sol 228394558.00
iteration 1955 sol 228352462.00
iteration 1956 sol 228332050.00
iteration 1957 sol 228376236.00
iteration 1958 sol 228310830.00
iteration 1959 sol 227890568.00
iteration 1960 sol 228510253.00
iteration 1961 sol 228453431.00
iteration 1962 sol 227761632.00
iteration 1963 sol 228183971.00
iteration 1964 sol 228101563.00
iteration 1965 sol 227944240.00
iteration 1966 sol 228650572.00
iteration 1967 sol 228649135.00
iteration 1968 sol 227726336.00
iteration 1969 sol 228359283.00
iteration 1970 sol 228387881.00
iteration 1971 sol 228072386.00
iteration 1972 sol 228307104.00
iteration 1973 sol 228398885.00
iteration 1974 sol 228299367.00
iteration 1975 sol 228048527.00
iteration 1976 sol 228363322.00
iteration 1977 sol 228116251.00
iteration 1978 sol 228525873.00
iteration 1979 sol 227815270.00
iteration 1980 sol 228465937.00
iteration 1981 sol 228366210.00
iteration 1982 sol 227984828.00
iteration 1983 sol 227875797.00
iteration 1984 sol 228089280.00
iteration 1985 sol 228398774.00
iteration 1986 sol 227708823.00
iteration 1987 sol 228077654.00
iteration 1988 sol 227938757.00
iteration 1989 sol 227816959.00
iteration 1990 sol 228456020.00
iteration 1991 sol 228223994.00
iteration 1992 sol 227921977.00
iteration 1993 sol 228271611.00
iteration 1994 sol 228491454.00
iteration 1995 sol 227751016.00
iteration 1996 sol 227838884.00
iteration 1997 sol 227853517.00
iteration 1998 sol 228298170.00
iteration 1999 sol 228343184.00
Number of iterations = 2000
Best Solution was found in iteration = 649
Time used by neighbor | Times each neighbor was used | Improvements
N_1 = 19.24 | 20253 | 16406
N_2 = 250.18 | 20253 | 19069
N_3 = 1.81 | 20253 | 7077
N_4 = 102.09 | 20253 | 6980
Time to find the best solution = 105.51
Solution = 228791796.00
Time = 391.38
