iteration 0 sol 119608745.00
iteration 1 sol 120207039.00
iteration 2 sol 120126498.00
iteration 3 sol 120061978.00
iteration 4 sol 119792011.00
iteration 5 sol 119806653.00
iteration 6 sol 120116086.00
iteration 7 sol 120120230.00
iteration 8 sol 120069272.00
iteration 9 sol 119921308.00
iteration 10 sol 119855807.00
iteration 11 sol 119864431.00
iteration 12 sol 119911310.00
iteration 13 sol 119729306.00
iteration 14 sol 120097278.00
iteration 15 sol 119821413.00
iteration 16 sol 120110908.00
iteration 17 sol 120173686.00
iteration 18 sol 120307631.00
iteration 19 sol 119916681.00
iteration 20 sol 120108095.00
iteration 21 sol 119768001.00
iteration 22 sol 120345564.00
iteration 23 sol 120024094.00
iteration 24 sol 119965625.00
iteration 25 sol 120166577.00
iteration 26 sol 119786460.00
iteration 27 sol 119668630.00
iteration 28 sol 120176373.00
iteration 29 sol 119935613.00
iteration 30 sol 119889858.00
iteration 31 sol 120142190.00
iteration 32 sol 119762624.00
iteration 33 sol 120254868.00
iteration 34 sol 120064221.00
iteration 35 sol 120362763.00
iteration 36 sol 120171934.00
iteration 37 sol 120153018.00
iteration 38 sol 119949757.00
iteration 39 sol 120057465.00
iteration 40 sol 120399052.00
iteration 41 sol 119807397.00
iteration 42 sol 119719040.00
iteration 43 sol 120263601.00
iteration 44 sol 119947264.00
iteration 45 sol 120133217.00
iteration 46 sol 119694786.00
iteration 47 sol 119742581.00
iteration 48 sol 120208731.00
iteration 49 sol 120213696.00
iteration 50 sol 119793382.00
iteration 51 sol 119999985.00
iteration 52 sol 120115313.00
iteration 53 sol 119740965.00
iteration 54 sol 120083379.00
iteration 55 sol 120099623.00
iteration 56 sol 120027703.00
iteration 57 sol 120136991.00
iteration 58 sol 120023190.00
iteration 59 sol 120345959.00
iteration 60 sol 120154649.00
iteration 61 sol 120379792.00
iteration 62 sol 120357742.00
iteration 63 sol 120303141.00
iteration 64 sol 120081584.00
iteration 65 sol 119615250.00
iteration 66 sol 120408056.00
iteration 67 sol 120355672.00
iteration 68 sol 119919663.00
iteration 69 sol 120032976.00
iteration 70 sol 119768865.00
iteration 71 sol 119885244.00
iteration 72 sol 120296163.00
iteration 73 sol 119937285.00
iteration 74 sol 119798961.00
iteration 75 sol 119816795.00
iteration 76 sol 120059613.00
iteration 77 sol 119954282.00
iteration 78 sol 120069998.00
iteration 79 sol 119952732.00
iteration 80 sol 119713460.00
iteration 81 sol 119673409.00
iteration 82 sol 120024634.00
iteration 83 sol 120262032.00
iteration 84 sol 119883304.00
iteration 85 sol 120162340.00
iteration 86 sol 120007616.00
iteration 87 sol 120147612.00
iteration 88 sol 120067314.00
iteration 89 sol 119965951.00
iteration 90 sol 120159163.00
iteration 91 sol 120011611.00
iteration 92 sol 120209422.00
iteration 93 sol 119982234.00
iteration 94 sol 120363500.00
iteration 95 sol 120376800.00
iteration 96 sol 119924197.00
iteration 97 sol 120345733.00
iteration 98 sol 119891814.00
iteration 99 sol 120161453.00
iteration 100 sol 119593124.00
iteration 101 sol 119731965.00
iteration 102 sol 120011128.00
iteration 103 sol 119429756.00
iteration 104 sol 120401222.00
iteration 105 sol 120091673.00
iteration 106 sol 119744775.00
iteration 107 sol 120074455.00
iteration 108 sol 120522436.00
iteration 109 sol 120101715.00
iteration 110 sol 119908702.00
iteration 111 sol 119520715.00
iteration 112 sol 120356027.00
iteration 113 sol 119766682.00
iteration 114 sol 119982233.00
iteration 115 sol 119937873.00
iteration 116 sol 120315747.00
iteration 117 sol 119780953.00
iteration 118 sol 120034005.00
iteration 119 sol 119852228.00
iteration 120 sol 120081511.00
iteration 121 sol 120180097.00
iteration 122 sol 119833400.00
iteration 123 sol 120168220.00
iteration 124 sol 119874205.00
iteration 125 sol 119674666.00
iteration 126 sol 120021605.00
iteration 127 sol 119897525.00
iteration 128 sol 119943409.00
iteration 129 sol 120081998.00
iteration 130 sol 120436914.00
iteration 131 sol 119926442.00
iteration 132 sol 120074785.00
iteration 133 sol 119879240.00
iteration 134 sol 120157399.00
iteration 135 sol 120464153.00
iteration 136 sol 119899760.00
iteration 137 sol 120181539.00
iteration 138 sol 120118253.00
iteration 139 sol 119831582.00
iteration 140 sol 119931438.00
iteration 141 sol 119804504.00
iteration 142 sol 120015304.00
iteration 143 sol 119842927.00
iteration 144 sol 120309527.00
iteration 145 sol 120158114.00
iteration 146 sol 120020598.00
iteration 147 sol 120105120.00
iteration 148 sol 120134900.00
iteration 149 sol 120287006.00
iteration 150 sol 119904811.00
iteration 151 sol 119803251.00
iteration 152 sol 120137184.00
iteration 153 sol 119674831.00
iteration 154 sol 119936938.00
iteration 155 sol 120415335.00
iteration 156 sol 119663108.00
iteration 157 sol 119916536.00
iteration 158 sol 119711311.00
iteration 159 sol 120314057.00
iteration 160 sol 119876926.00
iteration 161 sol 120019684.00
iteration 162 sol 120074651.00
iteration 163 sol 120078415.00
iteration 164 sol 120097042.00
iteration 165 sol 119566916.00
iteration 166 sol 119875192.00
iteration 167 sol 119602178.00
iteration 168 sol 119816499.00
iteration 169 sol 119825772.00
iteration 170 sol 120430852.00
iteration 171 sol 119984871.00
iteration 172 sol 120368032.00
iteration 173 sol 119526806.00
iteration 174 sol 120251681.00
iteration 175 sol 119565303.00
iteration 176 sol 120027241.00
iteration 177 sol 120290499.00
iteration 178 sol 119798087.00
iteration 179 sol 119932476.00
iteration 180 sol 120170766.00
iteration 181 sol 120028234.00
iteration 182 sol 119677942.00
iteration 183 sol 120214129.00
iteration 184 sol 120110920.00
iteration 185 sol 119686159.00
iteration 186 sol 120160888.00
iteration 187 sol 120277798.00
iteration 188 sol 120505883.00
iteration 189 sol 120331486.00
iteration 190 sol 119911526.00
iteration 191 sol 119643633.00
iteration 192 sol 119884844.00
iteration 193 sol 120114060.00
iteration 194 sol 119996047.00
iteration 195 sol 120467574.00
iteration 196 sol 120275644.00
iteration 197 sol 120051900.00
iteration 198 sol 120134500.00
iteration 199 sol 119697143.00
iteration 200 sol 119827028.00
iteration 201 sol 119835946.00
iteration 202 sol 119871561.00
iteration 203 sol 120276999.00
iteration 204 sol 120226494.00
iteration 205 sol 120205377.00
iteration 206 sol 119821554.00
iteration 207 sol 119843181.00
iteration 208 sol 120318276.00
iteration 209 sol 119734955.00
iteration 210 sol 120379649.00
iteration 211 sol 120511444.00
iteration 212 sol 120166756.00
iteration 213 sol 120206419.00
iteration 214 sol 119563648.00
iteration 215 sol 119758124.00
iteration 216 sol 119920027.00
iteration 217 sol 120021510.00
iteration 218 sol 119829341.00
iteration 219 sol 119988366.00
iteration 220 sol 119885661.00
iteration 221 sol 119963013.00
iteration 222 sol 120125292.00
iteration 223 sol 119913697.00
iteration 224 sol 120286275.00
iteration 225 sol 120230352.00
iteration 226 sol 120243526.00
iteration 227 sol 120154050.00
iteration 228 sol 119729978.00
iteration 229 sol 120090369.00
iteration 230 sol 120264038.00
iteration 231 sol 119849168.00
iteration 232 sol 119653134.00
iteration 233 sol 119660709.00
iteration 234 sol 119558837.00
iteration 235 sol 120258992.00
iteration 236 sol 119984140.00
iteration 237 sol 120110398.00
iteration 238 sol 120202927.00
iteration 239 sol 119862572.00
iteration 240 sol 120392174.00
iteration 241 sol 120074371.00
iteration 242 sol 120073258.00
iteration 243 sol 119660937.00
iteration 244 sol 120298756.00
iteration 245 sol 119988528.00
iteration 246 sol 120410023.00
iteration 247 sol 120279738.00
iteration 248 sol 119987922.00
iteration 249 sol 119738579.00
iteration 250 sol 120273497.00
iteration 251 sol 120306887.00
iteration 252 sol 119886684.00
iteration 253 sol 119993914.00
iteration 254 sol 120030198.00
iteration 255 sol 119627040.00
iteration 256 sol 120004480.00
iteration 257 sol 120351581.00
iteration 258 sol 119927818.00
iteration 259 sol 120167405.00
iteration 260 sol 119712645.00
iteration 261 sol 119840943.00
iteration 262 sol 120132604.00
iteration 263 sol 119591779.00
iteration 264 sol 120161510.00
iteration 265 sol 120163232.00
iteration 266 sol 120208687.00
iteration 267 sol 120214800.00
iteration 268 sol 119990339.00
iteration 269 sol 120295344.00
iteration 270 sol 119866119.00
iteration 271 sol 119955390.00
iteration 272 sol 120144191.00
iteration 273 sol 119913296.00
iteration 274 sol 119889700.00
iteration 275 sol 119595241.00
iteration 276 sol 120543829.00
iteration 277 sol 119725387.00
iteration 278 sol 119552959.00
iteration 279 sol 120053003.00
iteration 280 sol 120150551.00
iteration 281 sol 120144526.00
iteration 282 sol 120283789.00
iteration 283 sol 120059765.00
iteration 284 sol 120079007.00
iteration 285 sol 120132257.00
iteration 286 sol 119844775.00
iteration 287 sol 120193669.00
iteration 288 sol 119733396.00
iteration 289 sol 120182800.00
iteration 290 sol 120070805.00
iteration 291 sol 119921589.00
iteration 292 sol 120167407.00
iteration 293 sol 119876619.00
iteration 294 sol 119970294.00
iteration 295 sol 120049703.00
iteration 296 sol 120272851.00
iteration 297 sol 120175698.00
iteration 298 sol 120266190.00
iteration 299 sol 120314406.00
iteration 300 sol 120172230.00
iteration 301 sol 120050910.00
iteration 302 sol 119797495.00
iteration 303 sol 119663005.00
iteration 304 sol 120317001.00
iteration 305 sol 120245993.00
iteration 306 sol 119701081.00
iteration 307 sol 119476887.00
iteration 308 sol 120175518.00
iteration 309 sol 120163209.00
iteration 310 sol 119902989.00
iteration 311 sol 119837282.00
iteration 312 sol 120158728.00
iteration 313 sol 119733336.00
iteration 314 sol 119907407.00
iteration 315 sol 119892148.00
iteration 316 sol 119975103.00
iteration 317 sol 119217410.00
iteration 318 sol 120439459.00
iteration 319 sol 119856090.00
iteration 320 sol 120456009.00
iteration 321 sol 120268723.00
iteration 322 sol 120115137.00
iteration 323 sol 120163210.00
iteration 324 sol 119935019.00
iteration 325 sol 120224333.00
iteration 326 sol 120329396.00
iteration 327 sol 120101504.00
iteration 328 sol 120235753.00
iteration 329 sol 120152935.00
iteration 330 sol 119957658.00
iteration 331 sol 120204960.00
iteration 332 sol 120000186.00
iteration 333 sol 119702710.00
iteration 334 sol 120142844.00
iteration 335 sol 120546151.00
iteration 336 sol 120238719.00
iteration 337 sol 119750471.00
iteration 338 sol 119924358.00
iteration 339 sol 119870073.00
iteration 340 sol 119954452.00
iteration 341 sol 120154585.00
iteration 342 sol 120230808.00
iteration 343 sol 120232433.00
iteration 344 sol 120130683.00
iteration 345 sol 120077615.00
iteration 346 sol 119786529.00
iteration 347 sol 119854092.00
iteration 348 sol 120378477.00
iteration 349 sol 120018864.00
iteration 350 sol 120076446.00
iteration 351 sol 120115469.00
iteration 352 sol 120431366.00
iteration 353 sol 120033375.00
iteration 354 sol 120051431.00
iteration 355 sol 120092419.00
iteration 356 sol 120457751.00
iteration 357 sol 119879062.00
iteration 358 sol 119828868.00
iteration 359 sol 119628926.00
iteration 360 sol 120459416.00
iteration 361 sol 120012281.00
iteration 362 sol 120077803.00
iteration 363 sol 120146277.00
iteration 364 sol 119993351.00
iteration 365 sol 120202809.00
iteration 366 sol 120088827.00
iteration 367 sol 119986691.00
iteration 368 sol 119845430.00
iteration 369 sol 120031942.00
iteration 370 sol 119921819.00
iteration 371 sol 119768323.00
iteration 372 sol 119969927.00
iteration 373 sol 120035091.00
iteration 374 sol 120249727.00
iteration 375 sol 120149583.00
iteration 376 sol 119950945.00
iteration 377 sol 120082741.00
iteration 378 sol 120043344.00
iteration 379 sol 120322303.00
iteration 380 sol 120058540.00
iteration 381 sol 120021656.00
iteration 382 sol 119951556.00
iteration 383 sol 120022374.00
iteration 384 sol 120346853.00
iteration 385 sol 120175172.00
iteration 386 sol 119867949.00
iteration 387 sol 119993521.00
iteration 388 sol 120153755.00
iteration 389 sol 119751809.00
iteration 390 sol 120053442.00
iteration 391 sol 120233509.00
iteration 392 sol 119888089.00
iteration 393 sol 119816713.00
iteration 394 sol 119951509.00
iteration 395 sol 120094554.00
iteration 396 sol 120293518.00
iteration 397 sol 119788928.00
iteration 398 sol 119782985.00
iteration 399 sol 119710230.00
iteration 400 sol 119830511.00
iteration 401 sol 120383901.00
iteration 402 sol 120095251.00
iteration 403 sol 120103891.00
iteration 404 sol 120006755.00
iteration 405 sol 119775545.00
iteration 406 sol 120181546.00
iteration 407 sol 120024377.00
iteration 408 sol 120278007.00
iteration 409 sol 120108650.00
iteration 410 sol 120238197.00
iteration 411 sol 119798080.00
iteration 412 sol 120006671.00
iteration 413 sol 119962178.00
iteration 414 sol 119569074.00
iteration 415 sol 120083952.00
iteration 416 sol 120365454.00
iteration 417 sol 119964748.00
iteration 418 sol 120005844.00
iteration 419 sol 120470414.00
iteration 420 sol 120223418.00
iteration 421 sol 120049206.00
iteration 422 sol 120051697.00
iteration 423 sol 120123839.00
iteration 424 sol 120147309.00
iteration 425 sol 120541004.00
iteration 426 sol 120156172.00
iteration 427 sol 120387512.00
iteration 428 sol 120173951.00
iteration 429 sol 119911281.00
iteration 430 sol 120324501.00
iteration 431 sol 120034844.00
iteration 432 sol 119801106.00
iteration 433 sol 119945350.00
iteration 434 sol 120063520.00
iteration 435 sol 119944685.00
iteration 436 sol 120009878.00
iteration 437 sol 120214894.00
iteration 438 sol 120293132.00
iteration 439 sol 119651563.00
iteration 440 sol 120108369.00
iteration 441 sol 119972891.00
iteration 442 sol 119999598.00
iteration 443 sol 120099172.00
iteration 444 sol 120131362.00
iteration 445 sol 120235608.00
iteration 446 sol 120210681.00
iteration 447 sol 119820445.00
iteration 448 sol 119784684.00
iteration 449 sol 119756087.00
iteration 450 sol 120180013.00
iteration 451 sol 120357573.00
iteration 452 sol 120162389.00
iteration 453 sol 120090954.00
iteration 454 sol 120407148.00
iteration 455 sol 120050321.00
iteration 456 sol 119416082.00
iteration 457 sol 120214512.00
iteration 458 sol 120112114.00
iteration 459 sol 120149446.00
iteration 460 sol 119828085.00
iteration 461 sol 120246953.00
iteration 462 sol 120196645.00
iteration 463 sol 119610697.00
iteration 464 sol 120012017.00
iteration 465 sol 119806571.00
iteration 466 sol 119808290.00
iteration 467 sol 120251232.00
iteration 468 sol 119868975.00
iteration 469 sol 120442502.00
iteration 470 sol 119944896.00
iteration 471 sol 120115569.00
iteration 472 sol 119816634.00
iteration 473 sol 120310119.00
iteration 474 sol 120130075.00
iteration 475 sol 120361426.00
iteration 476 sol 119330335.00
iteration 477 sol 120138904.00
iteration 478 sol 119851715.00
iteration 479 sol 120331658.00
iteration 480 sol 119943297.00
iteration 481 sol 119598571.00
iteration 482 sol 119953780.00
iteration 483 sol 120154047.00
iteration 484 sol 120261316.00
iteration 485 sol 119833653.00
iteration 486 sol 120012614.00
iteration 487 sol 119799206.00
iteration 488 sol 119770547.00
iteration 489 sol 119539376.00
iteration 490 sol 119898547.00
iteration 491 sol 120041845.00
iteration 492 sol 119647834.00
iteration 493 sol 119962117.00
iteration 494 sol 120217063.00
iteration 495 sol 119917562.00
iteration 496 sol 120229654.00
iteration 497 sol 120298754.00
iteration 498 sol 120193873.00
iteration 499 sol 120091695.00
iteration 500 sol 119962568.00
iteration 501 sol 120012898.00
iteration 502 sol 119919178.00
iteration 503 sol 120170253.00
iteration 504 sol 119915820.00
iteration 505 sol 119666025.00
iteration 506 sol 120127433.00
iteration 507 sol 120077178.00
iteration 508 sol 120125753.00
iteration 509 sol 120121462.00
iteration 510 sol 120349451.00
iteration 511 sol 119839073.00
iteration 512 sol 120077775.00
iteration 513 sol 119767441.00
iteration 514 sol 119949631.00
iteration 515 sol 120073041.00
iteration 516 sol 119983718.00
iteration 517 sol 119870295.00
iteration 518 sol 120203134.00
iteration 519 sol 119782364.00
iteration 520 sol 119701827.00
iteration 521 sol 120006154.00
iteration 522 sol 120123780.00
iteration 523 sol 120416317.00
iteration 524 sol 120241469.00
iteration 525 sol 120018993.00
iteration 526 sol 120059136.00
iteration 527 sol 119935247.00
iteration 528 sol 119980120.00
iteration 529 sol 119903510.00
iteration 530 sol 120462863.00
iteration 531 sol 120517253.00
iteration 532 sol 120073816.00
iteration 533 sol 120095166.00
iteration 534 sol 120100749.00
iteration 535 sol 119733196.00
iteration 536 sol 120264907.00
iteration 537 sol 119868132.00
iteration 538 sol 119831139.00
iteration 539 sol 120007532.00
iteration 540 sol 120230696.00
iteration 541 sol 119930887.00
iteration 542 sol 120465477.00
iteration 543 sol 119769905.00
iteration 544 sol 119888286.00
iteration 545 sol 120485173.00
iteration 546 sol 119849193.00
iteration 547 sol 119699988.00
iteration 548 sol 120434588.00
iteration 549 sol 120403553.00
iteration 550 sol 120005396.00
iteration 551 sol 120410435.00
iteration 552 sol 119927321.00
iteration 553 sol 119617236.00
iteration 554 sol 120256527.00
iteration 555 sol 120099512.00
iteration 556 sol 119842466.00
iteration 557 sol 119839278.00
iteration 558 sol 119969494.00
iteration 559 sol 119931148.00
iteration 560 sol 119787230.00
iteration 561 sol 119831656.00
iteration 562 sol 120082095.00
iteration 563 sol 119887837.00
iteration 564 sol 119943833.00
iteration 565 sol 120341414.00
iteration 566 sol 120254842.00
iteration 567 sol 120168099.00
iteration 568 sol 119886628.00
iteration 569 sol 120343342.00
iteration 570 sol 120142597.00
iteration 571 sol 119790017.00
iteration 572 sol 120146897.00
iteration 573 sol 120075376.00
iteration 574 sol 120253910.00
iteration 575 sol 119904258.00
iteration 576 sol 120038286.00
iteration 577 sol 119923379.00
iteration 578 sol 119776621.00
iteration 579 sol 120108202.00
iteration 580 sol 119831127.00
iteration 581 sol 120165745.00
iteration 582 sol 119856544.00
iteration 583 sol 119654458.00
iteration 584 sol 119730537.00
iteration 585 sol 120214055.00
iteration 586 sol 120099669.00
iteration 587 sol 120216861.00
iteration 588 sol 119638133.00
iteration 589 sol 119825974.00
iteration 590 sol 120006844.00
iteration 591 sol 120225802.00
iteration 592 sol 120329245.00
iteration 593 sol 119713027.00
iteration 594 sol 120284366.00
iteration 595 sol 119808026.00
iteration 596 sol 119471082.00
iteration 597 sol 120098592.00
iteration 598 sol 120210826.00
iteration 599 sol 120025792.00
iteration 600 sol 120055449.00
iteration 601 sol 119923873.00
iteration 602 sol 120042529.00
iteration 603 sol 120530682.00
iteration 604 sol 120154820.00
iteration 605 sol 120172752.00
iteration 606 sol 119762121.00
iteration 607 sol 120153846.00
iteration 608 sol 119947729.00
iteration 609 sol 119891653.00
iteration 610 sol 119959059.00
iteration 611 sol 120170008.00
iteration 612 sol 120013593.00
iteration 613 sol 119953928.00
iteration 614 sol 119986203.00
iteration 615 sol 120247630.00
iteration 616 sol 120098550.00
iteration 617 sol 120405673.00
iteration 618 sol 119676029.00
iteration 619 sol 119841710.00
iteration 620 sol 120484490.00
iteration 621 sol 120387962.00
iteration 622 sol 119459886.00
iteration 623 sol 119661031.00
iteration 624 sol 120445794.00
iteration 625 sol 120141318.00
iteration 626 sol 120013043.00
iteration 627 sol 119753905.00
iteration 628 sol 119972421.00
iteration 629 sol 119947725.00
iteration 630 sol 119946645.00
iteration 631 sol 120007071.00
iteration 632 sol 120293802.00
iteration 633 sol 119757026.00
iteration 634 sol 120119459.00
iteration 635 sol 120399833.00
iteration 636 sol 120049020.00
iteration 637 sol 120175523.00
iteration 638 sol 119900646.00
iteration 639 sol 119630756.00
iteration 640 sol 120380028.00
iteration 641 sol 119661900.00
iteration 642 sol 120160748.00
iteration 643 sol 119709441.00
iteration 644 sol 119826563.00
iteration 645 sol 120396453.00
iteration 646 sol 120303739.00
iteration 647 sol 120171808.00
iteration 648 sol 120153927.00
iteration 649 sol 120090362.00
iteration 650 sol 120037349.00
iteration 651 sol 120334704.00
iteration 652 sol 119971207.00
iteration 653 sol 119762892.00
iteration 654 sol 119937257.00
iteration 655 sol 119853989.00
iteration 656 sol 120232814.00
iteration 657 sol 119913433.00
iteration 658 sol 119844304.00
iteration 659 sol 119982746.00
iteration 660 sol 120107336.00
iteration 661 sol 119815417.00
iteration 662 sol 119956404.00
iteration 663 sol 120086885.00
iteration 664 sol 119895777.00
iteration 665 sol 120426688.00
iteration 666 sol 119915647.00
iteration 667 sol 120108907.00
iteration 668 sol 120435612.00
iteration 669 sol 120028119.00
iteration 670 sol 120279694.00
iteration 671 sol 119727592.00
iteration 672 sol 120262393.00
iteration 673 sol 119978988.00
iteration 674 sol 119964139.00
iteration 675 sol 119490881.00
iteration 676 sol 119948461.00
iteration 677 sol 120539342.00
iteration 678 sol 119880760.00
iteration 679 sol 120108840.00
iteration 680 sol 120522678.00
iteration 681 sol 120088837.00
iteration 682 sol 120004463.00
iteration 683 sol 120130751.00
iteration 684 sol 119982370.00
iteration 685 sol 119834754.00
iteration 686 sol 119911677.00
iteration 687 sol 120107053.00
iteration 688 sol 120353482.00
iteration 689 sol 119789956.00
iteration 690 sol 120205127.00
iteration 691 sol 120306738.00
iteration 692 sol 120028522.00
iteration 693 sol 119911603.00
iteration 694 sol 120200296.00
iteration 695 sol 120465632.00
iteration 696 sol 120055887.00
iteration 697 sol 119797652.00
iteration 698 sol 120202338.00
iteration 699 sol 120272566.00
iteration 700 sol 119637868.00
iteration 701 sol 119928501.00
iteration 702 sol 120244756.00
iteration 703 sol 120007988.00
iteration 704 sol 119801188.00
iteration 705 sol 120115673.00
iteration 706 sol 120081135.00
iteration 707 sol 119895667.00
iteration 708 sol 119926698.00
iteration 709 sol 120309924.00
iteration 710 sol 120290950.00
iteration 711 sol 120251275.00
iteration 712 sol 120149620.00
iteration 713 sol 120183248.00
iteration 714 sol 120095658.00
iteration 715 sol 120409643.00
iteration 716 sol 120127713.00
iteration 717 sol 119988161.00
iteration 718 sol 120397828.00
iteration 719 sol 120436139.00
iteration 720 sol 120096602.00
iteration 721 sol 119734730.00
iteration 722 sol 120500777.00
iteration 723 sol 119878978.00
iteration 724 sol 119965044.00
iteration 725 sol 120240147.00
iteration 726 sol 119894898.00
iteration 727 sol 120084563.00
iteration 728 sol 119807277.00
iteration 729 sol 120426789.00
iteration 730 sol 120256476.00
iteration 731 sol 119993973.00
iteration 732 sol 119767174.00
iteration 733 sol 119961743.00
iteration 734 sol 119636811.00
iteration 735 sol 119856555.00
iteration 736 sol 119987468.00
iteration 737 sol 120218877.00
iteration 738 sol 120048777.00
iteration 739 sol 119840105.00
iteration 740 sol 119774319.00
iteration 741 sol 120298619.00
iteration 742 sol 120185873.00
iteration 743 sol 119793175.00
iteration 744 sol 119535371.00
iteration 745 sol 120198259.00
iteration 746 sol 120016546.00
iteration 747 sol 120070136.00
iteration 748 sol 119825517.00
iteration 749 sol 119706323.00
iteration 750 sol 120015260.00
iteration 751 sol 120117575.00
iteration 752 sol 120001332.00
iteration 753 sol 120300241.00
iteration 754 sol 119990222.00
iteration 755 sol 119964737.00
iteration 756 sol 119999213.00
iteration 757 sol 120141147.00
iteration 758 sol 119828641.00
iteration 759 sol 120084746.00
iteration 760 sol 119907531.00
iteration 761 sol 120160436.00
iteration 762 sol 120094048.00
iteration 763 sol 120416088.00
iteration 764 sol 119952296.00
iteration 765 sol 120284743.00
iteration 766 sol 119767573.00
iteration 767 sol 120258126.00
iteration 768 sol 119881483.00
iteration 769 sol 120068004.00
iteration 770 sol 119908005.00
iteration 771 sol 119975504.00
iteration 772 sol 120214488.00
iteration 773 sol 119886382.00
iteration 774 sol 119790708.00
iteration 775 sol 120043234.00
iteration 776 sol 120078867.00
iteration 777 sol 120056370.00
iteration 778 sol 119726827.00
iteration 779 sol 119585672.00
iteration 780 sol 119765336.00
iteration 781 sol 120145734.00
iteration 782 sol 119451925.00
iteration 783 sol 120106365.00
iteration 784 sol 119909003.00
iteration 785 sol 119795137.00
iteration 786 sol 120129876.00
iteration 787 sol 120102245.00
iteration 788 sol 119716291.00
iteration 789 sol 120126057.00
iteration 790 sol 120335780.00
iteration 791 sol 120112158.00
iteration 792 sol 120053264.00
iteration 793 sol 120344865.00
iteration 794 sol 119889285.00
iteration 795 sol 120307273.00
iteration 796 sol 120092157.00
iteration 797 sol 120001683.00
iteration 798 sol 120059359.00
iteration 799 sol 120008672.00
iteration 800 sol 120115708.00
iteration 801 sol 119690327.00
iteration 802 sol 120039508.00
iteration 803 sol 119864275.00
iteration 804 sol 120212965.00
iteration 805 sol 120231596.00
iteration 806 sol 119856500.00
iteration 807 sol 120015259.00
iteration 808 sol 119662107.00
iteration 809 sol 119903882.00
iteration 810 sol 119925148.00
iteration 811 sol 120307362.00
iteration 812 sol 119933213.00
iteration 813 sol 120233790.00
iteration 814 sol 119701106.00
iteration 815 sol 120114095.00
iteration 816 sol 119798929.00
iteration 817 sol 120285847.00
iteration 818 sol 119367759.00
iteration 819 sol 120034033.00
iteration 820 sol 119904236.00
iteration 821 sol 120009683.00
iteration 822 sol 120123703.00
iteration 823 sol 120476894.00
iteration 824 sol 120091254.00
iteration 825 sol 119877371.00
iteration 826 sol 119725406.00
iteration 827 sol 120017880.00
iteration 828 sol 120118074.00
iteration 829 sol 120066378.00
iteration 830 sol 120037397.00
iteration 831 sol 119946037.00
iteration 832 sol 120013390.00
iteration 833 sol 120528915.00
iteration 834 sol 119780370.00
iteration 835 sol 120250815.00
iteration 836 sol 120089277.00
iteration 837 sol 120246367.00
iteration 838 sol 119991761.00
iteration 839 sol 120169001.00
iteration 840 sol 120392030.00
iteration 841 sol 119692550.00
iteration 842 sol 120230143.00
iteration 843 sol 119999922.00
iteration 844 sol 120449221.00
iteration 845 sol 119995647.00
iteration 846 sol 119902205.00
iteration 847 sol 120297294.00
iteration 848 sol 119977760.00
iteration 849 sol 119839509.00
iteration 850 sol 120047686.00
iteration 851 sol 119988196.00
iteration 852 sol 120059912.00
iteration 853 sol 120400820.00
iteration 854 sol 119448007.00
iteration 855 sol 119819122.00
iteration 856 sol 119758366.00
iteration 857 sol 119790601.00
iteration 858 sol 119991898.00
iteration 859 sol 120002985.00
iteration 860 sol 120014066.00
iteration 861 sol 119610141.00
iteration 862 sol 120023702.00
iteration 863 sol 119923833.00
iteration 864 sol 119851975.00
iteration 865 sol 119551731.00
iteration 866 sol 120159279.00
iteration 867 sol 120161395.00
iteration 868 sol 120119682.00
iteration 869 sol 120139685.00
iteration 870 sol 120154987.00
iteration 871 sol 120313392.00
iteration 872 sol 120059367.00
iteration 873 sol 119742360.00
iteration 874 sol 119944478.00
iteration 875 sol 119625674.00
iteration 876 sol 119990154.00
iteration 877 sol 119880130.00
iteration 878 sol 120416429.00
iteration 879 sol 120132681.00
iteration 880 sol 119923697.00
iteration 881 sol 120264985.00
iteration 882 sol 119931100.00
iteration 883 sol 119992142.00
iteration 884 sol 120144419.00
iteration 885 sol 120108995.00
iteration 886 sol 119758106.00
iteration 887 sol 120004363.00
iteration 888 sol 119619599.00
iteration 889 sol 119440834.00
iteration 890 sol 120504951.00
iteration 891 sol 120093059.00
iteration 892 sol 120272888.00
iteration 893 sol 119987248.00
iteration 894 sol 120030991.00
iteration 895 sol 119892586.00
iteration 896 sol 119914012.00
iteration 897 sol 119922291.00
iteration 898 sol 120062674.00
iteration 899 sol 120362934.00
iteration 900 sol 120320334.00
iteration 901 sol 120235409.00
iteration 902 sol 120099963.00
iteration 903 sol 119703554.00
iteration 904 sol 120377324.00
iteration 905 sol 119678561.00
iteration 906 sol 119918471.00
iteration 907 sol 119453175.00
iteration 908 sol 120077129.00
iteration 909 sol 119882316.00
iteration 910 sol 120266682.00
iteration 911 sol 119831795.00
iteration 912 sol 120119218.00
iteration 913 sol 119989165.00
iteration 914 sol 119955072.00
iteration 915 sol 120080326.00
iteration 916 sol 119834812.00
iteration 917 sol 119950506.00
iteration 918 sol 120391957.00
iteration 919 sol 120192176.00
iteration 920 sol 120269921.00
iteration 921 sol 120235019.00
iteration 922 sol 120130061.00
iteration 923 sol 120100966.00
iteration 924 sol 120343607.00
iteration 925 sol 119579756.00
iteration 926 sol 119774867.00
iteration 927 sol 120037387.00
iteration 928 sol 119865587.00
iteration 929 sol 119166905.00
iteration 930 sol 119552694.00
iteration 931 sol 119818732.00
iteration 932 sol 119950652.00
iteration 933 sol 119885493.00
iteration 934 sol 120055317.00
iteration 935 sol 119896972.00
iteration 936 sol 120347237.00
iteration 937 sol 119695280.00
iteration 938 sol 120310482.00
iteration 939 sol 120028261.00
iteration 940 sol 120019816.00
iteration 941 sol 120404561.00
iteration 942 sol 120309444.00
iteration 943 sol 120070172.00
iteration 944 sol 120045707.00
iteration 945 sol 120082678.00
iteration 946 sol 120111052.00
iteration 947 sol 119717208.00
iteration 948 sol 119912185.00
iteration 949 sol 119874895.00
iteration 950 sol 119804171.00
iteration 951 sol 120183826.00
iteration 952 sol 120331516.00
iteration 953 sol 119749325.00
iteration 954 sol 119839567.00
iteration 955 sol 119681686.00
iteration 956 sol 119824063.00
iteration 957 sol 120224200.00
iteration 958 sol 120050731.00
iteration 959 sol 119856853.00
iteration 960 sol 120169420.00
iteration 961 sol 119960354.00
iteration 962 sol 119568921.00
iteration 963 sol 119850843.00
iteration 964 sol 120002484.00
iteration 965 sol 119715506.00
iteration 966 sol 119652903.00
iteration 967 sol 120176863.00
iteration 968 sol 120305670.00
iteration 969 sol 120407280.00
iteration 970 sol 120362809.00
iteration 971 sol 120285337.00
iteration 972 sol 119708466.00
iteration 973 sol 119860102.00
iteration 974 sol 119827461.00
iteration 975 sol 119814605.00
iteration 976 sol 119928524.00
iteration 977 sol 120046421.00
iteration 978 sol 119938421.00
iteration 979 sol 120194274.00
iteration 980 sol 120172222.00
iteration 981 sol 120081228.00
iteration 982 sol 120324946.00
iteration 983 sol 120053817.00
iteration 984 sol 119633865.00
iteration 985 sol 120398217.00
iteration 986 sol 120221490.00
iteration 987 sol 119909102.00
iteration 988 sol 119755545.00
iteration 989 sol 120079165.00
iteration 990 sol 119874187.00
iteration 991 sol 119798576.00
iteration 992 sol 119882581.00
iteration 993 sol 119673780.00
iteration 994 sol 120030472.00
iteration 995 sol 120256117.00
iteration 996 sol 119862825.00
iteration 997 sol 120167447.00
iteration 998 sol 119721500.00
iteration 999 sol 120143354.00
iteration 1000 sol 120112360.00
iteration 1001 sol 119643049.00
iteration 1002 sol 119753938.00
iteration 1003 sol 119846464.00
iteration 1004 sol 119625014.00
iteration 1005 sol 119993090.00
iteration 1006 sol 120086264.00
iteration 1007 sol 120388445.00
iteration 1008 sol 119980833.00
iteration 1009 sol 119916327.00
iteration 1010 sol 119986790.00
iteration 1011 sol 119712029.00
iteration 1012 sol 120049935.00
iteration 1013 sol 119869003.00
iteration 1014 sol 120142690.00
iteration 1015 sol 119850240.00
iteration 1016 sol 120118146.00
iteration 1017 sol 120037453.00
iteration 1018 sol 119511944.00
iteration 1019 sol 119729792.00
iteration 1020 sol 120030691.00
iteration 1021 sol 119625631.00
iteration 1022 sol 120135317.00
iteration 1023 sol 119858640.00
iteration 1024 sol 119836757.00
iteration 1025 sol 120118253.00
iteration 1026 sol 120200884.00
iteration 1027 sol 120166770.00
iteration 1028 sol 120280337.00
iteration 1029 sol 120316962.00
iteration 1030 sol 119973458.00
iteration 1031 sol 119421776.00
iteration 1032 sol 120072398.00
iteration 1033 sol 120084408.00
iteration 1034 sol 120207982.00
iteration 1035 sol 120087422.00
iteration 1036 sol 120038244.00
iteration 1037 sol 120163352.00
iteration 1038 sol 120230516.00
iteration 1039 sol 119971448.00
iteration 1040 sol 119644486.00
iteration 1041 sol 119781671.00
iteration 1042 sol 119898622.00
iteration 1043 sol 119892056.00
iteration 1044 sol 120406806.00
iteration 1045 sol 120135714.00
iteration 1046 sol 120237097.00
iteration 1047 sol 120406185.00
iteration 1048 sol 120019959.00
iteration 1049 sol 119635772.00
iteration 1050 sol 120226890.00
iteration 1051 sol 119796335.00
iteration 1052 sol 119663231.00
iteration 1053 sol 119792163.00
iteration 1054 sol 119698008.00
iteration 1055 sol 120400846.00
iteration 1056 sol 120121240.00
iteration 1057 sol 120026038.00
iteration 1058 sol 120351782.00
iteration 1059 sol 120342443.00
iteration 1060 sol 119565620.00
iteration 1061 sol 119875102.00
iteration 1062 sol 119614370.00
iteration 1063 sol 120015276.00
iteration 1064 sol 119929990.00
iteration 1065 sol 119833046.00
iteration 1066 sol 119398785.00
iteration 1067 sol 119964961.00
iteration 1068 sol 120237277.00
iteration 1069 sol 119592725.00
iteration 1070 sol 120136154.00
iteration 1071 sol 120426849.00
iteration 1072 sol 120139296.00
iteration 1073 sol 120229863.00
iteration 1074 sol 119923842.00
iteration 1075 sol 119970584.00
iteration 1076 sol 120390611.00
iteration 1077 sol 120411269.00
iteration 1078 sol 119943676.00
iteration 1079 sol 120203450.00
iteration 1080 sol 119930718.00
iteration 1081 sol 120334275.00
iteration 1082 sol 119956723.00
iteration 1083 sol 119865072.00
iteration 1084 sol 119899130.00
iteration 1085 sol 119904932.00
iteration 1086 sol 120230339.00
iteration 1087 sol 119433284.00
iteration 1088 sol 120003604.00
iteration 1089 sol 119973333.00
iteration 1090 sol 119934103.00
iteration 1091 sol 119379404.00
iteration 1092 sol 120182187.00
iteration 1093 sol 120335400.00
iteration 1094 sol 119930926.00
iteration 1095 sol 120240762.00
iteration 1096 sol 120162873.00
iteration 1097 sol 120022570.00
iteration 1098 sol 120256168.00
iteration 1099 sol 119806928.00
iteration 1100 sol 120054053.00
iteration 1101 sol 120120265.00
iteration 1102 sol 119837266.00
iteration 1103 sol 120167402.00
iteration 1104 sol 119971060.00
iteration 1105 sol 119690181.00
iteration 1106 sol 120022406.00
iteration 1107 sol 120140075.00
iteration 1108 sol 120010803.00
iteration 1109 sol 120191753.00
iteration 1110 sol 120488092.00
iteration 1111 sol 120147921.00
iteration 1112 sol 120171417.00
iteration 1113 sol 120298450.00
iteration 1114 sol 120440136.00
iteration 1115 sol 120089924.00
iteration 1116 sol 119955249.00
iteration 1117 sol 120042632.00
iteration 1118 sol 120069132.00
iteration 1119 sol 120000296.00
iteration 1120 sol 120205629.00
iteration 1121 sol 120290987.00
iteration 1122 sol 119906132.00
iteration 1123 sol 120402526.00
iteration 1124 sol 119868549.00
iteration 1125 sol 119836337.00
iteration 1126 sol 119713586.00
iteration 1127 sol 119953503.00
iteration 1128 sol 119979524.00
iteration 1129 sol 120479805.00
iteration 1130 sol 120040496.00
iteration 1131 sol 120320903.00
iteration 1132 sol 120209750.00
iteration 1133 sol 119625495.00
iteration 1134 sol 120024523.00
iteration 1135 sol 120140502.00
iteration 1136 sol 119761727.00
iteration 1137 sol 120321101.00
iteration 1138 sol 119988801.00
iteration 1139 sol 120106009.00
iteration 1140 sol 119997343.00
iteration 1141 sol 120338049.00
iteration 1142 sol 120050760.00
iteration 1143 sol 120051104.00
iteration 1144 sol 120010783.00
iteration 1145 sol 119679405.00
iteration 1146 sol 120379300.00
iteration 1147 sol 120138639.00
iteration 1148 sol 120071407.00
iteration 1149 sol 120050176.00
iteration 1150 sol 120105724.00
iteration 1151 sol 120503915.00
iteration 1152 sol 119921585.00
iteration 1153 sol 120010900.00
iteration 1154 sol 120289381.00
iteration 1155 sol 120050842.00
iteration 1156 sol 119945611.00
iteration 1157 sol 119885845.00
iteration 1158 sol 120214744.00
iteration 1159 sol 120236967.00
iteration 1160 sol 120064208.00
iteration 1161 sol 119968109.00
iteration 1162 sol 119967467.00
iteration 1163 sol 120106167.00
iteration 1164 sol 119972363.00
iteration 1165 sol 119867567.00
iteration 1166 sol 120111849.00
iteration 1167 sol 119719319.00
iteration 1168 sol 119611226.00
iteration 1169 sol 120429369.00
iteration 1170 sol 119736331.00
iteration 1171 sol 119591057.00
iteration 1172 sol 120399312.00
iteration 1173 sol 119775824.00
iteration 1174 sol 120071638.00
iteration 1175 sol 120332016.00
iteration 1176 sol 120015928.00
iteration 1177 sol 119727548.00
iteration 1178 sol 119549580.00
iteration 1179 sol 120106183.00
iteration 1180 sol 119711742.00
iteration 1181 sol 120013448.00
iteration 1182 sol 120007922.00
iteration 1183 sol 119612289.00
iteration 1184 sol 119937767.00
iteration 1185 sol 119863394.00
iteration 1186 sol 119933858.00
iteration 1187 sol 120001232.00
iteration 1188 sol 119565421.00
iteration 1189 sol 119816868.00
iteration 1190 sol 119678089.00
iteration 1191 sol 119593191.00
iteration 1192 sol 119835029.00
iteration 1193 sol 120251880.00
iteration 1194 sol 120189272.00
iteration 1195 sol 119847375.00
iteration 1196 sol 120162409.00
iteration 1197 sol 119830729.00
iteration 1198 sol 120018898.00
iteration 1199 sol 120069102.00
iteration 1200 sol 119938087.00
iteration 1201 sol 119952373.00
iteration 1202 sol 119958157.00
iteration 1203 sol 120144231.00
iteration 1204 sol 120275038.00
iteration 1205 sol 119990151.00
iteration 1206 sol 119932754.00
iteration 1207 sol 120048920.00
iteration 1208 sol 119991725.00
iteration 1209 sol 120471336.00
iteration 1210 sol 120267852.00
iteration 1211 sol 120506333.00
iteration 1212 sol 120072949.00
iteration 1213 sol 119765370.00
iteration 1214 sol 119656308.00
iteration 1215 sol 119681901.00
iteration 1216 sol 119970163.00
iteration 1217 sol 119699561.00
iteration 1218 sol 119945483.00
iteration 1219 sol 119668697.00
iteration 1220 sol 120243908.00
iteration 1221 sol 120409432.00
iteration 1222 sol 120151956.00
iteration 1223 sol 120076441.00
iteration 1224 sol 120059277.00
iteration 1225 sol 119930054.00
iteration 1226 sol 119736651.00
iteration 1227 sol 120080675.00
iteration 1228 sol 120045210.00
iteration 1229 sol 120054940.00
iteration 1230 sol 120155910.00
iteration 1231 sol 120315161.00
iteration 1232 sol 120086288.00
iteration 1233 sol 119885050.00
iteration 1234 sol 119868335.00
iteration 1235 sol 119834581.00
iteration 1236 sol 120389213.00
iteration 1237 sol 119919884.00
iteration 1238 sol 119749414.00
iteration 1239 sol 120202852.00
iteration 1240 sol 120166294.00
iteration 1241 sol 120147260.00
iteration 1242 sol 119648590.00
iteration 1243 sol 120044263.00
iteration 1244 sol 120251820.00
iteration 1245 sol 119802279.00
iteration 1246 sol 119774249.00
iteration 1247 sol 119918846.00
iteration 1248 sol 119970026.00
iteration 1249 sol 119859869.00
iteration 1250 sol 120056891.00
iteration 1251 sol 120357693.00
iteration 1252 sol 119798001.00
iteration 1253 sol 120021808.00
iteration 1254 sol 120025314.00
iteration 1255 sol 120182892.00
iteration 1256 sol 120282999.00
iteration 1257 sol 119836588.00
iteration 1258 sol 120135487.00
iteration 1259 sol 120087478.00
iteration 1260 sol 119954226.00
iteration 1261 sol 120160637.00
iteration 1262 sol 120069230.00
iteration 1263 sol 119759848.00
iteration 1264 sol 119877477.00
iteration 1265 sol 119896373.00
iteration 1266 sol 119705844.00
iteration 1267 sol 120190468.00
iteration 1268 sol 119712571.00
iteration 1269 sol 120186507.00
iteration 1270 sol 119382513.00
iteration 1271 sol 119746424.00
iteration 1272 sol 120167713.00
iteration 1273 sol 119859266.00
iteration 1274 sol 119815907.00
iteration 1275 sol 119826134.00
iteration 1276 sol 120027804.00
iteration 1277 sol 120145752.00
iteration 1278 sol 120264097.00
iteration 1279 sol 119990921.00
iteration 1280 sol 119774843.00
iteration 1281 sol 120049092.00
iteration 1282 sol 119937746.00
iteration 1283 sol 120129296.00
iteration 1284 sol 120052350.00
iteration 1285 sol 120089090.00
iteration 1286 sol 119921965.00
iteration 1287 sol 120250144.00
iteration 1288 sol 119933840.00
iteration 1289 sol 119729355.00
iteration 1290 sol 120019450.00
iteration 1291 sol 119785128.00
iteration 1292 sol 119808220.00
iteration 1293 sol 120540291.00
iteration 1294 sol 120156797.00
iteration 1295 sol 120351721.00
iteration 1296 sol 120198990.00
iteration 1297 sol 119542366.00
iteration 1298 sol 120286117.00
iteration 1299 sol 119766388.00
iteration 1300 sol 120216711.00
iteration 1301 sol 120292034.00
iteration 1302 sol 120004580.00
iteration 1303 sol 119971183.00
iteration 1304 sol 120136055.00
iteration 1305 sol 120117363.00
iteration 1306 sol 120069628.00
iteration 1307 sol 119418641.00
iteration 1308 sol 120162966.00
iteration 1309 sol 120178330.00
iteration 1310 sol 120464122.00
iteration 1311 sol 119962448.00
iteration 1312 sol 120450325.00
iteration 1313 sol 119988701.00
iteration 1314 sol 120153250.00
iteration 1315 sol 119864482.00
iteration 1316 sol 120105892.00
iteration 1317 sol 120357539.00
iteration 1318 sol 120457257.00
iteration 1319 sol 120051952.00
iteration 1320 sol 120113544.00
iteration 1321 sol 119706027.00
iteration 1322 sol 120102038.00
iteration 1323 sol 120269273.00
iteration 1324 sol 119826122.00
iteration 1325 sol 120296396.00
iteration 1326 sol 120192571.00
iteration 1327 sol 120288967.00
iteration 1328 sol 120170584.00
iteration 1329 sol 120263148.00
iteration 1330 sol 120247288.00
iteration 1331 sol 120010919.00
iteration 1332 sol 120002184.00
iteration 1333 sol 120200086.00
iteration 1334 sol 119645014.00
iteration 1335 sol 119899834.00
iteration 1336 sol 120157137.00
iteration 1337 sol 120127109.00
iteration 1338 sol 120157505.00
iteration 1339 sol 120136886.00
iteration 1340 sol 120221198.00
iteration 1341 sol 119959310.00
iteration 1342 sol 119725266.00
iteration 1343 sol 119827521.00
iteration 1344 sol 120296865.00
iteration 1345 sol 119872343.00
iteration 1346 sol 119947703.00
iteration 1347 sol 119820349.00
iteration 1348 sol 120170247.00
iteration 1349 sol 120150596.00
iteration 1350 sol 119946758.00
iteration 1351 sol 119663945.00
iteration 1352 sol 120106670.00
iteration 1353 sol 120386120.00
iteration 1354 sol 119674545.00
iteration 1355 sol 120010988.00
iteration 1356 sol 120121482.00
iteration 1357 sol 120283234.00
iteration 1358 sol 119764984.00
iteration 1359 sol 119838638.00
iteration 1360 sol 120303656.00
iteration 1361 sol 120236517.00
iteration 1362 sol 119794623.00
iteration 1363 sol 119539073.00
iteration 1364 sol 119993946.00
iteration 1365 sol 120048752.00
iteration 1366 sol 120145952.00
iteration 1367 sol 119830377.00
iteration 1368 sol 120067157.00
iteration 1369 sol 120130376.00
iteration 1370 sol 119630031.00
iteration 1371 sol 119916901.00
iteration 1372 sol 119937683.00
iteration 1373 sol 120111162.00
iteration 1374 sol 120125672.00
iteration 1375 sol 120179150.00
iteration 1376 sol 120273293.00
iteration 1377 sol 119945846.00
iteration 1378 sol 119667637.00
iteration 1379 sol 120288020.00
iteration 1380 sol 119835488.00
iteration 1381 sol 120245822.00
iteration 1382 sol 120104491.00
iteration 1383 sol 120088533.00
iteration 1384 sol 120514456.00
iteration 1385 sol 119794355.00
iteration 1386 sol 120015842.00
iteration 1387 sol 120271573.00
iteration 1388 sol 119988608.00
iteration 1389 sol 120014741.00
iteration 1390 sol 120361972.00
iteration 1391 sol 119883529.00
iteration 1392 sol 119682151.00
iteration 1393 sol 120188253.00
iteration 1394 sol 120109674.00
iteration 1395 sol 119769294.00
iteration 1396 sol 119971867.00
iteration 1397 sol 119439043.00
iteration 1398 sol 120107677.00
iteration 1399 sol 120129087.00
iteration 1400 sol 120272028.00
iteration 1401 sol 119830123.00
iteration 1402 sol 119687334.00
iteration 1403 sol 119986169.00
iteration 1404 sol 119853528.00
iteration 1405 sol 120002940.00
iteration 1406 sol 120141670.00
iteration 1407 sol 120228102.00
iteration 1408 sol 119905883.00
iteration 1409 sol 120047335.00
iteration 1410 sol 120126005.00
iteration 1411 sol 120470467.00
iteration 1412 sol 119713611.00
iteration 1413 sol 120224814.00
iteration 1414 sol 120027020.00
iteration 1415 sol 120311550.00
iteration 1416 sol 119713254.00
iteration 1417 sol 120382777.00
iteration 1418 sol 120107385.00
iteration 1419 sol 120068257.00
iteration 1420 sol 119991191.00
iteration 1421 sol 120078448.00
iteration 1422 sol 119847328.00
iteration 1423 sol 120167038.00
iteration 1424 sol 120285734.00
iteration 1425 sol 119654422.00
iteration 1426 sol 120154863.00
iteration 1427 sol 119997660.00
iteration 1428 sol 119882787.00
iteration 1429 sol 119979838.00
iteration 1430 sol 120102647.00
iteration 1431 sol 120011078.00
iteration 1432 sol 120134089.00
iteration 1433 sol 119864873.00
iteration 1434 sol 120428598.00
iteration 1435 sol 120166747.00
iteration 1436 sol 120082384.00
iteration 1437 sol 119792986.00
iteration 1438 sol 119825374.00
iteration 1439 sol 119758311.00
iteration 1440 sol 120264106.00
iteration 1441 sol 119692693.00
iteration 1442 sol 120099504.00
iteration 1443 sol 120093158.00
iteration 1444 sol 119465664.00
iteration 1445 sol 119873839.00
iteration 1446 sol 119992233.00
iteration 1447 sol 120196341.00
iteration 1448 sol 120124885.00
iteration 1449 sol 119802786.00
iteration 1450 sol 120176351.00
iteration 1451 sol 120377647.00
iteration 1452 sol 120338777.00
iteration 1453 sol 120054822.00
iteration 1454 sol 119434485.00
iteration 1455 sol 120000374.00
iteration 1456 sol 120229935.00
iteration 1457 sol 119863055.00
iteration 1458 sol 120274985.00
iteration 1459 sol 119880224.00
iteration 1460 sol 120310288.00
iteration 1461 sol 119829916.00
iteration 1462 sol 120130264.00
iteration 1463 sol 119946462.00
iteration 1464 sol 119983605.00
iteration 1465 sol 120062188.00
iteration 1466 sol 120177147.00
iteration 1467 sol 119965523.00
iteration 1468 sol 119543865.00
iteration 1469 sol 119650845.00
iteration 1470 sol 119937266.00
iteration 1471 sol 120126156.00
iteration 1472 sol 119989291.00
iteration 1473 sol 119898090.00
iteration 1474 sol 119306690.00
iteration 1475 sol 120020364.00
iteration 1476 sol 119730596.00
iteration 1477 sol 120297693.00
iteration 1478 sol 120000904.00
iteration 1479 sol 119854179.00
iteration 1480 sol 120281217.00
iteration 1481 sol 120330422.00
iteration 1482 sol 120040360.00
iteration 1483 sol 120269298.00
iteration 1484 sol 119829186.00
iteration 1485 sol 120035582.00
iteration 1486 sol 120106963.00
iteration 1487 sol 119877537.00
iteration 1488 sol 119916464.00
iteration 1489 sol 119772532.00
iteration 1490 sol 119876391.00
iteration 1491 sol 119971227.00
iteration 1492 sol 119870507.00
iteration 1493 sol 119997700.00
iteration 1494 sol 119904595.00
iteration 1495 sol 119949126.00
iteration 1496 sol 120222918.00
iteration 1497 sol 120154954.00
iteration 1498 sol 120094804.00
iteration 1499 sol 120051811.00
iteration 1500 sol 120004076.00
iteration 1501 sol 120087462.00
iteration 1502 sol 120341886.00
iteration 1503 sol 120015289.00
iteration 1504 sol 119804044.00
iteration 1505 sol 119616819.00
iteration 1506 sol 119822553.00
iteration 1507 sol 120037956.00
iteration 1508 sol 119960814.00
iteration 1509 sol 120090046.00
iteration 1510 sol 119774746.00
iteration 1511 sol 120069047.00
iteration 1512 sol 120165277.00
iteration 1513 sol 120136761.00
iteration 1514 sol 119890643.00
iteration 1515 sol 119911012.00
iteration 1516 sol 119770535.00
iteration 1517 sol 120139071.00
iteration 1518 sol 120110134.00
iteration 1519 sol 119935735.00
iteration 1520 sol 119624387.00
iteration 1521 sol 120143483.00
iteration 1522 sol 120009949.00
iteration 1523 sol 119841413.00
iteration 1524 sol 120212665.00
iteration 1525 sol 120205140.00
iteration 1526 sol 119895926.00
iteration 1527 sol 120119670.00
iteration 1528 sol 119780572.00
iteration 1529 sol 120009522.00
iteration 1530 sol 119474647.00
iteration 1531 sol 119993963.00
iteration 1532 sol 119979232.00
iteration 1533 sol 120159273.00
iteration 1534 sol 120369313.00
iteration 1535 sol 119802491.00
iteration 1536 sol 120370047.00
iteration 1537 sol 120182740.00
iteration 1538 sol 119480271.00
iteration 1539 sol 120485103.00
iteration 1540 sol 119980950.00
iteration 1541 sol 120197824.00
iteration 1542 sol 119675773.00
iteration 1543 sol 120081780.00
iteration 1544 sol 119868112.00
iteration 1545 sol 119587268.00
iteration 1546 sol 120063280.00
iteration 1547 sol 119904182.00
iteration 1548 sol 119878731.00
iteration 1549 sol 119922921.00
iteration 1550 sol 119947952.00
iteration 1551 sol 120076584.00
iteration 1552 sol 119832209.00
iteration 1553 sol 120129959.00
iteration 1554 sol 119858840.00
iteration 1555 sol 119985530.00
iteration 1556 sol 120296581.00
iteration 1557 sol 120239585.00
iteration 1558 sol 120368810.00
iteration 1559 sol 119858018.00
iteration 1560 sol 119947469.00
iteration 1561 sol 119687091.00
iteration 1562 sol 120081772.00
iteration 1563 sol 120090334.00
iteration 1564 sol 120565706.00
iteration 1565 sol 119958283.00
iteration 1566 sol 120249460.00
iteration 1567 sol 120200048.00
iteration 1568 sol 119758973.00
iteration 1569 sol 119882869.00
iteration 1570 sol 120392818.00
iteration 1571 sol 119846322.00
iteration 1572 sol 119886569.00
iteration 1573 sol 119817281.00
iteration 1574 sol 119817370.00
iteration 1575 sol 119884925.00
iteration 1576 sol 119674373.00
iteration 1577 sol 120031514.00
iteration 1578 sol 120256933.00
iteration 1579 sol 120075715.00
iteration 1580 sol 120282090.00
iteration 1581 sol 120119528.00
iteration 1582 sol 120100627.00
iteration 1583 sol 120188178.00
iteration 1584 sol 120267850.00
iteration 1585 sol 119900246.00
iteration 1586 sol 120149128.00
iteration 1587 sol 119866390.00
iteration 1588 sol 120101715.00
iteration 1589 sol 120212981.00
iteration 1590 sol 119950501.00
iteration 1591 sol 120402154.00
iteration 1592 sol 120026308.00
iteration 1593 sol 120266036.00
iteration 1594 sol 120114673.00
iteration 1595 sol 119868680.00
iteration 1596 sol 120224659.00
iteration 1597 sol 120138571.00
iteration 1598 sol 120278937.00
iteration 1599 sol 120161453.00
iteration 1600 sol 119871357.00
iteration 1601 sol 120059585.00
iteration 1602 sol 119720163.00
iteration 1603 sol 119860586.00
iteration 1604 sol 119761109.00
iteration 1605 sol 119715543.00
iteration 1606 sol 119980366.00
iteration 1607 sol 119963244.00
iteration 1608 sol 120157949.00
iteration 1609 sol 120168556.00
iteration 1610 sol 120121938.00
iteration 1611 sol 119621858.00
iteration 1612 sol 119690227.00
iteration 1613 sol 119914484.00
iteration 1614 sol 119953413.00
iteration 1615 sol 119709032.00
iteration 1616 sol 120006261.00
iteration 1617 sol 120184165.00
iteration 1618 sol 120027859.00
iteration 1619 sol 120041728.00
iteration 1620 sol 120573598.00
iteration 1621 sol 119939544.00
iteration 1622 sol 119879647.00
iteration 1623 sol 120204908.00
iteration 1624 sol 120122766.00
iteration 1625 sol 120106842.00
iteration 1626 sol 120412644.00
iteration 1627 sol 119977430.00
iteration 1628 sol 120244113.00
iteration 1629 sol 120066233.00
iteration 1630 sol 119896333.00
iteration 1631 sol 119552374.00
iteration 1632 sol 119838621.00
iteration 1633 sol 120172515.00
iteration 1634 sol 119858057.00
iteration 1635 sol 120299967.00
iteration 1636 sol 120187373.00
iteration 1637 sol 120126672.00
iteration 1638 sol 119580360.00
iteration 1639 sol 120308558.00
iteration 1640 sol 119939331.00
iteration 1641 sol 119860104.00
iteration 1642 sol 119779637.00
iteration 1643 sol 119871430.00
iteration 1644 sol 119893570.00
iteration 1645 sol 120036998.00
iteration 1646 sol 120045410.00
iteration 1647 sol 119834335.00
iteration 1648 sol 120389384.00
iteration 1649 sol 120257495.00
iteration 1650 sol 119900416.00
iteration 1651 sol 120130323.00
iteration 1652 sol 120053614.00
iteration 1653 sol 119934792.00
iteration 1654 sol 119189044.00
iteration 1655 sol 120152926.00
iteration 1656 sol 120027892.00
iteration 1657 sol 119949359.00
iteration 1658 sol 120490173.00
iteration 1659 sol 119586588.00
iteration 1660 sol 120219247.00
iteration 1661 sol 119759050.00
iteration 1662 sol 120137515.00
iteration 1663 sol 119852115.00
iteration 1664 sol 119913625.00
iteration 1665 sol 120304595.00
iteration 1666 sol 120078631.00
iteration 1667 sol 119924677.00
iteration 1668 sol 120020062.00
iteration 1669 sol 119901548.00
iteration 1670 sol 119999627.00
iteration 1671 sol 120085436.00
iteration 1672 sol 120206928.00
iteration 1673 sol 119975386.00
iteration 1674 sol 120130012.00
iteration 1675 sol 120167628.00
iteration 1676 sol 119790289.00
iteration 1677 sol 120349684.00
iteration 1678 sol 120094478.00
iteration 1679 sol 119884504.00
iteration 1680 sol 120398950.00
iteration 1681 sol 120000305.00
iteration 1682 sol 120142867.00
iteration 1683 sol 120278657.00
iteration 1684 sol 120358363.00
iteration 1685 sol 119946772.00
iteration 1686 sol 120090709.00
iteration 1687 sol 120214330.00
iteration 1688 sol 120290713.00
iteration 1689 sol 120300332.00
iteration 1690 sol 120086935.00
iteration 1691 sol 119672116.00
iteration 1692 sol 119980603.00
iteration 1693 sol 120344046.00
iteration 1694 sol 119910213.00
iteration 1695 sol 119549790.00
iteration 1696 sol 119651664.00
iteration 1697 sol 119726044.00
iteration 1698 sol 120180366.00
iteration 1699 sol 120182973.00
iteration 1700 sol 119816229.00
iteration 1701 sol 119819327.00
iteration 1702 sol 120176140.00
iteration 1703 sol 120201205.00
iteration 1704 sol 119836327.00
iteration 1705 sol 120083816.00
iteration 1706 sol 120306130.00
iteration 1707 sol 120029318.00
iteration 1708 sol 120318460.00
iteration 1709 sol 120101375.00
iteration 1710 sol 119728087.00
iteration 1711 sol 119993159.00
iteration 1712 sol 120149445.00
iteration 1713 sol 119911988.00
iteration 1714 sol 120369220.00
iteration 1715 sol 119820467.00
iteration 1716 sol 120123501.00
iteration 1717 sol 119970982.00
iteration 1718 sol 119645386.00
iteration 1719 sol 120156757.00
iteration 1720 sol 119893550.00
iteration 1721 sol 119988369.00
iteration 1722 sol 119873532.00
iteration 1723 sol 119812410.00
iteration 1724 sol 120327921.00
iteration 1725 sol 119902385.00
iteration 1726 sol 120078625.00
iteration 1727 sol 120076196.00
iteration 1728 sol 119886679.00
iteration 1729 sol 120172888.00
iteration 1730 sol 120100087.00
iteration 1731 sol 119964677.00
iteration 1732 sol 120346199.00
iteration 1733 sol 120221080.00
iteration 1734 sol 119958209.00
iteration 1735 sol 120248742.00
iteration 1736 sol 120090692.00
iteration 1737 sol 119924167.00
iteration 1738 sol 120283355.00
iteration 1739 sol 119866682.00
iteration 1740 sol 120029960.00
iteration 1741 sol 120107573.00
iteration 1742 sol 119951486.00
iteration 1743 sol 119900765.00
iteration 1744 sol 119754291.00
iteration 1745 sol 120321270.00
iteration 1746 sol 120019188.00
iteration 1747 sol 119979524.00
iteration 1748 sol 120035645.00
iteration 1749 sol 120213896.00
iteration 1750 sol 120347369.00
iteration 1751 sol 119683929.00
iteration 1752 sol 120215814.00
iteration 1753 sol 120430784.00
iteration 1754 sol 120400149.00
iteration 1755 sol 119842249.00
iteration 1756 sol 119737292.00
iteration 1757 sol 120127058.00
iteration 1758 sol 119899242.00
iteration 1759 sol 119905222.00
iteration 1760 sol 119866294.00
iteration 1761 sol 119963164.00
iteration 1762 sol 120065105.00
iteration 1763 sol 119775665.00
iteration 1764 sol 119872728.00
iteration 1765 sol 120032087.00
iteration 1766 sol 119819418.00
iteration 1767 sol 119845643.00
iteration 1768 sol 120244635.00
iteration 1769 sol 120075500.00
iteration 1770 sol 119543893.00
iteration 1771 sol 119983073.00
iteration 1772 sol 119861929.00
iteration 1773 sol 120349522.00
iteration 1774 sol 120197583.00
iteration 1775 sol 119793656.00
iteration 1776 sol 120079688.00
iteration 1777 sol 120346328.00
iteration 1778 sol 120025972.00
iteration 1779 sol 119850441.00
iteration 1780 sol 120392338.00
iteration 1781 sol 119866121.00
iteration 1782 sol 119786780.00
iteration 1783 sol 120035320.00
iteration 1784 sol 119976012.00
iteration 1785 sol 120251897.00
iteration 1786 sol 120337249.00
iteration 1787 sol 120311229.00
iteration 1788 sol 119937475.00
iteration 1789 sol 119534545.00
iteration 1790 sol 120146636.00
iteration 1791 sol 120106044.00
iteration 1792 sol 120112268.00
iteration 1793 sol 119506593.00
iteration 1794 sol 119908711.00
iteration 1795 sol 120201808.00
iteration 1796 sol 120255676.00
iteration 1797 sol 120198267.00
iteration 1798 sol 119843732.00
iteration 1799 sol 119894040.00
iteration 1800 sol 120188560.00
iteration 1801 sol 120312190.00
iteration 1802 sol 119867667.00
iteration 1803 sol 119720405.00
iteration 1804 sol 120068859.00
iteration 1805 sol 119953558.00
iteration 1806 sol 120041447.00
iteration 1807 sol 120419312.00
iteration 1808 sol 120388509.00
iteration 1809 sol 119923379.00
iteration 1810 sol 120073657.00
iteration 1811 sol 119926452.00
iteration 1812 sol 119443667.00
iteration 1813 sol 120230310.00
iteration 1814 sol 120057560.00
iteration 1815 sol 119991291.00
iteration 1816 sol 119619155.00
iteration 1817 sol 120208578.00
iteration 1818 sol 120237369.00
iteration 1819 sol 119793740.00
iteration 1820 sol 120108674.00
iteration 1821 sol 120027112.00
iteration 1822 sol 119734442.00
iteration 1823 sol 120310707.00
iteration 1824 sol 119988023.00
iteration 1825 sol 120233065.00
iteration 1826 sol 119961630.00
iteration 1827 sol 119896984.00
iteration 1828 sol 120042773.00
iteration 1829 sol 120130195.00
iteration 1830 sol 119462620.00
iteration 1831 sol 119660569.00
iteration 1832 sol 119703207.00
iteration 1833 sol 119925929.00
iteration 1834 sol 120102715.00
iteration 1835 sol 120318372.00
iteration 1836 sol 119821656.00
iteration 1837 sol 119979829.00
iteration 1838 sol 120095067.00
iteration 1839 sol 120154313.00
iteration 1840 sol 119868562.00
iteration 1841 sol 120274671.00
iteration 1842 sol 119946269.00
iteration 1843 sol 120404257.00
iteration 1844 sol 119798553.00
iteration 1845 sol 120220739.00
iteration 1846 sol 120319471.00
iteration 1847 sol 120243600.00
iteration 1848 sol 119856134.00
iteration 1849 sol 120142253.00
iteration 1850 sol 119950872.00
iteration 1851 sol 119981138.00
iteration 1852 sol 119949151.00
iteration 1853 sol 119995886.00
iteration 1854 sol 120275723.00
iteration 1855 sol 119886094.00
iteration 1856 sol 120142010.00
iteration 1857 sol 120137469.00
iteration 1858 sol 120020149.00
iteration 1859 sol 120204725.00
iteration 1860 sol 120231945.00
iteration 1861 sol 119278772.00
iteration 1862 sol 120166388.00
iteration 1863 sol 119794208.00
iteration 1864 sol 119955057.00
iteration 1865 sol 119872359.00
iteration 1866 sol 120100929.00
iteration 1867 sol 120021417.00
iteration 1868 sol 120415229.00
iteration 1869 sol 120393484.00
iteration 1870 sol 119655220.00
iteration 1871 sol 119849027.00
iteration 1872 sol 119810249.00
iteration 1873 sol 120247947.00
iteration 1874 sol 120076122.00
iteration 1875 sol 119644290.00
iteration 1876 sol 119895818.00
iteration 1877 sol 119632045.00
iteration 1878 sol 119583852.00
iteration 1879 sol 119725131.00
iteration 1880 sol 119887365.00
iteration 1881 sol 120217156.00
iteration 1882 sol 119900568.00
iteration 1883 sol 120016431.00
iteration 1884 sol 119729314.00
iteration 1885 sol 119793419.00
iteration 1886 sol 120357197.00
iteration 1887 sol 119957734.00
iteration 1888 sol 119699524.00
iteration 1889 sol 120225636.00
iteration 1890 sol 120033931.00
iteration 1891 sol 119763185.00
iteration 1892 sol 119836206.00
iteration 1893 sol 119850458.00
iteration 1894 sol 120083677.00
iteration 1895 sol 119927161.00
iteration 1896 sol 119914488.00
iteration 1897 sol 119843041.00
iteration 1898 sol 120208875.00
iteration 1899 sol 120446058.00
iteration 1900 sol 119826878.00
iteration 1901 sol 119952126.00
iteration 1902 sol 120007244.00
iteration 1903 sol 120340235.00
iteration 1904 sol 119969662.00
iteration 1905 sol 120280498.00
iteration 1906 sol 120207784.00
iteration 1907 sol 119842211.00
iteration 1908 sol 119968595.00
iteration 1909 sol 119944700.00
iteration 1910 sol 120107007.00
iteration 1911 sol 120144151.00
iteration 1912 sol 119826518.00
iteration 1913 sol 120163403.00
iteration 1914 sol 119635431.00
iteration 1915 sol 119773414.00
iteration 1916 sol 119635044.00
iteration 1917 sol 119927952.00
iteration 1918 sol 120009820.00
iteration 1919 sol 119776120.00
iteration 1920 sol 119857275.00
iteration 1921 sol 119803407.00
iteration 1922 sol 120071445.00
iteration 1923 sol 119917973.00
iteration 1924 sol 119770030.00
iteration 1925 sol 120139423.00
iteration 1926 sol 119998138.00
iteration 1927 sol 120204743.00
iteration 1928 sol 120278914.00
iteration 1929 sol 120227323.00
iteration 1930 sol 119836930.00
iteration 1931 sol 119882658.00
iteration 1932 sol 119951886.00
iteration 1933 sol 120067303.00
iteration 1934 sol 120068006.00
iteration 1935 sol 119661425.00
iteration 1936 sol 119465462.00
iteration 1937 sol 120118797.00
iteration 1938 sol 120177679.00
iteration 1939 sol 120222157.00
iteration 1940 sol 120052408.00
iteration 1941 sol 119875390.00
iteration 1942 sol 119797534.00
iteration 1943 sol 120167670.00
iteration 1944 sol 120269734.00
iteration 1945 sol 119727729.00
iteration 1946 sol 120281799.00
iteration 1947 sol 120495839.00
iteration 1948 sol 119807114.00
iteration 1949 sol 120107166.00
iteration 1950 sol 119941630.00
iteration 1951 sol 119889016.00
iteration 1952 sol 120444592.00
iteration 1953 sol 119771429.00
iteration 1954 sol 120053830.00
iteration 1955 sol 119808245.00
iteration 1956 sol 120059083.00
iteration 1957 sol 120323792.00
iteration 1958 sol 120373638.00
iteration 1959 sol 119620418.00
iteration 1960 sol 120213943.00
iteration 1961 sol 120027056.00
iteration 1962 sol 120164202.00
iteration 1963 sol 119639145.00
iteration 1964 sol 120121314.00
iteration 1965 sol 119644204.00
iteration 1966 sol 119929911.00
iteration 1967 sol 119821953.00
iteration 1968 sol 119842211.00
iteration 1969 sol 119988033.00
iteration 1970 sol 119922334.00
iteration 1971 sol 120027789.00
iteration 1972 sol 120386467.00
iteration 1973 sol 120271076.00
iteration 1974 sol 120159736.00
iteration 1975 sol 120079830.00
iteration 1976 sol 120149117.00
iteration 1977 sol 120065749.00
iteration 1978 sol 120081835.00
iteration 1979 sol 120084568.00
iteration 1980 sol 120049363.00
iteration 1981 sol 120117692.00
iteration 1982 sol 120055794.00
iteration 1983 sol 119930811.00
iteration 1984 sol 120167015.00
iteration 1985 sol 120301675.00
iteration 1986 sol 120259414.00
iteration 1987 sol 120202921.00
iteration 1988 sol 120077643.00
iteration 1989 sol 119820709.00
iteration 1990 sol 120007765.00
iteration 1991 sol 120392825.00
iteration 1992 sol 119703009.00
iteration 1993 sol 119898928.00
iteration 1994 sol 119901462.00
iteration 1995 sol 119926360.00
iteration 1996 sol 120007813.00
iteration 1997 sol 120245447.00
iteration 1998 sol 119989463.00
iteration 1999 sol 120134199.00
Number of iterations = 2000
Best Solution was found in iteration = 1620
Time used by neighbor | Times each neighbor was used | Improvements
N_1 = 2.77 | 10256 | 9108
N_2 = 43.34 | 10256 | 8384
N_3 = 0.12 | 10256 | 2352
N_4 = 13.61 | 10256 | 1686
Time to find the best solution = 50.64
Solution = 120573598.00
Time = 64.35
