iteration 0 sol 673314485.00
iteration 1 sol 676092440.00
iteration 2 sol 672879863.00
iteration 3 sol 674057952.00
iteration 4 sol 674152644.00
iteration 5 sol 673842044.00
iteration 6 sol 675195768.00
iteration 7 sol 673538333.00
iteration 8 sol 672544637.00
iteration 9 sol 675598737.00
iteration 10 sol 672711613.00
iteration 11 sol 674150411.00
iteration 12 sol 674469669.00
iteration 13 sol 674416500.00
iteration 14 sol 676340219.00
iteration 15 sol 674162238.00
iteration 16 sol 674995049.00
iteration 17 sol 675431387.00
iteration 18 sol 674440133.00
iteration 19 sol 675726344.00
iteration 20 sol 674912240.00
iteration 21 sol 675165725.00
iteration 22 sol 672176146.00
iteration 23 sol 673908924.00
iteration 24 sol 675471289.00
iteration 25 sol 674855997.00
iteration 26 sol 675950276.00
iteration 27 sol 674058934.00
iteration 28 sol 674074923.00
iteration 29 sol 675230281.00
iteration 30 sol 674335711.00
iteration 31 sol 675748442.00
iteration 32 sol 672920265.00
iteration 33 sol 674778333.00
iteration 34 sol 672608333.00
iteration 35 sol 672977997.00
iteration 36 sol 675923263.00
iteration 37 sol 672459589.00
iteration 38 sol 673048585.00
iteration 39 sol 673347404.00
iteration 40 sol 675704448.00
iteration 41 sol 673638267.00
iteration 42 sol 673132221.00
iteration 43 sol 674750291.00
iteration 44 sol 674601381.00
iteration 45 sol 673966108.00
iteration 46 sol 676251184.00
iteration 47 sol 673551474.00
iteration 48 sol 673118598.00
iteration 49 sol 673268969.00
iteration 50 sol 674064502.00
iteration 51 sol 673463998.00
iteration 52 sol 672840883.00
iteration 53 sol 675157368.00
iteration 54 sol 675218063.00
iteration 55 sol 672390634.00
iteration 56 sol 673848610.00
iteration 57 sol 676199260.00
iteration 58 sol 673638643.00
iteration 59 sol 675697657.00
iteration 60 sol 673104813.00
iteration 61 sol 672781855.00
iteration 62 sol 674563744.00
iteration 63 sol 673519695.00
iteration 64 sol 674237297.00
iteration 65 sol 674772198.00
iteration 66 sol 675552441.00
iteration 67 sol 671721291.00
iteration 68 sol 676183545.00
iteration 69 sol 674625999.00
iteration 70 sol 674854080.00
iteration 71 sol 674471205.00
iteration 72 sol 673777013.00
iteration 73 sol 675756925.00
iteration 74 sol 673742302.00
iteration 75 sol 674248921.00
iteration 76 sol 675515077.00
iteration 77 sol 674372164.00
iteration 78 sol 676019950.00
iteration 79 sol 672937770.00
iteration 80 sol 673873801.00
iteration 81 sol 673972587.00
iteration 82 sol 672509662.00
iteration 83 sol 673356797.00
iteration 84 sol 673137969.00
iteration 85 sol 675643401.00
iteration 86 sol 673809213.00
iteration 87 sol 673105631.00
iteration 88 sol 674005892.00
iteration 89 sol 673665366.00
iteration 90 sol 673374680.00
iteration 91 sol 675568687.00
iteration 92 sol 675410802.00
iteration 93 sol 674583762.00
iteration 94 sol 675029594.00
iteration 95 sol 674772237.00
iteration 96 sol 675900078.00
iteration 97 sol 673769279.00
iteration 98 sol 673717815.00
iteration 99 sol 675922389.00
iteration 100 sol 675569267.00
iteration 101 sol 674193913.00
iteration 102 sol 676040764.00
iteration 103 sol 673484332.00
iteration 104 sol 675515939.00
iteration 105 sol 673264675.00
iteration 106 sol 673529508.00
iteration 107 sol 674478728.00
iteration 108 sol 674869830.00
iteration 109 sol 672630248.00
iteration 110 sol 673782902.00
iteration 111 sol 672801614.00
iteration 112 sol 673885242.00
iteration 113 sol 673698230.00
iteration 114 sol 673359284.00
iteration 115 sol 675763784.00
iteration 116 sol 672613764.00
iteration 117 sol 673562154.00
iteration 118 sol 674784187.00
iteration 119 sol 672859506.00
iteration 120 sol 673217613.00
iteration 121 sol 672959553.00
iteration 122 sol 673198095.00
iteration 123 sol 673030263.00
iteration 124 sol 675596542.00
iteration 125 sol 674121849.00
iteration 126 sol 672296788.00
iteration 127 sol 672958920.00
iteration 128 sol 674245306.00
iteration 129 sol 674278747.00
iteration 130 sol 675696472.00
iteration 131 sol 675818166.00
iteration 132 sol 673822348.00
iteration 133 sol 674143157.00
iteration 134 sol 673331825.00
iteration 135 sol 675631173.00
iteration 136 sol 675701103.00
iteration 137 sol 673354207.00
iteration 138 sol 675158889.00
iteration 139 sol 673396750.00
iteration 140 sol 675422191.00
iteration 141 sol 673523585.00
iteration 142 sol 673378637.00
iteration 143 sol 674435284.00
iteration 144 sol 674858312.00
iteration 145 sol 674283226.00
iteration 146 sol 674122853.00
iteration 147 sol 673594659.00
iteration 148 sol 676079294.00
iteration 149 sol 675737327.00
iteration 150 sol 672224871.00
iteration 151 sol 673524290.00
iteration 152 sol 676235377.00
iteration 153 sol 673023180.00
iteration 154 sol 673606942.00
iteration 155 sol 675797369.00
iteration 156 sol 674675762.00
iteration 157 sol 675437586.00
iteration 158 sol 674412075.00
iteration 159 sol 673207460.00
iteration 160 sol 675776035.00
iteration 161 sol 673578221.00
iteration 162 sol 675302196.00
iteration 163 sol 675147348.00
iteration 164 sol 675582484.00
iteration 165 sol 673886437.00
iteration 166 sol 675315281.00
iteration 167 sol 675866898.00
iteration 168 sol 674357767.00
iteration 169 sol 674045162.00
iteration 170 sol 673055752.00
iteration 171 sol 673907413.00
iteration 172 sol 674389894.00
iteration 173 sol 672920802.00
iteration 174 sol 673971782.00
iteration 175 sol 673104102.00
iteration 176 sol 673011440.00
iteration 177 sol 676084107.00
iteration 178 sol 674754405.00
iteration 179 sol 673581832.00
iteration 180 sol 674685983.00
iteration 181 sol 672937936.00
iteration 182 sol 675575527.00
iteration 183 sol 675669958.00
iteration 184 sol 672741808.00
iteration 185 sol 673921128.00
iteration 186 sol 673806524.00
iteration 187 sol 673481123.00
iteration 188 sol 673075197.00
iteration 189 sol 674156651.00
iteration 190 sol 673399842.00
iteration 191 sol 675081266.00
iteration 192 sol 674784162.00
iteration 193 sol 675501430.00
iteration 194 sol 675674974.00
iteration 195 sol 673227047.00
iteration 196 sol 673853663.00
iteration 197 sol 674229307.00
iteration 198 sol 674485480.00
iteration 199 sol 673215132.00
iteration 200 sol 675718879.00
iteration 201 sol 674875572.00
iteration 202 sol 673875139.00
iteration 203 sol 675532978.00
iteration 204 sol 675336523.00
iteration 205 sol 672789218.00
iteration 206 sol 674719772.00
iteration 207 sol 674745148.00
iteration 208 sol 673634551.00
iteration 209 sol 674175509.00
iteration 210 sol 673504410.00
iteration 211 sol 676005674.00
iteration 212 sol 672751942.00
iteration 213 sol 674122337.00
iteration 214 sol 673721771.00
iteration 215 sol 673810680.00
iteration 216 sol 674589652.00
iteration 217 sol 674567358.00
iteration 218 sol 676091285.00
iteration 219 sol 673781420.00
iteration 220 sol 675617377.00
iteration 221 sol 675437341.00
iteration 222 sol 673637077.00
iteration 223 sol 673941880.00
iteration 224 sol 674207994.00
iteration 225 sol 675855513.00
iteration 226 sol 674191632.00
iteration 227 sol 674149905.00
iteration 228 sol 674508163.00
iteration 229 sol 675843144.00
iteration 230 sol 675499240.00
iteration 231 sol 673351428.00
iteration 232 sol 675907737.00
iteration 233 sol 674002431.00
iteration 234 sol 673262738.00
iteration 235 sol 675829247.00
iteration 236 sol 673735562.00
iteration 237 sol 673724498.00
iteration 238 sol 673123849.00
iteration 239 sol 673372505.00
iteration 240 sol 673496176.00
iteration 241 sol 673330093.00
iteration 242 sol 673689898.00
iteration 243 sol 673697630.00
iteration 244 sol 673387436.00
iteration 245 sol 675896244.00
iteration 246 sol 671777542.00
iteration 247 sol 673326677.00
iteration 248 sol 672727646.00
iteration 249 sol 675485982.00
iteration 250 sol 675245114.00
iteration 251 sol 674592427.00
iteration 252 sol 672123518.00
iteration 253 sol 675891234.00
iteration 254 sol 675827943.00
iteration 255 sol 675791464.00
iteration 256 sol 674561152.00
iteration 257 sol 672401651.00
iteration 258 sol 673045773.00
iteration 259 sol 673826823.00
iteration 260 sol 672870723.00
iteration 261 sol 674180311.00
iteration 262 sol 672105293.00
iteration 263 sol 675609051.00
iteration 264 sol 673951747.00
iteration 265 sol 673891971.00
iteration 266 sol 673715460.00
iteration 267 sol 675618929.00
iteration 268 sol 674037755.00
iteration 269 sol 670729915.00
iteration 270 sol 671325301.00
iteration 271 sol 675627866.00
iteration 272 sol 672874230.00
iteration 273 sol 674564893.00
iteration 274 sol 675780074.00
iteration 275 sol 675324870.00
iteration 276 sol 673020276.00
iteration 277 sol 673661049.00
iteration 278 sol 675880856.00
iteration 279 sol 676081111.00
iteration 280 sol 675827787.00
iteration 281 sol 674293365.00
iteration 282 sol 673370604.00
iteration 283 sol 673352214.00
iteration 284 sol 673739946.00
iteration 285 sol 672474625.00
iteration 286 sol 672793257.00
iteration 287 sol 672787823.00
iteration 288 sol 674969769.00
iteration 289 sol 673092800.00
iteration 290 sol 673622509.00
iteration 291 sol 672864403.00
iteration 292 sol 674428272.00
iteration 293 sol 673939510.00
iteration 294 sol 674638076.00
iteration 295 sol 675659829.00
iteration 296 sol 675584118.00
iteration 297 sol 675584478.00
iteration 298 sol 674008966.00
iteration 299 sol 676221109.00
iteration 300 sol 674051621.00
iteration 301 sol 675731626.00
iteration 302 sol 674943675.00
iteration 303 sol 671985996.00
iteration 304 sol 673648063.00
iteration 305 sol 673436347.00
iteration 306 sol 675766962.00
iteration 307 sol 674465300.00
iteration 308 sol 675719338.00
iteration 309 sol 673033426.00
iteration 310 sol 673162568.00
iteration 311 sol 672258720.00
iteration 312 sol 672769978.00
iteration 313 sol 675655050.00
iteration 314 sol 672777776.00
iteration 315 sol 674731685.00
iteration 316 sol 674227155.00
iteration 317 sol 673548845.00
iteration 318 sol 674299985.00
iteration 319 sol 673498906.00
iteration 320 sol 674859985.00
iteration 321 sol 674344713.00
iteration 322 sol 673448480.00
iteration 323 sol 674549356.00
iteration 324 sol 675769955.00
iteration 325 sol 675688538.00
iteration 326 sol 675804458.00
iteration 327 sol 674020741.00
iteration 328 sol 673086000.00
iteration 329 sol 674457688.00
iteration 330 sol 675421456.00
iteration 331 sol 673171650.00
iteration 332 sol 675779982.00
iteration 333 sol 675481156.00
iteration 334 sol 672802680.00
iteration 335 sol 673751257.00
iteration 336 sol 673713188.00
iteration 337 sol 674179044.00
iteration 338 sol 676198564.00
iteration 339 sol 673873952.00
iteration 340 sol 675433362.00
iteration 341 sol 673199896.00
iteration 342 sol 673446667.00
iteration 343 sol 671985809.00
iteration 344 sol 676009596.00
iteration 345 sol 675986332.00
iteration 346 sol 675952800.00
iteration 347 sol 673601813.00
iteration 348 sol 673896384.00
iteration 349 sol 674225654.00
iteration 350 sol 675148868.00
iteration 351 sol 672668375.00
iteration 352 sol 672367236.00
iteration 353 sol 675230344.00
iteration 354 sol 675217346.00
iteration 355 sol 676074023.00
iteration 356 sol 675884518.00
iteration 357 sol 672768481.00
iteration 358 sol 673326067.00
iteration 359 sol 675660778.00
iteration 360 sol 673508992.00
iteration 361 sol 671763269.00
iteration 362 sol 675443523.00
iteration 363 sol 673321691.00
iteration 364 sol 672835542.00
iteration 365 sol 675346522.00
iteration 366 sol 674023147.00
iteration 367 sol 674412589.00
iteration 368 sol 675280852.00
iteration 369 sol 673447179.00
iteration 370 sol 672338588.00
iteration 371 sol 675103687.00
iteration 372 sol 673535725.00
iteration 373 sol 672941309.00
iteration 374 sol 671568533.00
iteration 375 sol 672972150.00
iteration 376 sol 675538479.00
iteration 377 sol 672530581.00
iteration 378 sol 674159714.00
iteration 379 sol 675809744.00
iteration 380 sol 673879503.00
iteration 381 sol 674163183.00
iteration 382 sol 675445913.00
iteration 383 sol 672708593.00
iteration 384 sol 675216057.00
iteration 385 sol 673902636.00
iteration 386 sol 674383774.00
iteration 387 sol 673478324.00
iteration 388 sol 673728066.00
iteration 389 sol 675265760.00
iteration 390 sol 674361933.00
iteration 391 sol 675302954.00
iteration 392 sol 673520039.00
iteration 393 sol 674232506.00
iteration 394 sol 674013985.00
iteration 395 sol 674447955.00
iteration 396 sol 673191972.00
iteration 397 sol 673769013.00
iteration 398 sol 675601699.00
iteration 399 sol 673222513.00
iteration 400 sol 673260140.00
iteration 401 sol 675810366.00
iteration 402 sol 672070356.00
iteration 403 sol 673278224.00
iteration 404 sol 673601822.00
iteration 405 sol 673866338.00
iteration 406 sol 674817827.00
iteration 407 sol 673866892.00
iteration 408 sol 675576424.00
iteration 409 sol 673251073.00
iteration 410 sol 675389104.00
iteration 411 sol 675378484.00
iteration 412 sol 676164004.00
iteration 413 sol 672884659.00
iteration 414 sol 675050106.00
iteration 415 sol 673326761.00
iteration 416 sol 674159730.00
iteration 417 sol 675431955.00
iteration 418 sol 672866199.00
iteration 419 sol 674100884.00
iteration 420 sol 674384242.00
iteration 421 sol 675511948.00
iteration 422 sol 675143942.00
iteration 423 sol 676033129.00
iteration 424 sol 673167654.00
iteration 425 sol 675955918.00
iteration 426 sol 673669686.00
iteration 427 sol 673655763.00
iteration 428 sol 675925834.00
iteration 429 sol 673671264.00
iteration 430 sol 672684131.00
iteration 431 sol 675328652.00
iteration 432 sol 673376213.00
iteration 433 sol 674415032.00
iteration 434 sol 673650553.00
iteration 435 sol 673839869.00
iteration 436 sol 675778659.00
iteration 437 sol 675244512.00
iteration 438 sol 674395889.00
iteration 439 sol 673650454.00
iteration 440 sol 674531489.00
iteration 441 sol 675723421.00
iteration 442 sol 672778646.00
iteration 443 sol 673740515.00
iteration 444 sol 675384884.00
iteration 445 sol 673277579.00
iteration 446 sol 673976989.00
iteration 447 sol 672290877.00
iteration 448 sol 673586614.00
iteration 449 sol 673389134.00
iteration 450 sol 674231039.00
iteration 451 sol 673117407.00
iteration 452 sol 672676604.00
iteration 453 sol 673850098.00
iteration 454 sol 674403595.00
iteration 455 sol 676036899.00
iteration 456 sol 673216906.00
iteration 457 sol 673669784.00
iteration 458 sol 675477268.00
iteration 459 sol 673188180.00
iteration 460 sol 674623465.00
iteration 461 sol 675669581.00
iteration 462 sol 673944834.00
iteration 463 sol 675940613.00
iteration 464 sol 673568446.00
iteration 465 sol 674335008.00
iteration 466 sol 674680074.00
iteration 467 sol 674147414.00
iteration 468 sol 672909773.00
iteration 469 sol 675662607.00
iteration 470 sol 676034054.00
iteration 471 sol 675705699.00
iteration 472 sol 672298295.00
iteration 473 sol 675351489.00
iteration 474 sol 675773913.00
iteration 475 sol 673380750.00
iteration 476 sol 674279349.00
iteration 477 sol 676023291.00
iteration 478 sol 673498937.00
iteration 479 sol 673857888.00
iteration 480 sol 673952588.00
iteration 481 sol 675647045.00
iteration 482 sol 674239573.00
iteration 483 sol 675851600.00
iteration 484 sol 675603717.00
iteration 485 sol 672490587.00
iteration 486 sol 673815977.00
iteration 487 sol 673778628.00
iteration 488 sol 673494227.00
iteration 489 sol 673038460.00
iteration 490 sol 673654911.00
iteration 491 sol 675671379.00
iteration 492 sol 673327082.00
iteration 493 sol 672962602.00
iteration 494 sol 673942827.00
iteration 495 sol 674754537.00
iteration 496 sol 672312000.00
iteration 497 sol 673669678.00
iteration 498 sol 675107990.00
iteration 499 sol 673746482.00
iteration 500 sol 676229957.00
iteration 501 sol 675777871.00
iteration 502 sol 671938254.00
iteration 503 sol 674408305.00
iteration 504 sol 675031590.00
iteration 505 sol 673743940.00
iteration 506 sol 674384166.00
iteration 507 sol 675703635.00
iteration 508 sol 673393662.00
iteration 509 sol 672833259.00
iteration 510 sol 674509914.00
iteration 511 sol 674342315.00
iteration 512 sol 673807642.00
iteration 513 sol 675373954.00
iteration 514 sol 675786072.00
iteration 515 sol 672688673.00
iteration 516 sol 673381387.00
iteration 517 sol 675871294.00
iteration 518 sol 675791497.00
iteration 519 sol 673190759.00
iteration 520 sol 674204785.00
iteration 521 sol 673066846.00
iteration 522 sol 675458186.00
iteration 523 sol 671718889.00
iteration 524 sol 674005162.00
iteration 525 sol 673296867.00
iteration 526 sol 672703235.00
iteration 527 sol 674075957.00
iteration 528 sol 675336163.00
iteration 529 sol 673480756.00
iteration 530 sol 676256125.00
iteration 531 sol 673406357.00
iteration 532 sol 673283321.00
iteration 533 sol 672720825.00
iteration 534 sol 672210940.00
iteration 535 sol 675248700.00
iteration 536 sol 672496549.00
iteration 537 sol 673693782.00
iteration 538 sol 673795108.00
iteration 539 sol 675423044.00
iteration 540 sol 675593681.00
iteration 541 sol 672789424.00
iteration 542 sol 674146864.00
iteration 543 sol 673659402.00
iteration 544 sol 672770642.00
iteration 545 sol 673665112.00
iteration 546 sol 673639589.00
iteration 547 sol 676206978.00
iteration 548 sol 675415284.00
iteration 549 sol 674464887.00
iteration 550 sol 673233316.00
iteration 551 sol 671994914.00
iteration 552 sol 675662063.00
iteration 553 sol 675951741.00
iteration 554 sol 675847499.00
iteration 555 sol 673962981.00
iteration 556 sol 676056023.00
iteration 557 sol 673851477.00
iteration 558 sol 671995062.00
iteration 559 sol 676022483.00
iteration 560 sol 676040376.00
iteration 561 sol 673327555.00
iteration 562 sol 674228373.00
iteration 563 sol 675449870.00
iteration 564 sol 673690398.00
iteration 565 sol 675170074.00
iteration 566 sol 672652608.00
iteration 567 sol 673213828.00
iteration 568 sol 674135287.00
iteration 569 sol 674125046.00
iteration 570 sol 670845654.00
iteration 571 sol 675167073.00
iteration 572 sol 673214098.00
iteration 573 sol 673508082.00
iteration 574 sol 675839913.00
iteration 575 sol 673522168.00
iteration 576 sol 676245572.00
iteration 577 sol 674711928.00
iteration 578 sol 673742206.00
iteration 579 sol 675777899.00
iteration 580 sol 675946705.00
iteration 581 sol 675211188.00
iteration 582 sol 673510778.00
iteration 583 sol 674135894.00
iteration 584 sol 675515054.00
iteration 585 sol 673969544.00
iteration 586 sol 672784190.00
iteration 587 sol 673418283.00
iteration 588 sol 673270998.00
iteration 589 sol 674123504.00
iteration 590 sol 673295705.00
iteration 591 sol 676020445.00
iteration 592 sol 674562238.00
iteration 593 sol 674567785.00
iteration 594 sol 675845742.00
iteration 595 sol 673870222.00
iteration 596 sol 675464396.00
iteration 597 sol 674740782.00
iteration 598 sol 676122030.00
iteration 599 sol 673149658.00
iteration 600 sol 672162681.00
iteration 601 sol 673926671.00
iteration 602 sol 675819399.00
iteration 603 sol 672916584.00
iteration 604 sol 673241015.00
iteration 605 sol 675842237.00
iteration 606 sol 675389092.00
iteration 607 sol 672935320.00
iteration 608 sol 674093623.00
iteration 609 sol 673606146.00
iteration 610 sol 674159879.00
iteration 611 sol 674506755.00
iteration 612 sol 672717734.00
iteration 613 sol 673889713.00
iteration 614 sol 672693540.00
iteration 615 sol 676067886.00
iteration 616 sol 674048066.00
iteration 617 sol 674000848.00
iteration 618 sol 675634920.00
iteration 619 sol 676014712.00
iteration 620 sol 675960590.00
iteration 621 sol 674284973.00
iteration 622 sol 676010879.00
iteration 623 sol 673447469.00
iteration 624 sol 673671254.00
iteration 625 sol 673874568.00
iteration 626 sol 676019919.00
iteration 627 sol 675329079.00
iteration 628 sol 674147107.00
iteration 629 sol 672605562.00
iteration 630 sol 674884258.00
iteration 631 sol 674226269.00
iteration 632 sol 673345994.00
iteration 633 sol 672523053.00
iteration 634 sol 675077888.00
iteration 635 sol 673735522.00
iteration 636 sol 672678998.00
iteration 637 sol 676075699.00
iteration 638 sol 672552276.00
iteration 639 sol 675923216.00
iteration 640 sol 673264093.00
iteration 641 sol 672340108.00
iteration 642 sol 673789118.00
iteration 643 sol 675800073.00
iteration 644 sol 675936401.00
iteration 645 sol 675987233.00
iteration 646 sol 672721118.00
iteration 647 sol 674180267.00
iteration 648 sol 675272908.00
iteration 649 sol 673633307.00
iteration 650 sol 672845295.00
iteration 651 sol 674253807.00
iteration 652 sol 675945915.00
iteration 653 sol 673964662.00
iteration 654 sol 674232469.00
iteration 655 sol 673245666.00
iteration 656 sol 674152232.00
iteration 657 sol 674579887.00
iteration 658 sol 673371249.00
iteration 659 sol 673305503.00
iteration 660 sol 672604156.00
iteration 661 sol 673499768.00
iteration 662 sol 675115593.00
iteration 663 sol 673274550.00
iteration 664 sol 674472783.00
iteration 665 sol 672694880.00
iteration 666 sol 672794325.00
iteration 667 sol 672675778.00
iteration 668 sol 675491287.00
iteration 669 sol 672358882.00
iteration 670 sol 673856390.00
iteration 671 sol 672508308.00
iteration 672 sol 673116657.00
iteration 673 sol 673542935.00
iteration 674 sol 672462040.00
iteration 675 sol 673536123.00
iteration 676 sol 674194786.00
iteration 677 sol 673929776.00
iteration 678 sol 673050076.00
iteration 679 sol 673727947.00
iteration 680 sol 673434649.00
iteration 681 sol 673470637.00
iteration 682 sol 673965558.00
iteration 683 sol 675446541.00
iteration 684 sol 673220921.00
iteration 685 sol 672648197.00
iteration 686 sol 674390809.00
iteration 687 sol 673355522.00
iteration 688 sol 673871034.00
iteration 689 sol 672888178.00
iteration 690 sol 673855417.00
iteration 691 sol 675220399.00
iteration 692 sol 673227785.00
iteration 693 sol 674103797.00
iteration 694 sol 673670942.00
iteration 695 sol 674295669.00
iteration 696 sol 674826332.00
iteration 697 sol 675230750.00
iteration 698 sol 675504118.00
iteration 699 sol 675584401.00
iteration 700 sol 674362252.00
iteration 701 sol 675305164.00
iteration 702 sol 672037955.00
iteration 703 sol 675568781.00
iteration 704 sol 673187493.00
iteration 705 sol 675531525.00
iteration 706 sol 673498797.00
iteration 707 sol 676102187.00
iteration 708 sol 675416075.00
iteration 709 sol 673439574.00
iteration 710 sol 673647717.00
iteration 711 sol 674593195.00
iteration 712 sol 674249986.00
iteration 713 sol 672044652.00
iteration 714 sol 674122507.00
iteration 715 sol 674047342.00
iteration 716 sol 672137857.00
iteration 717 sol 675641235.00
iteration 718 sol 673258064.00
iteration 719 sol 674081570.00
iteration 720 sol 672367585.00
iteration 721 sol 674299216.00
iteration 722 sol 673688043.00
iteration 723 sol 675837259.00
iteration 724 sol 675393535.00
iteration 725 sol 672786942.00
iteration 726 sol 673288268.00
iteration 727 sol 672025708.00
iteration 728 sol 671779361.00
iteration 729 sol 673134901.00
iteration 730 sol 674353384.00
iteration 731 sol 674151914.00
iteration 732 sol 673689188.00
iteration 733 sol 671429239.00
iteration 734 sol 675485777.00
iteration 735 sol 675752245.00
iteration 736 sol 672972110.00
iteration 737 sol 672785927.00
iteration 738 sol 674982657.00
iteration 739 sol 673716016.00
iteration 740 sol 673910772.00
iteration 741 sol 675486038.00
iteration 742 sol 674256771.00
iteration 743 sol 673183374.00
iteration 744 sol 673537879.00
iteration 745 sol 673452846.00
iteration 746 sol 675097822.00
iteration 747 sol 673597127.00
iteration 748 sol 674148250.00
iteration 749 sol 675004827.00
iteration 750 sol 672509317.00
iteration 751 sol 673581527.00
iteration 752 sol 675296270.00
iteration 753 sol 673988738.00
iteration 754 sol 675773486.00
iteration 755 sol 675686843.00
iteration 756 sol 673396811.00
iteration 757 sol 675610868.00
iteration 758 sol 675773090.00
iteration 759 sol 675904970.00
iteration 760 sol 675700521.00
iteration 761 sol 673234762.00
iteration 762 sol 674229234.00
iteration 763 sol 676225755.00
iteration 764 sol 676171518.00
iteration 765 sol 674134300.00
iteration 766 sol 675029056.00
iteration 767 sol 674385915.00
iteration 768 sol 674067054.00
iteration 769 sol 672271294.00
iteration 770 sol 675582106.00
iteration 771 sol 674637820.00
iteration 772 sol 676013778.00
iteration 773 sol 675579302.00
iteration 774 sol 673465213.00
iteration 775 sol 674633695.00
iteration 776 sol 672543091.00
iteration 777 sol 673224164.00
iteration 778 sol 674107593.00
iteration 779 sol 673366452.00
iteration 780 sol 674579783.00
iteration 781 sol 675386999.00
iteration 782 sol 674333528.00
iteration 783 sol 672516711.00
iteration 784 sol 673448317.00
iteration 785 sol 673605439.00
iteration 786 sol 676177063.00
iteration 787 sol 674342837.00
iteration 788 sol 672605769.00
iteration 789 sol 672225312.00
iteration 790 sol 675568648.00
iteration 791 sol 675389027.00
iteration 792 sol 675516802.00
iteration 793 sol 674157499.00
iteration 794 sol 673658854.00
iteration 795 sol 672312575.00
iteration 796 sol 675888895.00
iteration 797 sol 673734903.00
iteration 798 sol 671834582.00
iteration 799 sol 673677352.00
iteration 800 sol 675984601.00
iteration 801 sol 673355821.00
iteration 802 sol 673777810.00
iteration 803 sol 673804693.00
iteration 804 sol 673662754.00
iteration 805 sol 675938220.00
iteration 806 sol 673911076.00
iteration 807 sol 673847750.00
iteration 808 sol 673353271.00
iteration 809 sol 672723542.00
iteration 810 sol 673829354.00
iteration 811 sol 673196413.00
iteration 812 sol 673857956.00
iteration 813 sol 675432517.00
iteration 814 sol 675620842.00
iteration 815 sol 674812902.00
iteration 816 sol 675962106.00
iteration 817 sol 674439782.00
iteration 818 sol 673243862.00
iteration 819 sol 672932829.00
iteration 820 sol 674386695.00
iteration 821 sol 673432414.00
iteration 822 sol 675798539.00
iteration 823 sol 673903434.00
iteration 824 sol 672960701.00
iteration 825 sol 675480945.00
iteration 826 sol 675555819.00
iteration 827 sol 675241879.00
iteration 828 sol 674487841.00
iteration 829 sol 675880937.00
iteration 830 sol 672598501.00
iteration 831 sol 674025425.00
iteration 832 sol 675162245.00
iteration 833 sol 675469410.00
iteration 834 sol 674882633.00
iteration 835 sol 672782257.00
iteration 836 sol 673696412.00
iteration 837 sol 673922393.00
iteration 838 sol 673627398.00
iteration 839 sol 673749002.00
iteration 840 sol 673049876.00
iteration 841 sol 675349709.00
iteration 842 sol 675283019.00
iteration 843 sol 672612393.00
iteration 844 sol 675728065.00
iteration 845 sol 673352619.00
iteration 846 sol 675547107.00
iteration 847 sol 676131832.00
iteration 848 sol 673687422.00
iteration 849 sol 672321095.00
iteration 850 sol 675910780.00
iteration 851 sol 675326711.00
iteration 852 sol 675328995.00
iteration 853 sol 674341197.00
iteration 854 sol 675332798.00
iteration 855 sol 675850500.00
iteration 856 sol 675415164.00
iteration 857 sol 673595633.00
iteration 858 sol 674826164.00
iteration 859 sol 673799978.00
iteration 860 sol 672899575.00
iteration 861 sol 673047514.00
iteration 862 sol 675729274.00
iteration 863 sol 674586764.00
iteration 864 sol 675769596.00
iteration 865 sol 675425696.00
iteration 866 sol 672646288.00
iteration 867 sol 672544600.00
iteration 868 sol 675848875.00
iteration 869 sol 673759132.00
iteration 870 sol 673813226.00
iteration 871 sol 672792996.00
iteration 872 sol 673945509.00
iteration 873 sol 673074788.00
iteration 874 sol 673523410.00
iteration 875 sol 676149956.00
iteration 876 sol 672505631.00
iteration 877 sol 673345884.00
iteration 878 sol 672089563.00
iteration 879 sol 671916843.00
iteration 880 sol 675793085.00
iteration 881 sol 673415230.00
iteration 882 sol 674676642.00
iteration 883 sol 674054078.00
iteration 884 sol 673210388.00
iteration 885 sol 673700279.00
iteration 886 sol 672290480.00
iteration 887 sol 673429534.00
iteration 888 sol 673741251.00
iteration 889 sol 674297229.00
iteration 890 sol 673078904.00
iteration 891 sol 673145098.00
iteration 892 sol 673843157.00
iteration 893 sol 675880621.00
iteration 894 sol 674628930.00
iteration 895 sol 674258090.00
iteration 896 sol 676076529.00
iteration 897 sol 673633191.00
iteration 898 sol 675835094.00
iteration 899 sol 673396280.00
iteration 900 sol 673303194.00
iteration 901 sol 674613170.00
iteration 902 sol 673758116.00
iteration 903 sol 673588482.00
iteration 904 sol 673721172.00
iteration 905 sol 673949344.00
iteration 906 sol 673753266.00
iteration 907 sol 673400408.00
iteration 908 sol 673409079.00
iteration 909 sol 673639156.00
iteration 910 sol 675540275.00
iteration 911 sol 674670315.00
iteration 912 sol 675811946.00
iteration 913 sol 673909020.00
iteration 914 sol 673303552.00
iteration 915 sol 675700930.00
iteration 916 sol 672572669.00
iteration 917 sol 676214088.00
iteration 918 sol 672574546.00
iteration 919 sol 674302457.00
iteration 920 sol 675404181.00
iteration 921 sol 676305923.00
iteration 922 sol 672567826.00
iteration 923 sol 672280557.00
iteration 924 sol 674466531.00
iteration 925 sol 674909255.00
iteration 926 sol 673156240.00
iteration 927 sol 675668612.00
iteration 928 sol 673133167.00
iteration 929 sol 674755216.00
iteration 930 sol 675951368.00
iteration 931 sol 675809367.00
iteration 932 sol 674307524.00
iteration 933 sol 675340573.00
iteration 934 sol 674521925.00
iteration 935 sol 674727378.00
iteration 936 sol 673738888.00
iteration 937 sol 674541067.00
iteration 938 sol 673384308.00
iteration 939 sol 675993792.00
iteration 940 sol 673748639.00
iteration 941 sol 674246946.00
iteration 942 sol 672905958.00
iteration 943 sol 673355081.00
iteration 944 sol 675638883.00
iteration 945 sol 675254656.00
iteration 946 sol 675995964.00
iteration 947 sol 675798560.00
iteration 948 sol 674446541.00
iteration 949 sol 672349206.00
iteration 950 sol 674016943.00
iteration 951 sol 674108892.00
iteration 952 sol 672914055.00
iteration 953 sol 675337210.00
iteration 954 sol 673418910.00
iteration 955 sol 672068848.00
iteration 956 sol 676487278.00
iteration 957 sol 675730085.00
iteration 958 sol 675930389.00
iteration 959 sol 673353126.00
iteration 960 sol 674096027.00
iteration 961 sol 673756085.00
iteration 962 sol 673866128.00
iteration 963 sol 673404407.00
iteration 964 sol 675240937.00
iteration 965 sol 675412187.00
iteration 966 sol 673344764.00
iteration 967 sol 673494600.00
iteration 968 sol 675219844.00
iteration 969 sol 673794213.00
iteration 970 sol 673832124.00
iteration 971 sol 675509568.00
iteration 972 sol 673324794.00
iteration 973 sol 674049562.00
iteration 974 sol 672435575.00
iteration 975 sol 673255943.00
iteration 976 sol 675146053.00
iteration 977 sol 672888730.00
iteration 978 sol 673935722.00
iteration 979 sol 674081712.00
iteration 980 sol 675743714.00
iteration 981 sol 675240070.00
iteration 982 sol 673881318.00
iteration 983 sol 673849390.00
iteration 984 sol 672558267.00
iteration 985 sol 676137348.00
iteration 986 sol 672517663.00
iteration 987 sol 674906647.00
iteration 988 sol 673750667.00
iteration 989 sol 674431346.00
iteration 990 sol 674606681.00
iteration 991 sol 672990749.00
iteration 992 sol 673166854.00
iteration 993 sol 673336996.00
iteration 994 sol 675699977.00
iteration 995 sol 673386812.00
iteration 996 sol 673907025.00
iteration 997 sol 675680418.00
iteration 998 sol 675794925.00
iteration 999 sol 674079806.00
iteration 1000 sol 673105346.00
iteration 1001 sol 675864011.00
iteration 1002 sol 673982033.00
iteration 1003 sol 675628140.00
iteration 1004 sol 674519135.00
iteration 1005 sol 673828988.00
iteration 1006 sol 673796616.00
iteration 1007 sol 675257851.00
iteration 1008 sol 670953574.00
iteration 1009 sol 673772540.00
iteration 1010 sol 674332432.00
iteration 1011 sol 673926328.00
iteration 1012 sol 673895003.00
iteration 1013 sol 673848443.00
iteration 1014 sol 674532029.00
iteration 1015 sol 673571189.00
iteration 1016 sol 675744368.00
iteration 1017 sol 674028593.00
iteration 1018 sol 674989786.00
iteration 1019 sol 674272416.00
iteration 1020 sol 674028362.00
iteration 1021 sol 673662019.00
iteration 1022 sol 675666452.00
iteration 1023 sol 672525932.00
iteration 1024 sol 675695391.00
iteration 1025 sol 674666302.00
iteration 1026 sol 673126995.00
iteration 1027 sol 672636111.00
iteration 1028 sol 673124523.00
iteration 1029 sol 674231938.00
iteration 1030 sol 672600983.00
iteration 1031 sol 676130159.00
iteration 1032 sol 676018609.00
iteration 1033 sol 673938777.00
iteration 1034 sol 672255460.00
iteration 1035 sol 672191851.00
iteration 1036 sol 673262750.00
iteration 1037 sol 673822117.00
iteration 1038 sol 674963295.00
iteration 1039 sol 675392915.00
iteration 1040 sol 673345449.00
iteration 1041 sol 675408357.00
iteration 1042 sol 673293062.00
iteration 1043 sol 674582515.00
iteration 1044 sol 671757010.00
iteration 1045 sol 673558976.00
iteration 1046 sol 672118242.00
iteration 1047 sol 671971676.00
iteration 1048 sol 675553251.00
iteration 1049 sol 675841539.00
iteration 1050 sol 673204541.00
iteration 1051 sol 674166202.00
iteration 1052 sol 674248334.00
iteration 1053 sol 673534828.00
iteration 1054 sol 673275109.00
iteration 1055 sol 672615396.00
iteration 1056 sol 672993576.00
iteration 1057 sol 672935634.00
iteration 1058 sol 674277913.00
iteration 1059 sol 674298180.00
iteration 1060 sol 675786212.00
iteration 1061 sol 673068567.00
iteration 1062 sol 671510683.00
iteration 1063 sol 673977185.00
iteration 1064 sol 675509105.00
iteration 1065 sol 675269265.00
iteration 1066 sol 673042735.00
iteration 1067 sol 673433631.00
iteration 1068 sol 674189075.00
iteration 1069 sol 676032044.00
iteration 1070 sol 674513594.00
iteration 1071 sol 675561875.00
iteration 1072 sol 674017557.00
iteration 1073 sol 674139564.00
iteration 1074 sol 675085742.00
iteration 1075 sol 674478740.00
iteration 1076 sol 673593501.00
iteration 1077 sol 672552143.00
iteration 1078 sol 673862332.00
iteration 1079 sol 672571132.00
iteration 1080 sol 672856797.00
iteration 1081 sol 675676206.00
iteration 1082 sol 676146596.00
iteration 1083 sol 671049438.00
iteration 1084 sol 673272167.00
iteration 1085 sol 676019129.00
iteration 1086 sol 673121073.00
iteration 1087 sol 675248587.00
iteration 1088 sol 675745678.00
iteration 1089 sol 675541773.00
iteration 1090 sol 673958262.00
iteration 1091 sol 675751883.00
iteration 1092 sol 673063722.00
iteration 1093 sol 673182521.00
iteration 1094 sol 675573367.00
iteration 1095 sol 672662925.00
iteration 1096 sol 674609650.00
iteration 1097 sol 673538443.00
iteration 1098 sol 671637356.00
iteration 1099 sol 672337871.00
iteration 1100 sol 672541296.00
iteration 1101 sol 673317408.00
iteration 1102 sol 672515331.00
iteration 1103 sol 673477908.00
iteration 1104 sol 673212334.00
iteration 1105 sol 673346469.00
iteration 1106 sol 675701443.00
iteration 1107 sol 673979275.00
iteration 1108 sol 675667719.00
iteration 1109 sol 675778334.00
iteration 1110 sol 673797720.00
iteration 1111 sol 675994265.00
iteration 1112 sol 672708375.00
iteration 1113 sol 673414614.00
iteration 1114 sol 673131594.00
iteration 1115 sol 672972725.00
iteration 1116 sol 675621694.00
iteration 1117 sol 672120907.00
iteration 1118 sol 673737273.00
iteration 1119 sol 672822113.00
iteration 1120 sol 672475786.00
iteration 1121 sol 672737014.00
iteration 1122 sol 673598378.00
iteration 1123 sol 675726519.00
iteration 1124 sol 672847710.00
iteration 1125 sol 674295914.00
iteration 1126 sol 675086391.00
iteration 1127 sol 675546690.00
iteration 1128 sol 674014301.00
iteration 1129 sol 674346865.00
iteration 1130 sol 675910178.00
iteration 1131 sol 673182485.00
iteration 1132 sol 672873217.00
iteration 1133 sol 673230579.00
iteration 1134 sol 674174187.00
iteration 1135 sol 673690774.00
iteration 1136 sol 675613840.00
iteration 1137 sol 673765198.00
iteration 1138 sol 674083337.00
iteration 1139 sol 673329776.00
iteration 1140 sol 675611664.00
iteration 1141 sol 673203821.00
iteration 1142 sol 676023467.00
iteration 1143 sol 675167483.00
iteration 1144 sol 674291245.00
iteration 1145 sol 672586666.00
iteration 1146 sol 673822275.00
iteration 1147 sol 672849149.00
iteration 1148 sol 672978267.00
iteration 1149 sol 675358778.00
iteration 1150 sol 674508349.00
iteration 1151 sol 673835411.00
iteration 1152 sol 675562637.00
iteration 1153 sol 675671363.00
iteration 1154 sol 675625745.00
iteration 1155 sol 675410798.00
iteration 1156 sol 673634184.00
iteration 1157 sol 672428020.00
iteration 1158 sol 672931644.00
iteration 1159 sol 675457919.00
iteration 1160 sol 672951387.00
iteration 1161 sol 673467334.00
iteration 1162 sol 675800121.00
iteration 1163 sol 674494678.00
iteration 1164 sol 673781505.00
iteration 1165 sol 673489023.00
iteration 1166 sol 674557366.00
iteration 1167 sol 674107156.00
iteration 1168 sol 672045606.00
iteration 1169 sol 672371570.00
iteration 1170 sol 672572109.00
iteration 1171 sol 675692557.00
iteration 1172 sol 673472576.00
iteration 1173 sol 675895421.00
iteration 1174 sol 673535690.00
iteration 1175 sol 673523544.00
iteration 1176 sol 673096101.00
iteration 1177 sol 673444638.00
iteration 1178 sol 673778878.00
iteration 1179 sol 675486762.00
iteration 1180 sol 676254524.00
iteration 1181 sol 673108556.00
iteration 1182 sol 672105977.00
iteration 1183 sol 673451545.00
iteration 1184 sol 676033067.00
iteration 1185 sol 673433879.00
iteration 1186 sol 674040763.00
iteration 1187 sol 675705827.00
iteration 1188 sol 673685976.00
iteration 1189 sol 675109435.00
iteration 1190 sol 673275360.00
iteration 1191 sol 674309193.00
iteration 1192 sol 672962430.00
iteration 1193 sol 674483059.00
iteration 1194 sol 676126144.00
iteration 1195 sol 672168256.00
iteration 1196 sol 673084713.00
iteration 1197 sol 673625703.00
iteration 1198 sol 676119193.00
iteration 1199 sol 674236646.00
iteration 1200 sol 675838572.00
iteration 1201 sol 674491377.00
iteration 1202 sol 673437789.00
iteration 1203 sol 673511753.00
iteration 1204 sol 675630449.00
iteration 1205 sol 673736542.00
iteration 1206 sol 673403148.00
iteration 1207 sol 675467603.00
iteration 1208 sol 675772923.00
iteration 1209 sol 672848429.00
iteration 1210 sol 674158716.00
iteration 1211 sol 674468131.00
iteration 1212 sol 675791146.00
iteration 1213 sol 674980264.00
iteration 1214 sol 673426494.00
iteration 1215 sol 674124766.00
iteration 1216 sol 673499365.00
iteration 1217 sol 674436053.00
iteration 1218 sol 673236613.00
iteration 1219 sol 672122679.00
iteration 1220 sol 673602680.00
iteration 1221 sol 674453402.00
iteration 1222 sol 676076728.00
iteration 1223 sol 674053254.00
iteration 1224 sol 675781958.00
iteration 1225 sol 674493059.00
iteration 1226 sol 676189080.00
iteration 1227 sol 673632756.00
iteration 1228 sol 673551147.00
iteration 1229 sol 673980423.00
iteration 1230 sol 675051647.00
iteration 1231 sol 672472899.00
iteration 1232 sol 676245856.00
iteration 1233 sol 675859841.00
iteration 1234 sol 673765202.00
iteration 1235 sol 673366513.00
iteration 1236 sol 676120213.00
iteration 1237 sol 675240966.00
iteration 1238 sol 672978038.00
iteration 1239 sol 675553128.00
iteration 1240 sol 672971508.00
iteration 1241 sol 674707748.00
iteration 1242 sol 676002237.00
iteration 1243 sol 676232996.00
iteration 1244 sol 674437304.00
iteration 1245 sol 673863129.00
iteration 1246 sol 673539311.00
iteration 1247 sol 672858849.00
iteration 1248 sol 673759142.00
iteration 1249 sol 672773357.00
iteration 1250 sol 674396989.00
iteration 1251 sol 675696939.00
iteration 1252 sol 673367499.00
iteration 1253 sol 674267366.00
iteration 1254 sol 673897047.00
iteration 1255 sol 674658138.00
iteration 1256 sol 675654520.00
iteration 1257 sol 673503748.00
iteration 1258 sol 675170584.00
iteration 1259 sol 675025279.00
iteration 1260 sol 674273066.00
iteration 1261 sol 673877319.00
iteration 1262 sol 674075714.00
iteration 1263 sol 676396416.00
iteration 1264 sol 675364065.00
iteration 1265 sol 675040362.00
iteration 1266 sol 673161833.00
iteration 1267 sol 673717465.00
iteration 1268 sol 674881964.00
iteration 1269 sol 673227532.00
iteration 1270 sol 672418279.00
iteration 1271 sol 673637627.00
iteration 1272 sol 673324140.00
iteration 1273 sol 673126926.00
iteration 1274 sol 673536700.00
iteration 1275 sol 672680481.00
iteration 1276 sol 676119412.00
iteration 1277 sol 674361192.00
iteration 1278 sol 675596835.00
iteration 1279 sol 675689076.00
iteration 1280 sol 672168868.00
iteration 1281 sol 672076359.00
iteration 1282 sol 671783683.00
iteration 1283 sol 675599144.00
iteration 1284 sol 673036836.00
iteration 1285 sol 673190513.00
iteration 1286 sol 675745687.00
iteration 1287 sol 675907281.00
iteration 1288 sol 673711298.00
iteration 1289 sol 673525695.00
iteration 1290 sol 674093018.00
iteration 1291 sol 675557465.00
iteration 1292 sol 675439796.00
iteration 1293 sol 674064632.00
iteration 1294 sol 673649209.00
iteration 1295 sol 673915862.00
iteration 1296 sol 674897104.00
iteration 1297 sol 672901079.00
iteration 1298 sol 675509743.00
iteration 1299 sol 674719028.00
iteration 1300 sol 674616566.00
iteration 1301 sol 673227596.00
iteration 1302 sol 674073191.00
iteration 1303 sol 673646528.00
iteration 1304 sol 674218837.00
iteration 1305 sol 674980976.00
iteration 1306 sol 673289448.00
iteration 1307 sol 674471696.00
iteration 1308 sol 673182697.00
iteration 1309 sol 675670090.00
iteration 1310 sol 673494058.00
iteration 1311 sol 673068962.00
iteration 1312 sol 674491382.00
iteration 1313 sol 672673285.00
iteration 1314 sol 676051744.00
iteration 1315 sol 674856931.00
iteration 1316 sol 672771090.00
iteration 1317 sol 672823649.00
iteration 1318 sol 675425716.00
iteration 1319 sol 673672797.00
iteration 1320 sol 672988450.00
iteration 1321 sol 675745362.00
iteration 1322 sol 674522901.00
iteration 1323 sol 675917155.00
iteration 1324 sol 673622807.00
iteration 1325 sol 672650777.00
iteration 1326 sol 675729444.00
iteration 1327 sol 673514474.00
iteration 1328 sol 673252878.00
iteration 1329 sol 673941693.00
iteration 1330 sol 674795359.00
iteration 1331 sol 672559116.00
iteration 1332 sol 673334056.00
iteration 1333 sol 675815948.00
iteration 1334 sol 673572859.00
iteration 1335 sol 676521066.00
iteration 1336 sol 673387937.00
iteration 1337 sol 672283108.00
iteration 1338 sol 674855147.00
iteration 1339 sol 675978081.00
iteration 1340 sol 673018643.00
iteration 1341 sol 676028065.00
iteration 1342 sol 673894541.00
iteration 1343 sol 675990891.00
iteration 1344 sol 672865900.00
iteration 1345 sol 675925986.00
iteration 1346 sol 673138366.00
iteration 1347 sol 676037676.00
iteration 1348 sol 674293650.00
iteration 1349 sol 672480892.00
iteration 1350 sol 675806576.00
iteration 1351 sol 673082671.00
iteration 1352 sol 674687238.00
iteration 1353 sol 673500906.00
iteration 1354 sol 675863019.00
iteration 1355 sol 672815460.00
iteration 1356 sol 675338894.00
iteration 1357 sol 673660081.00
iteration 1358 sol 673862568.00
iteration 1359 sol 673179305.00
iteration 1360 sol 673266613.00
iteration 1361 sol 674634201.00
iteration 1362 sol 673145805.00
iteration 1363 sol 674589815.00
iteration 1364 sol 675179893.00
iteration 1365 sol 675962718.00
iteration 1366 sol 672897361.00
iteration 1367 sol 675409199.00
iteration 1368 sol 673759043.00
iteration 1369 sol 673125821.00
iteration 1370 sol 674376245.00
iteration 1371 sol 674527368.00
iteration 1372 sol 672275736.00
iteration 1373 sol 675583685.00
iteration 1374 sol 673868288.00
iteration 1375 sol 675674390.00
iteration 1376 sol 674031413.00
iteration 1377 sol 676408659.00
iteration 1378 sol 673467506.00
iteration 1379 sol 673575191.00
iteration 1380 sol 675745321.00
iteration 1381 sol 675527539.00
iteration 1382 sol 673343083.00
iteration 1383 sol 672930295.00
iteration 1384 sol 675323773.00
iteration 1385 sol 674722044.00
iteration 1386 sol 673215214.00
iteration 1387 sol 675586083.00
iteration 1388 sol 674372278.00
iteration 1389 sol 675995306.00
iteration 1390 sol 674761719.00
iteration 1391 sol 675494401.00
iteration 1392 sol 673862558.00
iteration 1393 sol 673423552.00
iteration 1394 sol 674279321.00
iteration 1395 sol 673476459.00
iteration 1396 sol 675313320.00
iteration 1397 sol 675714675.00
iteration 1398 sol 673577181.00
iteration 1399 sol 675479035.00
iteration 1400 sol 676093551.00
iteration 1401 sol 673696698.00
iteration 1402 sol 674953572.00
iteration 1403 sol 673498144.00
iteration 1404 sol 673663269.00
iteration 1405 sol 674188184.00
iteration 1406 sol 673837816.00
iteration 1407 sol 672417342.00
iteration 1408 sol 673296137.00
iteration 1409 sol 672555393.00
iteration 1410 sol 673517887.00
iteration 1411 sol 673964352.00
iteration 1412 sol 675959137.00
iteration 1413 sol 675022254.00
iteration 1414 sol 675915608.00
iteration 1415 sol 675250037.00
iteration 1416 sol 675429028.00
iteration 1417 sol 675644158.00
iteration 1418 sol 672635510.00
iteration 1419 sol 673386213.00
iteration 1420 sol 675118740.00
iteration 1421 sol 673771129.00
iteration 1422 sol 673761969.00
iteration 1423 sol 674427141.00
iteration 1424 sol 674138496.00
iteration 1425 sol 673942441.00
iteration 1426 sol 673410367.00
iteration 1427 sol 675665690.00
iteration 1428 sol 672706826.00
iteration 1429 sol 674879717.00
iteration 1430 sol 674285285.00
iteration 1431 sol 673360493.00
iteration 1432 sol 674225128.00
iteration 1433 sol 672574897.00
iteration 1434 sol 675142453.00
iteration 1435 sol 672937589.00
iteration 1436 sol 675706658.00
iteration 1437 sol 675351530.00
iteration 1438 sol 675829140.00
iteration 1439 sol 675630006.00
iteration 1440 sol 674847357.00
iteration 1441 sol 672439154.00
iteration 1442 sol 673787828.00
iteration 1443 sol 673866603.00
iteration 1444 sol 675653728.00
iteration 1445 sol 675896559.00
iteration 1446 sol 673384953.00
iteration 1447 sol 673201665.00
iteration 1448 sol 673594569.00
iteration 1449 sol 675204061.00
iteration 1450 sol 675262959.00
iteration 1451 sol 675184559.00
iteration 1452 sol 673253821.00
iteration 1453 sol 675036819.00
iteration 1454 sol 676010615.00
iteration 1455 sol 676410968.00
iteration 1456 sol 674401525.00
iteration 1457 sol 675366257.00
iteration 1458 sol 675864813.00
iteration 1459 sol 674140868.00
iteration 1460 sol 673949521.00
iteration 1461 sol 672621114.00
iteration 1462 sol 673767953.00
iteration 1463 sol 671539686.00
iteration 1464 sol 674291129.00
iteration 1465 sol 673995267.00
iteration 1466 sol 675694607.00
iteration 1467 sol 675048461.00
iteration 1468 sol 673575955.00
iteration 1469 sol 673885369.00
iteration 1470 sol 675411865.00
iteration 1471 sol 673707863.00
iteration 1472 sol 675807714.00
iteration 1473 sol 673055218.00
iteration 1474 sol 674477508.00
iteration 1475 sol 675711698.00
iteration 1476 sol 674423529.00
iteration 1477 sol 673336968.00
iteration 1478 sol 672665079.00
iteration 1479 sol 676248000.00
iteration 1480 sol 673271182.00
iteration 1481 sol 675225043.00
iteration 1482 sol 675858518.00
iteration 1483 sol 671714149.00
iteration 1484 sol 673876359.00
iteration 1485 sol 673554538.00
iteration 1486 sol 675247681.00
iteration 1487 sol 673891673.00
iteration 1488 sol 676150575.00
iteration 1489 sol 674255056.00
iteration 1490 sol 673406504.00
iteration 1491 sol 672961053.00
iteration 1492 sol 675863160.00
iteration 1493 sol 673499770.00
iteration 1494 sol 675372446.00
iteration 1495 sol 673549626.00
iteration 1496 sol 675601828.00
iteration 1497 sol 674189442.00
iteration 1498 sol 673051118.00
iteration 1499 sol 675267615.00
iteration 1500 sol 672641308.00
iteration 1501 sol 674603885.00
iteration 1502 sol 674041519.00
iteration 1503 sol 673487152.00
iteration 1504 sol 670407841.00
iteration 1505 sol 673170950.00
iteration 1506 sol 673738636.00
iteration 1507 sol 675711304.00
iteration 1508 sol 672562680.00
iteration 1509 sol 675857802.00
iteration 1510 sol 675558579.00
iteration 1511 sol 673599433.00
iteration 1512 sol 674478922.00
iteration 1513 sol 672964849.00
iteration 1514 sol 675218034.00
iteration 1515 sol 675690651.00
iteration 1516 sol 673808369.00
iteration 1517 sol 672420416.00
iteration 1518 sol 673837986.00
iteration 1519 sol 676343073.00
iteration 1520 sol 674918660.00
iteration 1521 sol 674928065.00
iteration 1522 sol 672288254.00
iteration 1523 sol 675493575.00
iteration 1524 sol 674276613.00
iteration 1525 sol 673668725.00
iteration 1526 sol 673210047.00
iteration 1527 sol 673906008.00
iteration 1528 sol 672118287.00
iteration 1529 sol 673483253.00
iteration 1530 sol 675614200.00
iteration 1531 sol 676046746.00
iteration 1532 sol 675682111.00
iteration 1533 sol 673322868.00
iteration 1534 sol 673581171.00
iteration 1535 sol 673292388.00
iteration 1536 sol 670691306.00
iteration 1537 sol 672899637.00
iteration 1538 sol 676232201.00
iteration 1539 sol 675768434.00
iteration 1540 sol 673891610.00
iteration 1541 sol 676028877.00
iteration 1542 sol 673619909.00
iteration 1543 sol 673824213.00
iteration 1544 sol 673908355.00
iteration 1545 sol 675290119.00
iteration 1546 sol 672992999.00
iteration 1547 sol 673149130.00
iteration 1548 sol 675334397.00
iteration 1549 sol 675545611.00
iteration 1550 sol 675468105.00
iteration 1551 sol 671092303.00
iteration 1552 sol 674522798.00
iteration 1553 sol 673231153.00
iteration 1554 sol 672764211.00
iteration 1555 sol 674272211.00
iteration 1556 sol 672785950.00
iteration 1557 sol 673758935.00
iteration 1558 sol 672612501.00
iteration 1559 sol 673749658.00
iteration 1560 sol 671929224.00
iteration 1561 sol 675069774.00
iteration 1562 sol 675520918.00
iteration 1563 sol 673669441.00
iteration 1564 sol 675977290.00
iteration 1565 sol 673543641.00
iteration 1566 sol 672954935.00
iteration 1567 sol 674066104.00
iteration 1568 sol 674381718.00
iteration 1569 sol 672891744.00
iteration 1570 sol 676059769.00
iteration 1571 sol 675942060.00
iteration 1572 sol 673517725.00
iteration 1573 sol 675507741.00
iteration 1574 sol 673053490.00
iteration 1575 sol 672358742.00
iteration 1576 sol 673347169.00
iteration 1577 sol 674446723.00
iteration 1578 sol 675889588.00
iteration 1579 sol 673283814.00
iteration 1580 sol 676274358.00
iteration 1581 sol 674301243.00
iteration 1582 sol 672640570.00
iteration 1583 sol 675689475.00
iteration 1584 sol 674633125.00
iteration 1585 sol 674399314.00
iteration 1586 sol 671904577.00
iteration 1587 sol 673359011.00
iteration 1588 sol 674186230.00
iteration 1589 sol 675462602.00
iteration 1590 sol 672559039.00
iteration 1591 sol 675371195.00
iteration 1592 sol 672453558.00
iteration 1593 sol 674526265.00
iteration 1594 sol 674078256.00
iteration 1595 sol 671848610.00
iteration 1596 sol 676090131.00
iteration 1597 sol 672302802.00
iteration 1598 sol 675548392.00
iteration 1599 sol 675479166.00
iteration 1600 sol 675777752.00
iteration 1601 sol 673358394.00
iteration 1602 sol 674239017.00
iteration 1603 sol 675555894.00
iteration 1604 sol 674161674.00
iteration 1605 sol 674384988.00
iteration 1606 sol 674740486.00
iteration 1607 sol 674005032.00
iteration 1608 sol 672942355.00
iteration 1609 sol 672897927.00
iteration 1610 sol 673530609.00
iteration 1611 sol 671798315.00
iteration 1612 sol 673905589.00
iteration 1613 sol 674106040.00
iteration 1614 sol 675795690.00
iteration 1615 sol 676239198.00
iteration 1616 sol 673679843.00
iteration 1617 sol 673366965.00
iteration 1618 sol 675668243.00
iteration 1619 sol 674058469.00
iteration 1620 sol 671254316.00
iteration 1621 sol 676170254.00
iteration 1622 sol 673719649.00
iteration 1623 sol 674547052.00
iteration 1624 sol 671450598.00
iteration 1625 sol 673414403.00
iteration 1626 sol 675853412.00
iteration 1627 sol 675713388.00
iteration 1628 sol 673850635.00
iteration 1629 sol 675039459.00
iteration 1630 sol 673649264.00
iteration 1631 sol 674076844.00
iteration 1632 sol 673796068.00
iteration 1633 sol 672451867.00
iteration 1634 sol 673192601.00
iteration 1635 sol 673510367.00
iteration 1636 sol 673728515.00
iteration 1637 sol 675599530.00
iteration 1638 sol 675050341.00
iteration 1639 sol 674272293.00
iteration 1640 sol 674118721.00
iteration 1641 sol 675874527.00
iteration 1642 sol 673692407.00
iteration 1643 sol 676002573.00
iteration 1644 sol 674751299.00
iteration 1645 sol 674062795.00
iteration 1646 sol 673551231.00
iteration 1647 sol 673998321.00
iteration 1648 sol 675818313.00
iteration 1649 sol 673783426.00
iteration 1650 sol 672863901.00
iteration 1651 sol 675740597.00
iteration 1652 sol 676190103.00
iteration 1653 sol 672389873.00
iteration 1654 sol 675058085.00
iteration 1655 sol 675701985.00
iteration 1656 sol 675996393.00
iteration 1657 sol 673593097.00
iteration 1658 sol 673106780.00
iteration 1659 sol 674743264.00
iteration 1660 sol 673254996.00
iteration 1661 sol 675553544.00
iteration 1662 sol 674581239.00
iteration 1663 sol 672329398.00
iteration 1664 sol 675814683.00
iteration 1665 sol 673729759.00
iteration 1666 sol 675735434.00
iteration 1667 sol 672859864.00
iteration 1668 sol 674693994.00
iteration 1669 sol 676129616.00
iteration 1670 sol 676240377.00
iteration 1671 sol 675550903.00
iteration 1672 sol 672952250.00
iteration 1673 sol 674304682.00
iteration 1674 sol 673036344.00
iteration 1675 sol 673886990.00
iteration 1676 sol 672487509.00
iteration 1677 sol 673976227.00
iteration 1678 sol 674347192.00
iteration 1679 sol 673626096.00
iteration 1680 sol 674902589.00
iteration 1681 sol 676305165.00
iteration 1682 sol 672973654.00
iteration 1683 sol 675446083.00
iteration 1684 sol 674624399.00
iteration 1685 sol 675494569.00
iteration 1686 sol 672994514.00
iteration 1687 sol 675644669.00
iteration 1688 sol 673108498.00
iteration 1689 sol 674766618.00
iteration 1690 sol 673593660.00
iteration 1691 sol 675683591.00
iteration 1692 sol 675490848.00
iteration 1693 sol 675899444.00
iteration 1694 sol 675653502.00
iteration 1695 sol 672969621.00
iteration 1696 sol 673328555.00
iteration 1697 sol 675632645.00
iteration 1698 sol 675638361.00
iteration 1699 sol 674069091.00
iteration 1700 sol 674659151.00
iteration 1701 sol 675792361.00
iteration 1702 sol 675187524.00
iteration 1703 sol 675157624.00
iteration 1704 sol 673156717.00
iteration 1705 sol 674256209.00
iteration 1706 sol 675854765.00
iteration 1707 sol 672765477.00
iteration 1708 sol 673023390.00
iteration 1709 sol 675321109.00
iteration 1710 sol 675423289.00
iteration 1711 sol 675843278.00
iteration 1712 sol 675750824.00
iteration 1713 sol 673867435.00
iteration 1714 sol 674675803.00
iteration 1715 sol 674426747.00
iteration 1716 sol 673511803.00
iteration 1717 sol 673837798.00
iteration 1718 sol 675748596.00
iteration 1719 sol 673343931.00
iteration 1720 sol 675751442.00
iteration 1721 sol 675910575.00
iteration 1722 sol 675670485.00
iteration 1723 sol 674610229.00
iteration 1724 sol 674196744.00
iteration 1725 sol 673349975.00
iteration 1726 sol 675227692.00
iteration 1727 sol 675570698.00
iteration 1728 sol 672748773.00
iteration 1729 sol 673820224.00
iteration 1730 sol 674236641.00
iteration 1731 sol 675811407.00
iteration 1732 sol 673332756.00
iteration 1733 sol 676136285.00
iteration 1734 sol 673290111.00
iteration 1735 sol 675261857.00
iteration 1736 sol 673249453.00
iteration 1737 sol 674596072.00
iteration 1738 sol 675687088.00
iteration 1739 sol 673997766.00
iteration 1740 sol 673328483.00
iteration 1741 sol 675501650.00
iteration 1742 sol 674371301.00
iteration 1743 sol 675860283.00
iteration 1744 sol 672780210.00
iteration 1745 sol 673534409.00
iteration 1746 sol 673620493.00
iteration 1747 sol 675754675.00
iteration 1748 sol 673875626.00
iteration 1749 sol 675185731.00
iteration 1750 sol 673752087.00
iteration 1751 sol 675717118.00
iteration 1752 sol 675760134.00
iteration 1753 sol 674918606.00
iteration 1754 sol 673046072.00
iteration 1755 sol 672160785.00
iteration 1756 sol 674626621.00
iteration 1757 sol 675423709.00
iteration 1758 sol 673811064.00
iteration 1759 sol 673768444.00
iteration 1760 sol 673328831.00
iteration 1761 sol 675904020.00
iteration 1762 sol 672388824.00
iteration 1763 sol 673761011.00
iteration 1764 sol 676108939.00
iteration 1765 sol 675952689.00
iteration 1766 sol 674614567.00
iteration 1767 sol 675304776.00
iteration 1768 sol 673403651.00
iteration 1769 sol 673017451.00
iteration 1770 sol 675318233.00
iteration 1771 sol 676210992.00
iteration 1772 sol 673799297.00
iteration 1773 sol 673670014.00
iteration 1774 sol 675576208.00
iteration 1775 sol 673311636.00
iteration 1776 sol 673394117.00
iteration 1777 sol 674561160.00
iteration 1778 sol 673347002.00
iteration 1779 sol 673207855.00
iteration 1780 sol 675784685.00
iteration 1781 sol 675402208.00
iteration 1782 sol 675453006.00
iteration 1783 sol 672757897.00
iteration 1784 sol 673268148.00
iteration 1785 sol 675535070.00
iteration 1786 sol 671805382.00
iteration 1787 sol 673360617.00
iteration 1788 sol 673538361.00
iteration 1789 sol 674390965.00
iteration 1790 sol 672894321.00
iteration 1791 sol 674260202.00
iteration 1792 sol 675725586.00
iteration 1793 sol 676132156.00
iteration 1794 sol 675459195.00
iteration 1795 sol 675184053.00
iteration 1796 sol 675972317.00
iteration 1797 sol 675829882.00
iteration 1798 sol 675334629.00
iteration 1799 sol 673211316.00
iteration 1800 sol 672822640.00
iteration 1801 sol 672732229.00
iteration 1802 sol 672906668.00
iteration 1803 sol 674746084.00
iteration 1804 sol 673227836.00
iteration 1805 sol 675481832.00
iteration 1806 sol 673628308.00
iteration 1807 sol 673851961.00
iteration 1808 sol 675651008.00
iteration 1809 sol 672867070.00
iteration 1810 sol 674539704.00
iteration 1811 sol 674082193.00
iteration 1812 sol 674314274.00
iteration 1813 sol 673256890.00
iteration 1814 sol 673961680.00
iteration 1815 sol 675316096.00
iteration 1816 sol 674309644.00
iteration 1817 sol 676036837.00
iteration 1818 sol 674177579.00
iteration 1819 sol 676042326.00
iteration 1820 sol 673819850.00
iteration 1821 sol 675403177.00
iteration 1822 sol 674611715.00
iteration 1823 sol 675460538.00
iteration 1824 sol 676051035.00
iteration 1825 sol 674491824.00
iteration 1826 sol 672692556.00
iteration 1827 sol 675939452.00
iteration 1828 sol 673292492.00
iteration 1829 sol 673718313.00
iteration 1830 sol 673913832.00
iteration 1831 sol 672909064.00
iteration 1832 sol 675739200.00
iteration 1833 sol 674250643.00
iteration 1834 sol 675737585.00
iteration 1835 sol 674386684.00
iteration 1836 sol 673815769.00
iteration 1837 sol 673678791.00
iteration 1838 sol 674141790.00
iteration 1839 sol 672034052.00
iteration 1840 sol 675844418.00
iteration 1841 sol 674283652.00
iteration 1842 sol 676114268.00
iteration 1843 sol 672973006.00
iteration 1844 sol 674602018.00
iteration 1845 sol 675430728.00
iteration 1846 sol 673196426.00
iteration 1847 sol 675946837.00
iteration 1848 sol 673228985.00
iteration 1849 sol 673166761.00
iteration 1850 sol 673657359.00
iteration 1851 sol 673210862.00
iteration 1852 sol 674102137.00
iteration 1853 sol 676292113.00
iteration 1854 sol 674180089.00
iteration 1855 sol 673887831.00
iteration 1856 sol 674450908.00
iteration 1857 sol 675702485.00
iteration 1858 sol 674283073.00
iteration 1859 sol 672270948.00
iteration 1860 sol 673037404.00
iteration 1861 sol 675471945.00
iteration 1862 sol 675941929.00
iteration 1863 sol 676044957.00
iteration 1864 sol 673516959.00
iteration 1865 sol 674259190.00
iteration 1866 sol 673216976.00
iteration 1867 sol 675920487.00
iteration 1868 sol 674734411.00
iteration 1869 sol 673877605.00
iteration 1870 sol 675507916.00
iteration 1871 sol 673459777.00
iteration 1872 sol 675531093.00
iteration 1873 sol 672737937.00
iteration 1874 sol 672148860.00
iteration 1875 sol 674794464.00
iteration 1876 sol 673679257.00
iteration 1877 sol 675522187.00
iteration 1878 sol 675880982.00
iteration 1879 sol 674307958.00
iteration 1880 sol 673994047.00
iteration 1881 sol 675271478.00
iteration 1882 sol 675459139.00
iteration 1883 sol 674518361.00
iteration 1884 sol 672712363.00
iteration 1885 sol 673416245.00
iteration 1886 sol 672784481.00
iteration 1887 sol 673017657.00
iteration 1888 sol 676097317.00
iteration 1889 sol 672902829.00
iteration 1890 sol 673755048.00
iteration 1891 sol 672972933.00
iteration 1892 sol 673540838.00
iteration 1893 sol 675671612.00
iteration 1894 sol 672868370.00
iteration 1895 sol 672753606.00
iteration 1896 sol 675452428.00
iteration 1897 sol 673867494.00
iteration 1898 sol 672921040.00
iteration 1899 sol 673031269.00
iteration 1900 sol 672928646.00
iteration 1901 sol 674050978.00
iteration 1902 sol 673450145.00
iteration 1903 sol 675862844.00
iteration 1904 sol 674233887.00
iteration 1905 sol 672348911.00
iteration 1906 sol 672985864.00
iteration 1907 sol 672462292.00
iteration 1908 sol 672745212.00
iteration 1909 sol 676081610.00
iteration 1910 sol 674243096.00
iteration 1911 sol 676099940.00
iteration 1912 sol 674536336.00
iteration 1913 sol 676225109.00
iteration 1914 sol 674018777.00
iteration 1915 sol 675436984.00
iteration 1916 sol 673253178.00
iteration 1917 sol 675249966.00
iteration 1918 sol 674361762.00
iteration 1919 sol 672334217.00
iteration 1920 sol 675503854.00
iteration 1921 sol 672534583.00
iteration 1922 sol 673994630.00
iteration 1923 sol 674153549.00
iteration 1924 sol 675320180.00
iteration 1925 sol 673293805.00
iteration 1926 sol 675359645.00
iteration 1927 sol 674470826.00
iteration 1928 sol 675440391.00
iteration 1929 sol 673678224.00
iteration 1930 sol 673205559.00
iteration 1931 sol 675288332.00
iteration 1932 sol 673835293.00
iteration 1933 sol 675686728.00
iteration 1934 sol 674307755.00
iteration 1935 sol 673864540.00
iteration 1936 sol 672825535.00
iteration 1937 sol 675708838.00
iteration 1938 sol 675138952.00
iteration 1939 sol 673479037.00
iteration 1940 sol 676178122.00
iteration 1941 sol 675887303.00
iteration 1942 sol 673483717.00
iteration 1943 sol 675996912.00
iteration 1944 sol 675426517.00
iteration 1945 sol 674551480.00
iteration 1946 sol 675696632.00
iteration 1947 sol 672394657.00
iteration 1948 sol 672907375.00
iteration 1949 sol 674370206.00
iteration 1950 sol 675112343.00
iteration 1951 sol 673184211.00
iteration 1952 sol 674256006.00
iteration 1953 sol 673347262.00
iteration 1954 sol 675873182.00
iteration 1955 sol 675589184.00
iteration 1956 sol 674251045.00
iteration 1957 sol 672091570.00
iteration 1958 sol 671877480.00
iteration 1959 sol 675309785.00
iteration 1960 sol 673290277.00
iteration 1961 sol 673162383.00
iteration 1962 sol 673227941.00
iteration 1963 sol 672924401.00
iteration 1964 sol 673528289.00
iteration 1965 sol 672342232.00
iteration 1966 sol 673307843.00
iteration 1967 sol 674002690.00
iteration 1968 sol 673558445.00
iteration 1969 sol 675788300.00
iteration 1970 sol 675674550.00
iteration 1971 sol 672861147.00
iteration 1972 sol 675896808.00
iteration 1973 sol 673721402.00
iteration 1974 sol 673006651.00
iteration 1975 sol 675567411.00
iteration 1976 sol 675534101.00
iteration 1977 sol 674950483.00
iteration 1978 sol 672160531.00
iteration 1979 sol 675981517.00
iteration 1980 sol 674536940.00
iteration 1981 sol 673380614.00
iteration 1982 sol 673265544.00
iteration 1983 sol 675554663.00
iteration 1984 sol 673218065.00
iteration 1985 sol 673241957.00
iteration 1986 sol 673508017.00
iteration 1987 sol 673627784.00
iteration 1988 sol 675303740.00
iteration 1989 sol 675917523.00
iteration 1990 sol 676062778.00
iteration 1991 sol 673604840.00
iteration 1992 sol 675875142.00
iteration 1993 sol 673805426.00
iteration 1994 sol 673679915.00
iteration 1995 sol 675590292.00
iteration 1996 sol 673099178.00
iteration 1997 sol 672306426.00
iteration 1998 sol 675648461.00
iteration 1999 sol 676153865.00
Number of iterations = 2000
Best Solution was found in iteration = 1335
Time used by neighbor | Times each neighbor was used | Improvements
N_1 = 17.50 | 17316 | 11903
N_2 = 247.17 | 17316 | 10492
N_3 = 1.50 | 17316 | 5247
N_4 = 108.89 | 17316 | 5574
Time to find the best solution = 258.47
Solution = 676521066.00
Time = 389.03
