iteration 0 sol 14914.00
iteration 1 sol 14858.00
iteration 2 sol 14914.00
iteration 3 sol 14791.00
iteration 4 sol 14947.00
iteration 5 sol 14947.00
iteration 6 sol 14899.00
iteration 7 sol 14947.00
iteration 8 sol 14947.00
iteration 9 sol 14898.00
iteration 10 sol 14899.00
iteration 11 sol 14947.00
iteration 12 sol 14947.00
iteration 13 sol 14888.00
iteration 14 sol 14899.00
iteration 15 sol 14947.00
iteration 16 sol 14947.00
iteration 17 sol 14870.00
iteration 18 sol 14947.00
iteration 19 sol 14914.00
iteration 20 sol 14914.00
iteration 21 sol 14947.00
iteration 22 sol 14914.00
iteration 23 sol 14807.00
iteration 24 sol 14888.00
iteration 25 sol 14914.00
iteration 26 sol 14888.00
iteration 27 sol 14893.00
iteration 28 sol 14907.00
iteration 29 sol 14914.00
iteration 30 sol 14947.00
iteration 31 sol 14947.00
iteration 32 sol 14859.00
iteration 33 sol 14967.00
iteration 34 sol 14891.00
iteration 35 sol 14893.00
iteration 36 sol 14914.00
iteration 37 sol 14856.00
iteration 38 sol 14947.00
iteration 39 sol 14926.00
iteration 40 sol 14947.00
iteration 41 sol 14914.00
iteration 42 sol 14821.00
iteration 43 sol 14947.00
iteration 44 sol 14893.00
iteration 45 sol 14947.00
iteration 46 sol 14914.00
iteration 47 sol 14914.00
iteration 48 sol 14947.00
iteration 49 sol 14947.00
iteration 50 sol 14947.00
iteration 51 sol 14947.00
iteration 52 sol 14879.00
iteration 53 sol 14947.00
iteration 54 sol 14947.00
iteration 55 sol 14947.00
iteration 56 sol 14947.00
iteration 57 sol 14947.00
iteration 58 sol 14914.00
iteration 59 sol 14947.00
iteration 60 sol 14886.00
iteration 61 sol 14898.00
iteration 62 sol 14858.00
iteration 63 sol 14888.00
iteration 64 sol 14898.00
iteration 65 sol 14801.00
iteration 66 sol 14947.00
iteration 67 sol 14947.00
iteration 68 sol 14858.00
iteration 69 sol 14947.00
iteration 70 sol 14947.00
iteration 71 sol 14858.00
iteration 72 sol 14947.00
iteration 73 sol 14947.00
iteration 74 sol 15005.00
iteration 75 sol 14898.00
iteration 76 sol 14947.00
iteration 77 sol 14901.00
iteration 78 sol 14947.00
iteration 79 sol 14901.00
iteration 80 sol 14914.00
iteration 81 sol 14946.00
iteration 82 sol 14947.00
iteration 83 sol 14914.00
iteration 84 sol 14914.00
iteration 85 sol 14947.00
iteration 86 sol 14947.00
iteration 87 sol 14947.00
iteration 88 sol 14947.00
iteration 89 sol 14967.00
iteration 90 sol 14947.00
iteration 91 sol 14898.00
iteration 92 sol 14858.00
iteration 93 sol 14893.00
iteration 94 sol 14947.00
iteration 95 sol 14947.00
iteration 96 sol 14891.00
iteration 97 sol 14620.00
iteration 98 sol 14968.00
iteration 99 sol 14947.00
iteration 100 sol 14914.00
iteration 101 sol 14947.00
iteration 102 sol 14801.00
iteration 103 sol 14947.00
iteration 104 sol 14947.00
iteration 105 sol 14947.00
iteration 106 sol 14947.00
iteration 107 sol 14947.00
iteration 108 sol 14947.00
iteration 109 sol 14893.00
iteration 110 sol 14914.00
iteration 111 sol 14901.00
iteration 112 sol 14864.00
iteration 113 sol 14947.00
iteration 114 sol 14891.00
iteration 115 sol 14891.00
iteration 116 sol 14914.00
iteration 117 sol 14898.00
iteration 118 sol 14914.00
iteration 119 sol 14914.00
iteration 120 sol 14947.00
iteration 121 sol 14947.00
iteration 122 sol 14947.00
iteration 123 sol 14947.00
iteration 124 sol 14947.00
iteration 125 sol 14883.00
iteration 126 sol 14947.00
iteration 127 sol 14922.00
iteration 128 sol 14947.00
iteration 129 sol 14898.00
iteration 130 sol 14914.00
iteration 131 sol 14947.00
iteration 132 sol 14947.00
iteration 133 sol 14914.00
iteration 134 sol 14898.00
iteration 135 sol 14914.00
iteration 136 sol 14947.00
iteration 137 sol 14733.00
iteration 138 sol 14947.00
iteration 139 sol 14893.00
iteration 140 sol 14947.00
iteration 141 sol 14914.00
iteration 142 sol 14947.00
iteration 143 sol 14947.00
iteration 144 sol 14947.00
iteration 145 sol 14858.00
iteration 146 sol 14947.00
iteration 147 sol 14805.00
iteration 148 sol 14947.00
iteration 149 sol 14951.00
iteration 150 sol 14898.00
iteration 151 sol 14947.00
iteration 152 sol 14947.00
iteration 153 sol 14947.00
iteration 154 sol 14899.00
iteration 155 sol 14947.00
iteration 156 sol 14914.00
iteration 157 sol 14947.00
iteration 158 sol 14947.00
iteration 159 sol 14947.00
iteration 160 sol 14914.00
iteration 161 sol 14947.00
iteration 162 sol 14914.00
iteration 163 sol 14820.00
iteration 164 sol 14898.00
iteration 165 sol 14898.00
iteration 166 sol 14914.00
iteration 167 sol 14914.00
iteration 168 sol 14914.00
iteration 169 sol 14947.00
iteration 170 sol 14899.00
iteration 171 sol 14711.00
iteration 172 sol 14893.00
iteration 173 sol 14947.00
iteration 174 sol 14963.00
iteration 175 sol 14947.00
iteration 176 sol 14893.00
iteration 177 sol 14898.00
iteration 178 sol 14947.00
iteration 179 sol 14914.00
iteration 180 sol 14914.00
iteration 181 sol 14947.00
iteration 182 sol 14947.00
iteration 183 sol 14947.00
iteration 184 sol 14733.00
iteration 185 sol 14891.00
iteration 186 sol 14898.00
iteration 187 sol 15032.00
iteration 188 sol 14947.00
iteration 189 sol 14947.00
iteration 190 sol 14947.00
iteration 191 sol 14914.00
iteration 192 sol 14914.00
iteration 193 sol 14947.00
iteration 194 sol 14947.00
iteration 195 sol 14914.00
iteration 196 sol 14850.00
iteration 197 sol 14947.00
iteration 198 sol 14893.00
iteration 199 sol 14947.00
iteration 200 sol 14914.00
iteration 201 sol 14947.00
iteration 202 sol 14947.00
iteration 203 sol 14947.00
iteration 204 sol 14947.00
iteration 205 sol 14947.00
iteration 206 sol 14898.00
iteration 207 sol 14898.00
iteration 208 sol 14901.00
iteration 209 sol 14947.00
iteration 210 sol 14893.00
iteration 211 sol 14898.00
iteration 212 sol 14914.00
iteration 213 sol 14947.00
iteration 214 sol 14914.00
iteration 215 sol 14899.00
iteration 216 sol 14898.00
iteration 217 sol 14947.00
iteration 218 sol 14947.00
iteration 219 sol 14947.00
iteration 220 sol 14947.00
iteration 221 sol 14914.00
iteration 222 sol 14947.00
iteration 223 sol 14914.00
iteration 224 sol 14898.00
iteration 225 sol 14947.00
iteration 226 sol 14947.00
iteration 227 sol 14907.00
iteration 228 sol 14928.00
iteration 229 sol 14880.00
iteration 230 sol 14891.00
iteration 231 sol 14899.00
iteration 232 sol 14947.00
iteration 233 sol 14947.00
iteration 234 sol 14853.00
iteration 235 sol 14947.00
iteration 236 sol 14947.00
iteration 237 sol 14898.00
iteration 238 sol 14926.00
iteration 239 sol 14796.00
iteration 240 sol 14853.00
iteration 241 sol 14914.00
iteration 242 sol 14914.00
iteration 243 sol 14891.00
iteration 244 sol 14914.00
iteration 245 sol 14893.00
iteration 246 sol 14816.00
iteration 247 sol 14947.00
iteration 248 sol 14873.00
iteration 249 sol 14914.00
iteration 250 sol 14899.00
iteration 251 sol 14914.00
iteration 252 sol 14914.00
iteration 253 sol 14898.00
iteration 254 sol 14864.00
iteration 255 sol 14914.00
iteration 256 sol 14947.00
iteration 257 sol 14899.00
iteration 258 sol 14859.00
iteration 259 sol 14947.00
iteration 260 sol 14858.00
iteration 261 sol 14888.00
iteration 262 sol 14737.00
iteration 263 sol 14893.00
iteration 264 sol 14947.00
iteration 265 sol 14833.00
iteration 266 sol 14914.00
iteration 267 sol 14947.00
iteration 268 sol 14947.00
iteration 269 sol 14947.00
iteration 270 sol 14947.00
iteration 271 sol 14947.00
iteration 272 sol 14886.00
iteration 273 sol 14698.00
iteration 274 sol 14947.00
iteration 275 sol 14893.00
iteration 276 sol 14947.00
iteration 277 sol 14893.00
iteration 278 sol 14947.00
iteration 279 sol 14914.00
iteration 280 sol 14947.00
iteration 281 sol 14898.00
iteration 282 sol 14898.00
iteration 283 sol 14893.00
iteration 284 sol 14947.00
iteration 285 sol 14898.00
iteration 286 sol 14899.00
iteration 287 sol 14893.00
iteration 288 sol 14947.00
iteration 289 sol 14947.00
iteration 290 sol 14947.00
iteration 291 sol 14914.00
iteration 292 sol 14879.00
iteration 293 sol 14891.00
iteration 294 sol 14849.00
iteration 295 sol 14947.00
iteration 296 sol 14936.00
iteration 297 sol 14914.00
iteration 298 sol 14914.00
iteration 299 sol 14947.00
iteration 300 sol 14947.00
iteration 301 sol 14947.00
iteration 302 sol 14893.00
iteration 303 sol 14914.00
iteration 304 sol 14947.00
iteration 305 sol 14947.00
iteration 306 sol 14947.00
iteration 307 sol 14914.00
iteration 308 sol 14914.00
iteration 309 sol 14914.00
iteration 310 sol 14947.00
iteration 311 sol 14914.00
iteration 312 sol 14886.00
iteration 313 sol 14947.00
iteration 314 sol 14947.00
iteration 315 sol 14914.00
iteration 316 sol 14866.00
iteration 317 sol 14947.00
iteration 318 sol 14914.00
iteration 319 sol 14983.00
iteration 320 sol 14947.00
iteration 321 sol 14914.00
iteration 322 sol 14850.00
iteration 323 sol 14914.00
iteration 324 sol 14858.00
iteration 325 sol 14947.00
iteration 326 sol 14914.00
iteration 327 sol 14947.00
iteration 328 sol 14947.00
iteration 329 sol 14901.00
iteration 330 sol 14947.00
iteration 331 sol 14947.00
iteration 332 sol 14898.00
iteration 333 sol 14914.00
iteration 334 sol 14947.00
iteration 335 sol 14947.00
iteration 336 sol 14947.00
iteration 337 sol 14947.00
iteration 338 sol 14914.00
iteration 339 sol 14947.00
iteration 340 sol 14947.00
iteration 341 sol 14914.00
iteration 342 sol 14947.00
iteration 343 sol 14858.00
iteration 344 sol 14947.00
iteration 345 sol 14947.00
iteration 346 sol 14945.00
iteration 347 sol 14914.00
iteration 348 sol 14947.00
iteration 349 sol 14907.00
iteration 350 sol 14947.00
iteration 351 sol 14898.00
iteration 352 sol 14947.00
iteration 353 sol 14914.00
iteration 354 sol 14947.00
iteration 355 sol 15005.00
iteration 356 sol 14947.00
iteration 357 sol 14901.00
iteration 358 sol 14947.00
iteration 359 sol 14914.00
iteration 360 sol 14858.00
iteration 361 sol 14947.00
iteration 362 sol 14947.00
iteration 363 sol 14893.00
iteration 364 sol 14891.00
iteration 365 sol 14947.00
iteration 366 sol 14841.00
iteration 367 sol 14947.00
iteration 368 sol 14893.00
iteration 369 sol 14871.00
iteration 370 sol 14914.00
iteration 371 sol 14914.00
iteration 372 sol 14886.00
iteration 373 sol 14914.00
iteration 374 sol 14914.00
iteration 375 sol 14914.00
iteration 376 sol 14947.00
iteration 377 sol 14914.00
iteration 378 sol 14899.00
iteration 379 sol 14877.00
iteration 380 sol 14901.00
iteration 381 sol 14914.00
iteration 382 sol 14858.00
iteration 383 sol 14851.00
iteration 384 sol 14679.00
iteration 385 sol 14893.00
iteration 386 sol 14871.00
iteration 387 sol 14914.00
iteration 388 sol 14914.00
iteration 389 sol 14891.00
iteration 390 sol 14914.00
iteration 391 sol 14914.00
iteration 392 sol 14914.00
iteration 393 sol 14947.00
iteration 394 sol 14980.00
iteration 395 sol 14793.00
iteration 396 sol 14764.00
iteration 397 sol 14914.00
iteration 398 sol 14914.00
iteration 399 sol 14893.00
iteration 400 sol 14901.00
iteration 401 sol 14947.00
iteration 402 sol 14899.00
iteration 403 sol 14899.00
iteration 404 sol 14909.00
iteration 405 sol 14891.00
iteration 406 sol 14898.00
iteration 407 sol 14891.00
iteration 408 sol 14947.00
iteration 409 sol 14947.00
iteration 410 sol 14886.00
iteration 411 sol 14947.00
iteration 412 sol 14947.00
iteration 413 sol 14891.00
iteration 414 sol 14914.00
iteration 415 sol 14947.00
iteration 416 sol 14888.00
iteration 417 sol 14914.00
iteration 418 sol 14898.00
iteration 419 sol 14947.00
iteration 420 sol 14947.00
iteration 421 sol 14914.00
iteration 422 sol 14914.00
iteration 423 sol 14779.00
iteration 424 sol 14914.00
iteration 425 sol 14893.00
iteration 426 sol 14930.00
iteration 427 sol 14947.00
iteration 428 sol 14914.00
iteration 429 sol 14914.00
iteration 430 sol 14898.00
iteration 431 sol 14914.00
iteration 432 sol 14947.00
iteration 433 sol 14947.00
iteration 434 sol 14858.00
iteration 435 sol 14983.00
iteration 436 sol 14858.00
iteration 437 sol 14898.00
iteration 438 sol 14891.00
iteration 439 sol 14947.00
iteration 440 sol 14947.00
iteration 441 sol 14886.00
iteration 442 sol 14947.00
iteration 443 sol 14893.00
iteration 444 sol 14947.00
iteration 445 sol 14947.00
iteration 446 sol 14947.00
iteration 447 sol 14899.00
iteration 448 sol 14947.00
iteration 449 sol 14947.00
iteration 450 sol 14801.00
iteration 451 sol 15005.00
iteration 452 sol 14947.00
iteration 453 sol 14893.00
iteration 454 sol 14914.00
iteration 455 sol 14947.00
iteration 456 sol 14858.00
iteration 457 sol 14947.00
iteration 458 sol 14914.00
iteration 459 sol 14881.00
iteration 460 sol 14773.00
iteration 461 sol 14891.00
iteration 462 sol 14947.00
iteration 463 sol 14947.00
iteration 464 sol 14891.00
iteration 465 sol 14914.00
iteration 466 sol 14947.00
iteration 467 sol 14914.00
iteration 468 sol 14947.00
iteration 469 sol 14914.00
iteration 470 sol 14968.00
iteration 471 sol 14893.00
iteration 472 sol 14947.00
iteration 473 sol 14914.00
iteration 474 sol 14947.00
iteration 475 sol 14834.00
iteration 476 sol 14858.00
iteration 477 sol 14898.00
iteration 478 sol 14947.00
iteration 479 sol 14896.00
iteration 480 sol 14898.00
iteration 481 sol 14914.00
iteration 482 sol 14947.00
iteration 483 sol 14914.00
iteration 484 sol 14807.00
iteration 485 sol 14947.00
iteration 486 sol 14893.00
iteration 487 sol 14914.00
iteration 488 sol 14914.00
iteration 489 sol 14947.00
iteration 490 sol 14914.00
iteration 491 sol 14947.00
iteration 492 sol 14947.00
iteration 493 sol 14914.00
iteration 494 sol 14947.00
iteration 495 sol 14914.00
iteration 496 sol 14898.00
iteration 497 sol 14898.00
iteration 498 sol 14798.00
iteration 499 sol 14905.00
iteration 500 sol 14914.00
iteration 501 sol 14886.00
iteration 502 sol 14914.00
iteration 503 sol 14893.00
iteration 504 sol 14914.00
iteration 505 sol 14796.00
iteration 506 sol 14947.00
iteration 507 sol 15005.00
iteration 508 sol 14898.00
iteration 509 sol 14947.00
iteration 510 sol 14901.00
iteration 511 sol 14899.00
iteration 512 sol 14947.00
iteration 513 sol 14898.00
iteration 514 sol 14947.00
iteration 515 sol 14914.00
iteration 516 sol 14883.00
iteration 517 sol 15005.00
iteration 518 sol 14833.00
iteration 519 sol 14914.00
iteration 520 sol 14947.00
iteration 521 sol 14898.00
iteration 522 sol 14947.00
iteration 523 sol 14888.00
iteration 524 sol 14947.00
iteration 525 sol 14947.00
iteration 526 sol 14873.00
iteration 527 sol 14880.00
iteration 528 sol 15005.00
iteration 529 sol 14947.00
iteration 530 sol 14899.00
iteration 531 sol 14947.00
iteration 532 sol 14899.00
iteration 533 sol 14947.00
iteration 534 sol 14947.00
iteration 535 sol 14947.00
iteration 536 sol 14891.00
iteration 537 sol 14914.00
iteration 538 sol 14893.00
iteration 539 sol 14914.00
iteration 540 sol 14914.00
iteration 541 sol 14947.00
iteration 542 sol 14947.00
iteration 543 sol 14858.00
iteration 544 sol 14914.00
iteration 545 sol 14914.00
iteration 546 sol 14947.00
iteration 547 sol 14947.00
iteration 548 sol 14893.00
iteration 549 sol 14893.00
iteration 550 sol 15032.00
iteration 551 sol 14947.00
iteration 552 sol 14841.00
iteration 553 sol 14947.00
iteration 554 sol 14947.00
iteration 555 sol 14947.00
iteration 556 sol 14858.00
iteration 557 sol 14914.00
iteration 558 sol 14947.00
iteration 559 sol 14968.00
iteration 560 sol 14899.00
iteration 561 sol 14947.00
iteration 562 sol 14914.00
iteration 563 sol 14914.00
iteration 564 sol 14980.00
iteration 565 sol 14914.00
iteration 566 sol 14947.00
iteration 567 sol 14914.00
iteration 568 sol 14947.00
iteration 569 sol 14947.00
iteration 570 sol 14947.00
iteration 571 sol 14913.00
iteration 572 sol 14858.00
iteration 573 sol 14858.00
iteration 574 sol 14947.00
iteration 575 sol 14914.00
iteration 576 sol 14914.00
iteration 577 sol 14914.00
iteration 578 sol 14914.00
iteration 579 sol 14947.00
iteration 580 sol 14947.00
iteration 581 sol 14914.00
iteration 582 sol 14947.00
iteration 583 sol 14914.00
iteration 584 sol 14870.00
iteration 585 sol 14914.00
iteration 586 sol 14914.00
iteration 587 sol 14853.00
iteration 588 sol 14914.00
iteration 589 sol 14914.00
iteration 590 sol 14959.00
iteration 591 sol 14947.00
iteration 592 sol 14914.00
iteration 593 sol 14914.00
iteration 594 sol 14883.00
iteration 595 sol 14886.00
iteration 596 sol 14947.00
iteration 597 sol 14947.00
iteration 598 sol 14914.00
iteration 599 sol 14947.00
iteration 600 sol 14947.00
iteration 601 sol 14914.00
iteration 602 sol 14870.00
iteration 603 sol 14983.00
iteration 604 sol 14851.00
iteration 605 sol 14893.00
iteration 606 sol 14947.00
iteration 607 sol 14898.00
iteration 608 sol 14947.00
iteration 609 sol 14907.00
iteration 610 sol 14947.00
iteration 611 sol 14947.00
iteration 612 sol 14898.00
iteration 613 sol 14947.00
iteration 614 sol 14947.00
iteration 615 sol 14947.00
iteration 616 sol 15005.00
iteration 617 sol 14898.00
iteration 618 sol 14914.00
iteration 619 sol 14947.00
iteration 620 sol 14914.00
iteration 621 sol 14914.00
iteration 622 sol 14891.00
iteration 623 sol 14947.00
iteration 624 sol 14980.00
iteration 625 sol 14914.00
iteration 626 sol 14898.00
iteration 627 sol 14947.00
iteration 628 sol 14893.00
iteration 629 sol 14959.00
iteration 630 sol 14914.00
iteration 631 sol 14858.00
iteration 632 sol 14947.00
iteration 633 sol 14858.00
iteration 634 sol 14947.00
iteration 635 sol 14880.00
iteration 636 sol 14914.00
iteration 637 sol 14947.00
iteration 638 sol 14914.00
iteration 639 sol 14871.00
iteration 640 sol 14914.00
iteration 641 sol 14883.00
iteration 642 sol 14947.00
iteration 643 sol 14959.00
iteration 644 sol 14947.00
iteration 645 sol 14947.00
iteration 646 sol 14947.00
iteration 647 sol 14898.00
iteration 648 sol 14914.00
iteration 649 sol 14853.00
iteration 650 sol 14879.00
iteration 651 sol 14914.00
iteration 652 sol 14801.00
iteration 653 sol 14914.00
iteration 654 sol 14914.00
iteration 655 sol 14914.00
iteration 656 sol 14947.00
iteration 657 sol 14870.00
iteration 658 sol 14947.00
iteration 659 sol 14914.00
iteration 660 sol 14914.00
iteration 661 sol 14947.00
iteration 662 sol 14858.00
iteration 663 sol 14947.00
iteration 664 sol 14886.00
iteration 665 sol 14947.00
iteration 666 sol 14947.00
iteration 667 sol 14914.00
iteration 668 sol 14947.00
iteration 669 sol 14914.00
iteration 670 sol 14898.00
iteration 671 sol 14947.00
iteration 672 sol 14796.00
iteration 673 sol 14947.00
iteration 674 sol 14893.00
iteration 675 sol 14858.00
iteration 676 sol 14914.00
iteration 677 sol 14914.00
iteration 678 sol 14914.00
iteration 679 sol 14947.00
iteration 680 sol 14947.00
iteration 681 sol 14914.00
iteration 682 sol 14984.00
iteration 683 sol 14947.00
iteration 684 sol 14914.00
iteration 685 sol 14901.00
iteration 686 sol 14947.00
iteration 687 sol 14914.00
iteration 688 sol 14914.00
iteration 689 sol 14898.00
iteration 690 sol 14947.00
iteration 691 sol 14947.00
iteration 692 sol 14923.00
iteration 693 sol 14893.00
iteration 694 sol 14778.00
iteration 695 sol 14893.00
iteration 696 sol 14947.00
iteration 697 sol 14801.00
iteration 698 sol 14648.00
iteration 699 sol 14947.00
iteration 700 sol 14914.00
iteration 701 sol 14947.00
iteration 702 sol 14858.00
iteration 703 sol 14947.00
iteration 704 sol 14858.00
iteration 705 sol 14983.00
iteration 706 sol 14914.00
iteration 707 sol 14914.00
iteration 708 sol 14858.00
iteration 709 sol 14947.00
iteration 710 sol 14898.00
iteration 711 sol 14947.00
iteration 712 sol 14947.00
iteration 713 sol 14947.00
iteration 714 sol 14901.00
iteration 715 sol 14914.00
iteration 716 sol 14947.00
iteration 717 sol 14947.00
iteration 718 sol 14947.00
iteration 719 sol 14947.00
iteration 720 sol 14947.00
iteration 721 sol 14947.00
iteration 722 sol 14947.00
iteration 723 sol 14914.00
iteration 724 sol 14716.00
iteration 725 sol 14947.00
iteration 726 sol 14922.00
iteration 727 sol 14947.00
iteration 728 sol 14947.00
iteration 729 sol 14959.00
iteration 730 sol 14914.00
iteration 731 sol 14914.00
iteration 732 sol 14947.00
iteration 733 sol 14947.00
iteration 734 sol 14893.00
iteration 735 sol 14914.00
iteration 736 sol 14947.00
iteration 737 sol 14858.00
iteration 738 sol 14741.00
iteration 739 sol 14947.00
iteration 740 sol 14947.00
iteration 741 sol 14689.00
iteration 742 sol 14947.00
iteration 743 sol 14947.00
iteration 744 sol 14914.00
iteration 745 sol 14914.00
iteration 746 sol 14947.00
iteration 747 sol 14947.00
iteration 748 sol 14947.00
iteration 749 sol 14893.00
iteration 750 sol 14858.00
iteration 751 sol 14891.00
iteration 752 sol 14947.00
iteration 753 sol 14914.00
iteration 754 sol 14880.00
iteration 755 sol 14947.00
iteration 756 sol 14947.00
iteration 757 sol 14947.00
iteration 758 sol 14891.00
iteration 759 sol 14947.00
iteration 760 sol 14947.00
iteration 761 sol 14947.00
iteration 762 sol 14891.00
iteration 763 sol 14914.00
iteration 764 sol 14899.00
iteration 765 sol 14898.00
iteration 766 sol 14914.00
iteration 767 sol 14891.00
iteration 768 sol 14914.00
iteration 769 sol 14914.00
iteration 770 sol 14914.00
iteration 771 sol 14858.00
iteration 772 sol 14947.00
iteration 773 sol 14898.00
iteration 774 sol 14914.00
iteration 775 sol 14881.00
iteration 776 sol 14947.00
iteration 777 sol 14914.00
iteration 778 sol 14694.00
iteration 779 sol 14914.00
iteration 780 sol 14899.00
iteration 781 sol 14947.00
iteration 782 sol 14879.00
iteration 783 sol 14947.00
iteration 784 sol 14893.00
iteration 785 sol 15005.00
iteration 786 sol 14971.00
iteration 787 sol 15005.00
iteration 788 sol 14858.00
iteration 789 sol 14914.00
iteration 790 sol 14858.00
iteration 791 sol 14959.00
iteration 792 sol 14947.00
iteration 793 sol 14914.00
iteration 794 sol 14947.00
iteration 795 sol 14886.00
iteration 796 sol 14783.00
iteration 797 sol 14947.00
iteration 798 sol 14898.00
iteration 799 sol 14914.00
iteration 800 sol 14947.00
iteration 801 sol 14898.00
iteration 802 sol 14947.00
iteration 803 sol 14893.00
iteration 804 sol 14914.00
iteration 805 sol 14690.00
iteration 806 sol 14914.00
iteration 807 sol 14947.00
iteration 808 sol 14898.00
iteration 809 sol 14858.00
iteration 810 sol 14883.00
iteration 811 sol 14898.00
iteration 812 sol 14947.00
iteration 813 sol 14914.00
iteration 814 sol 14947.00
iteration 815 sol 14920.00
iteration 816 sol 14914.00
iteration 817 sol 14947.00
iteration 818 sol 14858.00
iteration 819 sol 14880.00
iteration 820 sol 14947.00
iteration 821 sol 14914.00
iteration 822 sol 14936.00
iteration 823 sol 14858.00
iteration 824 sol 14947.00
iteration 825 sol 14947.00
iteration 826 sol 14898.00
iteration 827 sol 14891.00
iteration 828 sol 14859.00
iteration 829 sol 14716.00
iteration 830 sol 14947.00
iteration 831 sol 14914.00
iteration 832 sol 14914.00
iteration 833 sol 14947.00
iteration 834 sol 14740.00
iteration 835 sol 14838.00
iteration 836 sol 14947.00
iteration 837 sol 14858.00
iteration 838 sol 14796.00
iteration 839 sol 14803.00
iteration 840 sol 14914.00
iteration 841 sol 14893.00
iteration 842 sol 14947.00
iteration 843 sol 14947.00
iteration 844 sol 14947.00
iteration 845 sol 14947.00
iteration 846 sol 14870.00
iteration 847 sol 14648.00
iteration 848 sol 14947.00
iteration 849 sol 14871.00
iteration 850 sol 14914.00
iteration 851 sol 14947.00
iteration 852 sol 14926.00
iteration 853 sol 14893.00
iteration 854 sol 14891.00
iteration 855 sol 14914.00
iteration 856 sol 14947.00
iteration 857 sol 14914.00
iteration 858 sol 14898.00
iteration 859 sol 14914.00
iteration 860 sol 14891.00
iteration 861 sol 14947.00
iteration 862 sol 14926.00
iteration 863 sol 14893.00
iteration 864 sol 14914.00
iteration 865 sol 14947.00
iteration 866 sol 14947.00
iteration 867 sol 14947.00
iteration 868 sol 14893.00
iteration 869 sol 14914.00
iteration 870 sol 14947.00
iteration 871 sol 14899.00
iteration 872 sol 14914.00
iteration 873 sol 14858.00
iteration 874 sol 14947.00
iteration 875 sol 14914.00
iteration 876 sol 14947.00
iteration 877 sol 14959.00
iteration 878 sol 14893.00
iteration 879 sol 14909.00
iteration 880 sol 14947.00
iteration 881 sol 14914.00
iteration 882 sol 14871.00
iteration 883 sol 14947.00
iteration 884 sol 14888.00
iteration 885 sol 14947.00
iteration 886 sol 14947.00
iteration 887 sol 14947.00
iteration 888 sol 14947.00
iteration 889 sol 14893.00
iteration 890 sol 14983.00
iteration 891 sol 14947.00
iteration 892 sol 14947.00
iteration 893 sol 14899.00
iteration 894 sol 14914.00
iteration 895 sol 14914.00
iteration 896 sol 14898.00
iteration 897 sol 14947.00
iteration 898 sol 14891.00
iteration 899 sol 14914.00
iteration 900 sol 14914.00
iteration 901 sol 14947.00
iteration 902 sol 14947.00
iteration 903 sol 14947.00
iteration 904 sol 14870.00
iteration 905 sol 14914.00
iteration 906 sol 14914.00
iteration 907 sol 14891.00
iteration 908 sol 14983.00
iteration 909 sol 14893.00
iteration 910 sol 14947.00
iteration 911 sol 14947.00
iteration 912 sol 14801.00
iteration 913 sol 14914.00
iteration 914 sol 14809.00
iteration 915 sol 14914.00
iteration 916 sol 14947.00
iteration 917 sol 14914.00
iteration 918 sol 14947.00
iteration 919 sol 14914.00
iteration 920 sol 14898.00
iteration 921 sol 14914.00
iteration 922 sol 14947.00
iteration 923 sol 14914.00
iteration 924 sol 14947.00
iteration 925 sol 14907.00
iteration 926 sol 14947.00
iteration 927 sol 14914.00
iteration 928 sol 14947.00
iteration 929 sol 14858.00
iteration 930 sol 14704.00
iteration 931 sol 14858.00
iteration 932 sol 14947.00
iteration 933 sol 14914.00
iteration 934 sol 14858.00
iteration 935 sol 14891.00
iteration 936 sol 14893.00
iteration 937 sol 14898.00
iteration 938 sol 14947.00
iteration 939 sol 14947.00
iteration 940 sol 14947.00
iteration 941 sol 14914.00
iteration 942 sol 14947.00
iteration 943 sol 14947.00
iteration 944 sol 14879.00
iteration 945 sol 14708.00
iteration 946 sol 14947.00
iteration 947 sol 14947.00
iteration 948 sol 14886.00
iteration 949 sol 14920.00
iteration 950 sol 14899.00
iteration 951 sol 14914.00
iteration 952 sol 14947.00
iteration 953 sol 14947.00
iteration 954 sol 14914.00
iteration 955 sol 14747.00
iteration 956 sol 14914.00
iteration 957 sol 14858.00
iteration 958 sol 14947.00
iteration 959 sol 14947.00
iteration 960 sol 14893.00
iteration 961 sol 14947.00
iteration 962 sol 14914.00
iteration 963 sol 14947.00
iteration 964 sol 14967.00
iteration 965 sol 14947.00
iteration 966 sol 14947.00
iteration 967 sol 14914.00
iteration 968 sol 14947.00
iteration 969 sol 14947.00
iteration 970 sol 14891.00
iteration 971 sol 14914.00
iteration 972 sol 14947.00
iteration 973 sol 14914.00
iteration 974 sol 14947.00
iteration 975 sol 14971.00
iteration 976 sol 14914.00
iteration 977 sol 15005.00
iteration 978 sol 14947.00
iteration 979 sol 14914.00
iteration 980 sol 14947.00
iteration 981 sol 14947.00
iteration 982 sol 14920.00
iteration 983 sol 14898.00
iteration 984 sol 14761.00
iteration 985 sol 14947.00
iteration 986 sol 14947.00
iteration 987 sol 14947.00
iteration 988 sol 14926.00
iteration 989 sol 14853.00
iteration 990 sol 14883.00
iteration 991 sol 14858.00
iteration 992 sol 14898.00
iteration 993 sol 14947.00
iteration 994 sol 14914.00
iteration 995 sol 14866.00
iteration 996 sol 14947.00
iteration 997 sol 14914.00
iteration 998 sol 15029.00
iteration 999 sol 14914.00
iteration 1000 sol 14947.00
iteration 1001 sol 14898.00
iteration 1002 sol 14947.00
iteration 1003 sol 14947.00
iteration 1004 sol 14914.00
iteration 1005 sol 14891.00
iteration 1006 sol 14893.00
iteration 1007 sol 14898.00
iteration 1008 sol 14881.00
iteration 1009 sol 14886.00
iteration 1010 sol 14914.00
iteration 1011 sol 14914.00
iteration 1012 sol 14850.00
iteration 1013 sol 14898.00
iteration 1014 sol 14891.00
iteration 1015 sol 14947.00
iteration 1016 sol 14947.00
iteration 1017 sol 14914.00
iteration 1018 sol 14914.00
iteration 1019 sol 14919.00
iteration 1020 sol 14980.00
iteration 1021 sol 14893.00
iteration 1022 sol 14914.00
iteration 1023 sol 14898.00
iteration 1024 sol 14947.00
iteration 1025 sol 14947.00
iteration 1026 sol 14947.00
iteration 1027 sol 14947.00
iteration 1028 sol 14947.00
iteration 1029 sol 14914.00
iteration 1030 sol 14763.00
iteration 1031 sol 14947.00
iteration 1032 sol 14947.00
iteration 1033 sol 14947.00
iteration 1034 sol 14947.00
iteration 1035 sol 14947.00
iteration 1036 sol 14947.00
iteration 1037 sol 14947.00
iteration 1038 sol 14947.00
iteration 1039 sol 15005.00
iteration 1040 sol 14898.00
iteration 1041 sol 14763.00
iteration 1042 sol 14914.00
iteration 1043 sol 14898.00
iteration 1044 sol 14947.00
iteration 1045 sol 14899.00
iteration 1046 sol 14891.00
iteration 1047 sol 14815.00
iteration 1048 sol 14841.00
iteration 1049 sol 14914.00
iteration 1050 sol 14947.00
iteration 1051 sol 14898.00
iteration 1052 sol 14870.00
iteration 1053 sol 14947.00
iteration 1054 sol 14914.00
iteration 1055 sol 14899.00
iteration 1056 sol 14947.00
iteration 1057 sol 14947.00
iteration 1058 sol 14853.00
iteration 1059 sol 14914.00
iteration 1060 sol 14947.00
iteration 1061 sol 14858.00
iteration 1062 sol 14874.00
iteration 1063 sol 14880.00
iteration 1064 sol 14968.00
iteration 1065 sol 14971.00
iteration 1066 sol 14898.00
iteration 1067 sol 14914.00
iteration 1068 sol 14841.00
iteration 1069 sol 14870.00
iteration 1070 sol 14853.00
iteration 1071 sol 14914.00
iteration 1072 sol 14947.00
iteration 1073 sol 14947.00
iteration 1074 sol 14947.00
iteration 1075 sol 14899.00
iteration 1076 sol 14716.00
iteration 1077 sol 14947.00
iteration 1078 sol 14947.00
iteration 1079 sol 14914.00
iteration 1080 sol 14914.00
iteration 1081 sol 14789.00
iteration 1082 sol 14871.00
iteration 1083 sol 14891.00
iteration 1084 sol 14947.00
iteration 1085 sol 14914.00
iteration 1086 sol 14947.00
iteration 1087 sol 14914.00
iteration 1088 sol 14947.00
iteration 1089 sol 14947.00
iteration 1090 sol 14864.00
iteration 1091 sol 14914.00
iteration 1092 sol 14893.00
iteration 1093 sol 14947.00
iteration 1094 sol 14914.00
iteration 1095 sol 14947.00
iteration 1096 sol 14914.00
iteration 1097 sol 14871.00
iteration 1098 sol 14914.00
iteration 1099 sol 14947.00
iteration 1100 sol 14886.00
iteration 1101 sol 15005.00
iteration 1102 sol 14859.00
iteration 1103 sol 14914.00
iteration 1104 sol 14947.00
iteration 1105 sol 14914.00
iteration 1106 sol 14947.00
iteration 1107 sol 14898.00
iteration 1108 sol 14947.00
iteration 1109 sol 14947.00
iteration 1110 sol 14705.00
iteration 1111 sol 14716.00
iteration 1112 sol 14947.00
iteration 1113 sol 14947.00
iteration 1114 sol 14899.00
iteration 1115 sol 14667.00
iteration 1116 sol 14996.00
iteration 1117 sol 14907.00
iteration 1118 sol 14914.00
iteration 1119 sol 14898.00
iteration 1120 sol 14947.00
iteration 1121 sol 14914.00
iteration 1122 sol 14914.00
iteration 1123 sol 14898.00
iteration 1124 sol 14947.00
iteration 1125 sol 14891.00
iteration 1126 sol 14947.00
iteration 1127 sol 14858.00
iteration 1128 sol 14914.00
iteration 1129 sol 14914.00
iteration 1130 sol 14898.00
iteration 1131 sol 14947.00
iteration 1132 sol 14914.00
iteration 1133 sol 14914.00
iteration 1134 sol 14914.00
iteration 1135 sol 14950.00
iteration 1136 sol 14881.00
iteration 1137 sol 14914.00
iteration 1138 sol 14914.00
iteration 1139 sol 14914.00
iteration 1140 sol 14947.00
iteration 1141 sol 14947.00
iteration 1142 sol 14947.00
iteration 1143 sol 14778.00
iteration 1144 sol 14914.00
iteration 1145 sol 14887.00
iteration 1146 sol 14790.00
iteration 1147 sol 14914.00
iteration 1148 sol 14898.00
iteration 1149 sol 14947.00
iteration 1150 sol 14914.00
iteration 1151 sol 14858.00
iteration 1152 sol 14893.00
iteration 1153 sol 14947.00
iteration 1154 sol 14947.00
iteration 1155 sol 14914.00
iteration 1156 sol 14898.00
iteration 1157 sol 14914.00
iteration 1158 sol 14858.00
iteration 1159 sol 14899.00
iteration 1160 sol 14914.00
iteration 1161 sol 14801.00
iteration 1162 sol 14947.00
iteration 1163 sol 14947.00
iteration 1164 sol 14914.00
iteration 1165 sol 14801.00
iteration 1166 sol 14914.00
iteration 1167 sol 14947.00
iteration 1168 sol 14947.00
iteration 1169 sol 14914.00
iteration 1170 sol 14947.00
iteration 1171 sol 14914.00
iteration 1172 sol 14947.00
iteration 1173 sol 14810.00
iteration 1174 sol 14914.00
iteration 1175 sol 14947.00
iteration 1176 sol 14841.00
iteration 1177 sol 14898.00
iteration 1178 sol 14914.00
iteration 1179 sol 14947.00
iteration 1180 sol 14947.00
iteration 1181 sol 14947.00
iteration 1182 sol 14947.00
iteration 1183 sol 14898.00
iteration 1184 sol 14914.00
iteration 1185 sol 14845.00
iteration 1186 sol 14947.00
iteration 1187 sol 14914.00
iteration 1188 sol 14696.00
iteration 1189 sol 14918.00
iteration 1190 sol 14947.00
iteration 1191 sol 14947.00
iteration 1192 sol 14914.00
iteration 1193 sol 14947.00
iteration 1194 sol 14947.00
iteration 1195 sol 14853.00
iteration 1196 sol 14980.00
iteration 1197 sol 14914.00
iteration 1198 sol 14914.00
iteration 1199 sol 14914.00
iteration 1200 sol 14947.00
iteration 1201 sol 14914.00
iteration 1202 sol 14920.00
iteration 1203 sol 14947.00
iteration 1204 sol 14947.00
iteration 1205 sol 14825.00
iteration 1206 sol 14947.00
iteration 1207 sol 14899.00
iteration 1208 sol 14947.00
iteration 1209 sol 14926.00
iteration 1210 sol 14947.00
iteration 1211 sol 14947.00
iteration 1212 sol 14914.00
iteration 1213 sol 14947.00
iteration 1214 sol 14898.00
iteration 1215 sol 14947.00
iteration 1216 sol 14971.00
iteration 1217 sol 14947.00
iteration 1218 sol 14907.00
iteration 1219 sol 14858.00
iteration 1220 sol 14947.00
iteration 1221 sol 14899.00
iteration 1222 sol 14983.00
iteration 1223 sol 14886.00
iteration 1224 sol 14893.00
iteration 1225 sol 14914.00
iteration 1226 sol 14968.00
iteration 1227 sol 14914.00
iteration 1228 sol 14899.00
iteration 1229 sol 14914.00
iteration 1230 sol 14858.00
iteration 1231 sol 14947.00
iteration 1232 sol 14859.00
iteration 1233 sol 14914.00
iteration 1234 sol 14893.00
iteration 1235 sol 14947.00
iteration 1236 sol 14947.00
iteration 1237 sol 14914.00
iteration 1238 sol 14898.00
iteration 1239 sol 14947.00
iteration 1240 sol 14947.00
iteration 1241 sol 14914.00
iteration 1242 sol 14947.00
iteration 1243 sol 14858.00
iteration 1244 sol 14893.00
iteration 1245 sol 14891.00
iteration 1246 sol 14914.00
iteration 1247 sol 14947.00
iteration 1248 sol 14914.00
iteration 1249 sol 14729.00
iteration 1250 sol 14893.00
iteration 1251 sol 14899.00
iteration 1252 sol 14947.00
iteration 1253 sol 14822.00
iteration 1254 sol 14801.00
iteration 1255 sol 14914.00
iteration 1256 sol 14728.00
iteration 1257 sol 14914.00
iteration 1258 sol 14914.00
iteration 1259 sol 14947.00
iteration 1260 sol 14947.00
iteration 1261 sol 14947.00
iteration 1262 sol 14898.00
iteration 1263 sol 14919.00
iteration 1264 sol 14741.00
iteration 1265 sol 14907.00
iteration 1266 sol 14914.00
iteration 1267 sol 14947.00
iteration 1268 sol 14967.00
iteration 1269 sol 14893.00
iteration 1270 sol 14871.00
iteration 1271 sol 14947.00
iteration 1272 sol 14947.00
iteration 1273 sol 14881.00
iteration 1274 sol 14914.00
iteration 1275 sol 14947.00
iteration 1276 sol 14947.00
iteration 1277 sol 14947.00
iteration 1278 sol 14914.00
iteration 1279 sol 14891.00
iteration 1280 sol 14947.00
iteration 1281 sol 14947.00
iteration 1282 sol 14716.00
iteration 1283 sol 14956.00
iteration 1284 sol 14947.00
iteration 1285 sol 14914.00
iteration 1286 sol 14947.00
iteration 1287 sol 14914.00
iteration 1288 sol 14947.00
iteration 1289 sol 14947.00
iteration 1290 sol 14947.00
iteration 1291 sol 14886.00
iteration 1292 sol 14914.00
iteration 1293 sol 14901.00
iteration 1294 sol 14947.00
iteration 1295 sol 14914.00
iteration 1296 sol 14893.00
iteration 1297 sol 14914.00
iteration 1298 sol 14947.00
iteration 1299 sol 14914.00
iteration 1300 sol 14891.00
iteration 1301 sol 14914.00
iteration 1302 sol 14858.00
iteration 1303 sol 14898.00
iteration 1304 sol 14983.00
iteration 1305 sol 14898.00
iteration 1306 sol 14914.00
iteration 1307 sol 14947.00
iteration 1308 sol 14893.00
iteration 1309 sol 15005.00
iteration 1310 sol 14947.00
iteration 1311 sol 14947.00
iteration 1312 sol 14891.00
iteration 1313 sol 14914.00
iteration 1314 sol 14947.00
iteration 1315 sol 14914.00
iteration 1316 sol 14893.00
iteration 1317 sol 14914.00
iteration 1318 sol 14870.00
iteration 1319 sol 14893.00
iteration 1320 sol 14947.00
iteration 1321 sol 14947.00
iteration 1322 sol 14858.00
iteration 1323 sol 14899.00
iteration 1324 sol 14934.00
iteration 1325 sol 14893.00
iteration 1326 sol 14947.00
iteration 1327 sol 14914.00
iteration 1328 sol 14947.00
iteration 1329 sol 14914.00
iteration 1330 sol 14920.00
iteration 1331 sol 14879.00
iteration 1332 sol 14914.00
iteration 1333 sol 14914.00
iteration 1334 sol 14966.00
iteration 1335 sol 14888.00
iteration 1336 sol 14947.00
iteration 1337 sol 14884.00
iteration 1338 sol 14914.00
iteration 1339 sol 14947.00
iteration 1340 sol 14947.00
iteration 1341 sol 14870.00
iteration 1342 sol 14891.00
iteration 1343 sol 14893.00
iteration 1344 sol 14893.00
iteration 1345 sol 14947.00
iteration 1346 sol 14947.00
iteration 1347 sol 14891.00
iteration 1348 sol 14893.00
iteration 1349 sol 14898.00
iteration 1350 sol 14947.00
iteration 1351 sol 14945.00
iteration 1352 sol 14947.00
iteration 1353 sol 14893.00
iteration 1354 sol 14898.00
iteration 1355 sol 14947.00
iteration 1356 sol 14947.00
iteration 1357 sol 14947.00
iteration 1358 sol 14899.00
iteration 1359 sol 14914.00
iteration 1360 sol 14893.00
iteration 1361 sol 14899.00
iteration 1362 sol 14947.00
iteration 1363 sol 14914.00
iteration 1364 sol 14914.00
iteration 1365 sol 14886.00
iteration 1366 sol 14947.00
iteration 1367 sol 14914.00
iteration 1368 sol 14914.00
iteration 1369 sol 14947.00
iteration 1370 sol 14893.00
iteration 1371 sol 14914.00
iteration 1372 sol 14893.00
iteration 1373 sol 14947.00
iteration 1374 sol 14893.00
iteration 1375 sol 14947.00
iteration 1376 sol 14914.00
iteration 1377 sol 14898.00
iteration 1378 sol 14914.00
iteration 1379 sol 14881.00
iteration 1380 sol 14914.00
iteration 1381 sol 14947.00
iteration 1382 sol 14858.00
iteration 1383 sol 14914.00
iteration 1384 sol 14914.00
iteration 1385 sol 14947.00
iteration 1386 sol 14947.00
iteration 1387 sol 14947.00
iteration 1388 sol 14947.00
iteration 1389 sol 14947.00
iteration 1390 sol 14914.00
iteration 1391 sol 14898.00
iteration 1392 sol 14947.00
iteration 1393 sol 14898.00
iteration 1394 sol 14893.00
iteration 1395 sol 14947.00
iteration 1396 sol 14947.00
iteration 1397 sol 14914.00
iteration 1398 sol 14947.00
iteration 1399 sol 14947.00
iteration 1400 sol 14914.00
iteration 1401 sol 14899.00
iteration 1402 sol 14893.00
iteration 1403 sol 14898.00
iteration 1404 sol 14898.00
iteration 1405 sol 14980.00
iteration 1406 sol 14947.00
iteration 1407 sol 14945.00
iteration 1408 sol 14919.00
iteration 1409 sol 14914.00
iteration 1410 sol 14914.00
iteration 1411 sol 14947.00
iteration 1412 sol 14891.00
iteration 1413 sol 15032.00
iteration 1414 sol 14891.00
iteration 1415 sol 14914.00
iteration 1416 sol 14807.00
iteration 1417 sol 14871.00
iteration 1418 sol 14914.00
iteration 1419 sol 14893.00
iteration 1420 sol 14947.00
iteration 1421 sol 14983.00
iteration 1422 sol 14913.00
iteration 1423 sol 14947.00
iteration 1424 sol 14914.00
iteration 1425 sol 14893.00
iteration 1426 sol 14947.00
iteration 1427 sol 14947.00
iteration 1428 sol 14858.00
iteration 1429 sol 14914.00
iteration 1430 sol 14914.00
iteration 1431 sol 14947.00
iteration 1432 sol 14914.00
iteration 1433 sol 14947.00
iteration 1434 sol 14914.00
iteration 1435 sol 14661.00
iteration 1436 sol 14947.00
iteration 1437 sol 14914.00
iteration 1438 sol 14947.00
iteration 1439 sol 14898.00
iteration 1440 sol 14898.00
iteration 1441 sol 14914.00
iteration 1442 sol 14947.00
iteration 1443 sol 15005.00
iteration 1444 sol 14914.00
iteration 1445 sol 14898.00
iteration 1446 sol 14858.00
iteration 1447 sol 14834.00
iteration 1448 sol 14947.00
iteration 1449 sol 14907.00
iteration 1450 sol 14899.00
iteration 1451 sol 14914.00
iteration 1452 sol 14947.00
iteration 1453 sol 14870.00
iteration 1454 sol 14947.00
iteration 1455 sol 14853.00
iteration 1456 sol 14947.00
iteration 1457 sol 14947.00
iteration 1458 sol 14722.00
iteration 1459 sol 14914.00
iteration 1460 sol 14899.00
iteration 1461 sol 14881.00
iteration 1462 sol 14920.00
iteration 1463 sol 14947.00
iteration 1464 sol 14704.00
iteration 1465 sol 14947.00
iteration 1466 sol 14947.00
iteration 1467 sol 14947.00
iteration 1468 sol 14947.00
iteration 1469 sol 14947.00
iteration 1470 sol 14893.00
iteration 1471 sol 14947.00
iteration 1472 sol 14858.00
iteration 1473 sol 14914.00
iteration 1474 sol 14947.00
iteration 1475 sol 14947.00
iteration 1476 sol 15005.00
iteration 1477 sol 14947.00
iteration 1478 sol 14947.00
iteration 1479 sol 14858.00
iteration 1480 sol 15037.00
iteration 1481 sol 14947.00
iteration 1482 sol 14914.00
iteration 1483 sol 14891.00
iteration 1484 sol 14947.00
iteration 1485 sol 14947.00
iteration 1486 sol 14858.00
iteration 1487 sol 14858.00
iteration 1488 sol 14959.00
iteration 1489 sol 14899.00
iteration 1490 sol 14970.00
iteration 1491 sol 14891.00
iteration 1492 sol 14947.00
iteration 1493 sol 14947.00
iteration 1494 sol 14893.00
iteration 1495 sol 15005.00
iteration 1496 sol 14947.00
iteration 1497 sol 14883.00
iteration 1498 sol 14783.00
iteration 1499 sol 14914.00
iteration 1500 sol 14947.00
iteration 1501 sol 14914.00
iteration 1502 sol 14947.00
iteration 1503 sol 14947.00
iteration 1504 sol 14899.00
iteration 1505 sol 14914.00
iteration 1506 sol 14914.00
iteration 1507 sol 14947.00
iteration 1508 sol 14947.00
iteration 1509 sol 14947.00
iteration 1510 sol 14947.00
iteration 1511 sol 14947.00
iteration 1512 sol 14920.00
iteration 1513 sol 14966.00
iteration 1514 sol 14914.00
iteration 1515 sol 14947.00
iteration 1516 sol 14914.00
iteration 1517 sol 14947.00
iteration 1518 sol 14893.00
iteration 1519 sol 14899.00
iteration 1520 sol 14947.00
iteration 1521 sol 14893.00
iteration 1522 sol 14899.00
iteration 1523 sol 14914.00
iteration 1524 sol 14914.00
iteration 1525 sol 14914.00
iteration 1526 sol 14858.00
iteration 1527 sol 14947.00
iteration 1528 sol 14841.00
iteration 1529 sol 14947.00
iteration 1530 sol 14914.00
iteration 1531 sol 14914.00
iteration 1532 sol 14947.00
iteration 1533 sol 14914.00
iteration 1534 sol 14898.00
iteration 1535 sol 14947.00
iteration 1536 sol 14898.00
iteration 1537 sol 14947.00
iteration 1538 sol 14925.00
iteration 1539 sol 14914.00
iteration 1540 sol 14947.00
iteration 1541 sol 14947.00
iteration 1542 sol 14947.00
iteration 1543 sol 14893.00
iteration 1544 sol 14947.00
iteration 1545 sol 14914.00
iteration 1546 sol 14914.00
iteration 1547 sol 14914.00
iteration 1548 sol 14947.00
iteration 1549 sol 14914.00
iteration 1550 sol 14899.00
iteration 1551 sol 14886.00
iteration 1552 sol 14825.00
iteration 1553 sol 14814.00
iteration 1554 sol 15005.00
iteration 1555 sol 14853.00
iteration 1556 sol 14947.00
iteration 1557 sol 14881.00
iteration 1558 sol 14914.00
iteration 1559 sol 14947.00
iteration 1560 sol 14914.00
iteration 1561 sol 14947.00
iteration 1562 sol 14899.00
iteration 1563 sol 14947.00
iteration 1564 sol 14942.00
iteration 1565 sol 14947.00
iteration 1566 sol 14947.00
iteration 1567 sol 14796.00
iteration 1568 sol 14870.00
iteration 1569 sol 14947.00
iteration 1570 sol 14891.00
iteration 1571 sol 14980.00
iteration 1572 sol 14893.00
iteration 1573 sol 14912.00
iteration 1574 sol 14914.00
iteration 1575 sol 14947.00
iteration 1576 sol 14951.00
iteration 1577 sol 14898.00
iteration 1578 sol 14914.00
iteration 1579 sol 14947.00
iteration 1580 sol 14733.00
iteration 1581 sol 14891.00
iteration 1582 sol 14947.00
iteration 1583 sol 14947.00
iteration 1584 sol 14898.00
iteration 1585 sol 15005.00
iteration 1586 sol 14893.00
iteration 1587 sol 14947.00
iteration 1588 sol 14980.00
iteration 1589 sol 14899.00
iteration 1590 sol 14914.00
iteration 1591 sol 14820.00
iteration 1592 sol 14796.00
iteration 1593 sol 14891.00
iteration 1594 sol 14947.00
iteration 1595 sol 14893.00
iteration 1596 sol 14858.00
iteration 1597 sol 14858.00
iteration 1598 sol 14947.00
iteration 1599 sol 14947.00
iteration 1600 sol 14947.00
iteration 1601 sol 14947.00
iteration 1602 sol 14947.00
iteration 1603 sol 14947.00
iteration 1604 sol 14870.00
iteration 1605 sol 14914.00
iteration 1606 sol 14947.00
iteration 1607 sol 14947.00
iteration 1608 sol 14947.00
iteration 1609 sol 14886.00
iteration 1610 sol 14801.00
iteration 1611 sol 14914.00
iteration 1612 sol 14947.00
iteration 1613 sol 14898.00
iteration 1614 sol 14901.00
iteration 1615 sol 14914.00
iteration 1616 sol 14947.00
iteration 1617 sol 14893.00
iteration 1618 sol 14914.00
iteration 1619 sol 14914.00
iteration 1620 sol 14947.00
iteration 1621 sol 14947.00
iteration 1622 sol 14983.00
iteration 1623 sol 14914.00
iteration 1624 sol 14947.00
iteration 1625 sol 14926.00
iteration 1626 sol 14914.00
iteration 1627 sol 14914.00
iteration 1628 sol 14947.00
iteration 1629 sol 14951.00
iteration 1630 sol 14947.00
iteration 1631 sol 14764.00
iteration 1632 sol 14858.00
iteration 1633 sol 14947.00
iteration 1634 sol 14947.00
iteration 1635 sol 14841.00
iteration 1636 sol 14947.00
iteration 1637 sol 14914.00
iteration 1638 sol 14914.00
iteration 1639 sol 14947.00
iteration 1640 sol 14919.00
iteration 1641 sol 14947.00
iteration 1642 sol 14893.00
iteration 1643 sol 14891.00
iteration 1644 sol 14914.00
iteration 1645 sol 14914.00
iteration 1646 sol 14914.00
iteration 1647 sol 14947.00
iteration 1648 sol 14886.00
iteration 1649 sol 14893.00
iteration 1650 sol 14891.00
iteration 1651 sol 14947.00
iteration 1652 sol 14947.00
iteration 1653 sol 14947.00
iteration 1654 sol 14886.00
iteration 1655 sol 15005.00
iteration 1656 sol 14947.00
iteration 1657 sol 14914.00
iteration 1658 sol 14914.00
iteration 1659 sol 14914.00
iteration 1660 sol 14914.00
iteration 1661 sol 14947.00
iteration 1662 sol 14947.00
iteration 1663 sol 14914.00
iteration 1664 sol 14914.00
iteration 1665 sol 14984.00
iteration 1666 sol 14947.00
iteration 1667 sol 14947.00
iteration 1668 sol 14947.00
iteration 1669 sol 14899.00
iteration 1670 sol 14914.00
iteration 1671 sol 14914.00
iteration 1672 sol 14914.00
iteration 1673 sol 14991.00
iteration 1674 sol 14914.00
iteration 1675 sol 14947.00
iteration 1676 sol 14947.00
iteration 1677 sol 14914.00
iteration 1678 sol 14984.00
iteration 1679 sol 14864.00
iteration 1680 sol 14914.00
iteration 1681 sol 14893.00
iteration 1682 sol 14914.00
iteration 1683 sol 14947.00
iteration 1684 sol 14881.00
iteration 1685 sol 14947.00
iteration 1686 sol 14947.00
iteration 1687 sol 14914.00
iteration 1688 sol 14947.00
iteration 1689 sol 14881.00
iteration 1690 sol 14947.00
iteration 1691 sol 14914.00
iteration 1692 sol 14914.00
iteration 1693 sol 14899.00
iteration 1694 sol 14947.00
iteration 1695 sol 14947.00
iteration 1696 sol 14898.00
iteration 1697 sol 14893.00
iteration 1698 sol 14947.00
iteration 1699 sol 14947.00
iteration 1700 sol 14914.00
iteration 1701 sol 14947.00
iteration 1702 sol 14841.00
iteration 1703 sol 14914.00
iteration 1704 sol 14858.00
iteration 1705 sol 14947.00
iteration 1706 sol 14947.00
iteration 1707 sol 14947.00
iteration 1708 sol 14947.00
iteration 1709 sol 14947.00
iteration 1710 sol 14893.00
iteration 1711 sol 14947.00
iteration 1712 sol 14947.00
iteration 1713 sol 14858.00
iteration 1714 sol 14881.00
iteration 1715 sol 14947.00
iteration 1716 sol 14893.00
iteration 1717 sol 14838.00
iteration 1718 sol 14947.00
iteration 1719 sol 14858.00
iteration 1720 sol 14914.00
iteration 1721 sol 14914.00
iteration 1722 sol 14914.00
iteration 1723 sol 14947.00
iteration 1724 sol 14898.00
iteration 1725 sol 14947.00
iteration 1726 sol 14899.00
iteration 1727 sol 14947.00
iteration 1728 sol 14947.00
iteration 1729 sol 14947.00
iteration 1730 sol 14947.00
iteration 1731 sol 14947.00
iteration 1732 sol 14914.00
iteration 1733 sol 14859.00
iteration 1734 sol 14907.00
iteration 1735 sol 14983.00
iteration 1736 sol 14893.00
iteration 1737 sol 14914.00
iteration 1738 sol 15005.00
iteration 1739 sol 14947.00
iteration 1740 sol 14914.00
iteration 1741 sol 14947.00
iteration 1742 sol 14858.00
iteration 1743 sol 14893.00
iteration 1744 sol 14947.00
iteration 1745 sol 14881.00
iteration 1746 sol 14796.00
iteration 1747 sol 14947.00
iteration 1748 sol 14947.00
iteration 1749 sol 14914.00
iteration 1750 sol 14987.00
iteration 1751 sol 14914.00
iteration 1752 sol 14983.00
iteration 1753 sol 14947.00
iteration 1754 sol 14914.00
iteration 1755 sol 14716.00
iteration 1756 sol 14893.00
iteration 1757 sol 14947.00
iteration 1758 sol 14914.00
iteration 1759 sol 14901.00
iteration 1760 sol 14914.00
iteration 1761 sol 14947.00
iteration 1762 sol 14947.00
iteration 1763 sol 14946.00
iteration 1764 sol 14898.00
iteration 1765 sol 14947.00
iteration 1766 sol 14899.00
iteration 1767 sol 14947.00
iteration 1768 sol 14947.00
iteration 1769 sol 14947.00
iteration 1770 sol 14947.00
iteration 1771 sol 14947.00
iteration 1772 sol 14899.00
iteration 1773 sol 14959.00
iteration 1774 sol 14947.00
iteration 1775 sol 14947.00
iteration 1776 sol 14914.00
iteration 1777 sol 14947.00
iteration 1778 sol 14947.00
iteration 1779 sol 14891.00
iteration 1780 sol 14947.00
iteration 1781 sol 14914.00
iteration 1782 sol 14899.00
iteration 1783 sol 14947.00
iteration 1784 sol 14947.00
iteration 1785 sol 14947.00
iteration 1786 sol 14959.00
iteration 1787 sol 14947.00
iteration 1788 sol 14801.00
iteration 1789 sol 14947.00
iteration 1790 sol 14898.00
iteration 1791 sol 14891.00
iteration 1792 sol 14914.00
iteration 1793 sol 14947.00
iteration 1794 sol 14914.00
iteration 1795 sol 14914.00
iteration 1796 sol 14947.00
iteration 1797 sol 14947.00
iteration 1798 sol 14891.00
iteration 1799 sol 14947.00
iteration 1800 sol 14947.00
iteration 1801 sol 14914.00
iteration 1802 sol 14947.00
iteration 1803 sol 14914.00
iteration 1804 sol 14947.00
iteration 1805 sol 14956.00
iteration 1806 sol 14947.00
iteration 1807 sol 14853.00
iteration 1808 sol 14914.00
iteration 1809 sol 14947.00
iteration 1810 sol 14947.00
iteration 1811 sol 14914.00
iteration 1812 sol 14983.00
iteration 1813 sol 14891.00
iteration 1814 sol 14914.00
iteration 1815 sol 14914.00
iteration 1816 sol 14914.00
iteration 1817 sol 14922.00
iteration 1818 sol 14947.00
iteration 1819 sol 14947.00
iteration 1820 sol 14883.00
iteration 1821 sol 14914.00
iteration 1822 sol 14858.00
iteration 1823 sol 14914.00
iteration 1824 sol 14947.00
iteration 1825 sol 14858.00
iteration 1826 sol 14980.00
iteration 1827 sol 14898.00
iteration 1828 sol 14947.00
iteration 1829 sol 14947.00
iteration 1830 sol 15005.00
iteration 1831 sol 14898.00
iteration 1832 sol 14914.00
iteration 1833 sol 14947.00
iteration 1834 sol 14914.00
iteration 1835 sol 14951.00
iteration 1836 sol 14947.00
iteration 1837 sol 14870.00
iteration 1838 sol 14914.00
iteration 1839 sol 14866.00
iteration 1840 sol 14947.00
iteration 1841 sol 14947.00
iteration 1842 sol 14947.00
iteration 1843 sol 14947.00
iteration 1844 sol 14947.00
iteration 1845 sol 14880.00
iteration 1846 sol 14947.00
iteration 1847 sol 14874.00
iteration 1848 sol 14947.00
iteration 1849 sol 14914.00
iteration 1850 sol 14914.00
iteration 1851 sol 14914.00
iteration 1852 sol 14914.00
iteration 1853 sol 14914.00
iteration 1854 sol 14914.00
iteration 1855 sol 14914.00
iteration 1856 sol 14893.00
iteration 1857 sol 14871.00
iteration 1858 sol 14947.00
iteration 1859 sol 14947.00
iteration 1860 sol 14899.00
iteration 1861 sol 14893.00
iteration 1862 sol 14886.00
iteration 1863 sol 14947.00
iteration 1864 sol 14947.00
iteration 1865 sol 14926.00
iteration 1866 sol 14891.00
iteration 1867 sol 14886.00
iteration 1868 sol 14898.00
iteration 1869 sol 14825.00
iteration 1870 sol 14893.00
iteration 1871 sol 14893.00
iteration 1872 sol 14947.00
iteration 1873 sol 14899.00
iteration 1874 sol 14947.00
iteration 1875 sol 14864.00
iteration 1876 sol 14914.00
iteration 1877 sol 14947.00
iteration 1878 sol 14893.00
iteration 1879 sol 14947.00
iteration 1880 sol 14963.00
iteration 1881 sol 14870.00
iteration 1882 sol 14898.00
iteration 1883 sol 14858.00
iteration 1884 sol 14914.00
iteration 1885 sol 14947.00
iteration 1886 sol 14914.00
iteration 1887 sol 14858.00
iteration 1888 sol 14898.00
iteration 1889 sol 14947.00
iteration 1890 sol 14898.00
iteration 1891 sol 14947.00
iteration 1892 sol 14872.00
iteration 1893 sol 14920.00
iteration 1894 sol 14947.00
iteration 1895 sol 14858.00
iteration 1896 sol 15005.00
iteration 1897 sol 14947.00
iteration 1898 sol 14962.00
iteration 1899 sol 14841.00
iteration 1900 sol 14947.00
iteration 1901 sol 14858.00
iteration 1902 sol 14914.00
iteration 1903 sol 14947.00
iteration 1904 sol 14914.00
iteration 1905 sol 14947.00
iteration 1906 sol 14947.00
iteration 1907 sol 14893.00
iteration 1908 sol 14914.00
iteration 1909 sol 14914.00
iteration 1910 sol 14947.00
iteration 1911 sol 14947.00
iteration 1912 sol 14991.00
iteration 1913 sol 14914.00
iteration 1914 sol 14914.00
iteration 1915 sol 14914.00
iteration 1916 sol 14858.00
iteration 1917 sol 14947.00
iteration 1918 sol 14914.00
iteration 1919 sol 14853.00
iteration 1920 sol 15005.00
iteration 1921 sol 15005.00
iteration 1922 sol 14854.00
iteration 1923 sol 14947.00
iteration 1924 sol 14778.00
iteration 1925 sol 14914.00
iteration 1926 sol 14898.00
iteration 1927 sol 14853.00
iteration 1928 sol 14947.00
iteration 1929 sol 14947.00
iteration 1930 sol 14766.00
iteration 1931 sol 14947.00
iteration 1932 sol 14907.00
iteration 1933 sol 14947.00
iteration 1934 sol 14870.00
iteration 1935 sol 14914.00
iteration 1936 sol 14881.00
iteration 1937 sol 14858.00
iteration 1938 sol 14858.00
iteration 1939 sol 14968.00
iteration 1940 sol 14947.00
iteration 1941 sol 14893.00
iteration 1942 sol 14821.00
iteration 1943 sol 14947.00
iteration 1944 sol 14841.00
iteration 1945 sol 14947.00
iteration 1946 sol 14841.00
iteration 1947 sol 14914.00
iteration 1948 sol 14914.00
iteration 1949 sol 14947.00
iteration 1950 sol 14947.00
iteration 1951 sol 14898.00
iteration 1952 sol 14893.00
iteration 1953 sol 14914.00
iteration 1954 sol 14947.00
iteration 1955 sol 14947.00
iteration 1956 sol 14898.00
iteration 1957 sol 15005.00
iteration 1958 sol 14886.00
iteration 1959 sol 14893.00
iteration 1960 sol 14947.00
iteration 1961 sol 14914.00
iteration 1962 sol 14914.00
iteration 1963 sol 14859.00
iteration 1964 sol 14983.00
iteration 1965 sol 14857.00
iteration 1966 sol 14947.00
iteration 1967 sol 14947.00
iteration 1968 sol 14893.00
iteration 1969 sol 14859.00
iteration 1970 sol 14893.00
iteration 1971 sol 14947.00
iteration 1972 sol 14983.00
iteration 1973 sol 14951.00
iteration 1974 sol 14947.00
iteration 1975 sol 14901.00
iteration 1976 sol 14947.00
iteration 1977 sol 14947.00
iteration 1978 sol 14947.00
iteration 1979 sol 14914.00
iteration 1980 sol 14926.00
iteration 1981 sol 14898.00
iteration 1982 sol 14947.00
iteration 1983 sol 14947.00
iteration 1984 sol 14947.00
iteration 1985 sol 14883.00
iteration 1986 sol 14947.00
iteration 1987 sol 14914.00
iteration 1988 sol 14858.00
iteration 1989 sol 14947.00
iteration 1990 sol 14891.00
iteration 1991 sol 14914.00
iteration 1992 sol 14947.00
iteration 1993 sol 14914.00
iteration 1994 sol 14947.00
iteration 1995 sol 14888.00
iteration 1996 sol 14947.00
iteration 1997 sol 14914.00
iteration 1998 sol 14947.00
iteration 1999 sol 14899.00
Number of iterations = 2000
Best Solution was found in iteration = 1480
Time used by neighbor | Times each neighbor was used | Improvements
N_1 = 0.55 | 9716 | 70
N_2 = 3.58 | 9716 | 88
N_3 = 0.23 | 9716 | 132
N_4 = 0.82 | 9716 | 5665
Time to find the best solution = 4.46
Solution = 15037.00
Time = 6.05
