iteration 0 sol 46111.00
iteration 1 sol 46459.00
iteration 2 sol 46793.00
iteration 3 sol 45677.00
iteration 4 sol 45770.00
iteration 5 sol 46758.00
iteration 6 sol 46516.00
iteration 7 sol 45535.00
iteration 8 sol 46565.00
iteration 9 sol 46127.00
iteration 10 sol 46267.00
iteration 11 sol 46139.00
iteration 12 sol 46327.00
iteration 13 sol 45937.00
iteration 14 sol 46234.00
iteration 15 sol 46719.00
iteration 16 sol 45941.00
iteration 17 sol 46545.00
iteration 18 sol 46234.00
iteration 19 sol 46207.00
iteration 20 sol 45800.00
iteration 21 sol 46757.00
iteration 22 sol 46718.00
iteration 23 sol 46052.00
iteration 24 sol 45988.00
iteration 25 sol 45633.00
iteration 26 sol 46322.00
iteration 27 sol 46234.00
iteration 28 sol 45915.00
iteration 29 sol 47447.00
iteration 30 sol 46833.00
iteration 31 sol 45755.00
iteration 32 sol 46955.00
iteration 33 sol 46647.00
iteration 34 sol 46234.00
iteration 35 sol 45690.00
iteration 36 sol 46493.00
iteration 37 sol 46162.00
iteration 38 sol 46153.00
iteration 39 sol 46002.00
iteration 40 sol 46718.00
iteration 41 sol 46167.00
iteration 42 sol 46962.00
iteration 43 sol 45660.00
iteration 44 sol 45944.00
iteration 45 sol 46146.00
iteration 46 sol 47149.00
iteration 47 sol 46361.00
iteration 48 sol 46397.00
iteration 49 sol 46018.00
iteration 50 sol 46234.00
iteration 51 sol 46480.00
iteration 52 sol 45973.00
iteration 53 sol 46060.00
iteration 54 sol 47134.00
iteration 55 sol 46687.00
iteration 56 sol 46245.00
iteration 57 sol 46100.00
iteration 58 sol 46169.00
iteration 59 sol 46168.00
iteration 60 sol 45770.00
iteration 61 sol 46168.00
iteration 62 sol 46095.00
iteration 63 sol 46916.00
iteration 64 sol 46186.00
iteration 65 sol 46458.00
iteration 66 sol 46458.00
iteration 67 sol 46234.00
iteration 68 sol 46111.00
iteration 69 sol 45988.00
iteration 70 sol 46805.00
iteration 71 sol 45535.00
iteration 72 sol 45681.00
iteration 73 sol 45944.00
iteration 74 sol 46194.00
iteration 75 sol 46317.00
iteration 76 sol 46351.00
iteration 77 sol 46625.00
iteration 78 sol 46734.00
iteration 79 sol 46168.00
iteration 80 sol 45663.00
iteration 81 sol 46107.00
iteration 82 sol 45644.00
iteration 83 sol 46733.00
iteration 84 sol 46838.00
iteration 85 sol 46186.00
iteration 86 sol 46288.00
iteration 87 sol 45960.00
iteration 88 sol 46145.00
iteration 89 sol 45690.00
iteration 90 sol 45969.00
iteration 91 sol 46249.00
iteration 92 sol 46697.00
iteration 93 sol 46940.00
iteration 94 sol 46707.00
iteration 95 sol 45744.00
iteration 96 sol 46234.00
iteration 97 sol 45679.00
iteration 98 sol 45916.00
iteration 99 sol 46265.00
iteration 100 sol 46726.00
iteration 101 sol 46168.00
iteration 102 sol 46642.00
iteration 103 sol 45535.00
iteration 104 sol 46137.00
iteration 105 sol 45535.00
iteration 106 sol 45991.00
iteration 107 sol 46335.00
iteration 108 sol 46234.00
iteration 109 sol 46157.00
iteration 110 sol 45694.00
iteration 111 sol 46593.00
iteration 112 sol 46745.00
iteration 113 sol 46168.00
iteration 114 sol 46153.00
iteration 115 sol 46422.00
iteration 116 sol 46153.00
iteration 117 sol 46275.00
iteration 118 sol 45718.00
iteration 119 sol 46093.00
iteration 120 sol 46163.00
iteration 121 sol 46809.00
iteration 122 sol 46281.00
iteration 123 sol 45656.00
iteration 124 sol 47048.00
iteration 125 sol 45742.00
iteration 126 sol 46543.00
iteration 127 sol 46110.00
iteration 128 sol 46413.00
iteration 129 sol 46874.00
iteration 130 sol 45875.00
iteration 131 sol 45968.00
iteration 132 sol 47129.00
iteration 133 sol 46538.00
iteration 134 sol 45659.00
iteration 135 sol 45832.00
iteration 136 sol 46346.00
iteration 137 sol 46267.00
iteration 138 sol 46453.00
iteration 139 sol 46022.00
iteration 140 sol 46537.00
iteration 141 sol 46433.00
iteration 142 sol 46194.00
iteration 143 sol 46168.00
iteration 144 sol 45637.00
iteration 145 sol 47161.00
iteration 146 sol 45770.00
iteration 147 sol 46186.00
iteration 148 sol 46222.00
iteration 149 sol 46743.00
iteration 150 sol 46675.00
iteration 151 sol 45664.00
iteration 152 sol 46458.00
iteration 153 sol 46733.00
iteration 154 sol 46234.00
iteration 155 sol 47391.00
iteration 156 sol 46437.00
iteration 157 sol 46153.00
iteration 158 sol 45750.00
iteration 159 sol 45762.00
iteration 160 sol 46234.00
iteration 161 sol 46184.00
iteration 162 sol 46168.00
iteration 163 sol 46445.00
iteration 164 sol 46186.00
iteration 165 sol 45672.00
iteration 166 sol 46347.00
iteration 167 sol 45771.00
iteration 168 sol 46636.00
iteration 169 sol 46155.00
iteration 170 sol 45786.00
iteration 171 sol 45770.00
iteration 172 sol 46386.00
iteration 173 sol 46873.00
iteration 174 sol 46234.00
iteration 175 sol 45742.00
iteration 176 sol 46598.00
iteration 177 sol 46381.00
iteration 178 sol 46299.00
iteration 179 sol 45705.00
iteration 180 sol 46151.00
iteration 181 sol 47191.00
iteration 182 sol 46563.00
iteration 183 sol 45679.00
iteration 184 sol 46301.00
iteration 185 sol 46571.00
iteration 186 sol 46168.00
iteration 187 sol 46547.00
iteration 188 sol 46904.00
iteration 189 sol 45710.00
iteration 190 sol 46151.00
iteration 191 sol 46105.00
iteration 192 sol 46067.00
iteration 193 sol 46110.00
iteration 194 sol 46309.00
iteration 195 sol 45898.00
iteration 196 sol 46064.00
iteration 197 sol 46209.00
iteration 198 sol 46447.00
iteration 199 sol 47004.00
iteration 200 sol 46186.00
iteration 201 sol 47108.00
iteration 202 sol 45898.00
iteration 203 sol 46078.00
iteration 204 sol 46145.00
iteration 205 sol 47201.00
iteration 206 sol 46314.00
iteration 207 sol 46009.00
iteration 208 sol 46083.00
iteration 209 sol 46620.00
iteration 210 sol 45718.00
iteration 211 sol 47099.00
iteration 212 sol 46241.00
iteration 213 sol 46234.00
iteration 214 sol 46186.00
iteration 215 sol 46344.00
iteration 216 sol 46186.00
iteration 217 sol 46809.00
iteration 218 sol 46002.00
iteration 219 sol 46234.00
iteration 220 sol 46153.00
iteration 221 sol 46186.00
iteration 222 sol 46153.00
iteration 223 sol 45655.00
iteration 224 sol 46905.00
iteration 225 sol 46577.00
iteration 226 sol 47045.00
iteration 227 sol 46623.00
iteration 228 sol 45884.00
iteration 229 sol 46151.00
iteration 230 sol 46626.00
iteration 231 sol 45676.00
iteration 232 sol 45774.00
iteration 233 sol 47048.00
iteration 234 sol 46256.00
iteration 235 sol 45886.00
iteration 236 sol 46120.00
iteration 237 sol 46186.00
iteration 238 sol 46634.00
iteration 239 sol 46460.00
iteration 240 sol 46166.00
iteration 241 sol 46256.00
iteration 242 sol 45964.00
iteration 243 sol 46186.00
iteration 244 sol 46888.00
iteration 245 sol 46200.00
iteration 246 sol 46168.00
iteration 247 sol 46289.00
iteration 248 sol 46869.00
iteration 249 sol 45631.00
iteration 250 sol 45944.00
iteration 251 sol 46234.00
iteration 252 sol 46409.00
iteration 253 sol 46178.00
iteration 254 sol 46002.00
iteration 255 sol 46060.00
iteration 256 sol 46292.00
iteration 257 sol 46277.00
iteration 258 sol 46636.00
iteration 259 sol 46979.00
iteration 260 sol 46466.00
iteration 261 sol 45770.00
iteration 262 sol 46234.00
iteration 263 sol 46781.00
iteration 264 sol 46167.00
iteration 265 sol 46254.00
iteration 266 sol 46956.00
iteration 267 sol 46756.00
iteration 268 sol 45637.00
iteration 269 sol 46234.00
iteration 270 sol 45535.00
iteration 271 sol 46002.00
iteration 272 sol 46234.00
iteration 273 sol 46234.00
iteration 274 sol 46411.00
iteration 275 sol 46195.00
iteration 276 sol 45964.00
iteration 277 sol 45692.00
iteration 278 sol 46378.00
iteration 279 sol 47199.00
iteration 280 sol 46168.00
iteration 281 sol 46078.00
iteration 282 sol 46054.00
iteration 283 sol 46012.00
iteration 284 sol 46127.00
iteration 285 sol 46955.00
iteration 286 sol 46410.00
iteration 287 sol 46095.00
iteration 288 sol 46180.00
iteration 289 sol 45944.00
iteration 290 sol 45968.00
iteration 291 sol 47041.00
iteration 292 sol 45939.00
iteration 293 sol 46024.00
iteration 294 sol 46186.00
iteration 295 sol 46234.00
iteration 296 sol 45770.00
iteration 297 sol 45717.00
iteration 298 sol 46036.00
iteration 299 sol 46453.00
iteration 300 sol 46234.00
iteration 301 sol 46603.00
iteration 302 sol 46024.00
iteration 303 sol 46127.00
iteration 304 sol 46109.00
iteration 305 sol 46568.00
iteration 306 sol 46631.00
iteration 307 sol 47369.00
iteration 308 sol 45770.00
iteration 309 sol 46247.00
iteration 310 sol 46234.00
iteration 311 sol 46636.00
iteration 312 sol 46168.00
iteration 313 sol 45886.00
iteration 314 sol 46666.00
iteration 315 sol 46963.00
iteration 316 sol 45770.00
iteration 317 sol 46301.00
iteration 318 sol 46166.00
iteration 319 sol 45705.00
iteration 320 sol 46156.00
iteration 321 sol 45636.00
iteration 322 sol 46755.00
iteration 323 sol 46580.00
iteration 324 sol 46458.00
iteration 325 sol 46101.00
iteration 326 sol 46207.00
iteration 327 sol 46217.00
iteration 328 sol 46065.00
iteration 329 sol 46814.00
iteration 330 sol 46768.00
iteration 331 sol 46829.00
iteration 332 sol 46939.00
iteration 333 sol 46952.00
iteration 334 sol 46817.00
iteration 335 sol 46660.00
iteration 336 sol 46908.00
iteration 337 sol 46689.00
iteration 338 sol 46549.00
iteration 339 sol 46320.00
iteration 340 sol 46816.00
iteration 341 sol 46132.00
iteration 342 sol 46168.00
iteration 343 sol 45700.00
iteration 344 sol 46002.00
iteration 345 sol 45944.00
iteration 346 sol 47006.00
iteration 347 sol 47234.00
iteration 348 sol 46439.00
iteration 349 sol 46113.00
iteration 350 sol 45944.00
iteration 351 sol 45923.00
iteration 352 sol 46836.00
iteration 353 sol 46037.00
iteration 354 sol 46824.00
iteration 355 sol 45944.00
iteration 356 sol 45668.00
iteration 357 sol 46347.00
iteration 358 sol 46693.00
iteration 359 sol 46081.00
iteration 360 sol 46598.00
iteration 361 sol 46221.00
iteration 362 sol 46693.00
iteration 363 sol 46372.00
iteration 364 sol 46687.00
iteration 365 sol 46234.00
iteration 366 sol 45944.00
iteration 367 sol 46894.00
iteration 368 sol 46275.00
iteration 369 sol 46472.00
iteration 370 sol 46624.00
iteration 371 sol 46047.00
iteration 372 sol 45944.00
iteration 373 sol 46330.00
iteration 374 sol 46316.00
iteration 375 sol 46234.00
iteration 376 sol 46002.00
iteration 377 sol 46153.00
iteration 378 sol 45787.00
iteration 379 sol 46186.00
iteration 380 sol 46049.00
iteration 381 sol 46292.00
iteration 382 sol 46124.00
iteration 383 sol 45774.00
iteration 384 sol 46201.00
iteration 385 sol 46735.00
iteration 386 sol 45944.00
iteration 387 sol 45535.00
iteration 388 sol 46251.00
iteration 389 sol 46477.00
iteration 390 sol 46234.00
iteration 391 sol 46105.00
iteration 392 sol 46706.00
iteration 393 sol 46866.00
iteration 394 sol 45736.00
iteration 395 sol 46234.00
iteration 396 sol 46147.00
iteration 397 sol 46483.00
iteration 398 sol 46602.00
iteration 399 sol 46332.00
iteration 400 sol 46002.00
iteration 401 sol 46221.00
iteration 402 sol 46376.00
iteration 403 sol 46168.00
iteration 404 sol 46470.00
iteration 405 sol 46015.00
iteration 406 sol 46944.00
iteration 407 sol 45846.00
iteration 408 sol 47048.00
iteration 409 sol 46587.00
iteration 410 sol 45992.00
iteration 411 sol 46108.00
iteration 412 sol 46013.00
iteration 413 sol 46625.00
iteration 414 sol 46848.00
iteration 415 sol 45714.00
iteration 416 sol 46251.00
iteration 417 sol 47241.00
iteration 418 sol 45908.00
iteration 419 sol 45397.00
iteration 420 sol 47614.00
iteration 421 sol 46234.00
iteration 422 sol 46533.00
iteration 423 sol 47221.00
iteration 424 sol 46490.00
iteration 425 sol 45944.00
iteration 426 sol 46002.00
iteration 427 sol 45944.00
iteration 428 sol 45705.00
iteration 429 sol 45705.00
iteration 430 sol 46384.00
iteration 431 sol 45944.00
iteration 432 sol 47178.00
iteration 433 sol 46430.00
iteration 434 sol 45535.00
iteration 435 sol 46942.00
iteration 436 sol 46734.00
iteration 437 sol 46153.00
iteration 438 sol 45637.00
iteration 439 sol 46467.00
iteration 440 sol 47102.00
iteration 441 sol 46788.00
iteration 442 sol 46239.00
iteration 443 sol 46234.00
iteration 444 sol 45944.00
iteration 445 sol 45694.00
iteration 446 sol 46292.00
iteration 447 sol 45705.00
iteration 448 sol 45663.00
iteration 449 sol 46264.00
iteration 450 sol 45694.00
iteration 451 sol 46221.00
iteration 452 sol 46419.00
iteration 453 sol 46260.00
iteration 454 sol 47008.00
iteration 455 sol 46608.00
iteration 456 sol 46168.00
iteration 457 sol 45944.00
iteration 458 sol 45924.00
iteration 459 sol 45535.00
iteration 460 sol 46172.00
iteration 461 sol 46035.00
iteration 462 sol 47153.00
iteration 463 sol 46140.00
iteration 464 sol 46641.00
iteration 465 sol 46105.00
iteration 466 sol 45964.00
iteration 467 sol 46129.00
iteration 468 sol 46746.00
iteration 469 sol 46011.00
iteration 470 sol 46153.00
iteration 471 sol 46229.00
iteration 472 sol 46951.00
iteration 473 sol 46785.00
iteration 474 sol 45711.00
iteration 475 sol 46628.00
iteration 476 sol 46509.00
iteration 477 sol 46587.00
iteration 478 sol 46493.00
iteration 479 sol 46168.00
iteration 480 sol 46481.00
iteration 481 sol 46733.00
iteration 482 sol 46370.00
iteration 483 sol 46594.00
iteration 484 sol 46963.00
iteration 485 sol 46500.00
iteration 486 sol 46929.00
iteration 487 sol 46186.00
iteration 488 sol 46568.00
iteration 489 sol 46707.00
iteration 490 sol 45977.00
iteration 491 sol 46922.00
iteration 492 sol 46913.00
iteration 493 sol 46234.00
iteration 494 sol 45884.00
iteration 495 sol 46679.00
iteration 496 sol 45620.00
iteration 497 sol 46234.00
iteration 498 sol 45750.00
iteration 499 sol 46459.00
iteration 500 sol 46482.00
iteration 501 sol 46586.00
iteration 502 sol 46002.00
iteration 503 sol 46186.00
iteration 504 sol 46359.00
iteration 505 sol 46234.00
iteration 506 sol 46186.00
iteration 507 sol 46621.00
iteration 508 sol 46365.00
iteration 509 sol 45967.00
iteration 510 sol 47031.00
iteration 511 sol 45964.00
iteration 512 sol 46462.00
iteration 513 sol 46168.00
iteration 514 sol 46399.00
iteration 515 sol 46339.00
iteration 516 sol 46106.00
iteration 517 sol 46952.00
iteration 518 sol 46397.00
iteration 519 sol 46383.00
iteration 520 sol 46115.00
iteration 521 sol 46153.00
iteration 522 sol 46261.00
iteration 523 sol 46460.00
iteration 524 sol 46168.00
iteration 525 sol 46815.00
iteration 526 sol 46214.00
iteration 527 sol 46261.00
iteration 528 sol 45699.00
iteration 529 sol 46545.00
iteration 530 sol 46089.00
iteration 531 sol 46261.00
iteration 532 sol 46252.00
iteration 533 sol 46288.00
iteration 534 sol 46193.00
iteration 535 sol 46076.00
iteration 536 sol 45705.00
iteration 537 sol 46693.00
iteration 538 sol 46920.00
iteration 539 sol 46903.00
iteration 540 sol 45720.00
iteration 541 sol 47297.00
iteration 542 sol 45742.00
iteration 543 sol 46829.00
iteration 544 sol 46645.00
iteration 545 sol 46176.00
iteration 546 sol 45654.00
iteration 547 sol 46405.00
iteration 548 sol 46505.00
iteration 549 sol 45770.00
iteration 550 sol 46168.00
iteration 551 sol 46579.00
iteration 552 sol 47078.00
iteration 553 sol 46734.00
iteration 554 sol 46093.00
iteration 555 sol 46304.00
iteration 556 sol 46076.00
iteration 557 sol 46467.00
iteration 558 sol 45755.00
iteration 559 sol 46609.00
iteration 560 sol 46234.00
iteration 561 sol 46381.00
iteration 562 sol 46186.00
iteration 563 sol 45839.00
iteration 564 sol 46186.00
iteration 565 sol 46554.00
iteration 566 sol 46136.00
iteration 567 sol 45977.00
iteration 568 sol 46281.00
iteration 569 sol 46866.00
iteration 570 sol 46633.00
iteration 571 sol 46461.00
iteration 572 sol 45775.00
iteration 573 sol 46168.00
iteration 574 sol 46645.00
iteration 575 sol 45966.00
iteration 576 sol 46364.00
iteration 577 sol 46168.00
iteration 578 sol 46024.00
iteration 579 sol 45330.00
iteration 580 sol 46539.00
iteration 581 sol 46600.00
iteration 582 sol 46776.00
iteration 583 sol 46168.00
iteration 584 sol 46115.00
iteration 585 sol 46795.00
iteration 586 sol 46493.00
iteration 587 sol 46120.00
iteration 588 sol 46234.00
iteration 589 sol 46153.00
iteration 590 sol 46863.00
iteration 591 sol 45735.00
iteration 592 sol 46117.00
iteration 593 sol 46234.00
iteration 594 sol 46744.00
iteration 595 sol 45936.00
iteration 596 sol 45794.00
iteration 597 sol 46453.00
iteration 598 sol 46186.00
iteration 599 sol 45755.00
iteration 600 sol 46137.00
iteration 601 sol 45913.00
iteration 602 sol 46493.00
iteration 603 sol 46664.00
iteration 604 sol 45713.00
iteration 605 sol 46458.00
iteration 606 sol 46301.00
iteration 607 sol 46735.00
iteration 608 sol 46153.00
iteration 609 sol 46887.00
iteration 610 sol 46168.00
iteration 611 sol 46698.00
iteration 612 sol 46609.00
iteration 613 sol 45862.00
iteration 614 sol 46738.00
iteration 615 sol 45637.00
iteration 616 sol 46168.00
iteration 617 sol 46159.00
iteration 618 sol 46016.00
iteration 619 sol 46234.00
iteration 620 sol 46149.00
iteration 621 sol 46476.00
iteration 622 sol 46132.00
iteration 623 sol 45944.00
iteration 624 sol 47003.00
iteration 625 sol 46234.00
iteration 626 sol 46219.00
iteration 627 sol 45507.00
iteration 628 sol 45770.00
iteration 629 sol 46333.00
iteration 630 sol 46185.00
iteration 631 sol 46209.00
iteration 632 sol 46461.00
iteration 633 sol 46645.00
iteration 634 sol 45845.00
iteration 635 sol 46158.00
iteration 636 sol 45626.00
iteration 637 sol 46581.00
iteration 638 sol 46279.00
iteration 639 sol 46168.00
iteration 640 sol 46213.00
iteration 641 sol 46498.00
iteration 642 sol 46168.00
iteration 643 sol 46071.00
iteration 644 sol 46311.00
iteration 645 sol 46221.00
iteration 646 sol 46157.00
iteration 647 sol 46533.00
iteration 648 sol 45957.00
iteration 649 sol 45705.00
iteration 650 sol 46127.00
iteration 651 sol 46292.00
iteration 652 sol 46919.00
iteration 653 sol 46612.00
iteration 654 sol 46566.00
iteration 655 sol 46339.00
iteration 656 sol 46301.00
iteration 657 sol 45877.00
iteration 658 sol 45626.00
iteration 659 sol 46548.00
iteration 660 sol 46234.00
iteration 661 sol 46095.00
iteration 662 sol 46641.00
iteration 663 sol 46388.00
iteration 664 sol 46168.00
iteration 665 sol 47155.00
iteration 666 sol 45629.00
iteration 667 sol 46234.00
iteration 668 sol 45944.00
iteration 669 sol 45877.00
iteration 670 sol 45973.00
iteration 671 sol 46167.00
iteration 672 sol 45967.00
iteration 673 sol 46445.00
iteration 674 sol 46140.00
iteration 675 sol 45735.00
iteration 676 sol 46034.00
iteration 677 sol 46390.00
iteration 678 sol 45641.00
iteration 679 sol 46267.00
iteration 680 sol 46463.00
iteration 681 sol 46413.00
iteration 682 sol 46234.00
iteration 683 sol 46447.00
iteration 684 sol 45613.00
iteration 685 sol 45928.00
iteration 686 sol 46350.00
iteration 687 sol 46832.00
iteration 688 sol 46148.00
iteration 689 sol 45770.00
iteration 690 sol 46234.00
iteration 691 sol 46080.00
iteration 692 sol 46435.00
iteration 693 sol 46154.00
iteration 694 sol 46482.00
iteration 695 sol 46733.00
iteration 696 sol 46186.00
iteration 697 sol 45993.00
iteration 698 sol 46234.00
iteration 699 sol 46923.00
iteration 700 sol 46502.00
iteration 701 sol 45928.00
iteration 702 sol 46002.00
iteration 703 sol 45770.00
iteration 704 sol 46267.00
iteration 705 sol 46766.00
iteration 706 sol 46333.00
iteration 707 sol 46647.00
iteration 708 sol 46272.00
iteration 709 sol 46002.00
iteration 710 sol 46035.00
iteration 711 sol 46419.00
iteration 712 sol 46490.00
iteration 713 sol 46175.00
iteration 714 sol 46939.00
iteration 715 sol 46065.00
iteration 716 sol 45672.00
iteration 717 sol 45770.00
iteration 718 sol 46831.00
iteration 719 sol 46127.00
iteration 720 sol 46774.00
iteration 721 sol 46002.00
iteration 722 sol 46433.00
iteration 723 sol 46186.00
iteration 724 sol 46626.00
iteration 725 sol 46210.00
iteration 726 sol 46684.00
iteration 727 sol 46654.00
iteration 728 sol 45646.00
iteration 729 sol 46890.00
iteration 730 sol 45710.00
iteration 731 sol 46497.00
iteration 732 sol 47123.00
iteration 733 sol 46186.00
iteration 734 sol 46002.00
iteration 735 sol 46234.00
iteration 736 sol 46168.00
iteration 737 sol 46736.00
iteration 738 sol 45735.00
iteration 739 sol 46286.00
iteration 740 sol 45770.00
iteration 741 sol 46847.00
iteration 742 sol 45694.00
iteration 743 sol 46055.00
iteration 744 sol 45770.00
iteration 745 sol 45932.00
iteration 746 sol 45656.00
iteration 747 sol 46234.00
iteration 748 sol 46728.00
iteration 749 sol 45944.00
iteration 750 sol 45664.00
iteration 751 sol 46234.00
iteration 752 sol 46948.00
iteration 753 sol 46272.00
iteration 754 sol 46619.00
iteration 755 sol 46648.00
iteration 756 sol 46743.00
iteration 757 sol 46732.00
iteration 758 sol 46392.00
iteration 759 sol 46186.00
iteration 760 sol 46754.00
iteration 761 sol 46186.00
iteration 762 sol 46635.00
iteration 763 sol 46288.00
iteration 764 sol 46769.00
iteration 765 sol 45770.00
iteration 766 sol 46493.00
iteration 767 sol 45535.00
iteration 768 sol 46636.00
iteration 769 sol 46366.00
iteration 770 sol 46564.00
iteration 771 sol 45694.00
iteration 772 sol 46701.00
iteration 773 sol 46691.00
iteration 774 sol 46117.00
iteration 775 sol 46271.00
iteration 776 sol 45705.00
iteration 777 sol 46186.00
iteration 778 sol 46367.00
iteration 779 sol 46163.00
iteration 780 sol 46230.00
iteration 781 sol 46126.00
iteration 782 sol 45705.00
iteration 783 sol 46037.00
iteration 784 sol 45770.00
iteration 785 sol 46289.00
iteration 786 sol 46163.00
iteration 787 sol 46838.00
iteration 788 sol 46234.00
iteration 789 sol 46168.00
iteration 790 sol 46234.00
iteration 791 sol 45987.00
iteration 792 sol 46826.00
iteration 793 sol 46579.00
iteration 794 sol 46793.00
iteration 795 sol 46043.00
iteration 796 sol 46153.00
iteration 797 sol 46723.00
iteration 798 sol 45694.00
iteration 799 sol 45735.00
iteration 800 sol 45770.00
iteration 801 sol 46234.00
iteration 802 sol 46277.00
iteration 803 sol 46577.00
iteration 804 sol 45741.00
iteration 805 sol 46002.00
iteration 806 sol 46453.00
iteration 807 sol 45705.00
iteration 808 sol 46645.00
iteration 809 sol 46485.00
iteration 810 sol 47437.00
iteration 811 sol 46636.00
iteration 812 sol 46774.00
iteration 813 sol 45535.00
iteration 814 sol 45621.00
iteration 815 sol 47175.00
iteration 816 sol 45911.00
iteration 817 sol 46294.00
iteration 818 sol 46512.00
iteration 819 sol 45841.00
iteration 820 sol 46626.00
iteration 821 sol 46826.00
iteration 822 sol 45535.00
iteration 823 sol 46200.00
iteration 824 sol 46821.00
iteration 825 sol 46168.00
iteration 826 sol 46288.00
iteration 827 sol 46136.00
iteration 828 sol 46153.00
iteration 829 sol 45987.00
iteration 830 sol 46153.00
iteration 831 sol 46913.00
iteration 832 sol 46113.00
iteration 833 sol 46238.00
iteration 834 sol 46168.00
iteration 835 sol 46329.00
iteration 836 sol 46301.00
iteration 837 sol 46429.00
iteration 838 sol 46645.00
iteration 839 sol 46168.00
iteration 840 sol 46534.00
iteration 841 sol 46457.00
iteration 842 sol 46286.00
iteration 843 sol 46397.00
iteration 844 sol 46619.00
iteration 845 sol 46234.00
iteration 846 sol 46132.00
iteration 847 sol 46068.00
iteration 848 sol 46234.00
iteration 849 sol 45830.00
iteration 850 sol 46190.00
iteration 851 sol 46002.00
iteration 852 sol 46658.00
iteration 853 sol 46587.00
iteration 854 sol 45705.00
iteration 855 sol 46124.00
iteration 856 sol 45700.00
iteration 857 sol 46021.00
iteration 858 sol 46062.00
iteration 859 sol 46175.00
iteration 860 sol 45718.00
iteration 861 sol 46044.00
iteration 862 sol 46002.00
iteration 863 sol 46002.00
iteration 864 sol 46540.00
iteration 865 sol 45865.00
iteration 866 sol 45535.00
iteration 867 sol 46005.00
iteration 868 sol 47061.00
iteration 869 sol 46234.00
iteration 870 sol 45617.00
iteration 871 sol 45846.00
iteration 872 sol 46207.00
iteration 873 sol 46234.00
iteration 874 sol 45738.00
iteration 875 sol 46124.00
iteration 876 sol 46508.00
iteration 877 sol 46234.00
iteration 878 sol 45705.00
iteration 879 sol 46781.00
iteration 880 sol 46331.00
iteration 881 sol 46540.00
iteration 882 sol 45831.00
iteration 883 sol 47329.00
iteration 884 sol 46153.00
iteration 885 sol 46397.00
iteration 886 sol 46678.00
iteration 887 sol 46088.00
iteration 888 sol 46277.00
iteration 889 sol 46168.00
iteration 890 sol 46151.00
iteration 891 sol 46201.00
iteration 892 sol 45944.00
iteration 893 sol 46607.00
iteration 894 sol 45770.00
iteration 895 sol 46388.00
iteration 896 sol 45831.00
iteration 897 sol 46438.00
iteration 898 sol 46662.00
iteration 899 sol 46543.00
iteration 900 sol 45718.00
iteration 901 sol 46002.00
iteration 902 sol 46458.00
iteration 903 sol 46234.00
iteration 904 sol 46353.00
iteration 905 sol 46264.00
iteration 906 sol 46153.00
iteration 907 sol 45718.00
iteration 908 sol 46417.00
iteration 909 sol 46007.00
iteration 910 sol 46156.00
iteration 911 sol 46251.00
iteration 912 sol 46234.00
iteration 913 sol 46136.00
iteration 914 sol 46453.00
iteration 915 sol 46210.00
iteration 916 sol 46234.00
iteration 917 sol 46513.00
iteration 918 sol 45903.00
iteration 919 sol 46705.00
iteration 920 sol 46689.00
iteration 921 sol 47304.00
iteration 922 sol 47320.00
iteration 923 sol 46089.00
iteration 924 sol 46541.00
iteration 925 sol 45928.00
iteration 926 sol 46457.00
iteration 927 sol 45755.00
iteration 928 sol 46002.00
iteration 929 sol 46267.00
iteration 930 sol 46234.00
iteration 931 sol 46600.00
iteration 932 sol 46103.00
iteration 933 sol 46497.00
iteration 934 sol 46238.00
iteration 935 sol 46784.00
iteration 936 sol 46234.00
iteration 937 sol 46281.00
iteration 938 sol 46650.00
iteration 939 sol 46094.00
iteration 940 sol 46587.00
iteration 941 sol 46641.00
iteration 942 sol 46234.00
iteration 943 sol 45940.00
iteration 944 sol 46644.00
iteration 945 sol 46153.00
iteration 946 sol 46533.00
iteration 947 sol 45770.00
iteration 948 sol 46399.00
iteration 949 sol 46168.00
iteration 950 sol 46568.00
iteration 951 sol 46221.00
iteration 952 sol 45694.00
iteration 953 sol 45987.00
iteration 954 sol 46248.00
iteration 955 sol 46595.00
iteration 956 sol 46154.00
iteration 957 sol 45944.00
iteration 958 sol 45535.00
iteration 959 sol 46136.00
iteration 960 sol 46087.00
iteration 961 sol 46462.00
iteration 962 sol 46268.00
iteration 963 sol 46234.00
iteration 964 sol 46350.00
iteration 965 sol 46775.00
iteration 966 sol 46654.00
iteration 967 sol 46136.00
iteration 968 sol 45944.00
iteration 969 sol 46178.00
iteration 970 sol 46421.00
iteration 971 sol 46233.00
iteration 972 sol 46542.00
iteration 973 sol 46331.00
iteration 974 sol 46234.00
iteration 975 sol 46207.00
iteration 976 sol 46486.00
iteration 977 sol 46266.00
iteration 978 sol 46609.00
iteration 979 sol 46381.00
iteration 980 sol 46021.00
iteration 981 sol 46756.00
iteration 982 sol 46462.00
iteration 983 sol 47107.00
iteration 984 sol 45898.00
iteration 985 sol 46468.00
iteration 986 sol 46065.00
iteration 987 sol 46006.00
iteration 988 sol 46170.00
iteration 989 sol 46168.00
iteration 990 sol 45908.00
iteration 991 sol 46791.00
iteration 992 sol 45992.00
iteration 993 sol 46186.00
iteration 994 sol 46073.00
iteration 995 sol 46168.00
iteration 996 sol 46821.00
iteration 997 sol 45710.00
iteration 998 sol 46405.00
iteration 999 sol 45681.00
iteration 1000 sol 47003.00
iteration 1001 sol 45968.00
iteration 1002 sol 46185.00
iteration 1003 sol 46502.00
iteration 1004 sol 46539.00
iteration 1005 sol 46234.00
iteration 1006 sol 46626.00
iteration 1007 sol 46556.00
iteration 1008 sol 46608.00
iteration 1009 sol 46292.00
iteration 1010 sol 46382.00
iteration 1011 sol 46770.00
iteration 1012 sol 46715.00
iteration 1013 sol 46152.00
iteration 1014 sol 46166.00
iteration 1015 sol 46642.00
iteration 1016 sol 45944.00
iteration 1017 sol 46002.00
iteration 1018 sol 46790.00
iteration 1019 sol 46680.00
iteration 1020 sol 45912.00
iteration 1021 sol 46186.00
iteration 1022 sol 46559.00
iteration 1023 sol 45894.00
iteration 1024 sol 46450.00
iteration 1025 sol 46473.00
iteration 1026 sol 46186.00
iteration 1027 sol 46285.00
iteration 1028 sol 46234.00
iteration 1029 sol 46194.00
iteration 1030 sol 46363.00
iteration 1031 sol 46234.00
iteration 1032 sol 46613.00
iteration 1033 sol 45770.00
iteration 1034 sol 47200.00
iteration 1035 sol 46092.00
iteration 1036 sol 46552.00
iteration 1037 sol 46234.00
iteration 1038 sol 46134.00
iteration 1039 sol 45637.00
iteration 1040 sol 46476.00
iteration 1041 sol 46234.00
iteration 1042 sol 46472.00
iteration 1043 sol 46456.00
iteration 1044 sol 45737.00
iteration 1045 sol 46083.00
iteration 1046 sol 46723.00
iteration 1047 sol 46342.00
iteration 1048 sol 46250.00
iteration 1049 sol 46148.00
iteration 1050 sol 46743.00
iteration 1051 sol 46848.00
iteration 1052 sol 46678.00
iteration 1053 sol 46471.00
iteration 1054 sol 46715.00
iteration 1055 sol 46728.00
iteration 1056 sol 46498.00
iteration 1057 sol 46317.00
iteration 1058 sol 45705.00
iteration 1059 sol 45676.00
iteration 1060 sol 47050.00
iteration 1061 sol 46689.00
iteration 1062 sol 45728.00
iteration 1063 sol 46120.00
iteration 1064 sol 46265.00
iteration 1065 sol 46192.00
iteration 1066 sol 46763.00
iteration 1067 sol 46614.00
iteration 1068 sol 46075.00
iteration 1069 sol 46603.00
iteration 1070 sol 46580.00
iteration 1071 sol 46376.00
iteration 1072 sol 46168.00
iteration 1073 sol 45705.00
iteration 1074 sol 46168.00
iteration 1075 sol 46119.00
iteration 1076 sol 46247.00
iteration 1077 sol 46165.00
iteration 1078 sol 46148.00
iteration 1079 sol 46453.00
iteration 1080 sol 46367.00
iteration 1081 sol 46367.00
iteration 1082 sol 46341.00
iteration 1083 sol 46061.00
iteration 1084 sol 46267.00
iteration 1085 sol 46440.00
iteration 1086 sol 46076.00
iteration 1087 sol 47102.00
iteration 1088 sol 46179.00
iteration 1089 sol 46473.00
iteration 1090 sol 46234.00
iteration 1091 sol 46168.00
iteration 1092 sol 46285.00
iteration 1093 sol 46048.00
iteration 1094 sol 45666.00
iteration 1095 sol 46034.00
iteration 1096 sol 46096.00
iteration 1097 sol 45913.00
iteration 1098 sol 46288.00
iteration 1099 sol 46109.00
iteration 1100 sol 45770.00
iteration 1101 sol 46197.00
iteration 1102 sol 46436.00
iteration 1103 sol 46563.00
iteration 1104 sol 46353.00
iteration 1105 sol 46636.00
iteration 1106 sol 46234.00
iteration 1107 sol 46102.00
iteration 1108 sol 46557.00
iteration 1109 sol 46313.00
iteration 1110 sol 46427.00
iteration 1111 sol 46575.00
iteration 1112 sol 46096.00
iteration 1113 sol 46179.00
iteration 1114 sol 46288.00
iteration 1115 sol 46505.00
iteration 1116 sol 47038.00
iteration 1117 sol 46539.00
iteration 1118 sol 46234.00
iteration 1119 sol 46795.00
iteration 1120 sol 46699.00
iteration 1121 sol 45977.00
iteration 1122 sol 46619.00
iteration 1123 sol 46934.00
iteration 1124 sol 45825.00
iteration 1125 sol 45969.00
iteration 1126 sol 45919.00
iteration 1127 sol 45723.00
iteration 1128 sol 46390.00
iteration 1129 sol 46153.00
iteration 1130 sol 45702.00
iteration 1131 sol 46186.00
iteration 1132 sol 46002.00
iteration 1133 sol 46618.00
iteration 1134 sol 45770.00
iteration 1135 sol 46168.00
iteration 1136 sol 46730.00
iteration 1137 sol 46190.00
iteration 1138 sol 46116.00
iteration 1139 sol 46168.00
iteration 1140 sol 46398.00
iteration 1141 sol 45858.00
iteration 1142 sol 46793.00
iteration 1143 sol 45973.00
iteration 1144 sol 46589.00
iteration 1145 sol 46994.00
iteration 1146 sol 46688.00
iteration 1147 sol 46234.00
iteration 1148 sol 46735.00
iteration 1149 sol 46636.00
iteration 1150 sol 47002.00
iteration 1151 sol 46417.00
iteration 1152 sol 46662.00
iteration 1153 sol 46514.00
iteration 1154 sol 46917.00
iteration 1155 sol 46301.00
iteration 1156 sol 46234.00
iteration 1157 sol 46723.00
iteration 1158 sol 45718.00
iteration 1159 sol 45770.00
iteration 1160 sol 46517.00
iteration 1161 sol 46151.00
iteration 1162 sol 46292.00
iteration 1163 sol 46226.00
iteration 1164 sol 46476.00
iteration 1165 sol 46002.00
iteration 1166 sol 46547.00
iteration 1167 sol 46267.00
iteration 1168 sol 46148.00
iteration 1169 sol 46470.00
iteration 1170 sol 46287.00
iteration 1171 sol 46186.00
iteration 1172 sol 46924.00
iteration 1173 sol 45971.00
iteration 1174 sol 45916.00
iteration 1175 sol 46301.00
iteration 1176 sol 46637.00
iteration 1177 sol 45903.00
iteration 1178 sol 46035.00
iteration 1179 sol 46157.00
iteration 1180 sol 46221.00
iteration 1181 sol 45698.00
iteration 1182 sol 46179.00
iteration 1183 sol 46430.00
iteration 1184 sol 46416.00
iteration 1185 sol 45770.00
iteration 1186 sol 46173.00
iteration 1187 sol 45944.00
iteration 1188 sol 46124.00
iteration 1189 sol 45944.00
iteration 1190 sol 45535.00
iteration 1191 sol 47086.00
iteration 1192 sol 46503.00
iteration 1193 sol 45836.00
iteration 1194 sol 46172.00
iteration 1195 sol 46405.00
iteration 1196 sol 46168.00
iteration 1197 sol 46595.00
iteration 1198 sol 47037.00
iteration 1199 sol 46065.00
iteration 1200 sol 46198.00
iteration 1201 sol 45507.00
iteration 1202 sol 45809.00
iteration 1203 sol 46612.00
iteration 1204 sol 46698.00
iteration 1205 sol 45867.00
iteration 1206 sol 45535.00
iteration 1207 sol 46339.00
iteration 1208 sol 46968.00
iteration 1209 sol 46251.00
iteration 1210 sol 46241.00
iteration 1211 sol 46153.00
iteration 1212 sol 46658.00
iteration 1213 sol 46754.00
iteration 1214 sol 45902.00
iteration 1215 sol 46122.00
iteration 1216 sol 46613.00
iteration 1217 sol 46304.00
iteration 1218 sol 45770.00
iteration 1219 sol 46160.00
iteration 1220 sol 46642.00
iteration 1221 sol 46024.00
iteration 1222 sol 46781.00
iteration 1223 sol 45916.00
iteration 1224 sol 45735.00
iteration 1225 sol 46024.00
iteration 1226 sol 46054.00
iteration 1227 sol 46393.00
iteration 1228 sol 45964.00
iteration 1229 sol 46123.00
iteration 1230 sol 46498.00
iteration 1231 sol 46234.00
iteration 1232 sol 45944.00
iteration 1233 sol 46002.00
iteration 1234 sol 47103.00
iteration 1235 sol 46301.00
iteration 1236 sol 45535.00
iteration 1237 sol 46934.00
iteration 1238 sol 45535.00
iteration 1239 sol 46464.00
iteration 1240 sol 45964.00
iteration 1241 sol 46825.00
iteration 1242 sol 45652.00
iteration 1243 sol 46478.00
iteration 1244 sol 45694.00
iteration 1245 sol 46234.00
iteration 1246 sol 46472.00
iteration 1247 sol 46186.00
iteration 1248 sol 46168.00
iteration 1249 sol 46267.00
iteration 1250 sol 46821.00
iteration 1251 sol 46403.00
iteration 1252 sol 46140.00
iteration 1253 sol 46111.00
iteration 1254 sol 46168.00
iteration 1255 sol 45857.00
iteration 1256 sol 46065.00
iteration 1257 sol 46466.00
iteration 1258 sol 45670.00
iteration 1259 sol 45966.00
iteration 1260 sol 46493.00
iteration 1261 sol 46636.00
iteration 1262 sol 45796.00
iteration 1263 sol 46206.00
iteration 1264 sol 47056.00
iteration 1265 sol 46573.00
iteration 1266 sol 46002.00
iteration 1267 sol 46166.00
iteration 1268 sol 46867.00
iteration 1269 sol 46391.00
iteration 1270 sol 46770.00
iteration 1271 sol 45785.00
iteration 1272 sol 46168.00
iteration 1273 sol 46140.00
iteration 1274 sol 47229.00
iteration 1275 sol 45877.00
iteration 1276 sol 46234.00
iteration 1277 sol 46545.00
iteration 1278 sol 46234.00
iteration 1279 sol 46738.00
iteration 1280 sol 46002.00
iteration 1281 sol 46354.00
iteration 1282 sol 46002.00
iteration 1283 sol 45672.00
iteration 1284 sol 46453.00
iteration 1285 sol 46104.00
iteration 1286 sol 46285.00
iteration 1287 sol 46234.00
iteration 1288 sol 45694.00
iteration 1289 sol 46830.00
iteration 1290 sol 46181.00
iteration 1291 sol 46237.00
iteration 1292 sol 46140.00
iteration 1293 sol 46285.00
iteration 1294 sol 45770.00
iteration 1295 sol 46166.00
iteration 1296 sol 46939.00
iteration 1297 sol 46132.00
iteration 1298 sol 46002.00
iteration 1299 sol 46234.00
iteration 1300 sol 46168.00
iteration 1301 sol 46059.00
iteration 1302 sol 46215.00
iteration 1303 sol 45759.00
iteration 1304 sol 45770.00
iteration 1305 sol 47016.00
iteration 1306 sol 46598.00
iteration 1307 sol 46194.00
iteration 1308 sol 46070.00
iteration 1309 sol 46609.00
iteration 1310 sol 46547.00
iteration 1311 sol 46234.00
iteration 1312 sol 46729.00
iteration 1313 sol 46481.00
iteration 1314 sol 46641.00
iteration 1315 sol 46186.00
iteration 1316 sol 45944.00
iteration 1317 sol 45944.00
iteration 1318 sol 46690.00
iteration 1319 sol 46885.00
iteration 1320 sol 46370.00
iteration 1321 sol 46400.00
iteration 1322 sol 46303.00
iteration 1323 sol 46230.00
iteration 1324 sol 47331.00
iteration 1325 sol 46168.00
iteration 1326 sol 46168.00
iteration 1327 sol 47331.00
iteration 1328 sol 46234.00
iteration 1329 sol 46596.00
iteration 1330 sol 46234.00
iteration 1331 sol 45633.00
iteration 1332 sol 46443.00
iteration 1333 sol 46524.00
iteration 1334 sol 45648.00
iteration 1335 sol 46312.00
iteration 1336 sol 45535.00
iteration 1337 sol 46132.00
iteration 1338 sol 47186.00
iteration 1339 sol 46258.00
iteration 1340 sol 46511.00
iteration 1341 sol 46186.00
iteration 1342 sol 46473.00
iteration 1343 sol 46449.00
iteration 1344 sol 47039.00
iteration 1345 sol 46234.00
iteration 1346 sol 47036.00
iteration 1347 sol 46302.00
iteration 1348 sol 46080.00
iteration 1349 sol 46234.00
iteration 1350 sol 46777.00
iteration 1351 sol 46153.00
iteration 1352 sol 46442.00
iteration 1353 sol 46707.00
iteration 1354 sol 47347.00
iteration 1355 sol 46515.00
iteration 1356 sol 46090.00
iteration 1357 sol 46081.00
iteration 1358 sol 46597.00
iteration 1359 sol 45731.00
iteration 1360 sol 46123.00
iteration 1361 sol 47081.00
iteration 1362 sol 45535.00
iteration 1363 sol 45871.00
iteration 1364 sol 45892.00
iteration 1365 sol 46319.00
iteration 1366 sol 46468.00
iteration 1367 sol 46090.00
iteration 1368 sol 45684.00
iteration 1369 sol 46252.00
iteration 1370 sol 46941.00
iteration 1371 sol 45843.00
iteration 1372 sol 45944.00
iteration 1373 sol 46957.00
iteration 1374 sol 46234.00
iteration 1375 sol 45705.00
iteration 1376 sol 46292.00
iteration 1377 sol 46397.00
iteration 1378 sol 46932.00
iteration 1379 sol 45676.00
iteration 1380 sol 46311.00
iteration 1381 sol 46219.00
iteration 1382 sol 46812.00
iteration 1383 sol 46429.00
iteration 1384 sol 46237.00
iteration 1385 sol 46234.00
iteration 1386 sol 47045.00
iteration 1387 sol 46424.00
iteration 1388 sol 46002.00
iteration 1389 sol 46817.00
iteration 1390 sol 46588.00
iteration 1391 sol 46797.00
iteration 1392 sol 46234.00
iteration 1393 sol 46313.00
iteration 1394 sol 46704.00
iteration 1395 sol 46163.00
iteration 1396 sol 46229.00
iteration 1397 sol 46096.00
iteration 1398 sol 46044.00
iteration 1399 sol 45737.00
iteration 1400 sol 45944.00
iteration 1401 sol 45535.00
iteration 1402 sol 45913.00
iteration 1403 sol 45694.00
iteration 1404 sol 46040.00
iteration 1405 sol 46105.00
iteration 1406 sol 45705.00
iteration 1407 sol 45944.00
iteration 1408 sol 46266.00
iteration 1409 sol 46729.00
iteration 1410 sol 47265.00
iteration 1411 sol 46795.00
iteration 1412 sol 45705.00
iteration 1413 sol 46388.00
iteration 1414 sol 46787.00
iteration 1415 sol 45761.00
iteration 1416 sol 46614.00
iteration 1417 sol 45944.00
iteration 1418 sol 47229.00
iteration 1419 sol 45989.00
iteration 1420 sol 45694.00
iteration 1421 sol 46665.00
iteration 1422 sol 46301.00
iteration 1423 sol 45932.00
iteration 1424 sol 46293.00
iteration 1425 sol 46234.00
iteration 1426 sol 46234.00
iteration 1427 sol 45746.00
iteration 1428 sol 46441.00
iteration 1429 sol 46302.00
iteration 1430 sol 46304.00
iteration 1431 sol 46168.00
iteration 1432 sol 46125.00
iteration 1433 sol 46501.00
iteration 1434 sol 46234.00
iteration 1435 sol 46388.00
iteration 1436 sol 46474.00
iteration 1437 sol 46399.00
iteration 1438 sol 46301.00
iteration 1439 sol 45617.00
iteration 1440 sol 46668.00
iteration 1441 sol 46968.00
iteration 1442 sol 45774.00
iteration 1443 sol 46530.00
iteration 1444 sol 45705.00
iteration 1445 sol 46186.00
iteration 1446 sol 46591.00
iteration 1447 sol 45705.00
iteration 1448 sol 46540.00
iteration 1449 sol 46140.00
iteration 1450 sol 46143.00
iteration 1451 sol 46946.00
iteration 1452 sol 46231.00
iteration 1453 sol 45535.00
iteration 1454 sol 45850.00
iteration 1455 sol 46234.00
iteration 1456 sol 45705.00
iteration 1457 sol 46234.00
iteration 1458 sol 46522.00
iteration 1459 sol 45770.00
iteration 1460 sol 45916.00
iteration 1461 sol 45704.00
iteration 1462 sol 45776.00
iteration 1463 sol 46056.00
iteration 1464 sol 46284.00
iteration 1465 sol 45770.00
iteration 1466 sol 46731.00
iteration 1467 sol 45913.00
iteration 1468 sol 45770.00
iteration 1469 sol 46029.00
iteration 1470 sol 46658.00
iteration 1471 sol 47245.00
iteration 1472 sol 46642.00
iteration 1473 sol 46200.00
iteration 1474 sol 46234.00
iteration 1475 sol 46081.00
iteration 1476 sol 46234.00
iteration 1477 sol 45996.00
iteration 1478 sol 45964.00
iteration 1479 sol 45755.00
iteration 1480 sol 46002.00
iteration 1481 sol 46514.00
iteration 1482 sol 46884.00
iteration 1483 sol 45624.00
iteration 1484 sol 46475.00
iteration 1485 sol 46702.00
iteration 1486 sol 46234.00
iteration 1487 sol 45701.00
iteration 1488 sol 46453.00
iteration 1489 sol 46062.00
iteration 1490 sol 45993.00
iteration 1491 sol 46123.00
iteration 1492 sol 46920.00
iteration 1493 sol 46254.00
iteration 1494 sol 46234.00
iteration 1495 sol 46043.00
iteration 1496 sol 46284.00
iteration 1497 sol 46153.00
iteration 1498 sol 46095.00
iteration 1499 sol 46815.00
iteration 1500 sol 46458.00
iteration 1501 sol 45710.00
iteration 1502 sol 46808.00
iteration 1503 sol 46234.00
iteration 1504 sol 47077.00
iteration 1505 sol 45705.00
iteration 1506 sol 45642.00
iteration 1507 sol 45535.00
iteration 1508 sol 46666.00
iteration 1509 sol 46330.00
iteration 1510 sol 46518.00
iteration 1511 sol 46583.00
iteration 1512 sol 46459.00
iteration 1513 sol 46891.00
iteration 1514 sol 45852.00
iteration 1515 sol 46827.00
iteration 1516 sol 46533.00
iteration 1517 sol 46234.00
iteration 1518 sol 46111.00
iteration 1519 sol 46168.00
iteration 1520 sol 46186.00
iteration 1521 sol 46555.00
iteration 1522 sol 46201.00
iteration 1523 sol 46696.00
iteration 1524 sol 46234.00
iteration 1525 sol 46701.00
iteration 1526 sol 46501.00
iteration 1527 sol 46551.00
iteration 1528 sol 46168.00
iteration 1529 sol 45770.00
iteration 1530 sol 46168.00
iteration 1531 sol 46007.00
iteration 1532 sol 46281.00
iteration 1533 sol 46518.00
iteration 1534 sol 46234.00
iteration 1535 sol 46090.00
iteration 1536 sol 46559.00
iteration 1537 sol 46324.00
iteration 1538 sol 46587.00
iteration 1539 sol 45944.00
iteration 1540 sol 46797.00
iteration 1541 sol 46128.00
iteration 1542 sol 45863.00
iteration 1543 sol 46234.00
iteration 1544 sol 46308.00
iteration 1545 sol 46829.00
iteration 1546 sol 46509.00
iteration 1547 sol 46153.00
iteration 1548 sol 45535.00
iteration 1549 sol 46730.00
iteration 1550 sol 46495.00
iteration 1551 sol 46619.00
iteration 1552 sol 46939.00
iteration 1553 sol 46363.00
iteration 1554 sol 45987.00
iteration 1555 sol 45633.00
iteration 1556 sol 46812.00
iteration 1557 sol 46363.00
iteration 1558 sol 46215.00
iteration 1559 sol 46114.00
iteration 1560 sol 46044.00
iteration 1561 sol 46280.00
iteration 1562 sol 46168.00
iteration 1563 sol 46301.00
iteration 1564 sol 46234.00
iteration 1565 sol 46051.00
iteration 1566 sol 46852.00
iteration 1567 sol 46290.00
iteration 1568 sol 46734.00
iteration 1569 sol 46487.00
iteration 1570 sol 46415.00
iteration 1571 sol 46517.00
iteration 1572 sol 46183.00
iteration 1573 sol 46187.00
iteration 1574 sol 46168.00
iteration 1575 sol 46383.00
iteration 1576 sol 46645.00
iteration 1577 sol 46877.00
iteration 1578 sol 45735.00
iteration 1579 sol 46277.00
iteration 1580 sol 45841.00
iteration 1581 sol 45971.00
iteration 1582 sol 46619.00
iteration 1583 sol 46975.00
iteration 1584 sol 46685.00
iteration 1585 sol 46791.00
iteration 1586 sol 45944.00
iteration 1587 sol 45812.00
iteration 1588 sol 45610.00
iteration 1589 sol 45898.00
iteration 1590 sol 45791.00
iteration 1591 sol 46180.00
iteration 1592 sol 46520.00
iteration 1593 sol 46340.00
iteration 1594 sol 46327.00
iteration 1595 sol 46002.00
iteration 1596 sol 45933.00
iteration 1597 sol 46159.00
iteration 1598 sol 45694.00
iteration 1599 sol 45535.00
iteration 1600 sol 45705.00
iteration 1601 sol 46168.00
iteration 1602 sol 45928.00
iteration 1603 sol 46426.00
iteration 1604 sol 46129.00
iteration 1605 sol 45705.00
iteration 1606 sol 46234.00
iteration 1607 sol 46978.00
iteration 1608 sol 46074.00
iteration 1609 sol 46511.00
iteration 1610 sol 46619.00
iteration 1611 sol 46711.00
iteration 1612 sol 46770.00
iteration 1613 sol 46656.00
iteration 1614 sol 45666.00
iteration 1615 sol 46234.00
iteration 1616 sol 46708.00
iteration 1617 sol 46234.00
iteration 1618 sol 46725.00
iteration 1619 sol 46186.00
iteration 1620 sol 46136.00
iteration 1621 sol 46588.00
iteration 1622 sol 46229.00
iteration 1623 sol 46860.00
iteration 1624 sol 46234.00
iteration 1625 sol 46039.00
iteration 1626 sol 45731.00
iteration 1627 sol 45671.00
iteration 1628 sol 46607.00
iteration 1629 sol 46309.00
iteration 1630 sol 46065.00
iteration 1631 sol 47633.00
iteration 1632 sol 46630.00
iteration 1633 sol 45842.00
iteration 1634 sol 46002.00
iteration 1635 sol 46112.00
iteration 1636 sol 45936.00
iteration 1637 sol 46663.00
iteration 1638 sol 46361.00
iteration 1639 sol 46153.00
iteration 1640 sol 46488.00
iteration 1641 sol 46744.00
iteration 1642 sol 46898.00
iteration 1643 sol 47068.00
iteration 1644 sol 46793.00
iteration 1645 sol 45897.00
iteration 1646 sol 46281.00
iteration 1647 sol 45535.00
iteration 1648 sol 46168.00
iteration 1649 sol 46031.00
iteration 1650 sol 46492.00
iteration 1651 sol 46141.00
iteration 1652 sol 46388.00
iteration 1653 sol 46104.00
iteration 1654 sol 46002.00
iteration 1655 sol 46573.00
iteration 1656 sol 45535.00
iteration 1657 sol 46234.00
iteration 1658 sol 45972.00
iteration 1659 sol 46573.00
iteration 1660 sol 46186.00
iteration 1661 sol 46186.00
iteration 1662 sol 46735.00
iteration 1663 sol 45735.00
iteration 1664 sol 46863.00
iteration 1665 sol 46186.00
iteration 1666 sol 46234.00
iteration 1667 sol 46180.00
iteration 1668 sol 46105.00
iteration 1669 sol 46852.00
iteration 1670 sol 46242.00
iteration 1671 sol 46234.00
iteration 1672 sol 45913.00
iteration 1673 sol 46000.00
iteration 1674 sol 45471.00
iteration 1675 sol 45728.00
iteration 1676 sol 46397.00
iteration 1677 sol 46234.00
iteration 1678 sol 45933.00
iteration 1679 sol 45735.00
iteration 1680 sol 45684.00
iteration 1681 sol 46520.00
iteration 1682 sol 46686.00
iteration 1683 sol 45496.00
iteration 1684 sol 46661.00
iteration 1685 sol 45964.00
iteration 1686 sol 46153.00
iteration 1687 sol 46267.00
iteration 1688 sol 46234.00
iteration 1689 sol 45885.00
iteration 1690 sol 46234.00
iteration 1691 sol 46251.00
iteration 1692 sol 45770.00
iteration 1693 sol 46594.00
iteration 1694 sol 46153.00
iteration 1695 sol 46185.00
iteration 1696 sol 46879.00
iteration 1697 sol 47061.00
iteration 1698 sol 46720.00
iteration 1699 sol 45973.00
iteration 1700 sol 46196.00
iteration 1701 sol 46396.00
iteration 1702 sol 46458.00
iteration 1703 sol 46674.00
iteration 1704 sol 46168.00
iteration 1705 sol 47163.00
iteration 1706 sol 46697.00
iteration 1707 sol 46596.00
iteration 1708 sol 45705.00
iteration 1709 sol 45705.00
iteration 1710 sol 46186.00
iteration 1711 sol 46579.00
iteration 1712 sol 46153.00
iteration 1713 sol 46166.00
iteration 1714 sol 45964.00
iteration 1715 sol 46296.00
iteration 1716 sol 45936.00
iteration 1717 sol 46472.00
iteration 1718 sol 46524.00
iteration 1719 sol 46341.00
iteration 1720 sol 46579.00
iteration 1721 sol 46168.00
iteration 1722 sol 46794.00
iteration 1723 sol 46829.00
iteration 1724 sol 46234.00
iteration 1725 sol 46636.00
iteration 1726 sol 47048.00
iteration 1727 sol 46160.00
iteration 1728 sol 46472.00
iteration 1729 sol 45705.00
iteration 1730 sol 46589.00
iteration 1731 sol 46453.00
iteration 1732 sol 46292.00
iteration 1733 sol 46930.00
iteration 1734 sol 46746.00
iteration 1735 sol 46742.00
iteration 1736 sol 45759.00
iteration 1737 sol 46617.00
iteration 1738 sol 45718.00
iteration 1739 sol 46180.00
iteration 1740 sol 45898.00
iteration 1741 sol 46430.00
iteration 1742 sol 45754.00
iteration 1743 sol 46908.00
iteration 1744 sol 46557.00
iteration 1745 sol 46292.00
iteration 1746 sol 46883.00
iteration 1747 sol 45944.00
iteration 1748 sol 46615.00
iteration 1749 sol 46612.00
iteration 1750 sol 46486.00
iteration 1751 sol 46719.00
iteration 1752 sol 45675.00
iteration 1753 sol 46167.00
iteration 1754 sol 46824.00
iteration 1755 sol 46168.00
iteration 1756 sol 46296.00
iteration 1757 sol 47089.00
iteration 1758 sol 46821.00
iteration 1759 sol 46462.00
iteration 1760 sol 46200.00
iteration 1761 sol 46064.00
iteration 1762 sol 46124.00
iteration 1763 sol 46234.00
iteration 1764 sol 46234.00
iteration 1765 sol 46221.00
iteration 1766 sol 46891.00
iteration 1767 sol 46703.00
iteration 1768 sol 46692.00
iteration 1769 sol 46645.00
iteration 1770 sol 46148.00
iteration 1771 sol 45898.00
iteration 1772 sol 46320.00
iteration 1773 sol 46426.00
iteration 1774 sol 46121.00
iteration 1775 sol 46245.00
iteration 1776 sol 46570.00
iteration 1777 sol 46484.00
iteration 1778 sol 46389.00
iteration 1779 sol 46544.00
iteration 1780 sol 45635.00
iteration 1781 sol 46097.00
iteration 1782 sol 46636.00
iteration 1783 sol 45658.00
iteration 1784 sol 46168.00
iteration 1785 sol 46288.00
iteration 1786 sol 47202.00
iteration 1787 sol 46957.00
iteration 1788 sol 46234.00
iteration 1789 sol 45975.00
iteration 1790 sol 46669.00
iteration 1791 sol 46335.00
iteration 1792 sol 46590.00
iteration 1793 sol 45681.00
iteration 1794 sol 46397.00
iteration 1795 sol 46321.00
iteration 1796 sol 45831.00
iteration 1797 sol 46543.00
iteration 1798 sol 46517.00
iteration 1799 sol 45705.00
iteration 1800 sol 46534.00
iteration 1801 sol 46168.00
iteration 1802 sol 46575.00
iteration 1803 sol 46856.00
iteration 1804 sol 46598.00
iteration 1805 sol 46234.00
iteration 1806 sol 46002.00
iteration 1807 sol 46945.00
iteration 1808 sol 46006.00
iteration 1809 sol 45945.00
iteration 1810 sol 46366.00
iteration 1811 sol 46281.00
iteration 1812 sol 46302.00
iteration 1813 sol 45722.00
iteration 1814 sol 46153.00
iteration 1815 sol 45925.00
iteration 1816 sol 47122.00
iteration 1817 sol 46602.00
iteration 1818 sol 46945.00
iteration 1819 sol 46168.00
iteration 1820 sol 46110.00
iteration 1821 sol 46516.00
iteration 1822 sol 46115.00
iteration 1823 sol 45535.00
iteration 1824 sol 45705.00
iteration 1825 sol 46234.00
iteration 1826 sol 46807.00
iteration 1827 sol 46559.00
iteration 1828 sol 46320.00
iteration 1829 sol 46182.00
iteration 1830 sol 46826.00
iteration 1831 sol 46575.00
iteration 1832 sol 46549.00
iteration 1833 sol 45993.00
iteration 1834 sol 45944.00
iteration 1835 sol 46234.00
iteration 1836 sol 46168.00
iteration 1837 sol 46364.00
iteration 1838 sol 46234.00
iteration 1839 sol 46204.00
iteration 1840 sol 45987.00
iteration 1841 sol 46098.00
iteration 1842 sol 46272.00
iteration 1843 sol 45894.00
iteration 1844 sol 46417.00
iteration 1845 sol 45705.00
iteration 1846 sol 45944.00
iteration 1847 sol 45864.00
iteration 1848 sol 45718.00
iteration 1849 sol 45987.00
iteration 1850 sol 46266.00
iteration 1851 sol 46430.00
iteration 1852 sol 46209.00
iteration 1853 sol 46543.00
iteration 1854 sol 46681.00
iteration 1855 sol 46096.00
iteration 1856 sol 46153.00
iteration 1857 sol 46811.00
iteration 1858 sol 46221.00
iteration 1859 sol 46234.00
iteration 1860 sol 46103.00
iteration 1861 sol 46685.00
iteration 1862 sol 46443.00
iteration 1863 sol 45535.00
iteration 1864 sol 46448.00
iteration 1865 sol 46292.00
iteration 1866 sol 46066.00
iteration 1867 sol 46544.00
iteration 1868 sol 45944.00
iteration 1869 sol 45648.00
iteration 1870 sol 47501.00
iteration 1871 sol 46974.00
iteration 1872 sol 46251.00
iteration 1873 sol 46726.00
iteration 1874 sol 46947.00
iteration 1875 sol 46168.00
iteration 1876 sol 46835.00
iteration 1877 sol 45685.00
iteration 1878 sol 46234.00
iteration 1879 sol 46115.00
iteration 1880 sol 46994.00
iteration 1881 sol 46168.00
iteration 1882 sol 46562.00
iteration 1883 sol 46002.00
iteration 1884 sol 45944.00
iteration 1885 sol 46310.00
iteration 1886 sol 46146.00
iteration 1887 sol 47240.00
iteration 1888 sol 45705.00
iteration 1889 sol 46109.00
iteration 1890 sol 45535.00
iteration 1891 sol 46039.00
iteration 1892 sol 46546.00
iteration 1893 sol 46029.00
iteration 1894 sol 45717.00
iteration 1895 sol 45535.00
iteration 1896 sol 45535.00
iteration 1897 sol 46160.00
iteration 1898 sol 46230.00
iteration 1899 sol 46405.00
iteration 1900 sol 46605.00
iteration 1901 sol 46493.00
iteration 1902 sol 45705.00
iteration 1903 sol 45924.00
iteration 1904 sol 45944.00
iteration 1905 sol 45913.00
iteration 1906 sol 46186.00
iteration 1907 sol 46095.00
iteration 1908 sol 46234.00
iteration 1909 sol 46378.00
iteration 1910 sol 46320.00
iteration 1911 sol 46127.00
iteration 1912 sol 45694.00
iteration 1913 sol 46369.00
iteration 1914 sol 46701.00
iteration 1915 sol 45915.00
iteration 1916 sol 46159.00
iteration 1917 sol 46251.00
iteration 1918 sol 45983.00
iteration 1919 sol 46234.00
iteration 1920 sol 46332.00
iteration 1921 sol 45861.00
iteration 1922 sol 46942.00
iteration 1923 sol 45735.00
iteration 1924 sol 46446.00
iteration 1925 sol 46168.00
iteration 1926 sol 46564.00
iteration 1927 sol 46168.00
iteration 1928 sol 46234.00
iteration 1929 sol 46530.00
iteration 1930 sol 45944.00
iteration 1931 sol 45735.00
iteration 1932 sol 45770.00
iteration 1933 sol 46118.00
iteration 1934 sol 46168.00
iteration 1935 sol 46234.00
iteration 1936 sol 46228.00
iteration 1937 sol 45637.00
iteration 1938 sol 45718.00
iteration 1939 sol 46155.00
iteration 1940 sol 45535.00
iteration 1941 sol 46479.00
iteration 1942 sol 46037.00
iteration 1943 sol 46524.00
iteration 1944 sol 45633.00
iteration 1945 sol 46600.00
iteration 1946 sol 46381.00
iteration 1947 sol 46186.00
iteration 1948 sol 46612.00
iteration 1949 sol 46543.00
iteration 1950 sol 46417.00
iteration 1951 sol 46234.00
iteration 1952 sol 45964.00
iteration 1953 sol 46142.00
iteration 1954 sol 46151.00
iteration 1955 sol 47112.00
iteration 1956 sol 46339.00
iteration 1957 sol 46137.00
iteration 1958 sol 46435.00
iteration 1959 sol 46160.00
iteration 1960 sol 45588.00
iteration 1961 sol 46234.00
iteration 1962 sol 46168.00
iteration 1963 sol 46234.00
iteration 1964 sol 46360.00
iteration 1965 sol 46221.00
iteration 1966 sol 46186.00
iteration 1967 sol 46234.00
iteration 1968 sol 46153.00
iteration 1969 sol 46004.00
iteration 1970 sol 46224.00
iteration 1971 sol 46896.00
iteration 1972 sol 45735.00
iteration 1973 sol 45738.00
iteration 1974 sol 46710.00
iteration 1975 sol 46234.00
iteration 1976 sol 45987.00
iteration 1977 sol 46002.00
iteration 1978 sol 46489.00
iteration 1979 sol 45885.00
iteration 1980 sol 46717.00
iteration 1981 sol 46054.00
iteration 1982 sol 46349.00
iteration 1983 sol 47022.00
iteration 1984 sol 46234.00
iteration 1985 sol 45269.00
iteration 1986 sol 46234.00
iteration 1987 sol 46234.00
iteration 1988 sol 45821.00
iteration 1989 sol 46854.00
iteration 1990 sol 46787.00
iteration 1991 sol 46550.00
iteration 1992 sol 45672.00
iteration 1993 sol 46547.00
iteration 1994 sol 46903.00
iteration 1995 sol 46237.00
iteration 1996 sol 46251.00
iteration 1997 sol 45770.00
iteration 1998 sol 45746.00
iteration 1999 sol 46767.00
Number of iterations = 2000
Best Solution was found in iteration = 1631
Time used by neighbor | Times each neighbor was used | Improvements
N_1 = 0.25 | 10468 | 2241
N_2 = 4.56 | 10468 | 10240
N_3 = 0.07 | 10468 | 1189
N_4 = 0.74 | 10468 | 4204
Time to find the best solution = 5.39
Solution = 47633.00
Time = 6.38
