10000_500_200_21_9
Set parameter Username
Academic license - for non-commercial use only - expires 2025-02-19
Set parameter Threads to value 1
Set parameter TimeLimit to value 600
Gurobi Optimizer version 11.0.0 build v11.0.0rc2 (linux64 - "Ubuntu 18.04.6 LTS")

CPU model: Intel(R) Xeon(R) CPU E5-2420 0 @ 1.90GHz, instruction set [SSE2|AVX]
Thread count: 6 physical cores, 12 logical processors, using up to 1 threads

Optimize a model with 10500 rows, 5010000 columns and 10010000 nonzeros
Model fingerprint: 0xa0b05c63
Variable types: 0 continuous, 5010000 integer (5010000 binary)
Coefficient statistics:
  Matrix range     [1e+00, 1e+02]
  Objective range  [7e+01, 1e+02]
  Bounds range     [1e+00, 1e+00]
  RHS range        [2e+02, 2e+02]
Found heuristic solution: objective -0.0000000
Presolve removed 0 rows and 0 columns (presolve time = 6s) ...
Presolve removed 0 rows and 0 columns (presolve time = 10s) ...
Presolve removed 0 rows and 0 columns (presolve time = 15s) ...
Presolve removed 0 rows and 0 columns (presolve time = 20s) ...
Presolve removed 0 rows and 0 columns (presolve time = 25s) ...
Presolve removed 0 rows and 0 columns (presolve time = 30s) ...
Presolve removed 0 rows and 0 columns (presolve time = 35s) ...
Presolve removed 0 rows and 0 columns (presolve time = 40s) ...
Presolve removed 0 rows and 0 columns (presolve time = 45s) ...
Presolve removed 0 rows and 0 columns (presolve time = 50s) ...
Presolve removed 0 rows and 0 columns (presolve time = 55s) ...
Presolve removed 0 rows and 0 columns (presolve time = 62s) ...
Presolve removed 0 rows and 0 columns (presolve time = 65s) ...
Presolve removed 0 rows and 0 columns (presolve time = 70s) ...
Presolve removed 0 rows and 0 columns (presolve time = 75s) ...
Presolve removed 0 rows and 0 columns (presolve time = 80s) ...
Presolve removed 0 rows and 0 columns (presolve time = 86s) ...
Presolve removed 0 rows and 0 columns (presolve time = 90s) ...
Presolve removed 0 rows and 0 columns (presolve time = 95s) ...
Presolve removed 0 rows and 0 columns (presolve time = 100s) ...
Presolve removed 0 rows and 0 columns (presolve time = 105s) ...
Presolve removed 0 rows and 0 columns (presolve time = 110s) ...
Presolve removed 0 rows and 0 columns (presolve time = 115s) ...
Presolve removed 0 rows and 0 columns (presolve time = 121s) ...
Presolve removed 0 rows and 0 columns (presolve time = 227s) ...
Presolve removed 0 rows and 0 columns (presolve time = 232s) ...
Presolve time: 231.96s
Presolved: 10500 rows, 5010000 columns, 10010000 nonzeros
Variable types: 0 continuous, 5010000 integer (5010000 binary)

Root simplex log...

Iteration    Objective       Primal Inf.    Dual Inf.      Time
       0    1.0000000e+05   0.000000e+00   0.000000e+00    356s

Use crossover to convert LP symmetric solution to basic solution...

Root crossover log...

     452 DPushes remaining with DInf 0.0000000e+00               359s
       0 DPushes remaining with DInf 0.0000000e+00               359s

   37952 PPushes remaining with PInf 0.0000000e+00               359s
       0 PPushes remaining with PInf 0.0000000e+00               359s

  Push phase complete: Pinf 0.0000000e+00, Dinf 0.0000000e+00    359s


Root simplex log...

Iteration    Objective       Primal Inf.    Dual Inf.      Time
   38407    1.0000000e+05   0.000000e+00   0.000000e+00    360s
   38407    1.0000000e+05   0.000000e+00   0.000000e+00    363s

Root relaxation: objective 1.000000e+05, 38407 iterations, 39.04 seconds (5.43 work units)
Total elapsed time = 379.81s (DegenMoves)
Total elapsed time = 395.00s (DegenMoves)

    Nodes    |    Current Node    |     Objective Bounds      |     Work
 Expl Unexpl |  Obj  Depth IntInf | Incumbent    BestBd   Gap | It/Node Time

     0     0 100000.000    0  568   -0.00000 100000.000      -     -  418s
H    0     0                    59686.000000 100000.000  67.5%     -  434s
H    0     0                    91637.000000 100000.000  9.13%     -  494s
H    0     0                    95137.000000 100000.000  5.11%     -  600s

Explored 1 nodes (38831 simplex iterations) in 601.40 seconds (412.40 work units)
Thread count was 1 (of 12 available processors)

Solution count 4: 95137 91637 59686 -0 

Time limit reached
Best objective 9.513700000000e+04, best bound 1.000000000000e+05, gap 5.1116%
Solution = 95137.000000
