1000_500_250_29_6
Set parameter Username
Academic license - for non-commercial use only - expires 2025-02-19
Set parameter Threads to value 1
Set parameter TimeLimit to value 600
Gurobi Optimizer version 11.0.0 build v11.0.0rc2 (linux64 - "Ubuntu 18.04.6 LTS")

CPU model: Intel(R) Xeon(R) CPU E5-2420 0 @ 1.90GHz, instruction set [SSE2|AVX]
Thread count: 6 physical cores, 12 logical processors, using up to 1 threads

Optimize a model with 1500 rows, 501000 columns and 1001000 nonzeros
Model fingerprint: 0x7b717140
Variable types: 0 continuous, 501000 integer (501000 binary)
Coefficient statistics:
  Matrix range     [1e+00, 2e+02]
  Objective range  [8e+01, 2e+02]
  Bounds range     [1e+00, 1e+00]
  RHS range        [2e+02, 2e+02]
Found heuristic solution: objective -0.0000000
Presolve removed 0 rows and 0 columns (presolve time = 5s) ...
Presolve removed 0 rows and 0 columns (presolve time = 11s) ...
Presolve time: 11.15s
Presolved: 1500 rows, 501000 columns, 1001000 nonzeros
Variable types: 0 continuous, 501000 integer (501000 binary)

Root simplex log...

Iteration    Objective       Primal Inf.    Dual Inf.      Time
       0    1.2500000e+05   0.000000e+00   0.000000e+00     20s

Use crossover to convert LP symmetric solution to basic solution...

Root crossover log...

     442 DPushes remaining with DInf 0.0000000e+00                21s
       0 DPushes remaining with DInf 0.0000000e+00                21s

   40942 PPushes remaining with PInf 0.0000000e+00                21s
       0 PPushes remaining with PInf 0.0000000e+00                21s

  Push phase complete: Pinf 0.0000000e+00, Dinf 0.0000000e+00     21s


Root simplex log...

Iteration    Objective       Primal Inf.    Dual Inf.      Time
   41387    1.2500000e+05   0.000000e+00   0.000000e+00     21s
   41387    1.2500000e+05   0.000000e+00   0.000000e+00     21s

Root relaxation: objective 1.250000e+05, 41387 iterations, 3.02 seconds (0.55 work units)
Total elapsed time = 27.00s (DegenMoves)

    Nodes    |    Current Node    |     Objective Bounds      |     Work
 Expl Unexpl |  Obj  Depth IntInf | Incumbent    BestBd   Gap | It/Node Time

     0     0 125000.000    0  561   -0.00000 125000.000      -     -   31s
H    0     0                    63415.000000 125000.000  97.1%     -   36s
H    0     0                    114414.00000 125000.000  9.25%     -   41s
H    0     0                    116031.00000 125000.000  7.73%     -   69s
     0     0 125000.000    0  570 116031.000 125000.000  7.73%     -   79s
H    0     0                    122608.00000 125000.000  1.95%     -  179s
     0     0 125000.000    0  560 122608.000 125000.000  1.95%     -  180s
     0     0 125000.000    0  533 122608.000 125000.000  1.95%     -  194s
     0     0 125000.000    0  565 122608.000 125000.000  1.95%     -  198s
     0     0 125000.000    0  521 122608.000 125000.000  1.95%     -  211s
     0     0 125000.000    0  517 122608.000 125000.000  1.95%     -  363s
     0     2 125000.000    0  515 122608.000 125000.000  1.95%     -  404s
     1     3 125000.000    1  517 122608.000 125000.000  1.95%  1179  409s
     2     4 125000.000    2  518 122608.000 125000.000  1.95%   633  414s
     3     5 125000.000    3  519 122608.000 125000.000  1.95%   451  419s
     4     6 125000.000    3  519 122608.000 125000.000  1.95%   340  423s
     5     7 125000.000    4  526 122608.000 125000.000  1.95%   295  428s
     6     8 125000.000    5  525 122608.000 125000.000  1.95%   266  433s
     7     9 125000.000    5  526 122608.000 125000.000  1.95%   229  437s
     8    10 125000.000    6  524 122608.000 125000.000  1.95%   210  441s
     9    11 125000.000    7  523 122608.000 125000.000  1.95%   192  446s
    10    12 125000.000    7  525 122608.000 125000.000  1.95%   174  451s
    11    13 125000.000    8  525 122608.000 125000.000  1.95%   158  455s
    12    14 125000.000    8  533 122608.000 125000.000  1.95%   156  460s
    14    16 125000.000   10  527 122608.000 125000.000  1.95%   144  467s
    15    17 125000.000   11  532 122608.000 125000.000  1.95%   138  471s
    17    19 125000.000   12  528 122608.000 125000.000  1.95%   123  476s
    19    21 125000.000   13  528 122608.000 125000.000  1.95%   116  480s
    22    24 125000.000   15  553 122608.000 125000.000  1.95%   127  486s
    25    27 125000.000   17  557 122608.000 125000.000  1.95%   135  491s
    28    30 125000.000   19  554 122608.000 125000.000  1.95%   140  496s
    32    34 125000.000   22  553 122608.000 125000.000  1.95%   132  501s
    35    37 125000.000   24  558 122608.000 125000.000  1.95%   138  505s
    39    41 125000.000   26  553 122608.000 125000.000  1.95%   132  510s
    41    43 125000.000   28  552 122608.000 125000.000  1.95%   125  561s
    45    47 125000.000   32  554 122608.000 125000.000  1.95%   115  565s
    49    51 125000.000   35  554 122608.000 125000.000  1.95%   117  570s
    54    56 125000.000   38  555 122608.000 125000.000  1.95%   116  575s
    58    60 125000.000   42  553 122608.000 125000.000  1.95%   113  580s
    63    65 125000.000   46  551 122608.000 125000.000  1.95%   104  585s
    68    70 125000.000   51  552 122608.000 125000.000  1.95%  96.5  590s
    73    75 125000.000   56  552 122608.000 125000.000  1.95%  90.0  595s

Cutting planes:
  Cover: 153
  Clique: 28
  MIR: 97
  StrongCG: 38
  RLT: 4

Explored 77 nodes (79419 simplex iterations) in 600.09 seconds (160.59 work units)
Thread count was 1 (of 12 available processors)

Solution count 5: 122608 116031 114414 ... -0

Time limit reached
Best objective 1.226080000000e+05, best bound 1.250000000000e+05, gap 1.9509%
Solution = 122608.000000
