1002_80000_NR_14
Set parameter Username
Academic license - for non-commercial use only - expires 2025-02-19
Set parameter Threads to value 1
Set parameter TimeLimit to value 600
Gurobi Optimizer version 11.0.0 build v11.0.0rc2 (linux64 - "Ubuntu 18.04.6 LTS")

CPU model: Intel(R) Xeon(R) CPU E5-2420 0 @ 1.90GHz, instruction set [SSE2|AVX]
Thread count: 6 physical cores, 12 logical processors, using up to 1 threads

Optimize a model with 1072 rows, 151302 columns and 301698 nonzeros
Model fingerprint: 0x49c70762
Variable types: 0 continuous, 151302 integer (151302 binary)
Coefficient statistics:
  Matrix range     [1e+00, 6e+04]
  Objective range  [2e+02, 6e+04]
  Bounds range     [1e+00, 1e+00]
  RHS range        [6e+04, 6e+04]
Found heuristic solution: objective -0.0000000
Presolve removed 0 rows and 845 columns
Presolve time: 1.71s
Presolved: 1072 rows, 150457 columns, 300853 nonzeros
Variable types: 0 continuous, 150457 integer (150457 binary)
Found heuristic solution: objective 1.071960e+07

Root relaxation: objective 1.073024e+07, 947 iterations, 1.36 seconds (0.44 work units)
Total elapsed time = 6.92s (DegenMoves)

    Nodes    |    Current Node    |     Objective Bounds      |     Work
 Expl Unexpl |  Obj  Depth IntInf | Incumbent    BestBd   Gap | It/Node Time

     0     0 1.0730e+07    0  201 1.0720e+07 1.0730e+07  0.10%     -    8s
H    0     0                    1.072060e+07 1.0730e+07  0.09%     -   19s
     0     0 1.0730e+07    0  231 1.0721e+07 1.0730e+07  0.09%     -   20s
H    0     0                    1.072111e+07 1.0730e+07  0.09%     -   32s
     0     0 1.0730e+07    0  238 1.0721e+07 1.0730e+07  0.09%     -   32s
     0     0 1.0730e+07    0  176 1.0721e+07 1.0730e+07  0.09%     -   37s
     0     0 1.0730e+07    0  182 1.0721e+07 1.0730e+07  0.09%     -   38s
     0     0 1.0730e+07    0  178 1.0721e+07 1.0730e+07  0.09%     -   42s
     0     0 1.0730e+07    0  185 1.0721e+07 1.0730e+07  0.09%     -   45s
     0     0 1.0730e+07    0  173 1.0721e+07 1.0730e+07  0.09%     -   49s
     0     0 1.0730e+07    0  173 1.0721e+07 1.0730e+07  0.09%     -   53s
     0     2 1.0730e+07    0  173 1.0721e+07 1.0730e+07  0.09%     -   67s
     4     6 1.0730e+07    3  183 1.0721e+07 1.0730e+07  0.09%   340   71s
     8    10 1.0730e+07    5  184 1.0721e+07 1.0730e+07  0.09%   273   75s
    18    20 1.0730e+07   15  191 1.0721e+07 1.0730e+07  0.09%   166   80s
H   27    27                    1.072182e+07 1.0730e+07  0.08%   142   98s
    35    37 1.0730e+07   26  201 1.0722e+07 1.0730e+07  0.08%   120  100s
    66    68 1.0730e+07   50  212 1.0722e+07 1.0730e+07  0.08%   111  105s
    86    88 1.0730e+07   66  221 1.0722e+07 1.0730e+07  0.08%   107  110s
H   87    87                    1.072292e+07 1.0730e+07  0.07%   105  117s
H   88    88                    1.072323e+07 1.0730e+07  0.07%   105  124s
    89    91 1.0730e+07   68  215 1.0723e+07 1.0730e+07  0.07%   106  125s
   102   104 1.0730e+07   79  217 1.0723e+07 1.0730e+07  0.07%  96.5  130s
H  115   115                    1.072408e+07 1.0730e+07  0.06%  90.0  139s
   116   118 1.0730e+07   92  222 1.0724e+07 1.0730e+07  0.06%  89.5  140s
   128   130 1.0730e+07  102  223 1.0724e+07 1.0730e+07  0.06%  86.5  145s
   141   143 1.0730e+07  113  215 1.0724e+07 1.0730e+07  0.06%  81.7  150s
H  142   142                    1.072436e+07 1.0730e+07  0.05%  81.1  155s
   158   160 1.0730e+07  125  209 1.0724e+07 1.0730e+07  0.05%  79.2  160s
H  165   165                    1.072440e+07 1.0730e+07  0.05%  77.3  169s
   166   168 1.0730e+07  133  209 1.0724e+07 1.0730e+07  0.05%  77.0  170s
H  169   169                    1.072444e+07 1.0730e+07  0.05%  75.8  175s
   185   187 1.0730e+07  147  213 1.0724e+07 1.0730e+07  0.05%  74.5  180s
   194   196 1.0730e+07  155  211 1.0724e+07 1.0730e+07  0.05%  71.9  186s
H  196   196                    1.072491e+07 1.0730e+07  0.05%  71.2  192s
   204   206 1.0730e+07  164  220 1.0725e+07 1.0730e+07  0.05%  70.1  195s
   243   245 1.0730e+07  201  223 1.0725e+07 1.0730e+07  0.05%  65.7  200s
H  258   258                    1.072493e+07 1.0730e+07  0.05%  63.1  205s
   291   293 1.0730e+07  246  228 1.0725e+07 1.0730e+07  0.05%  58.7  210s
   354   356 1.0730e+07  306  217 1.0725e+07 1.0730e+07  0.05%  51.2  215s
H  377   377                    1.072517e+07 1.0730e+07  0.05%  50.6  222s
   424   426 1.0730e+07  372  217 1.0725e+07 1.0730e+07  0.05%  46.6  225s
   505   507 1.0729e+07  448  195 1.0725e+07 1.0730e+07  0.05%  41.5  230s
H  577   577                    1.072526e+07 1.0730e+07  0.05%  38.2  239s
H  578   578                    1.072546e+07 1.0730e+07  0.04%  38.1  243s
H  591   591                    1.072554e+07 1.0730e+07  0.04%  37.5  252s
   651   653 1.0728e+07  591  178 1.0726e+07 1.0730e+07  0.04%  35.7  255s
H  729   729                    1.072559e+07 1.0730e+07  0.04%  32.9  263s
   771   773 1.0728e+07  709  173 1.0726e+07 1.0730e+07  0.04%  31.8  265s
   876   878 1.0728e+07  813  179 1.0726e+07 1.0730e+07  0.04%  29.2  270s
H  993   993                    1.072561e+07 1.0730e+07  0.04%  26.8  275s
  1122  1124 1.0728e+07 1058  178 1.0726e+07 1.0730e+07  0.04%  24.7  280s
H 1236  1236                    1.072591e+07 1.0730e+07  0.04%  23.6  289s
  1247  1249 1.0728e+07 1183  177 1.0726e+07 1.0730e+07  0.04%  23.4  290s
  1384  1386 1.0728e+07 1318  177 1.0726e+07 1.0730e+07  0.04%  22.3  295s
  1516  1518 1.0728e+07 1449  179 1.0726e+07 1.0730e+07  0.04%  21.1  300s
H 1535  1535                    1.072597e+07 1.0730e+07  0.04%  21.0  305s
H 1562  1562                    1.072607e+07 1.0730e+07  0.04%  20.8  311s
  1649  1651 1.0727e+07 1580  171 1.0726e+07 1.0730e+07  0.04%  20.4  315s
  1783  1785 1.0727e+07 1714  170 1.0726e+07 1.0730e+07  0.04%  19.7  320s
  1911  1909 1.0726e+07 1835  174 1.0726e+07 1.0730e+07  0.04%  19.2  325s
H 1975  1962                    1.072613e+07 1.0730e+07  0.04%  19.0  329s
  1980  1863 1.0728e+07  693  173 1.0726e+07 1.0730e+07  0.04%  19.0  353s
H 1981  1771                    1.072617e+07 1.0730e+07  0.04%  19.0  362s
H 1982  1683                    1.072645e+07 1.0730e+07  0.04%  19.0  375s
  1986  1686 1.0727e+07 1671  202 1.0726e+07 1.0730e+07  0.04%  18.9  380s
  1989  1688 1.0730e+07  345  171 1.0726e+07 1.0730e+07  0.04%  18.9  387s
  1991  1689 1.0728e+07  500  168 1.0726e+07 1.0730e+07  0.04%  18.9  391s
  1994  1691 1.0728e+07  993  167 1.0726e+07 1.0730e+07  0.04%  18.9  396s
H 1994  1606                    1.072662e+07 1.0730e+07  0.03%  18.9  404s
  1995  1607 1.0728e+07  701  167 1.0727e+07 1.0730e+07  0.03%  18.8  406s
  2002  1614 1.0730e+07   19  178 1.0727e+07 1.0730e+07  0.03%  27.2  410s
  2020  1626 1.0730e+07   28  179 1.0727e+07 1.0730e+07  0.03%  27.6  415s
H 2022  1544                    1.072668e+07 1.0730e+07  0.03%  27.6  426s
H 2023  1469                    1.072678e+07 1.0730e+07  0.03%  27.6  432s
  2035  1479 1.0730e+07   35  179 1.0727e+07 1.0730e+07  0.03%  28.0  435s
  2050  1489 1.0730e+07   43  188 1.0727e+07 1.0730e+07  0.03%  28.7  440s
  2067  1500 1.0730e+07   51  193 1.0727e+07 1.0730e+07  0.03%  29.3  445s
  2081  1509 1.0730e+07   58  184 1.0727e+07 1.0730e+07  0.03%  29.8  450s
H 2088  1439                    1.072678e+07 1.0730e+07  0.03%  30.0  458s
  2093  1444 1.0730e+07   64  183 1.0727e+07 1.0730e+07  0.03%  30.3  460s
  2109  1455 1.0730e+07   72  185 1.0727e+07 1.0730e+07  0.03%  30.9  465s
  2122  1464 1.0730e+07   79  188 1.0727e+07 1.0730e+07  0.03%  31.4  470s
  2139  1475 1.0730e+07   87  188 1.0727e+07 1.0730e+07  0.03%  31.7  475s
  2167  1494 1.0730e+07  101  194 1.0727e+07 1.0730e+07  0.03%  31.6  480s
H 2174  1427                    1.072688e+07 1.0730e+07  0.03%  31.5  489s
H 2175  1362                    1.072690e+07 1.0730e+07  0.03%  31.5  497s
  2185  1371 1.0730e+07  110  199 1.0727e+07 1.0730e+07  0.03%  31.5  500s
  2211  1388 1.0730e+07  123  199 1.0727e+07 1.0730e+07  0.03%  31.4  505s
  2235  1404 1.0730e+07  135  200 1.0727e+07 1.0730e+07  0.03%  31.5  510s
  2258  1419 1.0730e+07  147  200 1.0727e+07 1.0730e+07  0.03%  31.5  515s
  2286  1438 1.0730e+07  161  200 1.0727e+07 1.0730e+07  0.03%  31.5  520s
H 2310  1390                    1.072707e+07 1.0730e+07  0.03%  31.4  531s
  2333  1407 1.0730e+07  184  207 1.0727e+07 1.0730e+07  0.03%  31.2  535s
  2367  1430 1.0730e+07  201  211 1.0727e+07 1.0730e+07  0.03%  31.1  540s
  2399  1451 1.0730e+07  217  210 1.0727e+07 1.0730e+07  0.03%  30.9  545s
  2436  1476 1.0730e+07  236  214 1.0727e+07 1.0730e+07  0.03%  31.0  550s
  2469  1498 1.0730e+07  252  227 1.0727e+07 1.0730e+07  0.03%  31.4  555s
H 2480  1443                    1.072715e+07 1.0730e+07  0.03%  31.5  565s
H 2508  1406                    1.072717e+07 1.0730e+07  0.03%  31.7  576s
  2527  1421 1.0730e+07  281  230 1.0727e+07 1.0730e+07  0.03%  31.7  580s
  2556  1440 1.0730e+07  296  229 1.0727e+07 1.0730e+07  0.03%  31.7  585s
  2591  1463 1.0730e+07  313  223 1.0727e+07 1.0730e+07  0.03%  31.8  590s
  2625  1486 1.0730e+07  330  222 1.0727e+07 1.0730e+07  0.03%  32.0  595s
H 2633  1436                    1.072728e+07 1.0730e+07  0.03%  31.9  600s

Cutting planes:
  Gomory: 2
  Cover: 192
  Clique: 12
  MIR: 16
  StrongCG: 28
  Flow cover: 53
  Zero half: 6
  RLT: 55

Explored 2634 nodes (100841 simplex iterations) in 600.16 seconds (315.35 work units)
Thread count was 1 (of 12 available processors)

Solution count 10: 1.07273e+07 1.07272e+07 1.07271e+07 ... 1.07266e+07

Time limit reached
Best objective 1.072728100000e+07, best bound 1.073024000000e+07, gap 0.0276%
Solution = 10727281.000000
