100_75_50_33_4
Set parameter Username
Academic license - for non-commercial use only - expires 2025-02-19
Set parameter Threads to value 1
Set parameter TimeLimit to value 600
Gurobi Optimizer version 11.0.0 build v11.0.0rc2 (linux64 - "Ubuntu 18.04.6 LTS")

CPU model: Intel(R) Xeon(R) CPU E5-2420 0 @ 1.90GHz, instruction set [SSE2|AVX]
Thread count: 6 physical cores, 12 logical processors, using up to 1 threads

Optimize a model with 175 rows, 7600 columns and 15100 nonzeros
Model fingerprint: 0x7d0d2f8c
Variable types: 0 continuous, 7600 integer (7600 binary)
Coefficient statistics:
  Matrix range     [1e+00, 3e+01]
  Objective range  [2e+01, 3e+01]
  Bounds range     [1e+00, 1e+00]
  RHS range        [5e+01, 5e+01]
Found heuristic solution: objective -0.0000000
Presolve time: 0.09s
Presolved: 175 rows, 7600 columns, 15100 nonzeros
Variable types: 0 continuous, 7600 integer (7600 binary)

Root relaxation: objective 3.750000e+03, 287 iterations, 0.02 seconds (0.01 work units)

    Nodes    |    Current Node    |     Objective Bounds      |     Work
 Expl Unexpl |  Obj  Depth IntInf | Incumbent    BestBd   Gap | It/Node Time

     0     0 3750.00000    0  101   -0.00000 3750.00000      -     -    0s
H    0     0                     704.0000000 3750.00000   433%     -    0s
H    0     0                    3223.0000000 3750.00000  16.4%     -    0s
     0     0 3750.00000    0  184 3223.00000 3750.00000  16.4%     -    0s
H    0     0                    3232.0000000 3750.00000  16.0%     -    1s
     0     0 3750.00000    0  181 3232.00000 3750.00000  16.0%     -    1s
     0     0 3750.00000    0  126 3232.00000 3750.00000  16.0%     -    2s
     0     0 3750.00000    0  114 3232.00000 3750.00000  16.0%     -    3s
     0     2 3750.00000    0  113 3232.00000 3750.00000  16.0%     -    3s
H   27    27                    3330.0000000 3750.00000  12.6%  31.7    6s
   271   273 3700.00000  222   64 3330.00000 3750.00000  12.6%  13.1   10s
H  581   447                    3546.0000000 3750.00000  5.75%  16.6   17s
   587   451 3750.00000   29  129 3546.00000 3750.00000  5.75%  16.4   20s
   625   479 3750.00000   28   92 3546.00000 3750.00000  5.75%  25.0   25s
   735   544 3750.00000   83   70 3546.00000 3750.00000  5.75%  26.4   33s
   764   563 3750.00000   97   72 3546.00000 3750.00000  5.75%  27.4   35s
   833   608 3750.00000  132   70 3546.00000 3750.00000  5.75%  27.8   42s
   882   641 3750.00000  157   72 3546.00000 3750.00000  5.75%  26.7   46s
  1077   763 3750.00000  254   78 3546.00000 3750.00000  5.75%  30.2   50s
  1435   870 3750.00000  124   66 3546.00000 3750.00000  5.75%  29.4   55s
  1865  1113 3750.00000  221   67 3546.00000 3750.00000  5.75%  26.9   60s
  2062  1276 3739.00000  319   53 3546.00000 3750.00000  5.75%  29.0   65s
  2446  1545 3750.00000  230   63 3546.00000 3750.00000  5.75%  30.3   70s
  2562  1657 3750.00000  288   57 3546.00000 3750.00000  5.75%  31.7   75s
  2944  1888 infeasible  221      3546.00000 3750.00000  5.75%  31.8   80s
  3382  2077 infeasible  241      3546.00000 3750.00000  5.75%  31.1   85s
  3764  2276 3749.00000  228   57 3546.00000 3750.00000  5.75%  29.9   90s
  3941  2424 3670.00000  350   40 3546.00000 3750.00000  5.75%  29.0   95s
  4026  2487 infeasible  420      3546.00000 3750.00000  5.75%  28.5  100s
  4580  2894 3701.32078  340   30 3546.00000 3750.00000  5.75%  26.8  105s
  5101  3276 3710.00000  261   36 3546.00000 3750.00000  5.75%  25.3  110s
  5507  3545 3665.00000  278   30 3546.00000 3750.00000  5.75%  24.5  116s
  5937  3806 3621.00000  224   45 3546.00000 3750.00000  5.75%  23.5  120s
  6481  4191 3726.00000  334   48 3546.00000 3750.00000  5.75%  22.3  125s
  6982  4599 3665.00000  288   42 3546.00000 3750.00000  5.75%  21.3  130s
  7269  4771 3726.00000  241   32 3546.00000 3750.00000  5.75%  21.0  135s
  7753  5134 3729.55556  241   49 3546.00000 3750.00000  5.75%  20.5  140s
  7873  5239 3711.00000  369   29 3546.00000 3750.00000  5.75%  20.3  146s
  7888  5254 3710.00000  384   26 3546.00000 3750.00000  5.75%  20.2  150s
  8461  5740 3706.00000  455   57 3546.00000 3750.00000  5.75%  19.5  155s
  8688  5963 3664.00000  681   56 3546.00000 3750.00000  5.75%  19.1  160s
  9409  6623 3746.00000  378   54 3546.00000 3750.00000  5.75%  17.9  165s
  9787  6824 3602.00000  418   37 3546.00000 3750.00000  5.75%  17.5  170s
 10202  7173 3666.00000  690   45 3546.00000 3750.00000  5.75%  17.0  180s
 10604  7472 infeasible  473      3546.00000 3750.00000  5.75%  16.6  185s
 11742  8375 3725.00000  408   52 3546.00000 3750.00000  5.75%  15.7  190s
 12638  9202 3647.00000 1045   43 3546.00000 3750.00000  5.75%  14.9  196s
 12788  9322 3721.00000  459   53 3546.00000 3750.00000  5.75%  14.9  200s
 13337  9831 3638.00000  838   46 3546.00000 3750.00000  5.75%  14.4  205s
 14213 10624 3725.00000  441   58 3546.00000 3750.00000  5.75%  13.7  210s
 15063 11322 infeasible  419      3546.00000 3750.00000  5.75%  13.3  215s
 15511 11672 3696.00000  573   49 3546.00000 3750.00000  5.75%  13.0  220s
 15857 11994 3665.00000  426   47 3546.00000 3750.00000  5.75%  12.9  225s
 16002 12062 3750.00000  325   40 3546.00000 3750.00000  5.75%  12.9  230s
 16825 12636 3711.00000  393   49 3546.00000 3750.00000  5.75%  13.2  235s
 17436 13006 3749.00000  320   65 3546.00000 3750.00000  5.75%  13.4  240s
 17610 13137 3750.00000  341   54 3546.00000 3750.00000  5.75%  13.5  246s
 17778 13282 3738.00000  425   57 3546.00000 3750.00000  5.75%  13.9  250s
 18057 13534 3679.00000  564   59 3546.00000 3750.00000  5.75%  14.8  256s
 18411 13803 3599.00000  741   43 3546.00000 3750.00000  5.75%  15.5  260s
 18919 14168 3735.00000  360   58 3546.00000 3750.00000  5.75%  15.3  268s
 18977 14187 3735.00000  380   55 3546.00000 3750.00000  5.75%  15.3  270s
 19512 14557 infeasible  358      3546.00000 3750.00000  5.75%  15.0  275s
 20196 15150 3690.00000  465   44 3546.00000 3750.00000  5.75%  14.7  280s
 20634 15441 3739.00000  344   64 3546.00000 3750.00000  5.75%  14.5  285s
 21209 15896 3732.00000  411   51 3546.00000 3750.00000  5.75%  14.3  290s
 21629 16194 3599.00000  450   37 3546.00000 3750.00000  5.75%  14.1  295s
 22069 16489 3695.00000  358   47 3546.00000 3750.00000  5.75%  14.0  300s
 22604 16809 3668.00000  437   38 3546.00000 3750.00000  5.75%  13.9  305s
 23150 17213 3750.00000  342   57 3546.00000 3750.00000  5.75%  13.7  310s
 23896 17677 3750.00000  328   55 3546.00000 3750.00000  5.75%  13.5  316s
 24082 17846 3715.00000  413   53 3546.00000 3750.00000  5.75%  13.5  320s
 25224 18743 infeasible  282      3546.00000 3750.00000  5.75%  13.3  325s
 26039 19320 3698.00000  248   38 3546.00000 3750.00000  5.75%  13.2  330s
 27034 20139 3716.00000  218   36 3546.00000 3750.00000  5.75%  13.0  335s
 27806 20714 3741.71429  207   39 3546.00000 3750.00000  5.75%  12.9  340s
 28808 21447 3722.00000  261   28 3546.00000 3750.00000  5.75%  12.8  345s
 29533 22004 3719.00000  293   52 3546.00000 3750.00000  5.75%  12.7  350s
 30085 22402 3684.57143  456   57 3546.00000 3750.00000  5.75%  12.7  355s
 30933 23138 3750.00000  207   64 3546.00000 3750.00000  5.75%  12.6  360s
 31616 23608 3712.00000  273   26 3546.00000 3750.00000  5.75%  12.6  365s
 32442 24078 3733.00000  283   57 3546.00000 3750.00000  5.75%  12.7  370s
 33022 24410 3731.00000  276   36 3546.00000 3750.00000  5.75%  12.7  375s
 33938 25075 3696.00000  286   31 3546.00000 3750.00000  5.75%  12.6  380s
 34551 25493 3628.65539  350   27 3546.00000 3750.00000  5.75%  12.7  385s
 35121 25970 3706.00000  379   42 3546.00000 3750.00000  5.75%  12.6  390s
 35854 26389 3740.00000  333   32 3546.00000 3750.00000  5.75%  12.7  395s
 36124 26561     cutoff  274      3546.00000 3750.00000  5.75%  12.8  400s
 36668 27016 3733.00000  285   50 3546.00000 3750.00000  5.75%  12.7  405s
 37387 27589 3628.00000  332   40 3546.00000 3750.00000  5.75%  12.6  410s
 37842 27856 3704.00000  327   46 3546.00000 3750.00000  5.75%  12.7  415s
 38416 28296 3735.00000  263   46 3546.00000 3750.00000  5.75%  12.6  420s
 39211 28847 3718.00000  270   34 3546.00000 3750.00000  5.75%  12.6  425s
 39973 29440 infeasible  251      3546.00000 3750.00000  5.75%  12.6  430s
 40655 29967 3648.19048  478   45 3546.00000 3750.00000  5.75%  12.5  435s
 41624 30713 3599.00000  495   29 3546.00000 3750.00000  5.75%  12.3  440s
 42115 31014 3738.00000  370   54 3546.00000 3750.00000  5.75%  12.3  445s
 43061 31718 3733.00000  376   45 3546.00000 3750.00000  5.75%  12.1  450s
 43958 32398 3578.00000  449   32 3546.00000 3750.00000  5.75%  12.0  455s
 44387 32660 3712.00000  431   42 3546.00000 3750.00000  5.75%  12.0  461s
 44791 32948 infeasible  460      3546.00000 3750.00000  5.75%  11.9  465s
 45874 33668 3580.00000  410   35 3546.00000 3750.00000  5.75%  11.8  470s
 47028 34401 3580.00000  478   26 3546.00000 3750.00000  5.75%  11.6  475s
 47634 34747 3580.00000  433   32 3546.00000 3750.00000  5.75%  11.5  480s
 48601 35299 3580.00000  434   29 3546.00000 3750.00000  5.75%  11.4  485s
 49243 35721 3580.00000  422   32 3546.00000 3750.00000  5.75%  11.4  490s
 50056 36171 3580.00000  415   31 3546.00000 3750.00000  5.75%  11.3  495s
 50783 36578 infeasible  449      3546.00000 3750.00000  5.75%  11.2  500s
 51425 36998 3580.00000  460   25 3546.00000 3750.00000  5.75%  11.1  505s
 52328 37650 3580.00000  435   24 3546.00000 3750.00000  5.75%  11.0  510s
 53071 38184 3709.36364  422   45 3546.00000 3750.00000  5.75%  11.0  515s
 53660 38614 3651.00000  471   35 3546.00000 3750.00000  5.75%  10.9  521s
 54446 39172 3733.00000  397   53 3546.00000 3750.00000  5.75%  10.9  525s
 55386 39630 3746.00000  320   51 3546.00000 3750.00000  5.75%  10.9  530s
 56122 40139 infeasible  449      3546.00000 3750.00000  5.75%  10.8  535s
 56585 40404 3641.00000  474   34 3546.00000 3750.00000  5.75%  10.8  540s
 57230 40820 3746.00000  424   47 3546.00000 3750.00000  5.75%  10.7  545s
 58003 41226 3624.00000  438   31 3546.00000 3750.00000  5.75%  10.7  550s
 59144 41859 3624.00000  482   29 3546.00000 3750.00000  5.75%  10.6  555s
 60196 42441 3624.00000  418   36 3546.00000 3750.00000  5.75%  10.5  560s
 61003 42919 infeasible  474      3546.00000 3750.00000  5.75%  10.5  565s
 61893 43418 3750.00000  417   50 3546.00000 3750.00000  5.75%  10.4  570s
 62667 43785 3624.00000  447   33 3546.00000 3750.00000  5.75%  10.3  575s
 63348 44077 3624.00000  472   31 3546.00000 3750.00000  5.75%  10.3  580s
 64036 44388 infeasible  450      3546.00000 3750.00000  5.75%  10.3  585s
 64444 44611 3624.00000  430   40 3546.00000 3750.00000  5.75%  10.2  590s
 65040 44910 infeasible  483      3546.00000 3750.00000  5.75%  10.2  595s
 65566 45165 3624.00000  443   35 3546.00000 3750.00000  5.75%  10.2  600s

Cutting planes:
  Gomory: 19
  Cover: 126
  Clique: 35
  MIR: 41
  StrongCG: 47
  Flow cover: 14
  Zero half: 6
  RLT: 9

Explored 65567 nodes (669224 simplex iterations) in 600.01 seconds (338.35 work units)
Thread count was 1 (of 12 available processors)

Solution count 6: 3546 3330 3232 ... -0

Time limit reached
Best objective 3.546000000000e+03, best bound 3.750000000000e+03, gap 5.7530%
Solution = 3546.000000
