201_2500_NR_26
Set parameter Username
Academic license - for non-commercial use only - expires 2025-02-19
Set parameter Threads to value 1
Set parameter TimeLimit to value 600
Gurobi Optimizer version 11.0.0 build v11.0.0rc2 (linux64 - "Ubuntu 18.04.6 LTS")

CPU model: Intel(R) Xeon(R) CPU E5-2420 0 @ 1.90GHz, instruction set [SSE2|AVX]
Thread count: 6 physical cores, 12 logical processors, using up to 1 threads

Optimize a model with 203 rows, 5780 columns and 11390 nonzeros
Model fingerprint: 0x3352ebec
Variable types: 0 continuous, 5780 integer (5780 binary)
Coefficient statistics:
  Matrix range     [1e+00, 2e+03]
  Objective range  [8e+00, 2e+03]
  Bounds range     [1e+00, 1e+00]
  RHS range        [2e+03, 2e+03]
Found heuristic solution: objective -0.0000000
Presolve removed 0 rows and 151 columns
Presolve time: 0.05s
Presolved: 203 rows, 5629 columns, 11239 nonzeros
Variable types: 0 continuous, 5629 integer (5629 binary)
Found heuristic solution: objective 67972.000000

Root relaxation: objective 6.824400e+04, 137 iterations, 0.01 seconds (0.00 work units)

    Nodes    |    Current Node    |     Objective Bounds      |     Work
 Expl Unexpl |  Obj  Depth IntInf | Incumbent    BestBd   Gap | It/Node Time

     0     0 68244.0000    0   30 67972.0000 68244.0000  0.40%     -    0s
H    0     0                    68015.000000 68244.0000  0.34%     -    0s
     0     0 68244.0000    0   47 68015.0000 68244.0000  0.34%     -    0s
H    0     0                    68087.000000 68244.0000  0.23%     -    1s
     0     0 68244.0000    0   56 68087.0000 68244.0000  0.23%     -    1s
     0     0 68244.0000    0   41 68087.0000 68244.0000  0.23%     -    1s
     0     0 68244.0000    0   41 68087.0000 68244.0000  0.23%     -    1s
     0     2 68244.0000    0   41 68087.0000 68244.0000  0.23%     -    1s
H  185   185                    68096.000000 68244.0000  0.22%  20.4    4s
H  186   186                    68124.000000 68244.0000  0.18%  20.3    4s
   331   333 68189.0000  303   35 68124.0000 68244.0000  0.18%  16.9    5s
H  520   495                    68135.000000 68244.0000  0.16%  16.0    6s
H  523   472                    68145.000000 68244.0000  0.15%  15.9    7s
   548   491 68244.0000   18   52 68145.0000 68244.0000  0.15%  38.3   10s
H  560   472                    68151.000000 68244.0000  0.14%  38.2   10s
H  561   450                    68157.000000 68244.0000  0.13%  38.1   10s
H  588   447                    68171.000000 68244.0000  0.11%  37.0   12s
   688   515 68244.0000   88   47 68171.0000 68244.0000  0.11%  37.7   15s
H 1057   738                    68178.000000 68244.0000  0.10%  31.7   19s
H 1134   750                    68180.000000 68244.0000  0.09%  30.1   19s
  1137   754 68240.0000   69   39 68180.0000 68244.0000  0.09%  30.1   20s
H 1490   967                    68188.000000 68244.0000  0.08%  27.2   22s
  1986  1407 68205.0000  267   35 68188.0000 68244.0000  0.08%  23.4   25s
H 2220  1605                    68189.000000 68244.0000  0.08%  22.0   25s
H 2591  1958                    68192.000000 68244.0000  0.08%  20.6   27s
  3308  2522 68242.0000  275   36 68192.0000 68244.0000  0.08%  18.1   30s
H 3591  2774                    68193.000000 68244.0000  0.07%  17.2   31s
H 4143  3206                    68194.000000 68244.0000  0.07%  15.9   34s
  4538  3504 68241.0000  338   31 68194.0000 68244.0000  0.07%  15.1   35s
H 5143  3699                    68199.000000 68244.0000  0.07%  14.1   36s
  5958  3990 68244.0000  295   39 68199.0000 68244.0000  0.07%  13.1   40s
H 5959  3958                    68200.000000 68244.0000  0.06%  13.1   40s
H 7095  4407                    68201.000000 68244.0000  0.06%  12.0   42s
  9139  5349 68212.0000  319   21 68201.0000 68244.0000  0.06%  10.5   45s
 11762  6816 68213.0000  320   31 68201.0000 68244.0000  0.06%   9.5   50s
 14504  8292 68212.0000  322   28 68201.0000 68244.0000  0.06%   8.7   55s
H14652  7640                    68206.000000 68244.0000  0.06%   8.7   55s
H15271  7778                    68207.000000 68244.0000  0.05%   8.6   56s
 17190  8533     cutoff  303      68207.0000 68244.0000  0.05%   8.3   60s
 21251 10479 68215.0000  316   35 68207.0000 68244.0000  0.05%   7.8   65s
 23908 12060 68212.0000  318   32 68207.0000 68244.0000  0.05%   7.5   70s
H24585 12098                    68208.000000 68244.0000  0.05%   7.4   71s
 26561 13293 68244.0000  281   40 68208.0000 68244.0000  0.05%   7.3   75s
 29603 14770 68239.0000  327   35 68208.0000 68244.0000  0.05%   7.0   80s
 33559 16538 68211.0000  317   29 68208.0000 68244.0000  0.05%   6.9   85s
H34233 16185                    68209.000000 68244.0000  0.05%   6.8   86s
 35620 16708 68220.0000  311   27 68209.0000 68244.0000  0.05%   6.8   90s
 38563 18415 68215.0000  304   29 68209.0000 68244.0000  0.05%   6.7   95s
H38958 17272                    68211.000000 68244.0000  0.05%   6.7   96s
H39958 17121                    68212.000000 68244.0000  0.05%   6.7   97s
 41773 18112 68218.0000  325   22 68212.0000 68244.0000  0.05%   6.6  100s
 44509 19430 68234.0000  333   33 68212.0000 68244.0000  0.05%   6.6  105s
H45622 19281                    68213.000000 68244.0000  0.05%   6.6  107s
 46645 19729 68218.0000  331   26 68213.0000 68244.0000  0.05%   6.6  110s
H47362 19186                    68214.000000 68244.0000  0.04%   6.6  112s
 49318 20174 68227.0000  274   32 68214.0000 68244.0000  0.04%   6.6  115s
 52876 22270 68233.0000  320   37 68214.0000 68244.0000  0.04%   6.5  120s
 55470 23279 68242.0000  285   37 68214.0000 68244.0000  0.04%   6.5  125s
 58491 24884 68220.0000  281   32 68214.0000 68244.0000  0.04%   6.5  130s
 60545 25780 68215.0000  310   30 68214.0000 68244.0000  0.04%   6.5  135s
 63253 27269 68216.0000  296   32 68214.0000 68244.0000  0.04%   6.4  140s
 64878 28340 68244.0000  275   49 68214.0000 68244.0000  0.04%   6.5  145s
H65050 27172                    68215.000000 68244.0000  0.04%   6.6  148s
 65803 27689 68244.0000  195   44 68215.0000 68244.0000  0.04%   6.6  150s
 66831 28466 68234.0000  191   42 68215.0000 68244.0000  0.04%   6.7  155s
 67945 29051 68244.0000  248   45 68215.0000 68244.0000  0.04%   6.9  160s
H68480 24800                    68219.000000 68244.0000  0.04%   6.9  162s
 69187 25390 68223.0000  400   45 68219.0000 68244.0000  0.04%   7.0  165s
H69322 24355                    68220.000000 68244.0000  0.04%   7.1  165s
 70478 25361 68231.0000  311   46 68220.0000 68244.0000  0.04%   7.2  170s
H70505 23565                    68222.000000 68244.0000  0.03%   7.2  170s
 72573 25176 68225.0000  471   41 68222.0000 68244.0000  0.03%   7.4  175s
 73347 25772 68239.0000  273   40 68222.0000 68244.0000  0.03%   7.5  180s
 75611 27763 68225.0000  451   46 68222.0000 68244.0000  0.03%   7.8  185s
 77352 29138 68239.0000  239   42 68222.0000 68244.0000  0.03%   8.0  190s
H78180 26906                    68224.000000 68244.0000  0.03%   8.0  194s
 78532 27255 68239.0000  466   35 68224.0000 68244.0000  0.03%   8.1  195s
 80255 28635 68236.0000  257   43 68224.0000 68244.0000  0.03%   8.3  200s
 81598 29845 68237.0000  400   49 68224.0000 68244.0000  0.03%   8.4  206s
H81651 26134                    68226.000000 68244.0000  0.03%   8.4  207s
 82723 26922 68244.0000  374   43 68226.0000 68244.0000  0.03%   8.5  210s
H83056 25973                    68227.000000 68244.0000  0.02%   8.5  211s
H83296 24943                    68228.000000 68244.0000  0.02%   8.6  211s
 84566 26060 68232.0000  284   49 68228.0000 68244.0000  0.02%   8.7  215s
H86246 23269                    68231.000000 68244.0000  0.02%   8.8  220s
 87837 24612 68232.0000  510   42 68231.0000 68244.0000  0.02%   9.0  225s
 89687 26092 68243.0000  333   41 68231.0000 68244.0000  0.02%   9.1  230s
 91818 27743     cutoff  470      68231.0000 68244.0000  0.02%   9.2  235s
H92974 26412                    68232.000000 68244.0000  0.02%   9.3  238s
 93394 26771 68235.0000  584   44 68232.0000 68244.0000  0.02%   9.3  240s
 95330 28299 68244.0000  409   41 68232.0000 68244.0000  0.02%   9.3  245s
 97420 29940 68237.0000  467   45 68232.0000 68244.0000  0.02%   9.4  250s
 99292 31269 68239.0000  423   41 68232.0000 68244.0000  0.02%   9.4  255s
 101503 32938 68239.0000  359   46 68232.0000 68244.0000  0.02%   9.5  260s
 103567 34740 68239.0000  253   42 68232.0000 68244.0000  0.02%   9.6  265s
 105333 36175 68236.0000  541   39 68232.0000 68244.0000  0.02%   9.6  270s
 106173 36893 68236.0000  553   45 68232.0000 68244.0000  0.02%   9.7  275s
 107780 38194 68237.0000  360   45 68232.0000 68244.0000  0.02%   9.7  280s
 110129 40083 68235.0000  456   37 68232.0000 68244.0000  0.02%   9.8  285s
 112347 41969 68237.0000  368   40 68232.0000 68244.0000  0.02%   9.8  290s
 114554 43862 68244.0000  268   43 68232.0000 68244.0000  0.02%   9.8  295s
 117096 45949 68242.0000  275   43 68232.0000 68244.0000  0.02%   9.9  300s
 118794 47435 68233.0000  547   42 68232.0000 68244.0000  0.02%   9.9  305s
 121005 49274 68239.0000  496   49 68232.0000 68244.0000  0.02%   9.9  310s
 122975 51016 68234.0000  607   44 68232.0000 68244.0000  0.02%   9.9  315s
H125124 43025                    68234.000000 68244.0000  0.01%   9.9  319s
 125143 43030 68238.0000  337   37 68234.0000 68244.0000  0.01%   9.9  320s
 126816 44282 68236.0000  520   40 68234.0000 68244.0000  0.01%  10.0  325s
 128664 45634 68238.0000  439   43 68234.0000 68244.0000  0.01%  10.0  330s
 130720 47166 68243.0000  550   42 68234.0000 68244.0000  0.01%  10.0  335s
 132626 48752 68236.0000  682   44 68234.0000 68244.0000  0.01%  10.0  340s
 133697 49509 68236.0000  419   35 68234.0000 68244.0000  0.01%  10.0  345s
 134656 50270 68236.0000  554   42 68234.0000 68244.0000  0.01%  10.1  350s
 136463 51791 68236.0000  426   35 68234.0000 68244.0000  0.01%  10.1  355s
 137727 52828     cutoff  586      68234.0000 68244.0000  0.01%  10.1  360s
 139577 54161 68243.0000  485   42 68234.0000 68244.0000  0.01%  10.1  365s
 140624 55084 68236.0000  563   47 68234.0000 68244.0000  0.01%  10.1  370s
 142633 56644 68244.0000  359   37 68234.0000 68244.0000  0.01%  10.1  375s
 144778 58504 68239.0000  515   42 68234.0000 68244.0000  0.01%  10.1  380s
 147720 60744 68244.0000  418   38 68234.0000 68244.0000  0.01%  10.1  385s
 150149 62502 68239.0000  452   40 68234.0000 68244.0000  0.01%  10.1  390s
 152671 64486 68243.0000  574   43 68234.0000 68244.0000  0.01%  10.1  395s
 155622 66633 68239.0000  406   35 68234.0000 68244.0000  0.01%  10.1  400s
 157342 67997 68239.0000  444   41 68234.0000 68244.0000  0.01%  10.1  405s
 159530 69659 68239.0000  589   40 68234.0000 68244.0000  0.01%  10.1  410s
 161967 71499 68244.0000  425   38 68234.0000 68244.0000  0.01%  10.1  415s
 163881 73106 68238.0000  517   40 68234.0000 68244.0000  0.01%  10.1  420s
 165530 74361 68244.0000  412   38 68234.0000 68244.0000  0.01%  10.1  425s
 168554 76921 68239.0000  509   43 68234.0000 68244.0000  0.01%  10.1  430s
 170793 78649 68243.0000  411   42 68234.0000 68244.0000  0.01%  10.1  435s
 173639 80833 68244.0000  396   43 68234.0000 68244.0000  0.01%  10.1  440s
 175838 82550 68235.0000  433   37 68234.0000 68244.0000  0.01%  10.1  445s
 178687 84880 68235.0000  638   42 68234.0000 68244.0000  0.01%  10.1  450s
 181096 86809 68240.0000  436   41 68234.0000 68244.0000  0.01%  10.1  455s
 183962 89015 68238.0000  597   39 68234.0000 68244.0000  0.01%  10.1  460s
 185857 90554 68239.0000  438   39 68234.0000 68244.0000  0.01%  10.1  465s
 188224 92456 68239.0000  429   41 68234.0000 68244.0000  0.01%  10.1  470s
 190265 94053 68237.0000  646   41 68234.0000 68244.0000  0.01%  10.1  475s
 192641 95773 68235.0000  442   36 68234.0000 68244.0000  0.01%  10.1  480s
 194643 97396 68239.0000  487   45 68234.0000 68244.0000  0.01%  10.1  486s
 195949 98448 68239.0000  518   40 68234.0000 68244.0000  0.01%  10.1  490s
 198143 100034 68240.0000  532   32 68234.0000 68244.0000  0.01%  10.1  495s
 200278 101904 68237.0000  620   40 68234.0000 68244.0000  0.01%  10.1  500s
 202904 103919 68242.0000  634   43 68234.0000 68244.0000  0.01%  10.2  505s
 205744 106169 68239.0000  646   40 68234.0000 68244.0000  0.01%  10.2  510s
 206986 107184 68236.0000  445   37 68234.0000 68244.0000  0.01%  10.2  515s
 209693 109074 68244.0000  407   35 68234.0000 68244.0000  0.01%  10.1  520s
 212839 110850 68236.0000  421   39 68234.0000 68244.0000  0.01%  10.1  525s
 215287 112113 68237.0000  518   40 68234.0000 68244.0000  0.01%  10.1  530s
 217877 112877 68237.0000  493   35 68234.0000 68244.0000  0.01%  10.0  535s
 221452 113228 68244.0000  474   37 68234.0000 68244.0000  0.01%  10.0  540s
 224758 113751 68240.0000  424   33 68234.0000 68244.0000  0.01%   9.9  545s
 227367 115133 68239.0000  466   42 68234.0000 68244.0000  0.01%   9.9  550s
 229278 116175 68237.0000  508   36 68234.0000 68244.0000  0.01%   9.9  555s
 231248 117260     cutoff  493      68234.0000 68244.0000  0.01%   9.9  560s
 234071 119353 68239.0000  441   38 68234.0000 68244.0000  0.01%   9.9  565s
 236577 121161 68235.0000  441   46 68234.0000 68244.0000  0.01%   9.9  570s
 239040 122823     cutoff  467      68234.0000 68244.0000  0.01%   9.9  575s
 240488 123774 68239.0000  417   38 68234.0000 68244.0000  0.01%   9.9  580s
 243629 126124 68239.0000  504   39 68234.0000 68244.0000  0.01%   9.9  585s
 245673 127557 68239.0000  419   39 68234.0000 68244.0000  0.01%   9.9  591s
 248226 129541 68238.0000  457   43 68234.0000 68244.0000  0.01%   9.9  595s
 250593 131517 68235.0000  555   38 68234.0000 68244.0000  0.01%   9.9  600s

Cutting planes:
  Gomory: 5
  Cover: 46
  Clique: 9
  MIR: 13
  StrongCG: 15
  Flow cover: 10
  RLT: 8

Explored 250594 nodes (2490970 simplex iterations) in 600.01 seconds (282.42 work units)
Thread count was 1 (of 12 available processors)

Solution count 10: 68234 68232 68231 ... 68219

Time limit reached
Best objective 6.823400000000e+04, best bound 6.824400000000e+04, gap 0.0147%
Solution = 68234.000000
