201_2500_DI_34
Set parameter Username
Academic license - for non-commercial use only - expires 2025-02-19
Set parameter Threads to value 1
Set parameter TimeLimit to value 600
Gurobi Optimizer version 11.0.0 build v11.0.0rc2 (linux64 - "Ubuntu 18.04.6 LTS")

CPU model: Intel(R) Xeon(R) CPU E5-2420 0 @ 1.90GHz, instruction set [SSE2|AVX]
Thread count: 6 physical cores, 12 logical processors, using up to 1 threads

Optimize a model with 201 rows, 5712 columns and 11256 nonzeros
Model fingerprint: 0x1bed8019
Variable types: 0 continuous, 5712 integer (5712 binary)
Coefficient statistics:
  Matrix range     [1e+00, 2e+03]
  Objective range  [8e+00, 2e+03]
  Bounds range     [1e+00, 1e+00]
  RHS range        [2e+03, 2e+03]
Found heuristic solution: objective -0.0000000
Presolve removed 0 rows and 149 columns
Presolve time: 0.05s
Presolved: 201 rows, 5563 columns, 11107 nonzeros
Variable types: 0 continuous, 5563 integer (5563 binary)
Found heuristic solution: objective 81284.000000

Root relaxation: objective 8.157600e+04, 171 iterations, 0.01 seconds (0.00 work units)

    Nodes    |    Current Node    |     Objective Bounds      |     Work
 Expl Unexpl |  Obj  Depth IntInf | Incumbent    BestBd   Gap | It/Node Time

     0     0 81576.0000    0   34 81284.0000 81576.0000  0.36%     -    0s
H    0     0                    81314.000000 81576.0000  0.32%     -    0s
     0     0 81576.0000    0   51 81314.0000 81576.0000  0.32%     -    0s
H    0     0                    81350.000000 81576.0000  0.28%     -    0s
     0     0 81576.0000    0   51 81350.0000 81576.0000  0.28%     -    0s
     0     0 81576.0000    0   40 81350.0000 81576.0000  0.28%     -    1s
     0     0 81576.0000    0   33 81350.0000 81576.0000  0.28%     -    1s
     0     2 81576.0000    0   33 81350.0000 81576.0000  0.28%     -    1s
H   95    95                    81368.000000 81576.0000  0.26%  16.2    3s
H  300   300                    81392.000000 81576.0000  0.23%  15.7    4s
   477   465 81575.0000   96   45 81392.0000 81576.0000  0.23%  15.4    5s
H  522   482                    81441.000000 81576.0000  0.17%  15.4    6s
H  559   482                    81454.000000 81576.0000  0.15%  36.2    9s
   560   485 81576.0000   29   41 81454.0000 81576.0000  0.15%  36.2   10s
H  602   488                    81494.000000 81576.0000  0.10%  35.9   13s
   748   587 81572.0000  123   39 81494.0000 81576.0000  0.10%  33.2   15s
  1198   854 81576.0000   93   42 81494.0000 81576.0000  0.10%  27.2   20s
H 1603  1064                    81502.000000 81576.0000  0.09%  23.2   23s
  1837  1192 81576.0000  104   40 81502.0000 81576.0000  0.09%  22.7   25s
  2322  1661 81576.0000   88   42 81502.0000 81576.0000  0.09%  21.2   30s
H 2445  1777                    81504.000000 81576.0000  0.09%  21.2   31s
  3251  2544 81563.0000  263   36 81504.0000 81576.0000  0.09%  19.7   35s
H 3445  2705                    81510.000000 81576.0000  0.08%  19.4   37s
  4553  3758 81573.0000  221   42 81510.0000 81576.0000  0.08%  17.2   41s
  5795  4916 81576.0000  377   37 81510.0000 81576.0000  0.08%  15.6   45s
  7408  6436 81559.0000  464   29 81510.0000 81576.0000  0.08%  14.5   50s
H 7423  6446                    81511.000000 81576.0000  0.08%  14.5   50s
H 7873  6843                    81513.000000 81576.0000  0.08%  14.2   54s
  7926  6898 81576.0000  377   40 81513.0000 81576.0000  0.08%  14.2   55s
  9336  8254 81576.0000  404   37 81513.0000 81576.0000  0.08%  13.7   60s
H 9337  8250                    81514.000000 81576.0000  0.08%  13.7   61s
 10202  9040 81515.0000  405   29 81514.0000 81576.0000  0.08%  13.4   66s
 12065 10294 81517.0000  441   34 81514.0000 81576.0000  0.08%  12.6   70s
H13852 11105                    81522.000000 81576.0000  0.07%  12.1   75s
 16736 12875 81527.0000  433   26 81522.0000 81576.0000  0.07%  11.1   80s
 19106 14239 81537.0000  424   30 81522.0000 81576.0000  0.07%  10.6   85s
H19855 14102                    81526.000000 81576.0000  0.06%  10.4   86s
H20278 14203                    81527.000000 81576.0000  0.06%  10.3   87s
H21294 13879                    81532.000000 81576.0000  0.05%  10.1   90s
H22294 14241                    81533.000000 81576.0000  0.05%   9.9   91s
 24394 15267 81553.0000  423   31 81533.0000 81576.0000  0.05%   9.7   95s
 26550 16287 81547.0000  480   29 81533.0000 81576.0000  0.05%   9.4  100s
 29662 18253 81549.0000  428   30 81533.0000 81576.0000  0.05%   9.3  105s
 32912 20068 81550.0000  442   35 81533.0000 81576.0000  0.05%   9.1  110s
H35582 21036                    81534.000000 81576.0000  0.05%   8.9  114s
 35650 21089     cutoff  495      81534.0000 81576.0000  0.05%   8.9  115s
H36582 19543                    81539.000000 81576.0000  0.05%   8.9  117s
 38408 20523 81572.0000  424   35 81539.0000 81576.0000  0.05%   8.8  120s
 41364 22122 81566.0000  422   33 81539.0000 81576.0000  0.05%   8.6  125s
 44399 23814 81565.0000  416   39 81539.0000 81576.0000  0.05%   8.4  130s
 47955 25957 81554.0000  401   32 81539.0000 81576.0000  0.05%   8.3  135s
 51711 28553 81545.0000  497   28 81539.0000 81576.0000  0.05%   8.1  140s
 55450 30770 81572.0000  465   31 81539.0000 81576.0000  0.05%   8.0  145s
 58967 32954 81573.0000  458   31 81539.0000 81576.0000  0.05%   7.9  150s
 60265 33668 81550.0000  533   26 81539.0000 81576.0000  0.05%   7.8  155s
 64095 35320 81576.0000  443   32 81539.0000 81576.0000  0.05%   7.8  160s
 68154 37515 81567.0000  449   27 81539.0000 81576.0000  0.05%   7.6  165s
 71316 38773 81549.0000  436   31 81539.0000 81576.0000  0.05%   7.6  170s
 75474 40471 81542.0000  449   29 81539.0000 81576.0000  0.05%   7.5  175s
 78782 41696     cutoff  496      81539.0000 81576.0000  0.05%   7.5  180s
 82430 43170 81552.0000  464   22 81539.0000 81576.0000  0.05%   7.4  185s
 83765 43628 81555.0000  472   25 81539.0000 81576.0000  0.05%   7.4  190s
 86717 44700 81555.0000  467   24 81539.0000 81576.0000  0.05%   7.4  195s
 91238 46712     cutoff  449      81539.0000 81576.0000  0.05%   7.4  200s
 94927 48161 81553.0000  453   33 81539.0000 81576.0000  0.05%   7.3  205s
 98146 49592 81576.0000  442   31 81539.0000 81576.0000  0.05%   7.3  210s
H99617 46524                    81541.000000 81576.0000  0.04%   7.3  212s
 101639 47401 81566.0000  445   33 81541.0000 81576.0000  0.04%   7.2  215s
H103752 44603                    81543.000000 81576.0000  0.04%   7.2  218s
 104980 45205 81544.0000  472   27 81543.0000 81576.0000  0.04%   7.2  220s
 106413 45916 81571.0000  458   33 81543.0000 81576.0000  0.04%   7.2  225s
 110955 47775     cutoff  465      81543.0000 81576.0000  0.04%   7.2  230s
 114891 49469 81544.0000  530   31 81543.0000 81576.0000  0.04%   7.1  235s
 117323 50502     cutoff  440      81543.0000 81576.0000  0.04%   7.1  240s
 121240 52213 81572.0000  450   29 81543.0000 81576.0000  0.04%   7.1  245s
 123117 53314 81546.0000  482   31 81543.0000 81576.0000  0.04%   7.1  250s
 126889 55397     cutoff  452      81543.0000 81576.0000  0.04%   7.1  255s
 130423 56675 81555.0000  469   28 81543.0000 81576.0000  0.04%   7.0  260s
 134492 58257 81576.0000  440   37 81543.0000 81576.0000  0.04%   7.0  265s
 138118 59318 81547.0000  448   24 81543.0000 81576.0000  0.04%   7.0  270s
 142182 60765 81549.0000  444   33 81543.0000 81576.0000  0.04%   7.0  275s
H143433 58368                    81544.000000 81576.0000  0.04%   7.0  280s
 146008 59402     cutoff  452      81544.0000 81576.0000  0.04%   7.0  285s
 148368 60441 81576.0000  440   27 81544.0000 81576.0000  0.04%   7.0  290s
H150745 51847                    81548.000000 81576.0000  0.03%   6.9  294s
 151311 52058 81564.0000  441   30 81548.0000 81576.0000  0.03%   6.9  295s
 152629 52527 81551.0000  432   28 81548.0000 81576.0000  0.03%   6.9  300s
 155796 53980 81560.0000  445   33 81548.0000 81576.0000  0.03%   6.9  305s
 157986 54954 81576.0000  413   32 81548.0000 81576.0000  0.03%   6.9  310s
 160621 56010 81557.0000  466   29 81548.0000 81576.0000  0.03%   6.9  315s
 162581 56748 81576.0000  431   32 81548.0000 81576.0000  0.03%   6.9  320s
 164170 57289 81555.0000  450   28 81548.0000 81576.0000  0.03%   6.9  325s
 166655 58110 81549.0000  444   36 81548.0000 81576.0000  0.03%   6.9  331s
 169588 59116 81573.0000  441   34 81548.0000 81576.0000  0.03%   6.9  335s
 172716 60118 81560.0000  466   27 81548.0000 81576.0000  0.03%   6.9  340s
 176481 61280 81564.0000  429   30 81548.0000 81576.0000  0.03%   6.9  345s
 180079 62586 81552.0000  445   29 81548.0000 81576.0000  0.03%   6.9  350s
 183198 63554 81573.0000  437   31 81548.0000 81576.0000  0.03%   6.9  355s
 185796 64621 81576.0000  425   39 81548.0000 81576.0000  0.03%   6.9  360s
 188337 65529 81574.0000  452   32 81548.0000 81576.0000  0.03%   6.9  365s
 191729 66916     cutoff  440      81548.0000 81576.0000  0.03%   6.9  370s
 195137 68275     cutoff  441      81548.0000 81576.0000  0.03%   6.9  375s
 198779 69529 81551.0000  455   29 81548.0000 81576.0000  0.03%   6.9  380s
 201957 70774 81553.0000  434   32 81548.0000 81576.0000  0.03%   6.9  385s
 205068 72208 81575.0000  444   28 81548.0000 81576.0000  0.03%   6.9  390s
 209141 73742     cutoff  505      81548.0000 81576.0000  0.03%   6.9  395s
 211422 74511 81549.0000  487   27 81548.0000 81576.0000  0.03%   6.9  400s
 214552 75408 81568.0000  455   36 81548.0000 81576.0000  0.03%   6.9  405s
 217965 76767 81551.0000  514   30 81548.0000 81576.0000  0.03%   6.9  410s
 220485 77796     cutoff  446      81548.0000 81576.0000  0.03%   6.9  415s
 224015 79021 81576.0000  430   33 81548.0000 81576.0000  0.03%   6.9  420s
 226350 79950 81556.0000  456   28 81548.0000 81576.0000  0.03%   6.9  425s
H228919 77219                    81549.000000 81576.0000  0.03%   6.9  429s
 229048 77322 81559.0000  428   30 81549.0000 81576.0000  0.03%   6.9  431s
 231300 78429 81559.0000  441   30 81549.0000 81576.0000  0.03%   6.9  435s
 233875 79434 81570.0000  444   30 81549.0000 81576.0000  0.03%   6.9  440s
 236979 80459 81553.0000  444   28 81549.0000 81576.0000  0.03%   6.8  445s
 239607 81475 81552.0000  467   28 81549.0000 81576.0000  0.03%   6.8  450s
 242019 82122 81550.0000  441   28 81549.0000 81576.0000  0.03%   6.8  455s
 245071 83654     cutoff  451      81549.0000 81576.0000  0.03%   6.8  460s
 247546 84774 81551.0000  453   31 81549.0000 81576.0000  0.03%   6.8  465s
 250566 85949 81553.0000  463   29 81549.0000 81576.0000  0.03%   6.8  470s
 252962 86746     cutoff  458      81549.0000 81576.0000  0.03%   6.8  475s
 255602 87489 81552.0000  454   29 81549.0000 81576.0000  0.03%   6.8  480s
 258384 88457 81550.0000  436   34 81549.0000 81576.0000  0.03%   6.8  485s
 261722 89722 81576.0000  419   33 81549.0000 81576.0000  0.03%   6.8  490s
 264510 90779 81554.0000  469   31 81549.0000 81576.0000  0.03%   6.8  495s
 267617 91897 81572.0000  470   30 81549.0000 81576.0000  0.03%   6.8  500s
 269858 92514 81550.0000  437   31 81549.0000 81576.0000  0.03%   6.8  505s
 272712 93466 81551.0000  478   25 81549.0000 81576.0000  0.03%   6.8  510s
 275451 94218 81555.0000  472   31 81549.0000 81576.0000  0.03%   6.8  515s
 278316 94933 81551.0000  439   32 81549.0000 81576.0000  0.03%   6.8  520s
 281209 95741 81557.0000  450   29 81549.0000 81576.0000  0.03%   6.8  525s
 284084 96719 81550.0000  450   33 81549.0000 81576.0000  0.03%   6.8  530s
 286573 97619 81567.0000  442   30 81549.0000 81576.0000  0.03%   6.8  535s
 289323 98618     cutoff  430      81549.0000 81576.0000  0.03%   6.8  540s
 291322 99336 81576.0000  433   32 81549.0000 81576.0000  0.03%   6.8  545s
 294199 100104     cutoff  461      81549.0000 81576.0000  0.03%   6.8  550s
 297215 101100 81553.0000  464   28 81549.0000 81576.0000  0.03%   6.8  555s
 300076 101990 81553.0000  470   31 81549.0000 81576.0000  0.03%   6.8  560s
 303146 103008 81572.0000  441   31 81549.0000 81576.0000  0.03%   6.8  565s
 306064 103910 81550.0000  453   26 81549.0000 81576.0000  0.03%   6.8  570s
 308723 104652 81553.0000  446   27 81549.0000 81576.0000  0.03%   6.8  575s
 311263 105343     cutoff  464      81549.0000 81576.0000  0.03%   6.8  580s
 314516 106387     cutoff  456      81549.0000 81576.0000  0.03%   6.8  585s
 317048 107046 81564.0000  427   29 81549.0000 81576.0000  0.03%   6.8  590s
 320222 107954 81572.0000  426   34 81549.0000 81576.0000  0.03%   6.8  595s

Cutting planes:
  Gomory: 3
  Cover: 46
  Clique: 7
  MIR: 6
  StrongCG: 9
  Flow cover: 7
  RLT: 9

Explored 322557 nodes (2190442 simplex iterations) in 600.01 seconds (279.32 work units)
Thread count was 1 (of 12 available processors)

Solution count 10: 81549 81548 81544 ... 81527

Time limit reached
Best objective 8.154900000000e+04, best bound 8.157600000000e+04, gap 0.0331%
Solution = 81549.000000
