201_2500_NR_21
Set parameter Username
Academic license - for non-commercial use only - expires 2025-02-19
Set parameter Threads to value 1
Set parameter TimeLimit to value 600
Gurobi Optimizer version 11.0.0 build v11.0.0rc2 (linux64 - "Ubuntu 18.04.6 LTS")

CPU model: Intel(R) Xeon(R) CPU E5-2420 0 @ 1.90GHz, instruction set [SSE2|AVX]
Thread count: 6 physical cores, 12 logical processors, using up to 1 threads

Optimize a model with 207 rows, 5916 columns and 11658 nonzeros
Model fingerprint: 0xb4218690
Variable types: 0 continuous, 5916 integer (5916 binary)
Coefficient statistics:
  Matrix range     [1e+00, 2e+03]
  Objective range  [8e+00, 2e+03]
  Bounds range     [1e+00, 1e+00]
  RHS range        [2e+03, 2e+03]
Found heuristic solution: objective -0.0000000
Presolve removed 0 rows and 155 columns
Presolve time: 0.05s
Presolved: 207 rows, 5761 columns, 11503 nonzeros
Variable types: 0 continuous, 5761 integer (5761 binary)
Found heuristic solution: objective 80843.000000

Root relaxation: objective 8.104800e+04, 190 iterations, 0.02 seconds (0.01 work units)

    Nodes    |    Current Node    |     Objective Bounds      |     Work
 Expl Unexpl |  Obj  Depth IntInf | Incumbent    BestBd   Gap | It/Node Time

     0     0 81048.0000    0   31 80843.0000 81048.0000  0.25%     -    0s
H    0     0                    80869.000000 81048.0000  0.22%     -    0s
     0     0 81048.0000    0   48 80869.0000 81048.0000  0.22%     -    0s
     0     0 81048.0000    0   55 80869.0000 81048.0000  0.22%     -    0s
     0     0 81048.0000    0   33 80869.0000 81048.0000  0.22%     -    1s
     0     0 81048.0000    0   44 80869.0000 81048.0000  0.22%     -    1s
     0     0 81048.0000    0   40 80869.0000 81048.0000  0.22%     -    1s
     0     0 81048.0000    0   40 80869.0000 81048.0000  0.22%     -    1s
     0     2 81048.0000    0   36 80869.0000 81048.0000  0.22%     -    1s
H   27    27                    80944.000000 81048.0000  0.13%  59.2    3s
H   43    43                    80956.000000 81048.0000  0.11%  56.2    4s
   166   168 81042.0000  143   43 80956.0000 81048.0000  0.11%  30.7    5s
   541   510 81048.0000   50   43 80956.0000 81048.0000  0.11%  21.5   10s
H  569   502                    80974.000000 81048.0000  0.09%  43.1   11s
   617   536 81048.0000   49   42 80974.0000 81048.0000  0.09%  42.8   15s
H  634   521                    80976.000000 81048.0000  0.09%  42.7   16s
   837   658 81048.0000  159   43 80976.0000 81048.0000  0.09%  40.0   20s
H  956   710                    80994.000000 81048.0000  0.07%  36.8   21s
H 1321   854                    80996.000000 81048.0000  0.06%  28.7   22s
  1778  1100 81048.0000  139   36 80996.0000 81048.0000  0.06%  25.2   25s
H 2145  1405                    81002.000000 81048.0000  0.06%  22.7   28s
  2570  1798 81045.0000  279   43 81002.0000 81048.0000  0.06%  21.0   30s
  3511  2666 81047.0000  257   39 81002.0000 81048.0000  0.06%  18.9   35s
H 4361  3396                    81003.000000 81048.0000  0.06%  17.8   38s
  4743  3765 81011.0000  369   31 81003.0000 81048.0000  0.06%  17.3   40s
H 5362  4306                    81008.000000 81048.0000  0.05%  16.9   43s
  5610  4525 81047.0000  268   39 81008.0000 81048.0000  0.05%  16.7   45s
H 6692  5534                    81009.000000 81048.0000  0.05%  16.3   48s
  7096  5824 81047.0000  211   39 81009.0000 81048.0000  0.05%  16.1   50s
  7873  6564 81047.0000  310   39 81009.0000 81048.0000  0.05%  15.8   56s
H 7874  6491                    81013.000000 81048.0000  0.04%  15.8   56s
  8481  7023 81047.0000  212   38 81013.0000 81048.0000  0.04%  15.5   60s
  9655  8123 81031.0000  483   44 81013.0000 81048.0000  0.04%  15.4   65s
 10223  8620 81047.0000  434   39 81013.0000 81048.0000  0.04%  15.1   70s
 11195  9511 81040.0000  347   41 81013.0000 81048.0000  0.04%  14.9   75s
 12262 10405 81047.0000  158   36 81013.0000 81048.0000  0.04%  14.6   80s
 13518 11601 81037.0000  438   41 81013.0000 81048.0000  0.04%  14.3   85s
 14605 12499 81015.0000  278   37 81013.0000 81048.0000  0.04%  14.1   90s
 15899 13575 81019.0000  278   39 81013.0000 81048.0000  0.04%  13.9   95s
 16914 14514 81042.0000  355   42 81013.0000 81048.0000  0.04%  13.7  100s
 17703 15251 81047.0000  337   39 81013.0000 81048.0000  0.04%  13.6  105s
H17812 14343                    81019.000000 81048.0000  0.04%  13.6  105s
 18756 15210 81025.0000  416   44 81019.0000 81048.0000  0.04%  13.5  110s
H19152 14729                    81023.000000 81048.0000  0.03%  13.5  112s
 19815 15301 81047.0000  167   38 81023.0000 81048.0000  0.03%  13.4  115s
 20794 16158 81024.0000  187   38 81023.0000 81048.0000  0.03%  13.4  120s
H22014 16762                    81024.000000 81048.0000  0.03%  13.3  124s
 22051 16801 81045.0000  250   39 81024.0000 81048.0000  0.03%  13.3  125s
H22986 17082                    81027.000000 81048.0000  0.03%  13.4  128s
 23493 17521 81039.0000  248   45 81027.0000 81048.0000  0.03%  13.3  130s
 25308 19165 81041.0000  199   44 81027.0000 81048.0000  0.03%  13.2  135s
 27384 20946 81041.0000  428   38 81027.0000 81048.0000  0.03%  13.1  140s
H28516 21717                    81028.000000 81048.0000  0.02%  13.1  144s
 28517 21720 81034.0000  383   45 81028.0000 81048.0000  0.02%  13.1  145s
 30579 23445 81033.0000  337   45 81028.0000 81048.0000  0.02%  13.0  150s
 32757 25167 81041.0000  226   38 81028.0000 81048.0000  0.02%  12.8  155s
 35635 27223 81030.0000  252   37 81028.0000 81048.0000  0.02%  12.4  160s
 38703 29441 81030.0000  347   32 81028.0000 81048.0000  0.02%  11.9  165s
 40878 31034 81041.0000  206   36 81028.0000 81048.0000  0.02%  11.6  170s
H41515 26252                    81032.000000 81048.0000  0.02%  11.5  174s
 41826 26527 81040.0000  254   36 81032.0000 81048.0000  0.02%  11.5  175s
 45038 28773 81034.0000  263   34 81032.0000 81048.0000  0.02%  11.0  180s
 48890 31274 81034.0000  297   37 81032.0000 81048.0000  0.02%  10.6  185s
 51320 32868 81033.0000  238   29 81032.0000 81048.0000  0.02%  10.3  190s
 54707 34902 81037.0000  275   27 81032.0000 81048.0000  0.02%  10.0  195s
 57147 36827 81041.0000  281   42 81032.0000 81048.0000  0.02%   9.9  200s
 58894 38274 81045.0000  412   44 81032.0000 81048.0000  0.02%   9.8  205s
 59678 38999 81039.0000  457   44 81032.0000 81048.0000  0.02%   9.9  210s
 61901 40950 81033.0000  244   35 81032.0000 81048.0000  0.02%   9.9  215s
 63848 42612 81047.0000  193   43 81032.0000 81048.0000  0.02%   9.9  220s
 65366 43960 81039.0000  527   48 81032.0000 81048.0000  0.02%   9.9  225s
 67025 45476 81041.0000  498   48 81032.0000 81048.0000  0.02%   9.9  230s
 68766 46986 81045.0000  130   39 81032.0000 81048.0000  0.02%   9.9  235s
 70703 48533 81035.0000  422   45 81032.0000 81048.0000  0.02%   9.9  240s
 72253 49920 81043.0000  444   38 81032.0000 81048.0000  0.02%  10.0  245s
 73509 51040 81039.0000  402   39 81032.0000 81048.0000  0.02%  10.0  250s
H74836 36302                    81036.000000 81048.0000  0.01%  10.0  253s
 75933 37228 81041.0000  272   43 81036.0000 81048.0000  0.01%   9.9  255s
 77680 38837 81039.0000  291   39 81036.0000 81048.0000  0.01%  10.0  260s
H78091 36574                    81037.000000 81048.0000  0.01%  10.0  261s
 79890 38067 81047.0000  210   41 81037.0000 81048.0000  0.01%  10.0  265s
 82019 39942 81044.0000  151   39 81037.0000 81048.0000  0.01%  10.0  270s
 84522 42028 81041.0000  313   41 81037.0000 81048.0000  0.01%  10.0  275s
 86290 43519 81048.0000  119   39 81037.0000 81048.0000  0.01%  10.0  280s
 87251 44389 81045.0000  144   39 81037.0000 81048.0000  0.01%  10.0  285s
 89734 46405 81038.0000  266   34 81037.0000 81048.0000  0.01%  10.0  290s
 91560 47834 81039.0000  288   43 81037.0000 81048.0000  0.01%  10.0  295s
 94187 50178 81040.0000  385   40 81037.0000 81048.0000  0.01%  10.0  300s
 96459 52113 81045.0000  293   44 81037.0000 81048.0000  0.01%  10.0  305s
 98052 53545 81045.0000  239   42 81037.0000 81048.0000  0.01%  10.0  310s
 99562 54910 81039.0000  508   44 81037.0000 81048.0000  0.01%  10.0  315s
 101564 56604 81045.0000  152   34 81037.0000 81048.0000  0.01%  10.0  320s
 103725 58487 81044.0000  436   48 81037.0000 81048.0000  0.01%  10.0  325s
 105751 60022 81045.0000  191   42 81037.0000 81048.0000  0.01%  10.0  330s
H106525 48850                    81039.000000 81048.0000  0.01%  10.0  331s
 108046 50161 81047.0000  418   48 81039.0000 81048.0000  0.01%  10.0  335s
 110105 51866 81043.0000  177   38 81039.0000 81048.0000  0.01%   9.9  340s
H110894 46975                    81040.000000 81048.0000  0.01%   9.9  344s

Cutting planes:
  Gomory: 4
  Cover: 51
  Clique: 6
  MIR: 12
  StrongCG: 16
  Flow cover: 17
  RLT: 13

Explored 110895 nodes (1106210 simplex iterations) in 344.30 seconds (140.63 work units)
Thread count was 1 (of 12 available processors)

Solution count 10: 81040 81039 81037 ... 81019

Optimal solution found (tolerance 1.00e-04)
Best objective 8.104000000000e+04, best bound 8.104800000000e+04, gap 0.0099%
Solution = 81040.000000
