500_250_100_17_9
Set parameter Username
Academic license - for non-commercial use only - expires 2025-02-19
Set parameter Threads to value 1
Set parameter TimeLimit to value 600
Gurobi Optimizer version 11.0.0 build v11.0.0rc2 (linux64 - "Ubuntu 18.04.6 LTS")

CPU model: Intel(R) Xeon(R) CPU E5-2420 0 @ 1.90GHz, instruction set [SSE2|AVX]
Thread count: 6 physical cores, 12 logical processors, using up to 1 threads

Optimize a model with 750 rows, 125500 columns and 250500 nonzeros
Model fingerprint: 0xbc44634f
Variable types: 0 continuous, 125500 integer (125500 binary)
Coefficient statistics:
  Matrix range     [1e+00, 7e+01]
  Objective range  [3e+01, 7e+01]
  Bounds range     [1e+00, 1e+00]
  RHS range        [1e+02, 1e+02]
Found heuristic solution: objective -0.0000000
Presolve time: 1.52s
Presolved: 750 rows, 125500 columns, 250500 nonzeros
Variable types: 0 continuous, 125500 integer (125500 binary)

Root relaxation: objective 2.500000e+04, 1072 iterations, 0.43 seconds (0.18 work units)
Total elapsed time = 5.13s (DegenMoves)

    Nodes    |    Current Node    |     Objective Bounds      |     Work
 Expl Unexpl |  Obj  Depth IntInf | Incumbent    BestBd   Gap | It/Node Time

     0     0 25000.0000    0  343   -0.00000 25000.0000      -     -    5s
H    0     0                    6974.0000000 25000.0000   258%     -    6s
H    0     0                    18885.000000 25000.0000  32.4%     -   12s
H    0     0                    20805.000000 25000.0000  20.2%     -   19s
     0     0 25000.0000    0  375 20805.0000 25000.0000  20.2%     -   21s
H    0     0                    23635.000000 25000.0000  5.78%     -   39s
     0     0 25000.0000    0  401 23635.0000 25000.0000  5.78%     -   39s
     0     0 25000.0000    0  292 23635.0000 25000.0000  5.78%     -   44s
     0     0 25000.0000    0  316 23635.0000 25000.0000  5.78%     -   44s
     0     0 25000.0000    0  271 23635.0000 25000.0000  5.78%     -   48s
     0     0 25000.0000    0  290 23635.0000 25000.0000  5.78%     -   52s
     0     0 25000.0000    0  247 23635.0000 25000.0000  5.78%     -   55s
     0     0 25000.0000    0  262 23635.0000 25000.0000  5.78%     -   55s
     0     0 25000.0000    0  233 23635.0000 25000.0000  5.78%     -   69s
     0     0 25000.0000    0  225 23635.0000 25000.0000  5.78%     -  106s
     0     2 25000.0000    0  225 23635.0000 25000.0000  5.78%     -  117s
H   26    26                    23998.000000 25000.0000  4.18%   135  130s
    27    29 25000.0000   16  227 23998.0000 25000.0000  4.18%   130  136s
   104   106 25000.0000   84  230 23998.0000 25000.0000  4.18%  74.6  140s
   292   294 25000.0000  264  230 23998.0000 25000.0000  4.18%  34.7  145s
   397   399 25000.0000  336  234 23998.0000 25000.0000  4.18%  54.4  150s
   469   471 25000.0000  373  237 23998.0000 25000.0000  4.18%  76.9  155s
   539   541 25000.0000  408  233 23998.0000 25000.0000  4.18%  90.5  160s
   611   613 25000.0000  444  237 23998.0000 25000.0000  4.18%  98.5  180s
   753   755 25000.0000  559  231 23998.0000 25000.0000  4.18%  88.6  185s
   924   926 25000.0000  715  227 23998.0000 25000.0000  4.18%  77.5  190s
  1026  1028 25000.0000  817  226 23998.0000 25000.0000  4.18%  69.9  197s
  1124  1126 25000.0000  897  226 23998.0000 25000.0000  4.18%  64.4  200s
  1214  1216 25000.0000  945  225 23998.0000 25000.0000  4.18%  69.6  205s
  1372  1374 25000.0000 1061  225 23998.0000 25000.0000  4.18%  63.8  210s
  1464  1466 25000.0000 1107  226 23998.0000 25000.0000  4.18%  67.6  215s
  1560  1562 25000.0000 1174  226 23998.0000 25000.0000  4.18%  70.7  220s
  1738  1740 25000.0000 1313  226 23998.0000 25000.0000  4.18%  64.2  225s
  1924  1926 25000.0000 1467  227 23998.0000 25000.0000  4.18%  58.5  230s
  2044  2046 25000.0000 1558  229 23998.0000 25000.0000  4.18%  58.9  235s
  2111  2113 25000.0000 1591  226 23998.0000 25000.0000  4.18%  62.8  240s
  2226  2228 25000.0000 1650  228 23998.0000 25000.0000  4.18%  62.6  245s
  2370  2372 25000.0000 1722  229 23998.0000 25000.0000  4.18%  59.7  250s
  2513  2515 25000.0000 1807  228 23998.0000 25000.0000  4.18%  57.0  255s
  2551  2552 25000.0000  360  225 23998.0000 25000.0000  4.18%  56.1  270s
  2553  2553 25000.0000 1460  343 23998.0000 25000.0000  4.18%  56.1  280s
H 2553  2425                    24162.000000 25000.0000  3.47%  56.1  402s
  2556  2427 25000.0000   86  271 24162.0000 25000.0000  3.47%  56.0  410s
  2558  2429 25000.0000  574  235 24162.0000 25000.0000  3.47%  56.0  541s
  2560  2430 25000.0000   33  201 24162.0000 25000.0000  3.47%  55.9  552s
  2562  2431 25000.0000  271  195 24162.0000 25000.0000  3.47%  55.9  565s
  2564  2433 25000.0000 1542  171 24162.0000 25000.0000  3.47%  55.8  583s
  2565  2433 25000.0000 1319  215 24162.0000 25000.0000  3.47%  55.8  585s
  2566  2434 25000.0000  444  171 24162.0000 25000.0000  3.47%  55.8  597s

Cutting planes:
  Gomory: 10
  Cover: 281
  Clique: 40
  StrongCG: 56
  Flow cover: 108
  Zero half: 14
  RLT: 16

Explored 2567 nodes (195417 simplex iterations) in 600.18 seconds (217.59 work units)
Thread count was 1 (of 12 available processors)

Solution count 7: 24162 23998 23635 ... -0

Time limit reached
Best objective 2.416200000000e+04, best bound 2.500000000000e+04, gap 3.4683%
Solution = 24162.000000
