500_250_100_33_2
Set parameter Username
Academic license - for non-commercial use only - expires 2025-02-19
Set parameter Threads to value 1
Set parameter TimeLimit to value 600
Gurobi Optimizer version 11.0.0 build v11.0.0rc2 (linux64 - "Ubuntu 18.04.6 LTS")

CPU model: Intel(R) Xeon(R) CPU E5-2420 0 @ 1.90GHz, instruction set [SSE2|AVX]
Thread count: 6 physical cores, 12 logical processors, using up to 1 threads

Optimize a model with 750 rows, 125500 columns and 250500 nonzeros
Model fingerprint: 0xda20e941
Variable types: 0 continuous, 125500 integer (125500 binary)
Coefficient statistics:
  Matrix range     [1e+00, 7e+01]
  Objective range  [3e+01, 7e+01]
  Bounds range     [1e+00, 1e+00]
  RHS range        [1e+02, 1e+02]
Found heuristic solution: objective -0.0000000
Presolve time: 1.49s
Presolved: 750 rows, 125500 columns, 250500 nonzeros
Variable types: 0 continuous, 125500 integer (125500 binary)

Root relaxation: objective 2.500000e+04, 1091 iterations, 0.54 seconds (0.25 work units)

    Nodes    |    Current Node    |     Objective Bounds      |     Work
 Expl Unexpl |  Obj  Depth IntInf | Incumbent    BestBd   Gap | It/Node Time

     0     0 25000.0000    0  349   -0.00000 25000.0000      -     -    5s
H    0     0                    4139.0000000 25000.0000   504%     -    6s
H    0     0                    20162.000000 25000.0000  24.0%     -   11s
H    0     0                    21704.000000 25000.0000  15.2%     -   16s
     0     0 25000.0000    0  424 21704.0000 25000.0000  15.2%     -   18s
H    0     0                    23222.000000 25000.0000  7.66%     -   42s
     0     0 25000.0000    0  456 23222.0000 25000.0000  7.66%     -   42s
     0     0 25000.0000    0  297 23222.0000 25000.0000  7.66%     -   48s
     0     0 25000.0000    0  337 23222.0000 25000.0000  7.66%     -   50s
     0     0 25000.0000    0  268 23222.0000 25000.0000  7.66%     -   55s
     0     0 25000.0000    0  265 23222.0000 25000.0000  7.66%     -   89s
     0     2 25000.0000    0  265 23222.0000 25000.0000  7.66%     -   95s
    28    30 25000.0000   17  268 23222.0000 25000.0000  7.66%   172  104s
    37    39 25000.0000   22  260 23222.0000 25000.0000  7.66%   173  105s
    99   101 25000.0000   53  261 23222.0000 25000.0000  7.66%   149  110s
   176   178 25000.0000   96  267 23222.0000 25000.0000  7.66%   145  115s
   261   263 25000.0000  142  261 23222.0000 25000.0000  7.66%   138  120s
   348   350 25000.0000  188  261 23222.0000 25000.0000  7.66%   134  125s
   433   435 25000.0000  234  252 23222.0000 25000.0000  7.66%   135  130s
   510   512 25000.0000  277  256 23222.0000 25000.0000  7.66%   135  135s
H  519   519                    23406.000000 25000.0000  6.81%   136  149s
   521   523 25000.0000  284  257 23406.0000 25000.0000  6.81%   136  150s
   599   601 25000.0000  339  245 23406.0000 25000.0000  6.81%   129  155s
   653   655 25000.0000  367  250 23406.0000 25000.0000  6.81%   135  160s
   706   708 25000.0000  395  240 23406.0000 25000.0000  6.81%   141  165s
   771   773 25000.0000  437  236 23406.0000 25000.0000  6.81%   140  170s
   850   852 25000.0000  499  243 23406.0000 25000.0000  6.81%   135  175s
   906   908 25000.0000  527  245 23406.0000 25000.0000  6.81%   140  180s
  1010  1012 25000.0000  582  242 23406.0000 25000.0000  6.81%   135  185s
  1065  1067 25000.0000  611  243 23406.0000 25000.0000  6.81%   129  192s
  1121  1123 25000.0000  646  243 23406.0000 25000.0000  6.81%   124  195s
  1203  1205 25000.0000  691  237 23406.0000 25000.0000  6.81%   130  200s
  1280  1282 25000.0000  729  242 23406.0000 25000.0000  6.81%   136  205s
H 1303  1303                    23500.000000 25000.0000  6.38%   137  216s
  1396  1398 25000.0000  794  240 23500.0000 25000.0000  6.38%   131  220s
  1510  1512 25000.0000  878  241 23500.0000 25000.0000  6.38%   127  225s
  1676  1678 25000.0000 1040  240 23500.0000 25000.0000  6.38%   115  230s
  1800  1802 25000.0000 1145  242 23500.0000 25000.0000  6.38%   111  235s
  1880  1882 25000.0000 1186  236 23500.0000 25000.0000  6.38%   116  240s
  1952  1954 25000.0000 1222  235 23500.0000 25000.0000  6.38%   119  245s
  2027  2029 25000.0000 1259  241 23500.0000 25000.0000  6.38%   123  250s
  2064  2066 25000.0000 1278  236 23500.0000 25000.0000  6.38%   125  264s
  2065  2067 25000.0000 1278  241 23500.0000 25000.0000  6.38%   125  272s
  2097  2099 25000.0000 1294  240 23500.0000 25000.0000  6.38%   126  275s
  2170  2172 25000.0000 1331  235 23500.0000 25000.0000  6.38%   129  280s
  2245  2247 25000.0000 1368  241 23500.0000 25000.0000  6.38%   132  285s
  2303  2305 25000.0000 1397  241 23500.0000 25000.0000  6.38%   134  294s
  2319  2321 25000.0000 1405  241 23500.0000 25000.0000  6.38%   134  295s
  2389  2391 25000.0000 1441  234 23500.0000 25000.0000  6.38%   137  300s
  2461  2463 25000.0000 1477  239 23500.0000 25000.0000  6.38%   139  305s
  2538  2540 25000.0000 1521  241 23500.0000 25000.0000  6.38%   140  310s
  2551  2552 25000.0000  517  265 23500.0000 25000.0000  6.38%   139  318s
  2553  2553 25000.0000 1201  349 23500.0000 25000.0000  6.38%   139  325s
  2554  2554 25000.0000  534  306 23500.0000 25000.0000  6.38%   139  479s
  2555  2555 25000.0000  687  357 23500.0000 25000.0000  6.38%   139  482s
  2556  2555 25000.0000  503  280 23500.0000 25000.0000  6.38%   139  502s
  2557  2556 25000.0000  108  285 23500.0000 25000.0000  6.38%   139  505s

Cutting planes:
  Cover: 184
  Clique: 55
  MIR: 8
  StrongCG: 25
  Flow cover: 46
  Zero half: 30
  RLT: 27

Explored 2557 nodes (372374 simplex iterations) in 600.81 seconds (282.63 work units)
Thread count was 1 (of 12 available processors)

Solution count 7: 23500 23406 23222 ... -0

Time limit reached
Best objective 2.350000000000e+04, best bound 2.500000000000e+04, gap 6.3830%
Solution = 23500.000000
