600_20000_NR_6
Set parameter Username
Academic license - for non-commercial use only - expires 2025-02-19
Set parameter Threads to value 1
Set parameter TimeLimit to value 600
Gurobi Optimizer version 11.0.0 build v11.0.0rc2 (linux64 - "Ubuntu 18.04.6 LTS")

CPU model: Intel(R) Xeon(R) CPU E5-2420 0 @ 1.90GHz, instruction set [SSE2|AVX]
Thread count: 6 physical cores, 12 logical processors, using up to 1 threads

Optimize a model with 624 rows, 52500 columns and 104475 nonzeros
Model fingerprint: 0xb552cc35
Variable types: 0 continuous, 52500 integer (52500 binary)
Coefficient statistics:
  Matrix range     [1e+00, 1e+04]
  Objective range  [8e+01, 1e+04]
  Bounds range     [1e+00, 1e+00]
  RHS range        [1e+04, 1e+04]
Found heuristic solution: objective -0.0000000
Presolve removed 0 rows and 474 columns
Presolve time: 0.21s
Presolved: 624 rows, 52026 columns, 104001 nonzeros
Variable types: 0 continuous, 52026 integer (52026 binary)
Found heuristic solution: objective 1324076.0000

Root relaxation: objective 1.325808e+06, 522 iterations, 0.08 seconds (0.04 work units)

    Nodes    |    Current Node    |     Objective Bounds      |     Work
 Expl Unexpl |  Obj  Depth IntInf | Incumbent    BestBd   Gap | It/Node Time

     0     0 1325808.00    0   98 1324076.00 1325808.00  0.13%     -    0s
H    0     0                    1324108.0000 1325808.00  0.13%     -    1s
     0     0 1325808.00    0  141 1324108.00 1325808.00  0.13%     -    2s
H    0     0                    1324350.0000 1325808.00  0.11%     -    5s
     0     0 1325808.00    0  162 1324350.00 1325808.00  0.11%     -    5s
     0     0 1325808.00    0  101 1324350.00 1325808.00  0.11%     -    5s
     0     0 1325808.00    0  129 1324350.00 1325808.00  0.11%     -    6s
     0     0 1325808.00    0  103 1324350.00 1325808.00  0.11%     -    6s
     0     0 1325808.00    0  103 1324350.00 1325808.00  0.11%     -    7s
     0     2 1325808.00    0   99 1324350.00 1325808.00  0.11%     -    8s
    22    24 1325808.00   19  128 1324350.00 1325808.00  0.11%   133   10s
H  143   143                    1324456.0000 1325808.00  0.10%  60.6   17s
H  144   144                    1324538.0000 1325808.00  0.10%  60.8   19s
   179   181 1325808.00  173  151 1324538.00 1325808.00  0.10%  55.8   20s
   532   534 1325248.00  493  137 1324538.00 1325808.00  0.10%  42.2   25s
H  785   763                    1324552.0000 1325808.00  0.09%  36.7   29s
H  786   764                    1324559.0000 1325808.00  0.09%  36.7   32s
  1111  1028 1324562.00  980  106 1324559.00 1325808.00  0.09%  31.9   35s
H 1136   803                    1324577.0000 1325808.00  0.09%  32.3   36s
  1139   764 1325763.00  312   98 1324577.00 1325808.00  0.09%  32.3   41s
H 1139   726                    1324607.0000 1325808.00  0.09%  32.3   45s
  1150   734 1325336.00  464  103 1324607.00 1325808.00  0.09%  32.0   50s
H 1178   715                    1324695.0000 1325808.00  0.08%  46.5   57s
H 1186   686                    1324708.0000 1325808.00  0.08%  47.1   58s
  1212   705 1325808.00   40  111 1324708.00 1325808.00  0.08%  48.2   60s
H 1218   673                    1324757.0000 1325808.00  0.08%  48.3   64s
  1225   680 1325808.00   47  110 1324757.00 1325808.00  0.08%  49.0   65s
  1281   717 1325808.00   75  115 1324757.00 1325808.00  0.08%  51.6   70s
H 1319   709                    1324906.0000 1325808.00  0.07%  52.3   74s
  1321   713 1325808.00   95  116 1324906.00 1325808.00  0.07%  52.3   75s
H 1367   711                    1324912.0000 1325808.00  0.07%  54.5   83s
  1392   730 1325808.00  130  116 1324912.00 1325808.00  0.07%  54.3   85s
  1434   758 1325808.00  151  123 1324912.00 1325808.00  0.07%  56.7   90s
H 1466   748                    1324992.0000 1325808.00  0.06%  59.6   96s
  1477   758 1325808.00  173  115 1324992.00 1325808.00  0.06%  60.3  100s
  1517   784 1325808.00  193  120 1324992.00 1325808.00  0.06%  61.9  105s
  1574   822 1325808.00  221  126 1324992.00 1325808.00  0.06%  63.7  110s
H 1593   806                    1325004.0000 1325808.00  0.06%  64.7  114s
H 1594   781                    1325030.0000 1325808.00  0.06%  64.7  115s
  1655   823 1325808.00  262  120 1325030.00 1325808.00  0.06%  66.0  120s
H 1723   842                    1325059.0000 1325808.00  0.06%  66.5  126s
  1777   880 1325808.00  323  131 1325059.00 1325808.00  0.06%  67.5  130s
H 1887   928                    1325073.0000 1325808.00  0.06%  66.0  136s
H 1926   932                    1325089.0000 1325808.00  0.05%  65.6  141s
H 1975   944                    1325090.0000 1325808.00  0.05%  65.7  148s
  2037   987 1325805.00  453  125 1325090.00 1325808.00  0.05%  64.3  150s
  2220  1109 1325805.00  544  123 1325090.00 1325808.00  0.05%  61.4  155s
H 2309  1157                    1325161.0000 1325808.00  0.05%  59.7  159s
  2337  1187 1325770.00  603  120 1325161.00 1325808.00  0.05%  59.3  160s
H 2457  1305                    1325164.0000 1325808.00  0.05%  56.9  164s
  2493  1343 1325800.00  681  124 1325164.00 1325808.00  0.05%  56.1  165s
  2850  1700 1325682.00  859  114 1325164.00 1325808.00  0.05%  50.6  170s
H 2879  1727                    1325175.0000 1325808.00  0.05%  50.2  172s
  2958  1808 1325800.00  913  116 1325175.00 1325808.00  0.05%  49.1  178s
  2968  1818 1325800.00  918  117 1325175.00 1325808.00  0.05%  48.9  180s
  3328  2178 1325695.00 1098  105 1325175.00 1325808.00  0.05%  44.6  187s
  3574  2424 1325695.00 1221  112 1325175.00 1325808.00  0.05%  42.3  190s
H 3684  2528                    1325197.0000 1325808.00  0.05%  41.4  193s
  3894  2586 1325256.00 1383   99 1325197.00 1325808.00  0.05%  39.5  195s
  4061  2604 1325746.00   13  108 1325197.00 1325808.00  0.05%  38.2  200s
  4114  2657 1325808.00   40  114 1325197.00 1325808.00  0.05%  39.0  205s
  4163  2706 1325808.00   64  113 1325197.00 1325808.00  0.05%  39.5  210s
  4224  2767 1325808.00   95  112 1325197.00 1325808.00  0.05%  40.1  215s
H 4236  2759                    1325216.0000 1325808.00  0.04%  40.2  218s
  4244  2769 1325808.00  105  112 1325216.00 1325808.00  0.04%  40.3  220s
  4312  2837 1325808.00  139  113 1325216.00 1325808.00  0.04%  41.0  225s
  4361  2886 1325808.00  163  119 1325216.00 1325808.00  0.04%  41.8  230s
  4420  2945 1325808.00  193  117 1325216.00 1325808.00  0.04%  42.1  235s
  4466  2991 1325808.00  216  122 1325216.00 1325808.00  0.04%  42.7  240s
  4493  3018 1325808.00  229  116 1325216.00 1325808.00  0.04%  42.9  246s
  4546  3071 1325808.00  256  121 1325216.00 1325808.00  0.04%  43.3  251s
  4600  3125 1325808.00  283  119 1325216.00 1325808.00  0.04%  43.6  255s
  4654  3179 1325808.00  310  118 1325216.00 1325808.00  0.04%  44.0  260s
  4730  3255 1325808.00  348  123 1325216.00 1325808.00  0.04%  44.7  265s
  4843  3368 1325795.00  404  124 1325216.00 1325808.00  0.04%  44.7  270s
  4924  3449 1325795.00  445  121 1325216.00 1325808.00  0.04%  44.5  276s
H 4927  3441                    1325227.0000 1325808.00  0.04%  44.5  277s
H 4955  3435                    1325249.0000 1325808.00  0.04%  44.5  281s
  5101  3583 1325795.00  533  119 1325249.00 1325808.00  0.04%  43.9  287s
  5172  3654 1325795.00  569  121 1325249.00 1325808.00  0.04%  43.5  290s
  5547  4029 1325654.00  756  122 1325249.00 1325808.00  0.04%  41.6  295s
H 5554  4017                    1325262.0000 1325808.00  0.04%  41.6  296s
  5863  4328 1325789.00  914  116 1325262.00 1325808.00  0.04%  40.0  300s
  6181  4645 1325715.00 1074  113 1325262.00 1325808.00  0.04%  38.7  305s
  6446  4743 1325808.00   22  111 1325262.00 1325808.00  0.04%  37.7  310s
H 6494  4783                    1325270.0000 1325808.00  0.04%  38.0  316s
  6555  4846 1325808.00   77  114 1325270.00 1325808.00  0.04%  38.3  320s
  6601  4892 1325808.00  100  117 1325270.00 1325808.00  0.04%  38.7  325s
H 6675  4901                    1325301.0000 1325808.00  0.04%  39.3  333s
H 6691  4912                    1325308.0000 1325808.00  0.04%  39.4  335s
  6760  4983 1325808.00  179  116 1325308.00 1325808.00  0.04%  39.6  340s
  6817  5040 1325808.00  208  123 1325308.00 1325808.00  0.04%  40.0  345s
  6888  5111 1325808.00  243  121 1325308.00 1325808.00  0.04%  40.2  350s
  6903  5126 1325808.00  251  119 1325308.00 1325808.00  0.04%  40.3  355s
  6960  5183 1325808.00  279  124 1325308.00 1325808.00  0.04%  40.6  360s
  6995  5218 1325808.00  297  126 1325308.00 1325808.00  0.04%  40.8  365s
  7057  5280 1325808.00  328  125 1325308.00 1325808.00  0.04%  41.0  370s
H 7098  5319                    1325317.0000 1325808.00  0.04%  41.3  373s
  7125  5348 1325808.00  362  124 1325317.00 1325808.00  0.04%  41.4  375s
  7197  5420 1325808.00  398  126 1325317.00 1325808.00  0.04%  41.7  380s
  7289  5512 1325798.00  444  120 1325317.00 1325808.00  0.04%  41.7  385s
  7438  5661 1325798.00  518  129 1325317.00 1325808.00  0.04%  41.8  390s
H 7489  5708                    1325324.0000 1325808.00  0.04%  41.8  394s
  7493  5714 1325798.00  546  128 1325324.00 1325808.00  0.04%  41.9  395s
H 7579  5796                    1325327.0000 1325808.00  0.04%  41.7  398s
  7687  5906 1325798.00  643  130 1325327.00 1325808.00  0.04%  41.6  400s
H 7958  6172                    1325332.0000 1325808.00  0.04%  40.8  405s
  8261  6477 1325797.00  930  125 1325332.00 1325808.00  0.04%  40.0  410s
  8640  6856 1325797.00 1119  123 1325332.00 1325808.00  0.04%  38.9  415s
  8942  7139 1325753.00 1270  111 1325332.00 1325808.00  0.04%  38.3  420s
H 8959  7150                    1325335.0000 1325808.00  0.04%  38.3  421s
H 8970  7157                    1325346.0000 1325808.00  0.03%  38.3  425s
  9282  7370     cutoff 1440      1325346.00 1325808.00  0.03%  37.6  430s
H 9535  7452                    1325379.0000 1325808.00  0.03%  37.2  435s
  9590  7509 1325808.00   70  115 1325379.00 1325808.00  0.03%  37.4  440s
  9667  7586 1325808.00  109  120 1325379.00 1325808.00  0.03%  37.6  445s
  9747  7666 1325808.00  149  120 1325379.00 1325808.00  0.03%  37.9  450s
H 9753  7664                    1325383.0000 1325808.00  0.03%  37.9  451s
H 9781  7673                    1325396.0000 1325808.00  0.03%  37.9  455s
H 9835  7724                    1325404.0000 1325808.00  0.03%  38.0  460s
H 9839  7725                    1325408.0000 1325808.00  0.03%  38.0  466s
  9898  7786 1325808.00  224  124 1325408.00 1325808.00  0.03%  38.1  470s
  9973  7861 1325808.00  262  121 1325408.00 1325808.00  0.03%  38.3  475s
 10041  7929 1325808.00  296  120 1325408.00 1325808.00  0.03%  38.5  480s
 10118  8006 1325808.00  334  121 1325408.00 1325808.00  0.03%  38.7  485s
 10202  8090 1325808.00  376  125 1325408.00 1325808.00  0.03%  39.0  517s
 10254  8142 1325765.00  402  127 1325408.00 1325808.00  0.03%  39.2  520s
 10311  8199 1325801.00  431  127 1325408.00 1325808.00  0.03%  39.2  525s
H10381  8259                    1325417.0000 1325808.00  0.03%  39.3  529s
 10408  8288 1325763.00  479  121 1325417.00 1325808.00  0.03%  39.3  530s
 10545  8425 1325762.00  548  127 1325417.00 1325808.00  0.03%  39.5  535s
 10830  8710 1325674.00  690  117 1325417.00 1325808.00  0.03%  39.0  540s
 11097  8977 1325687.00  824  122 1325417.00 1325808.00  0.03%  38.7  545s
H11357  9232                    1325425.0000 1325808.00  0.03%  38.2  550s
 11762  9639 1325745.00 1156  122 1325425.00 1325808.00  0.03%  37.4  555s
 11925  9802 1325683.00 1238  115 1325425.00 1325808.00  0.03%  37.1  561s
 12109  9879 1325808.00   28  111 1325425.00 1325808.00  0.03%  36.9  565s
 12168  9938 1325808.00   57  112 1325425.00 1325808.00  0.03%  37.0  570s
 12218  9988 1325808.00   82  116 1325425.00 1325808.00  0.03%  37.1  575s
 12259 10029 1325808.00  103  115 1325425.00 1325808.00  0.03%  37.3  581s
 12285 10055 1325808.00  116  114 1325425.00 1325808.00  0.03%  37.4  585s
 12336 10106 1325808.00  141  113 1325425.00 1325808.00  0.03%  37.6  590s
H12357 10103                    1325438.0000 1325808.00  0.03%  37.6  592s
 12390 10138 1325808.00  168  115 1325438.00 1325808.00  0.03%  37.7  595s
 12418 10166 1325808.00  182  116 1325438.00 1325808.00  0.03%  37.8  600s

Cutting planes:
  Gomory: 1
  Cover: 169
  Clique: 17
  MIR: 16
  StrongCG: 18
  Flow cover: 14
  Zero half: 3
  RLT: 30

Explored 12419 nodes (478534 simplex iterations) in 600.02 seconds (352.68 work units)
Thread count was 1 (of 12 available processors)

Solution count 10: 1.32544e+06 1.32542e+06 1.32542e+06 ... 1.32534e+06

Time limit reached
Best objective 1.325438000000e+06, best bound 1.325808000000e+06, gap 0.0279%
Solution = 1325438.000000
