600_20000_DI_27
Set parameter Username
Academic license - for non-commercial use only - expires 2025-02-19
Set parameter Threads to value 1
Set parameter TimeLimit to value 600
Gurobi Optimizer version 11.0.0 build v11.0.0rc2 (linux64 - "Ubuntu 18.04.6 LTS")

CPU model: Intel(R) Xeon(R) CPU E5-2420 0 @ 1.90GHz, instruction set [SSE2|AVX]
Thread count: 6 physical cores, 12 logical processors, using up to 1 threads

Optimize a model with 631 rows, 53200 columns and 105868 nonzeros
Model fingerprint: 0x6110088a
Variable types: 0 continuous, 53200 integer (53200 binary)
Coefficient statistics:
  Matrix range     [1e+00, 2e+04]
  Objective range  [5e+01, 2e+04]
  Bounds range     [1e+00, 1e+00]
  RHS range        [2e+04, 2e+04]
Found heuristic solution: objective -0.0000000
Presolve removed 0 rows and 485 columns
Presolve time: 0.40s
Presolved: 631 rows, 52715 columns, 105383 nonzeros
Variable types: 0 continuous, 52715 integer (52715 binary)
Found heuristic solution: objective 1948373.0000

Root relaxation: objective 1.951488e+06, 538 iterations, 0.14 seconds (0.05 work units)

    Nodes    |    Current Node    |     Objective Bounds      |     Work
 Expl Unexpl |  Obj  Depth IntInf | Incumbent    BestBd   Gap | It/Node Time

     0     0 1951488.00    0   98 1948373.00 1951488.00  0.16%     -    1s
H    0     0                    1948585.0000 1951488.00  0.15%     -    3s
     0     0 1951488.00    0  134 1948585.00 1951488.00  0.15%     -    3s
H    0     0                    1949052.0000 1951488.00  0.12%     -    7s
     0     0 1951488.00    0  147 1949052.00 1951488.00  0.12%     -    8s
     0     0 1951488.00    0  109 1949052.00 1951488.00  0.12%     -    9s
     0     0 1951488.00    0   97 1949052.00 1951488.00  0.12%     -   10s
     0     2 1951488.00    0   97 1949052.00 1951488.00  0.12%     -   12s
    64    66 1951488.00   62  123 1949052.00 1951488.00  0.12%  46.0   15s
H   83    83                    1949398.0000 1951488.00  0.11%  60.3   20s
H   99    99                    1949714.0000 1951488.00  0.09%  61.5   23s
   122   124 1951488.00  116  122 1949714.00 1951488.00  0.09%  59.8   25s
   173   175 1951488.00  165  123 1949714.00 1951488.00  0.09%  66.0   30s
H  189   189                    1949793.0000 1951488.00  0.09%  63.6   34s
   203   205 1951488.00  195  126 1949793.00 1951488.00  0.09%  61.0   35s
   282   284 1951488.00  267  122 1949793.00 1951488.00  0.09%  60.4   40s
H  374   374                    1949849.0000 1951488.00  0.08%  51.4   44s
   402   404 1951473.00  384  119 1949849.00 1951488.00  0.08%  48.5   45s
H  452   452                    1949897.0000 1951488.00  0.08%  44.3   48s
   505   507 1951473.00  487  119 1949897.00 1951488.00  0.08%  41.0   50s
   776   778 1951473.00  758  114 1949897.00 1951488.00  0.08%  30.2   55s
H  979   979                    1949956.0000 1951488.00  0.08%  25.7   62s
H  980   980                    1950022.0000 1951488.00  0.08%  25.6   65s
  1092  1094 1951473.00 1069  118 1950022.00 1951488.00  0.08%  24.1   70s
  1430  1432 1951473.00 1406  119 1950022.00 1951488.00  0.08%  20.2   75s
H 1575  1575                    1950028.0000 1951488.00  0.07%  19.1   80s
  1919  1921 1951427.00 1891  117 1950028.00 1951488.00  0.07%  17.3   85s
H 2045  2045                    1950065.0000 1951488.00  0.07%  16.8   88s
  2130  2132 1951427.00 2102  116 1950065.00 1951488.00  0.07%  16.5   90s
H 2263  2263                    1950088.0000 1951488.00  0.07%  17.0   95s
  2529  2531 1951427.00 2469  122 1950088.00 1951488.00  0.07%  17.2  100s
H 2552  2304                    1950177.0000 1951488.00  0.07%  17.4  106s
H 2553  2188                    1950183.0000 1951488.00  0.07%  17.4  110s
  2562  2194 1951473.00  399  105 1950183.00 1951488.00  0.07%  17.3  115s
  2589  2214 1951488.00   25  116 1950183.00 1951488.00  0.07%  23.5  120s
H 2592  2104                    1950214.0000 1951488.00  0.07%  23.5  123s
H 2593  2001                    1950360.0000 1951488.00  0.06%  23.5  126s
  2642  2036 1951488.00   51  114 1950360.00 1951488.00  0.06%  24.3  130s
  2687  2066 1951488.00   74  118 1950360.00 1951488.00  0.06%  25.7  135s
H 2696  1970                    1950374.0000 1951488.00  0.06%  26.0  139s
  2697  1972 1951488.00   79  123 1950374.00 1951488.00  0.06%  26.1  140s
  2725  1991 1951488.00   93  115 1950374.00 1951488.00  0.06%  27.0  145s
  2747  2006 1951488.00  104  119 1950374.00 1951488.00  0.06%  28.3  150s
H 2757  1916                    1950453.0000 1951488.00  0.05%  28.6  156s
H 2757  1826                    1950502.0000 1951488.00  0.05%  28.6  157s
  2767  1835 1951488.00  114  118 1950502.00 1951488.00  0.05%  29.2  160s
  2848  1889 1951488.00  154  136 1950502.00 1951488.00  0.05%  30.6  165s
  2921  1938 1951488.00  191  146 1950502.00 1951488.00  0.05%  31.4  170s
  2946  1954 1951488.00  203  155 1950502.00 1951488.00  0.05%  31.5  175s
  2958  1962 1951488.00  209  166 1950502.00 1951488.00  0.05%  31.5  180s
H 3055  1940                    1950504.0000 1951488.00  0.05%  31.7  187s
  3137  1997 1951488.00  299  152 1950504.00 1951488.00  0.05%  32.0  190s
  3272  2087 1951488.00  366  156 1950504.00 1951488.00  0.05%  31.6  195s
H 3351  2056                    1950529.0000 1951488.00  0.05%  32.0  200s
  3494  2154 1951472.00  477  156 1950529.00 1951488.00  0.05%  32.0  205s
  3688  2283 1951300.00  574  140 1950529.00 1951488.00  0.05%  31.5  210s
H 3787  2270                    1950549.0000 1951488.00  0.05%  31.3  214s
H 3788  2198                    1950565.0000 1951488.00  0.05%  31.3  216s
  3934  2297 1951443.00  697  140 1950565.00 1951488.00  0.05%  31.0  220s
H 3941  2230                    1950576.0000 1951488.00  0.05%  31.0  227s
H 3943  2166                    1950619.0000 1951488.00  0.04%  31.0  229s
  3961  2180 1951243.00  711  136 1950619.00 1951488.00  0.04%  30.9  230s
H 4171  2255                    1950669.0000 1951488.00  0.04%  30.4  236s
H 4346  2312                    1950673.0000 1951488.00  0.04%  30.0  242s
  4473  2396 1951281.00  967  135 1950673.00 1951488.00  0.04%  30.0  245s
  4720  2561 1951379.00 1090  124 1950673.00 1951488.00  0.04%  29.6  250s
H 4836  2580                    1950711.0000 1951488.00  0.04%  29.5  255s
H 4908  2574                    1950728.0000 1951488.00  0.04%  29.5  258s
  5016  2625 1950845.00 1238  120 1950728.00 1951488.00  0.04%  29.3  260s
  5116  2620     cutoff 1290      1950728.00 1951488.00  0.04%  29.1  265s
  5180  2629 1951488.00   30  120 1950728.00 1951488.00  0.04%  28.9  272s
  5232  2663 1951488.00   56  135 1950728.00 1951488.00  0.04%  29.0  275s
H 5292  2640                    1950736.0000 1951488.00  0.04%  28.9  281s
  5355  2684 1951488.00  117  133 1950736.00 1951488.00  0.04%  29.0  285s
  5433  2736 1951488.00  156  147 1950736.00 1951488.00  0.04%  29.1  290s
  5510  2805 1951488.00  195  136 1950736.00 1951488.00  0.04%  29.2  295s
  5547  2842 1951488.00  213  150 1950736.00 1951488.00  0.04%  29.4  300s
H 5567  2833                    1950786.0000 1951488.00  0.04%  29.6  302s
  5612  2880 1951488.00  246  156 1950786.00 1951488.00  0.04%  29.9  305s
H 5621  2887                    1950789.0000 1951488.00  0.04%  29.9  306s
  5693  2961 1951488.00  286  160 1950789.00 1951488.00  0.04%  30.3  310s
  5774  3042 1951488.00  327  160 1950789.00 1951488.00  0.04%  30.5  315s
  5920  3188 1951474.00  400  152 1950789.00 1951488.00  0.04%  30.6  320s
H 5950  3216                    1950795.0000 1951488.00  0.04%  30.6  323s
H 5969  3225                    1950811.0000 1951488.00  0.03%  30.6  325s
  6135  3393 1951456.00  507  148 1950811.00 1951488.00  0.03%  30.5  330s
  6315  3573 1951413.00  597  136 1950811.00 1951488.00  0.03%  30.1  335s
  6484  3742 1951297.00  682  136 1950811.00 1951488.00  0.03%  30.0  340s
H 6663  3915                    1950830.0000 1951488.00  0.03%  29.9  345s
H 6815  4052                    1950888.0000 1951488.00  0.03%  29.6  350s
  6855  4068 1951488.00   26  119 1950888.00 1951488.00  0.03%  29.8  355s
H 6863  4073                    1950890.0000 1951488.00  0.03%  29.8  357s
H 6890  4097                    1950907.0000 1951488.00  0.03%  29.8  367s
  6895  4104 1951488.00   46  130 1950907.00 1951488.00  0.03%  29.7  370s
  6938  4147 1951488.00   67  135 1950907.00 1951488.00  0.03%  29.6  375s
  6958  4167 1951488.00   77  137 1950907.00 1951488.00  0.03%  29.6  380s
  6977  4186 1951488.00   87  133 1950907.00 1951488.00  0.03%  29.6  386s
  6998  4207 1951488.00   97  139 1950907.00 1951488.00  0.03%  29.6  391s
  7013  4222 1951488.00  105  136 1950907.00 1951488.00  0.03%  29.7  395s
  7037  4246 1951488.00  117  137 1950907.00 1951488.00  0.03%  29.7  400s
  7063  4272 1951488.00  130  135 1950907.00 1951488.00  0.03%  29.9  405s
  7081  4290 1951488.00  139  138 1950907.00 1951488.00  0.03%  29.9  410s
  7106  4315 1951488.00  151  147 1950907.00 1951488.00  0.03%  30.0  415s
  7143  4352 1951488.00  170  147 1950907.00 1951488.00  0.03%  30.3  420s
  7172  4381 1951488.00  184  150 1950907.00 1951488.00  0.03%  30.4  425s
  7220  4429 1951488.00  208  146 1950907.00 1951488.00  0.03%  30.5  430s
  7254  4463 1951488.00  225  146 1950907.00 1951488.00  0.03%  30.5  435s
  7300  4509 1951488.00  248  158 1950907.00 1951488.00  0.03%  30.7  443s
  7322  4531 1951488.00  259  153 1950907.00 1951488.00  0.03%  30.7  446s
  7371  4580 1951488.00  284  153 1950907.00 1951488.00  0.03%  30.9  450s
  7430  4639 1951488.00  313  152 1950907.00 1951488.00  0.03%  31.1  457s
  7484  4693 1951488.00  340  155 1950907.00 1951488.00  0.03%  31.1  461s
  7554  4763 1951483.00  375  153 1950907.00 1951488.00  0.03%  31.2  465s
  7636  4845 1951449.00  416  154 1950907.00 1951488.00  0.03%  31.2  470s
H 7646  4850                    1950911.0000 1951488.00  0.03%  31.2  471s
H 7727  4930                    1950912.0000 1951488.00  0.03%  31.2  475s
  7824  5029 1951449.00  510  149 1950912.00 1951488.00  0.03%  31.1  480s
  7873  5078 1951414.00  535  148 1950912.00 1951488.00  0.03%  31.0  486s
  7932  5137 1951414.00  564  155 1950912.00 1951488.00  0.03%  31.0  490s
  8109  5314 1951412.00  653  147 1950912.00 1951488.00  0.03%  30.8  495s
H 8213  5416                    1950916.0000 1951488.00  0.03%  30.8  499s
  8222  5427 1951402.00  709  132 1950916.00 1951488.00  0.03%  30.8  500s
  8421  5626 1951412.00  809  127 1950916.00 1951488.00  0.03%  30.6  505s
H 8459  5658                    1950926.0000 1951488.00  0.03%  30.6  508s
  8568  5769 1951407.00  882  121 1950926.00 1951488.00  0.03%  30.5  510s
  8899  6078 1951386.00 1048  131 1950926.00 1951488.00  0.03%  30.2  515s
  9183  6271 1951093.00 1190  124 1950926.00 1951488.00  0.03%  29.8  520s
H 9220  6287                    1950930.0000 1951488.00  0.03%  29.7  522s
  9248  6314 1951072.00 1224  126 1950930.00 1951488.00  0.03%  29.7  525s
  9365  6385 1951488.00   40  115 1950930.00 1951488.00  0.03%  29.6  530s
  9411  6431 1951488.00   63  116 1950930.00 1951488.00  0.03%  29.7  535s
  9458  6478 1951488.00   86  121 1950930.00 1951488.00  0.03%  29.6  540s
H 9511  6529                    1950933.0000 1951488.00  0.03%  29.7  544s
  9528  6548 1951488.00  121  125 1950933.00 1951488.00  0.03%  29.7  545s
  9545  6565 1951488.00  130  133 1950933.00 1951488.00  0.03%  29.7  550s
  9593  6613 1951488.00  154  138 1950933.00 1951488.00  0.03%  29.7  555s
  9651  6671 1951488.00  183  137 1950933.00 1951488.00  0.03%  29.8  560s
H 9664  6680                    1950934.0000 1951488.00  0.03%  29.8  563s
  9692  6710 1951488.00  203  157 1950934.00 1951488.00  0.03%  30.1  565s
H 9700  6709                    1950937.0000 1951488.00  0.03%  30.1  566s
  9732  6743 1951488.00  223  155 1950937.00 1951488.00  0.03%  30.2  570s
H 9781  6765                    1950952.0000 1951488.00  0.03%  30.3  574s
  9791  6777 1951488.00  253  160 1950952.00 1951488.00  0.03%  30.3  575s
H 9839  6821                    1950953.0000 1951488.00  0.03%  30.3  585s
  9863  6847 1951488.00  289  156 1950953.00 1951488.00  0.03%  30.3  590s
  9942  6926 1951488.00  328  169 1950953.00 1951488.00  0.03%  30.2  595s
H10018  7000                    1950955.0000 1951488.00  0.03%  30.2  599s
 10034  7018 1951465.00  374  157 1950955.00 1951488.00  0.03%  30.2  600s

Cutting planes:
  Gomory: 1
  Cover: 141
  Clique: 12
  MIR: 18
  StrongCG: 21
  Flow cover: 19
  Zero half: 1
  RLT: 29

Explored 10035 nodes (308349 simplex iterations) in 600.01 seconds (336.64 work units)
Thread count was 1 (of 12 available processors)

Solution count 10: 1.95096e+06 1.95095e+06 1.95095e+06 ... 1.95091e+06

Time limit reached
Best objective 1.950955000000e+06, best bound 1.951488000000e+06, gap 0.0273%
Solution = 1950955.000000
