801_40000_NR_15
Set parameter Username
Academic license - for non-commercial use only - expires 2025-02-19
Set parameter Threads to value 1
Set parameter TimeLimit to value 600
Gurobi Optimizer version 11.0.0 build v11.0.0rc2 (linux64 - "Ubuntu 18.04.6 LTS")

CPU model: Intel(R) Xeon(R) CPU E5-2420 0 @ 1.90GHz, instruction set [SSE2|AVX]
Thread count: 6 physical cores, 12 logical processors, using up to 1 threads

Optimize a model with 856 rows, 96882 columns and 193041 nonzeros
Model fingerprint: 0x2566df2b
Variable types: 0 continuous, 96882 integer (96882 binary)
Coefficient statistics:
  Matrix range     [1e+00, 3e+04]
  Objective range  [1e+02, 3e+04]
  Bounds range     [1e+00, 1e+00]
  RHS range        [3e+04, 3e+04]
Found heuristic solution: objective -0.0000000
Presolve removed 0 rows and 672 columns
Presolve time: 1.05s
Presolved: 856 rows, 96210 columns, 192369 nonzeros
Variable types: 0 continuous, 96210 integer (96210 binary)
Found heuristic solution: objective 3962555.0000

Root relaxation: objective 3.966592e+06, 763 iterations, 0.39 seconds (0.12 work units)

    Nodes    |    Current Node    |     Objective Bounds      |     Work
 Expl Unexpl |  Obj  Depth IntInf | Incumbent    BestBd   Gap | It/Node Time

     0     0 3966592.00    0  135 3962555.00 3966592.00  0.10%     -    3s
H    0     0                    3963015.0000 3966592.00  0.09%     -    8s
     0     0 3966592.00    0  172 3963015.00 3966592.00  0.09%     -    8s
H    0     0                    3963488.0000 3966592.00  0.08%     -   15s
     0     0 3966592.00    0  204 3963488.00 3966592.00  0.08%     -   15s
     0     0 3966592.00    0  139 3963488.00 3966592.00  0.08%     -   18s
     0     0 3966592.00    0  167 3963488.00 3966592.00  0.08%     -   19s
     0     0 3966592.00    0  135 3963488.00 3966592.00  0.08%     -   21s
     0     0 3966592.00    0  132 3963488.00 3966592.00  0.08%     -   25s
H    0     0                    3963515.0000 3966592.00  0.08%     -   29s
     0     2 3966592.00    0  132 3963515.00 3966592.00  0.08%     -   32s
    19    21 3966592.00   17  144 3963515.00 3966592.00  0.08%  33.2   35s
    37    39 3966592.00   30  150 3963515.00 3966592.00  0.08%  62.8   40s
H   40    40                    3963707.0000 3966592.00  0.07%  60.9   47s
    51    53 3966592.00   44  151 3963707.00 3966592.00  0.07%  63.1   50s
    87    89 3966592.00   79  147 3963707.00 3966592.00  0.07%  68.7   55s
H  117   117                    3963806.0000 3966592.00  0.07%  71.6   63s
   128   130 3966592.00  119  148 3963806.00 3966592.00  0.07%  73.6   65s
H  151   151                    3963859.0000 3966592.00  0.07%  66.9   71s
   198   200 3966591.00  188  155 3963859.00 3966592.00  0.07%  59.2   75s
   264   266 3966591.00  254  154 3963859.00 3966592.00  0.07%  52.5   80s
   376   378 3966545.00  365  153 3963859.00 3966592.00  0.07%  41.3   85s
H  419   419                    3964052.0000 3966592.00  0.06%  40.2   94s
   422   424 3966392.00  408  155 3964052.00 3966592.00  0.06%  42.7   95s
   528   530 3966392.00  512  156 3964052.00 3966592.00  0.06%  38.0  100s
   573   575 3966392.00  556  147 3964052.00 3966592.00  0.06%  39.6  105s
H  599   599                    3964116.0000 3966592.00  0.06%  39.4  111s
   622   624 3966392.00  604  151 3964116.00 3966592.00  0.06%  41.0  115s
   707   709 3966392.00  685  154 3964116.00 3966592.00  0.06%  39.1  120s
H  806   806                    3964120.0000 3966592.00  0.06%  36.4  127s
   847   849 3966347.00  824  148 3964120.00 3966592.00  0.06%  35.5  130s
   997   999 3966347.00  973  152 3964120.00 3966592.00  0.06%  31.8  135s
  1160  1162 3966347.00 1133  149 3964120.00 3966592.00  0.06%  28.5  140s
  1328  1330 3966347.00 1297  149 3964120.00 3966592.00  0.06%  25.9  145s
H 1329  1329                    3964418.0000 3966592.00  0.05%  25.8  150s
  1449  1451 3966347.00 1411  151 3964418.00 3966592.00  0.05%  25.2  155s
  1584  1586 3966266.00 1541  150 3964418.00 3966592.00  0.05%  24.3  160s
H 1732  1732                    3964463.0000 3966592.00  0.05%  22.8  168s
  1783  1785 3966266.00 1740  150 3964463.00 3966592.00  0.05%  22.4  170s
  1940  1942 3966266.00 1892  155 3964463.00 3966592.00  0.05%  21.6  175s
H 1943  1943                    3964491.0000 3966592.00  0.05%  21.6  180s
H 1975  1975                    3964494.0000 3966592.00  0.05%  21.4  189s
  1989  1991 3966266.00 1940  152 3964494.00 3966592.00  0.05%  21.4  190s
  2095  2097 3966171.00 2043  156 3964494.00 3966592.00  0.05%  21.0  195s
  2253  2255 3966166.00 2198  153 3964494.00 3966592.00  0.05%  20.4  200s
  2451  2453 3966166.00 2396  151 3964494.00 3966592.00  0.05%  19.2  205s
H 2507  2507                    3964696.0000 3966592.00  0.05%  18.9  211s
  2551  2424 3966347.00 1295  132 3964696.00 3966592.00  0.05%  18.6  224s
  2553  2425 3966347.00 1085  135 3964696.00 3966592.00  0.05%  18.6  228s
H 2553  2304                    3964724.0000 3966592.00  0.05%  18.6  234s
  2556  2306 3966392.00  710  133 3964724.00 3966592.00  0.05%  18.6  236s
  2560  2309 3966591.00  336  135 3964724.00 3966592.00  0.05%  18.6  241s
  2562  2310 3966166.00 2406  133 3964724.00 3966592.00  0.05%  18.6  245s
  2580  2324 3966592.00   23  143 3964724.00 3966592.00  0.05%  22.0  250s
H 2588  2212                    3964787.0000 3966592.00  0.05%  22.2  256s
H 2589  2102                    3964804.0000 3966592.00  0.05%  22.2  260s
  2607  2116 3966555.00   37  144 3964804.00 3966592.00  0.05%  22.7  265s
H 2620  2019                    3964808.0000 3966592.00  0.04%  23.1  274s
  2623  2023 3966592.00   45  145 3964808.00 3966592.00  0.04%  23.2  275s
  2642  2036 3966592.00   54  145 3964808.00 3966592.00  0.04%  23.4  282s
H 2647  1937                    3964884.0000 3966592.00  0.04%  23.4  290s
  2667  1952 3966592.00   67  146 3964884.00 3966592.00  0.04%  23.7  295s
  2674  1957 3966592.00   70  147 3964884.00 3966592.00  0.04%  23.8  300s
H 2683  1867                    3964969.0000 3966592.00  0.04%  24.1  309s
  2685  1870 3966592.00   76  143 3964969.00 3966592.00  0.04%  24.2  310s
  2707  1885 3966592.00   87  143 3964969.00 3966592.00  0.04%  24.4  315s
H 2715  1799                    3964970.0000 3966592.00  0.04%  24.5  319s
  2717  1803 3966592.00   92  144 3964970.00 3966592.00  0.04%  24.5  320s
  2723  1807 3966592.00   95  143 3964970.00 3966592.00  0.04%  24.6  325s
  2739  1817 3966592.00  103  148 3964970.00 3966592.00  0.04%  25.1  330s
H 2750  1738                    3964974.0000 3966592.00  0.04%  25.2  336s
  2752  1741 3966592.00  109  147 3964974.00 3966592.00  0.04%  25.3  340s
  2773  1755 3966592.00  120  145 3964974.00 3966592.00  0.04%  25.6  345s
H 2777  1675                    3964988.0000 3966592.00  0.04%  25.7  351s
  2791  1686 3966592.00  129  145 3964988.00 3966592.00  0.04%  26.0  355s
  2802  1693 3966592.00  134  144 3964988.00 3966592.00  0.04%  26.0  360s
H 2814  1622                    3964990.0000 3966592.00  0.04%  26.0  366s
  2830  1635 3966592.00  148  149 3964990.00 3966592.00  0.04%  26.3  370s
  2852  1650 3966592.00  159  147 3964990.00 3966592.00  0.04%  26.9  375s
H 2853  1575                    3965007.0000 3966592.00  0.04%  26.8  379s
  2856  1579 3966592.00  161  146 3965007.00 3966592.00  0.04%  26.9  380s
  2877  1593 3966525.00  172  147 3965007.00 3966592.00  0.04%  27.2  386s
  2891  1603 3966592.00  179  153 3965007.00 3966592.00  0.04%  27.7  393s
  2900  1609 3966592.00  183  153 3965007.00 3966592.00  0.04%  27.8  395s
H 2915  1548                    3965009.0000 3966592.00  0.04%  28.1  400s
H 2930  1492                    3965083.0000 3966592.00  0.04%  28.2  406s
  2955  1510 3966592.00  211  154 3965083.00 3966592.00  0.04%  28.3  410s
H 2958  1447                    3965087.0000 3966592.00  0.04%  28.3  414s
  2963  1453 3966592.00  215  156 3965087.00 3966592.00  0.04%  28.4  415s
  2982  1465 3966592.00  224  156 3965087.00 3966592.00  0.04%  28.6  421s
H 2983  1405                    3965088.0000 3966592.00  0.04%  28.6  422s
  2997  1416 3966562.00  232  154 3965088.00 3966592.00  0.04%  28.7  425s
  3012  1426 3966562.00  239  156 3965088.00 3966592.00  0.04%  28.9  430s
  3041  1446 3966562.00  254  155 3965088.00 3966592.00  0.04%  29.4  435s
H 3045  1390                    3965119.0000 3966592.00  0.04%  29.4  439s
  3050  1396 3966562.00  258  151 3965119.00 3966592.00  0.04%  29.5  440s
  3089  1422 3966562.00  278  155 3965119.00 3966592.00  0.04%  29.7  445s
  3110  1436 3966562.00  288  155 3965119.00 3966592.00  0.04%  30.4  450s
H 3115  1383                    3965130.0000 3966592.00  0.04%  30.4  454s
H 3116  1333                    3965134.0000 3966592.00  0.04%  30.4  457s
  3130  1344 3966562.00  298  154 3965134.00 3966592.00  0.04%  30.6  460s
  3163  1366 3966562.00  315  159 3965134.00 3966592.00  0.04%  31.0  465s
  3187  1382 3966562.00  327  157 3965134.00 3966592.00  0.04%  31.7  470s
H 3194  1337                    3965138.0000 3966592.00  0.04%  31.9  475s
  3235  1366 3966562.00  351  172 3965138.00 3966592.00  0.04%  32.3  480s
  3272  1391 3966562.00  369  162 3965138.00 3966592.00  0.04%  32.6  485s
H 3293  1357                    3965141.0000 3966592.00  0.04%  33.2  493s
H 3294  1313                    3965210.0000 3966592.00  0.03%  33.2  496s
  3315  1329 3966373.00  391  157 3965210.00 3966592.00  0.03%  33.5  500s
  3346  1350 3966562.00  406  156 3965210.00 3966592.00  0.03%  34.1  505s
  3393  1381 3966340.00  430  155 3965210.00 3966592.00  0.03%  34.1  510s
H 3398  1342                    3965231.0000 3966592.00  0.03%  34.2  515s
  3432  1366 3966562.00  449  163 3965231.00 3966592.00  0.03%  34.6  520s
  3470  1392 3966562.00  468  161 3965231.00 3966592.00  0.03%  34.7  525s
  3518  1424 3966562.00  492  165 3965231.00 3966592.00  0.03%  35.2  530s
H 3548  1402                    3965265.0000 3966592.00  0.03%  35.6  537s
H 3549  1365                    3965295.0000 3966592.00  0.03%  35.7  541s
  3583  1390 3966562.00  525  163 3965295.00 3966592.00  0.03%  35.8  545s
  3634  1424 3966562.00  550  162 3965295.00 3966592.00  0.03%  35.9  550s
  3686  1459 3966562.00  576  165 3965295.00 3966592.00  0.03%  36.1  555s
H 3702  1431                    3965349.0000 3966592.00  0.03%  36.1  560s
  3764  1475 3966562.00  615  162 3965349.00 3966592.00  0.03%  36.0  565s
  3810  1505 3966562.00  638  163 3965349.00 3966592.00  0.03%  36.0  570s
  3867  1543 3966301.00  667  156 3965349.00 3966592.00  0.03%  36.0  575s
H 3941  1556                    3965390.0000 3966592.00  0.03%  35.5  584s
H 3942  1524                    3965433.0000 3966592.00  0.03%  35.5  587s
  3992  1560 3965852.00  729  146 3965433.00 3966592.00  0.03%  35.2  590s
H 4017  1544                    3965441.0000 3966592.00  0.03%  35.0  593s
  4059  1574 3966551.00  763  157 3965441.00 3966592.00  0.03%  34.8  595s
  4195  1665 3966466.00  831  151 3965441.00 3966592.00  0.03%  34.2  600s

Cutting planes:
  Gomory: 1
  Cover: 138
  Clique: 11
  MIR: 16
  StrongCG: 14
  Flow cover: 33
  Zero half: 5
  RLT: 50

Explored 4196 nodes (148724 simplex iterations) in 600.01 seconds (313.31 work units)
Thread count was 1 (of 12 available processors)

Solution count 10: 3.96544e+06 3.96543e+06 3.96539e+06 ... 3.96514e+06

Time limit reached
Best objective 3.965441000000e+06, best bound 3.966592000000e+06, gap 0.0290%
Solution = 3965441.000000
