Falkenauer_t249_14
Set parameter Username
Academic license - for non-commercial use only - expires 2025-02-19
Set parameter Threads to value 1
Set parameter TimeLimit to value 600
Gurobi Optimizer version 11.0.0 build v11.0.0rc2 (linux64 - "Ubuntu 18.04.6 LTS")

CPU model: Intel(R) Xeon(R) CPU E5-2420 0 @ 1.90GHz, instruction set [SSE2|AVX]
Thread count: 6 physical cores, 12 logical processors, using up to 1 threads

Optimize a model with 228 rows, 12180 columns and 24215 nonzeros
Model fingerprint: 0xc339d9ff
Variable types: 0 continuous, 12180 integer (12180 binary)
Coefficient statistics:
  Matrix range     [1e+00, 5e+02]
  Objective range  [2e+02, 5e+02]
  Bounds range     [1e+00, 1e+00]
  RHS range        [1e+03, 1e+03]
Found heuristic solution: objective -0.0000000
Presolve removed 0 rows and 79 columns
Presolve time: 0.10s
Presolved: 228 rows, 12101 columns, 24136 nonzeros
Variable types: 0 continuous, 12101 integer (12101 binary)
Found heuristic solution: objective 29951.000000

Root relaxation: objective 8.300000e+04, 1119 iterations, 0.14 seconds (0.06 work units)

    Nodes    |    Current Node    |     Objective Bounds      |     Work
 Expl Unexpl |  Obj  Depth IntInf | Incumbent    BestBd   Gap | It/Node Time

     0     0 83000.0000    0  115 29951.0000 83000.0000   177%     -    0s
H    0     0                    75346.000028 83000.0000  10.2%     -    0s
H    0     0                    77856.000000 83000.0000  6.61%     -    2s
     0     0 83000.0000    0  183 77856.0000 83000.0000  6.61%     -    2s
H    0     0                    80685.000000 83000.0000  2.87%     -    5s
     0     0 83000.0000    0  219 80685.0000 83000.0000  2.87%     -    5s
     0     0 83000.0000    0  120 80685.0000 83000.0000  2.87%     -    7s
     0     0 83000.0000    0   77 80685.0000 83000.0000  2.87%     -    8s
     0     2 83000.0000    0   57 80685.0000 83000.0000  2.87%     -    9s
    20    22 83000.0000   13   69 80685.0000 83000.0000  2.87%   245   10s
H  154   102                    81661.000000 83000.0000  1.64%  60.0   13s
H  187   131                    81669.000000 83000.0000  1.63%  60.0   14s
   192   138 82576.0000   29   79 81669.0000 83000.0000  1.63%  59.0   15s
H  223   151                    81885.000000 83000.0000  1.36%  56.2   23s
H  224   144                    82033.000000 83000.0000  1.18%  55.9   25s
   397   249 82058.0000  163   87 82033.0000 83000.0000  1.18%  43.2   31s
   627   374 83000.0000    5   77 82033.0000 83000.0000  1.18%  36.8   36s
   630   376 82041.0000  279  132 82033.0000 83000.0000  1.18%  36.6   42s
   634   379 82576.0000   12  149 82033.0000 83000.0000  1.18%  36.4   46s
   639   382 82070.0000   49  112 82033.0000 83000.0000  1.18%  36.1   50s
   656   395 83000.0000   20  111 82033.0000 83000.0000  1.18%   100   55s
   735   448 83000.0000   60  104 82033.0000 83000.0000  1.18%  92.4   60s
   742   453 83000.0000   63  103 82033.0000 83000.0000  1.18%  91.7   69s
   767   469 83000.0000   76  103 82033.0000 83000.0000  1.18%  89.2   70s
   923   573 83000.0000  154   97 82033.0000 83000.0000  1.18%  78.0   75s
  1074   674 82989.1521  229  107 82033.0000 83000.0000  1.18%  74.0   80s
  1198   757 82989.1521  291  108 82033.0000 83000.0000  1.18%  75.2   85s
  1264   801 82859.0000  324  102 82033.0000 83000.0000  1.18%  75.7   90s
  1334   847 82751.0000  359   98 82033.0000 83000.0000  1.18%  73.0   95s
  1593  1007 82065.0000  489   87 82033.0000 83000.0000  1.18%  64.8  100s
  1975  1292 82544.0000  334   93 82033.0000 83000.0000  1.18%  56.7  106s
  2322  1633 82544.0000  507   91 82033.0000 83000.0000  1.18%  52.9  110s
  2785  2056     cutoff  325      82033.0000 83000.0000  1.18%  50.0  115s
  2958  2177 82350.0000  209   85 82033.0000 83000.0000  1.18%  49.2  121s
  3312  2499 82907.0000  268   97 82033.0000 83000.0000  1.18%  47.1  125s
  3539  2725 82606.0000  381   98 82033.0000 83000.0000  1.18%  45.9  130s
  4061  3215 82994.0000  111  104 82033.0000 83000.0000  1.18%  43.2  135s
  4585  3532 83000.0000   56  102 82033.0000 83000.0000  1.18%  42.0  140s
  4680  3627 82884.0000  103  101 82033.0000 83000.0000  1.18%  41.8  145s
  4918  3865 82817.0000  222   94 82033.0000 83000.0000  1.18%  41.1  150s
  5329  4276 82555.0000  428   96 82033.0000 83000.0000  1.18%  39.9  155s
  5895  4756 82893.7047  255  105 82033.0000 83000.0000  1.18%  38.6  160s
  5915  4776 82750.0000  265  101 82033.0000 83000.0000  1.18%  38.6  170s
  6386  5182 82958.0000  104  106 82033.0000 83000.0000  1.18%  37.7  175s
  6704  5464 82955.0000   95   97 82033.0000 83000.0000  1.18%  37.2  180s
  7345  6040 82254.0000  325  105 82033.0000 83000.0000  1.18%  35.6  185s
  7873  6504 82329.0000  465   99 82033.0000 83000.0000  1.18%  34.6  191s
  8405  6965 82574.0000  376   95 82033.0000 83000.0000  1.18%  33.4  195s
  9088  7556 82093.0000  548   87 82033.0000 83000.0000  1.18%  32.5  200s
  9358  7733 82608.0000  193   96 82033.0000 83000.0000  1.18%  32.4  205s
 10139  8450 82430.0000  310   93 82033.0000 83000.0000  1.18%  31.2  210s
 10202  8503 82104.0000  352   92 82033.0000 83000.0000  1.18%  31.3  222s
 10634  8887 82118.0000  396   97 82033.0000 83000.0000  1.18%  30.6  225s
 11266  9389     cutoff  414      82033.0000 83000.0000  1.18%  30.3  230s
 11805  9621 82070.0000  665   92 82033.0000 83000.0000  1.18%  30.3  236s
 12056  9799 82229.0000  273   92 82033.0000 83000.0000  1.18%  30.5  240s
 12584 10281 82202.0000  267   89 82033.0000 83000.0000  1.18%  29.8  245s
 12835 10501 82149.0000  125   92 82033.0000 83000.0000  1.18%  29.4  250s
 13382 10914 82043.0000  128   95 82033.0000 83000.0000  1.18%  29.1  264s
 13410 10929 82043.0000  133   94 82033.0000 83000.0000  1.18%  29.1  265s
 13771 11219 82450.6557  125   98 82033.0000 83000.0000  1.18%  29.0  270s
 14277 11621 82844.0000  131  103 82033.0000 83000.0000  1.18%  28.9  275s
 14587 11903 82948.7343  136  115 82033.0000 83000.0000  1.18%  28.6  280s
 15303 12511 82482.0000  111   95 82033.0000 83000.0000  1.18%  28.2  285s
 15755 12947 82572.0000  253  101 82033.0000 83000.0000  1.18%  28.3  290s
 16261 13408 82136.0000  507   87 82033.0000 83000.0000  1.18%  28.4  295s
 16897 13686 82049.0000  178   96 82033.0000 83000.0000  1.18%  28.2  300s
 17583 14156 82046.0000  261  105 82033.0000 83000.0000  1.18%  27.9  305s
 17703 14239 82095.0000  142   93 82033.0000 83000.0000  1.18%  27.9  310s
 18275 14727 82845.0000  134   99 82033.0000 83000.0000  1.18%  27.8  315s
 18772 15122 82810.0000  114   99 82033.0000 83000.0000  1.18%  27.6  320s
 19466 15715     cutoff  169      82033.0000 83000.0000  1.18%  27.4  325s
 19771 15969 82335.0000   85  104 82033.0000 83000.0000  1.18%  27.4  332s
 20160 16124 82515.0000  102   93 82033.0000 83000.0000  1.18%  27.3  335s
 20652 16566 82717.8506  320  105 82033.0000 83000.0000  1.18%  27.2  342s
 20786 16697 82497.6112  440  104 82033.0000 83000.0000  1.18%  27.2  345s
 21259 17098 82695.0271  199  104 82033.0000 83000.0000  1.18%  27.4  350s
 21708 17547 82911.0000  424   94 82033.0000 83000.0000  1.18%  27.8  358s
 21709 17548 82874.0000  424   97 82033.0000 83000.0000  1.18%  27.8  360s
 22171 17946 82790.0000  107  105 82033.0000 83000.0000  1.18%  27.8  365s
 22962 18636 82071.0000  478  106 82033.0000 83000.0000  1.18%  27.5  370s
 23240 18837 82948.0000   68  102 82033.0000 83000.0000  1.18%  27.4  375s
 23350 18947 82723.0000  178  104 82033.0000 83000.0000  1.18%  27.4  384s
 23435 19032 82542.0000  263   95 82033.0000 83000.0000  1.18%  27.4  385s
 23796 19340 82601.0000  142   95 82033.0000 83000.0000  1.18%  27.2  390s
 23976 19520 82372.0000  322   91 82033.0000 83000.0000  1.18%  27.1  401s
 24254 19790 82137.6265  596  105 82033.0000 83000.0000  1.18%  26.9  405s
 25048 20410 82473.0000  314   98 82033.0000 83000.0000  1.18%  26.7  410s
 25669 20958 82661.9881  110   98 82033.0000 83000.0000  1.18%  26.6  415s
 26096 21339 82981.7251   71  114 82033.0000 83000.0000  1.18%  26.5  421s
 26384 21587 82056.0000  235   95 82033.0000 83000.0000  1.18%  26.5  425s
 27215 22322 82504.0000  233   91 82033.0000 83000.0000  1.18%  26.2  430s
 27533 22616 82464.0000  152   92 82033.0000 83000.0000  1.18%  26.1  435s
 28235 23306 82520.0000  407   93 82033.0000 83000.0000  1.18%  26.0  440s
 29107 24002 82593.8889  532   97 82033.0000 83000.0000  1.18%  25.7  445s
 29780 24345 82353.0000  140   91 82033.0000 83000.0000  1.18%  25.8  450s
 30694 25148 82069.0000  274   94 82033.0000 83000.0000  1.18%  25.4  455s
 31000 25377 82953.0000   98  101 82033.0000 83000.0000  1.18%  25.4  460s
 31071 25448 82953.0000  169  103 82033.0000 83000.0000  1.18%  25.3  470s
 31795 26112 83000.0000   87  104 82033.0000 83000.0000  1.18%  25.1  475s
 32634 26836 82073.0000  406   96 82033.0000 83000.0000  1.18%  25.0  480s
 33487 27603 82589.0000  446   94 82033.0000 83000.0000  1.18%  24.7  485s
 34137 28134 82035.0000  378   93 82033.0000 83000.0000  1.18%  24.7  491s
 34414 28397 82274.0000  336   98 82033.0000 83000.0000  1.18%  24.6  496s
 34926 28827 82064.0000  270   87 82033.0000 83000.0000  1.18%  24.5  500s
 35678 29518 82734.0000  302   96 82033.0000 83000.0000  1.18%  24.4  505s
 36175 29990 82053.0000  550   87 82033.0000 83000.0000  1.18%  24.5  510s
 36736 30369 82710.0000   81   97 82033.0000 83000.0000  1.18%  24.6  515s
 37062 30629 82048.6544  163   90 82033.0000 83000.0000  1.18%  24.5  520s
 37760 31297 82329.0000  615  100 82033.0000 83000.0000  1.18%  24.5  525s
 38376 31789 82643.0000  143   91 82033.0000 83000.0000  1.18%  24.4  530s
 39001 32317 82075.0000  261   93 82033.0000 83000.0000  1.18%  24.3  535s
 39423 32717 82515.0000  457   96 82033.0000 83000.0000  1.18%  24.1  540s
 40093 33306     cutoff  222      82033.0000 83000.0000  1.18%  23.9  545s
 40312 33511 82440.0000  271   90 82033.0000 83000.0000  1.18%  23.9  551s
 40805 33923 82078.0000  267   88 82033.0000 83000.0000  1.18%  23.9  555s
 41182 34233 82850.4535  208  104 82033.0000 83000.0000  1.18%  23.8  560s
 41488 34424     cutoff  361      82033.0000 83000.0000  1.18%  24.2  565s
 41614 34436     cutoff  424      82033.0000 83000.0000  1.18%  24.4  570s
 41774 34458     cutoff  504      82033.0000 83000.0000  1.18%  24.7  575s
 42139 34601     cutoff  191      82033.0000 83000.0000  1.18%  25.1  580s
 42517 34957 82556.0000  144   90 82033.0000 83000.0000  1.18%  25.0  585s
 43261 35425 82066.0000  204   94 82033.0000 83000.0000  1.18%  24.8  592s
 43415 35560 82316.0000  245   93 82033.0000 83000.0000  1.18%  24.8  596s
 43862 35981 82487.0000  307   92 82033.0000 83000.0000  1.18%  24.8  600s

Cutting planes:
  Gomory: 1
  Cover: 44
  Clique: 2
  MIR: 9
  StrongCG: 3
  Flow cover: 1
  RLT: 2

Explored 43863 nodes (1104040 simplex iterations) in 600.01 seconds (347.19 work units)
Thread count was 1 (of 12 available processors)

Solution count 9: 82033 81885 81669 ... -0

Time limit reached
Best objective 8.203300000000e+04, best bound 8.300000000000e+04, gap 1.1788%
Solution = 82033.000000
