Falkenauer_u500_09
Set parameter Username
Academic license - for non-commercial use only - expires 2025-02-19
Set parameter Threads to value 1
Set parameter TimeLimit to value 600
Gurobi Optimizer version 11.0.0 build v11.0.0rc2 (linux64 - "Ubuntu 18.04.6 LTS")

CPU model: Intel(R) Xeon(R) CPU E5-2420 0 @ 1.90GHz, instruction set [SSE2|AVX]
Thread count: 6 physical cores, 12 logical processors, using up to 1 threads

Optimize a model with 182 rows, 8262 columns and 16443 nonzeros
Model fingerprint: 0x9db7634d
Variable types: 0 continuous, 8262 integer (8262 binary)
Coefficient statistics:
  Matrix range     [1e+00, 1e+02]
  Objective range  [2e+01, 1e+02]
  Bounds range     [1e+00, 1e+00]
  RHS range        [2e+02, 2e+02]
Found heuristic solution: objective -0.0000000
Presolve time: 0.06s
Presolved: 182 rows, 8262 columns, 16443 nonzeros
Variable types: 0 continuous, 8262 integer (8262 binary)

Root relaxation: objective 1.515000e+04, 449 iterations, 0.02 seconds (0.01 work units)

    Nodes    |    Current Node    |     Objective Bounds      |     Work
 Expl Unexpl |  Obj  Depth IntInf | Incumbent    BestBd   Gap | It/Node Time

     0     0 15150.0000    0   78   -0.00000 15150.0000      -     -    0s
H    0     0                    10683.000000 15150.0000  41.8%     -    0s
H    0     0                    11935.000000 15150.0000  26.9%     -    0s
     0     0 15150.0000    0  168 11935.0000 15150.0000  26.9%     -    0s
H    0     0                    14399.000000 15150.0000  5.22%     -    1s
     0     0 15150.0000    0  180 14399.0000 15150.0000  5.22%     -    1s
     0     0 15150.0000    0   79 14399.0000 15150.0000  5.22%     -    2s
     0     0 15150.0000    0   65 14399.0000 15150.0000  5.22%     -    2s
     0     2 15150.0000    0   61 14399.0000 15150.0000  5.22%     -    2s
   118   102 15056.0000   82   77 14399.0000 15150.0000  5.22%  44.1    5s
H  136   118                    14463.000000 15150.0000  4.75%  42.2    7s
   412   396 14855.0000  294   69 14463.0000 15150.0000  4.75%  27.2   10s
H  423   405                    14645.000000 15150.0000  3.45%  27.2   11s
H 1012   834                    14725.000000 15150.0000  2.89%  17.7   14s
  1015   836 14764.0000  558   78 14725.0000 15150.0000  2.89%  17.7   15s
H 1017   796                    14821.000000 15150.0000  2.22%  17.6   19s
  1021   798 14821.0000  529  113 14821.0000 15150.0000  2.22%  17.6   20s
  1035   810 15150.0000   10   73 14821.0000 15150.0000  2.22%  56.9   28s
  1051   820 15150.0000   18  101 14821.0000 15150.0000  2.22%  57.8   30s
  1093   846 15132.0000   39  128 14821.0000 15150.0000  2.22%  61.1   35s
  1133   869 15121.0000   59  129 14821.0000 15150.0000  2.22%  62.3   40s
H 1142   832                    14959.000000 15150.0000  1.28%  62.4   42s
  1179   842 15150.0000   19  101 14959.0000 15150.0000  1.28%  62.8   45s
  1258   894 15150.0000   58  114 14959.0000 15150.0000  1.28%  64.3   50s
H 1271   862                    15041.000000 15150.0000  0.72%  64.4   59s
  1289   876 15150.0000   74  125 15041.0000 15150.0000  0.72%  64.3   60s
  1390   923 15150.0000   27   99 15041.0000 15150.0000  0.72%  63.9   65s
  1438   955 15150.0000   51  102 15041.0000 15150.0000  0.72%  64.0   70s
  1541  1024 15145.0000  103  105 15041.0000 15150.0000  0.72%  63.1   75s
  1650  1097 15133.0000  157  115 15041.0000 15150.0000  0.72%  61.5   80s
  1936  1218 15143.0000   34  108 15041.0000 15150.0000  0.72%  56.5   85s
  1975  1230 15142.0000   53  125 15041.0000 15150.0000  0.72%  56.3   90s
  1977  1230 15142.0000   54  124 15041.0000 15150.0000  0.72%  56.3   99s
  2014  1235 15150.0000   20  107 15041.0000 15150.0000  0.72%  56.0  100s
  2115  1266 15123.0000   42  123 15041.0000 15150.0000  0.72%  55.5  106s
  2389  1281     cutoff  130      15041.0000 15150.0000  0.72%  52.1  110s
  2637  1315 15150.0000   86  119 15041.0000 15150.0000  0.72%  50.5  115s
  2793  1372 15150.0000   56  134 15041.0000 15150.0000  0.72%  51.4  120s
  2927  1414 15108.0000   63  114 15041.0000 15150.0000  0.72%  53.2  125s
  2964  1430 15108.0000   82  115 15041.0000 15150.0000  0.72%  53.1  130s
  3000  1452 15106.0000  100  107 15041.0000 15150.0000  0.72%  53.0  135s
  3135  1499 15069.0000  171   95 15041.0000 15150.0000  0.72%  52.0  140s
  3402  1645 15108.0000   74  120 15041.0000 15150.0000  0.72%  51.3  145s
  3592  1763 15104.0000   52  114 15041.0000 15150.0000  0.72%  51.8  150s
  3692  1822 15060.0000   88  105 15041.0000 15150.0000  0.72%  51.5  159s
  3702  1832 15048.0000   89  109 15041.0000 15150.0000  0.72%  51.6  160s
H 3704  1608                    15075.000000 15150.0000  0.50%  51.6  162s
  3715  1609 15140.0000   30  123 15075.0000 15150.0000  0.50%  51.6  165s
  3849  1694 15119.0000   56  126 15075.0000 15150.0000  0.50%  52.3  170s
  4019  1796 15150.0000   50  124 15075.0000 15150.0000  0.50%  52.4  175s
  4269  1995 15079.0000   35  120 15075.0000 15150.0000  0.50%  51.8  180s
  4366  2051 15140.0000   29  126 15075.0000 15150.0000  0.50%  52.1  185s
  4485  2123 15150.0000   23  114 15075.0000 15150.0000  0.50%  53.1  190s
  4506  2141 15120.0000   43  117 15075.0000 15150.0000  0.50%  53.3  195s
  4576  2205 15083.0000  110  111 15075.0000 15150.0000  0.50%  54.5  200s
  4714  2278 15095.0000   64  118 15075.0000 15150.0000  0.50%  54.4  205s
  4907  2397 15113.0000  134  116 15075.0000 15150.0000  0.50%  54.4  210s
  4983  2445 15076.0000   79  124 15075.0000 15150.0000  0.50%  54.8  215s
  4996  2458 15076.0000   92  125 15075.0000 15150.0000  0.50%  54.8  221s
  5126  2565 15101.0000   52  115 15075.0000 15150.0000  0.50%  54.3  225s
  5273  2620 15150.0000   42  130 15075.0000 15150.0000  0.50%  54.6  230s
  5329  2667 15105.0000   81  123 15075.0000 15150.0000  0.50%  55.0  235s
  5509  2804 15086.0000  206  124 15075.0000 15150.0000  0.50%  54.3  242s
  5562  2815 15132.0000   35  116 15075.0000 15150.0000  0.50%  54.2  245s
  5673  2872 15150.0000   28  118 15075.0000 15150.0000  0.50%  55.6  250s
  5899  3034 15102.0000  137  117 15075.0000 15150.0000  0.50%  55.4  255s
  5981  3084 15086.0000  195  121 15075.0000 15150.0000  0.50%  55.6  260s
  6148  3191 15113.0000  115  122 15075.0000 15150.0000  0.50%  55.7  265s
  6461  3350 15082.0000  138  114 15075.0000 15150.0000  0.50%  55.8  270s
  6776  3532 15150.0000   85  120 15075.0000 15150.0000  0.50%  55.8  276s
  6789  3541 15098.0000   96  106 15075.0000 15150.0000  0.50%  55.8  280s
  7048  3647 15130.0000  108  124 15075.0000 15150.0000  0.50%  55.7  285s
  7331  3782 15132.0000  114  125 15075.0000 15150.0000  0.50%  55.6  290s
  7474  3848 15117.0000   96  120 15075.0000 15150.0000  0.50%  55.6  296s
  7531  3891 15098.0000  143  125 15075.0000 15150.0000  0.50%  55.7  300s
  7858  4055 15150.0000   90  123 15075.0000 15150.0000  0.50%  55.6  305s
  8067  4129 15117.0000  107  125 15075.0000 15150.0000  0.50%  55.3  310s
  8375  4253 15087.0000  137  119 15075.0000 15150.0000  0.50%  54.7  315s
  8578  4328 15131.0000  103  122 15075.0000 15150.0000  0.50%  54.4  322s
  8721  4401 15080.0000  102  119 15075.0000 15150.0000  0.50%  54.4  325s
  9017  4529 15130.0000  111  128 15075.0000 15150.0000  0.50%  54.0  330s
  9203  4617 15103.0000   95  117 15075.0000 15150.0000  0.50%  53.8  337s
  9380  4690 15093.0000   89  118 15075.0000 15150.0000  0.50%  53.7  340s
  9812  4981 15103.0000  101  120 15075.0000 15150.0000  0.50%  53.1  345s
  9966  5037 15108.0000   64  128 15075.0000 15150.0000  0.50%  53.2  350s
 10135  5147 15132.0000  122  120 15075.0000 15150.0000  0.50%  53.3  355s
 10202  5191 15136.0000   95  123 15075.0000 15150.0000  0.50%  53.1  360s
 10440  5359 15131.0000   97  131 15075.0000 15150.0000  0.50%  52.9  365s
 10749  5541 15092.0000  133  131 15075.0000 15150.0000  0.50%  52.7  370s
 10784  5566 15114.0000  100  118 15075.0000 15150.0000  0.50%  52.7  375s
 11065  5758 15090.0000   91  117 15075.0000 15150.0000  0.50%  52.6  380s
 11482  6004 15150.0000   95  120 15075.0000 15150.0000  0.50%  52.1  385s
 11855  6237 15150.0000   78  124 15075.0000 15150.0000  0.50%  51.9  393s
 11883  6265 15122.0000   91  121 15075.0000 15150.0000  0.50%  52.0  395s
 12117  6383 infeasible  166      15075.0000 15150.0000  0.50%  51.9  400s
 12514  6601 infeasible  119      15075.0000 15150.0000  0.50%  51.8  405s
 12586  6629 15150.0000   63  123 15075.0000 15150.0000  0.50%  51.7  410s
 12989  6899     cutoff  113      15075.0000 15150.0000  0.50%  51.4  415s
 13182  7036 15090.0000  140  116 15075.0000 15150.0000  0.50%  51.4  422s
 13257  7086 15150.0000   62  133 15075.0000 15150.0000  0.50%  51.5  425s
 13332  7149 infeasible  129      15075.0000 15150.0000  0.50%  51.5  430s
 13669  7345 15115.0000   75  116 15075.0000 15150.0000  0.50%  51.6  435s
 13888  7477 15110.0000   91  118 15075.0000 15150.0000  0.50%  51.4  440s
 14000  7502 15108.0000   63  117 15075.0000 15150.0000  0.50%  51.7  445s
 14257  7631 15135.0000   66  131 15075.0000 15150.0000  0.50%  51.7  450s
 14324  7674 15076.0000  117  106 15075.0000 15150.0000  0.50%  51.7  455s
 14479  7739 15150.0000   61  128 15075.0000 15150.0000  0.50%  51.8  460s
 14881  8088 15093.0000  203  105 15075.0000 15150.0000  0.50%  51.4  465s
 15235  8324 15143.0000  101  126 15075.0000 15150.0000  0.50%  50.7  470s
 15305  8346 15112.0000   68  120 15075.0000 15150.0000  0.50%  50.8  475s
 15753  8582 15090.0000   73  121 15075.0000 15150.0000  0.50%  50.3  480s
 15993  8774 15091.0000  153  124 15075.0000 15150.0000  0.50%  50.1  487s
 16011  8778 15136.0000   76  125 15075.0000 15150.0000  0.50%  50.1  490s
 16068  8825 15097.0000  125  127 15075.0000 15150.0000  0.50%  50.2  495s
 16365  9021 15136.0000   95  125 15075.0000 15150.0000  0.50%  49.9  500s
 16800  9356 15150.0000   77  129 15075.0000 15150.0000  0.50%  49.6  505s
 16959  9498 15120.0000  163  117 15075.0000 15150.0000  0.50%  49.4  511s
 17338  9745 15110.0000   75  123 15075.0000 15150.0000  0.50%  49.1  515s
 17661  9956 15091.0000   90  122 15075.0000 15150.0000  0.50%  49.0  520s
 17951 10127 15118.0000  170  119 15075.0000 15150.0000  0.50%  48.9  526s
 18222 10313 15092.0000   87  124 15075.0000 15150.0000  0.50%  48.9  530s
 18487 10456 15122.0000  104  127 15075.0000 15150.0000  0.50%  49.0  535s
 18777 10632 15150.0000   84  127 15075.0000 15150.0000  0.50%  48.9  541s
 18830 10685 15084.0000  137  121 15075.0000 15150.0000  0.50%  48.9  545s
 18943 10745 15122.0000   74  123 15075.0000 15150.0000  0.50%  49.0  550s
 19143 10852 15150.0000   78  126 15075.0000 15150.0000  0.50%  49.2  555s
 19319 10956 15077.0000  183  101 15075.0000 15150.0000  0.50%  49.2  560s
 19565 11071 15108.0000   80  117 15075.0000 15150.0000  0.50%  49.2  565s
 19736 11182 infeasible   68      15075.0000 15150.0000  0.50%  49.2  570s
 20001 11312 15087.0000  167  108 15075.0000 15150.0000  0.50%  49.1  575s
 20112 11374 15109.0000   70  122 15075.0000 15150.0000  0.50%  49.1  583s
 20168 11406 15096.0000  110  114 15075.0000 15150.0000  0.50%  49.1  587s
 20271 11446 15104.0000   93  116 15075.0000 15150.0000  0.50%  49.1  590s
 20490 11548 15101.0000  132  118 15075.0000 15150.0000  0.50%  49.2  595s
 20735 11723 15114.0000   76  118 15075.0000 15150.0000  0.50%  49.2  600s

Cutting planes:
  Cover: 26
  Clique: 14
  MIR: 4
  StrongCG: 2
  Flow cover: 3
  RLT: 5

Explored 20736 nodes (1032311 simplex iterations) in 600.00 seconds (362.53 work units)
Thread count was 1 (of 12 available processors)

Solution count 10: 15075 15041 14959 ... 10683

Time limit reached
Best objective 1.507500000000e+04, best bound 1.515000000000e+04, gap 0.4975%
Solution = 15075.000000
