Falkenauer_t120_17
Set parameter Username
Academic license - for non-commercial use only - expires 2025-02-19
Set parameter Threads to value 1
Set parameter TimeLimit to value 600
Gurobi Optimizer version 11.0.0 build v11.0.0rc2 (linux64 - "Ubuntu 18.04.6 LTS")

CPU model: Intel(R) Xeon(R) CPU E5-2420 0 @ 1.90GHz, instruction set [SSE2|AVX]
Thread count: 6 physical cores, 12 logical processors, using up to 1 threads

Optimize a model with 130 rows, 3690 columns and 7290 nonzeros
Model fingerprint: 0xce520e8a
Variable types: 0 continuous, 3690 integer (3690 binary)
Coefficient statistics:
  Matrix range     [1e+00, 5e+02]
  Objective range  [2e+02, 5e+02]
  Bounds range     [1e+00, 1e+00]
  RHS range        [1e+03, 1e+03]
Found heuristic solution: objective -0.0000000
Presolve removed 0 rows and 68 columns
Presolve time: 0.03s
Presolved: 130 rows, 3622 columns, 7222 nonzeros
Variable types: 0 continuous, 3622 integer (3622 binary)
Found heuristic solution: objective 25236.000000

Root relaxation: objective 4.000000e+04, 616 iterations, 0.04 seconds (0.02 work units)

    Nodes    |    Current Node    |     Objective Bounds      |     Work
 Expl Unexpl |  Obj  Depth IntInf | Incumbent    BestBd   Gap | It/Node Time

     0     0 40000.0000    0   56 25236.0000 40000.0000  58.5%     -    0s
H    0     0                    37146.000000 40000.0000  7.68%     -    0s
H    0     0                    37957.000000 40000.0000  5.38%     -    0s
     0     0 40000.0000    0  107 37957.0000 40000.0000  5.38%     -    0s
H    0     0                    38867.000000 40000.0000  2.92%     -    1s
     0     0 40000.0000    0  121 38867.0000 40000.0000  2.92%     -    1s
     0     0 40000.0000    0   69 38867.0000 40000.0000  2.92%     -    1s
     0     0 40000.0000    0   54 38867.0000 40000.0000  2.92%     -    1s
     0     2 40000.0000    0   54 38867.0000 40000.0000  2.92%     -    1s
H   26    26                    39219.000000 40000.0000  1.99%  56.9    2s
H   52    50                    39386.000000 40000.0000  1.56%  35.4    3s
H   53    49                    39508.000000 40000.0000  1.25%  35.0    5s
   859   374 39522.0000  202   68 39508.0000 40000.0000  1.25%  21.5   10s
  1027   488 39867.0000   96   62 39508.0000 40000.0000  1.25%  36.4   15s
H 1389   461                    39568.000000 40000.0000  1.09%  35.7   20s
H 1975   648                    39745.000000 40000.0000  0.64%  30.8   25s
  2006   673 40000.0000   42   44 39745.0000 40000.0000  0.64%  30.6   31s
  2521  1083 39935.4975  181   53 39745.0000 40000.0000  0.64%  27.3   35s
  4002  2121     cutoff  130      39745.0000 40000.0000  0.64%  22.9   40s
  5649  3317 39999.0000   59   41 39745.0000 40000.0000  0.64%  20.8   45s
H 5907  3480                    39750.000000 40000.0000  0.63%  20.6   51s
  6103  3656 39906.0000  184   53 39750.0000 40000.0000  0.63%  20.3   55s
  7834  4717 39784.0000   91   41 39750.0000 40000.0000  0.63%  19.2   60s
  9734  6077 39869.2454   88   51 39750.0000 40000.0000  0.63%  18.2   65s
 10580  6575 39857.0000   46   51 39750.0000 40000.0000  0.63%  18.0   70s
 11948  7672 39830.0000  105   45 39750.0000 40000.0000  0.63%  17.9   75s
 12580  8200 39820.0000  216   46 39750.0000 40000.0000  0.63%  17.8   81s
 13550  8763 39765.0000  202   52 39750.0000 40000.0000  0.63%  18.0   85s
 15063  9624 39832.0000  124   44 39750.0000 40000.0000  0.63%  17.8   90s
 16726 10681 40000.0000   45   47 39750.0000 40000.0000  0.63%  17.7   95s
 17766 11326 39864.0000  101   42 39750.0000 40000.0000  0.63%  17.9  100s
 18217 11550 39917.0000   86   48 39750.0000 40000.0000  0.63%  17.9  115s
 18267 11578 40000.0000   72   48 39750.0000 40000.0000  0.63%  17.9  121s
 19116 12161 39988.0000   88   41 39750.0000 40000.0000  0.63%  17.9  125s
 20404 12992 39806.0000   80   50 39750.0000 40000.0000  0.63%  17.8  130s
 21068 13450     cutoff   84      39750.0000 40000.0000  0.63%  17.9  135s
 22321 14208 40000.0000   52   45 39750.0000 40000.0000  0.63%  17.9  140s
 24048 15395 40000.0000  107   46 39750.0000 40000.0000  0.63%  17.8  145s
 25324 16214 39806.0000  219   43 39750.0000 40000.0000  0.63%  17.6  150s
 26785 17206 39777.0000  229   49 39750.0000 40000.0000  0.63%  17.6  155s
 27932 17560 39888.0000  123   43 39750.0000 40000.0000  0.63%  17.8  161s
 28976 17985     cutoff  170      39750.0000 40000.0000  0.63%  17.8  165s
 30561 18806 39777.0000  121   47 39750.0000 40000.0000  0.63%  17.8  170s
 31509 19248 39883.0000   70   47 39750.0000 40000.0000  0.63%  17.8  175s
 33284 20359 39997.5931   60   63 39750.0000 40000.0000  0.63%  17.7  180s
 34953 21184 39800.0000   82   38 39750.0000 40000.0000  0.63%  17.8  185s
 35523 21596 39866.0000   68   41 39750.0000 40000.0000  0.63%  17.7  193s
 35642 21671 39881.0000   54   45 39750.0000 40000.0000  0.63%  17.7  195s
 37895 23150 39841.0000  103   56 39750.0000 40000.0000  0.63%  17.6  200s
 39775 24307 39760.0000  109   36 39750.0000 40000.0000  0.63%  17.5  205s
 42312 25853 39873.0000  128   45 39750.0000 40000.0000  0.63%  17.3  210s
 44265 27127 39805.0000  231   39 39750.0000 40000.0000  0.63%  17.3  215s
 46577 28369 39754.0000  149   38 39750.0000 40000.0000  0.63%  17.3  220s
 48800 29706     cutoff  199      39750.0000 40000.0000  0.63%  17.2  225s
 51278 31165     cutoff  156      39750.0000 40000.0000  0.63%  17.1  230s
 53325 32290 39927.0000  105   42 39750.0000 40000.0000  0.63%  17.0  235s
 54803 33056 39770.0000   94   37 39750.0000 40000.0000  0.63%  17.0  240s
 55710 33624 39822.0000  135   38 39750.0000 40000.0000  0.63%  16.9  245s
 57993 35043 39762.0000  123   43 39750.0000 40000.0000  0.63%  16.8  250s
 59580 35857 39963.3028  141   55 39750.0000 40000.0000  0.63%  16.8  257s
 60262 36181     cutoff   93      39750.0000 40000.0000  0.63%  16.8  260s
 62078 37204 39841.1205   69   48 39750.0000 40000.0000  0.63%  16.8  265s
 64397 38444 39853.0000   73   47 39750.0000 40000.0000  0.63%  16.8  270s
 66151 39530 39766.0000   94   44 39750.0000 40000.0000  0.63%  16.8  275s
 66510 39786 39754.0000  100   42 39750.0000 40000.0000  0.63%  16.8  280s
 68196 40709 39858.0000   64   43 39750.0000 40000.0000  0.63%  16.8  285s
 69796 41677 39765.0000  102   38 39750.0000 40000.0000  0.63%  16.8  291s
 70456 42019 39821.0000   82   51 39750.0000 40000.0000  0.63%  16.8  295s
 71822 42773 39813.9869   66   49 39750.0000 40000.0000  0.63%  16.8  300s
 72995 43479 39761.0000   91   41 39750.0000 40000.0000  0.63%  16.8  305s
 74687 44231     cutoff  110      39750.0000 40000.0000  0.63%  16.9  310s
 76236 44874 39786.7751   95   70 39750.0000 40000.0000  0.63%  16.9  316s
 76941 45119 39792.0000   98   41 39750.0000 40000.0000  0.63%  16.9  320s
 79189 46343 39969.3208   63   57 39750.0000 40000.0000  0.63%  16.9  325s
 81316 47574 39779.0000   75   47 39750.0000 40000.0000  0.63%  16.8  330s
 83033 48513 39833.0000   87   47 39750.0000 40000.0000  0.63%  16.8  336s
 84653 49528 39766.0000   89   42 39750.0000 40000.0000  0.63%  16.8  340s
 86014 50255 39796.0000   88   46 39750.0000 40000.0000  0.63%  16.8  345s
 87861 51340     cutoff  150      39750.0000 40000.0000  0.63%  16.7  350s
 88497 51612 39752.0000  124   42 39750.0000 40000.0000  0.63%  16.8  355s
 90014 52303 39969.0000   75   41 39750.0000 40000.0000  0.63%  16.8  360s
 92086 53394 39961.3110   83   51 39750.0000 40000.0000  0.63%  16.8  365s
 92490 53638 39796.0000  152   40 39750.0000 40000.0000  0.63%  16.8  370s
 94529 54676 39877.7485   81   52 39750.0000 40000.0000  0.63%  16.7  375s
 95779 55343 40000.0000   67   44 39750.0000 40000.0000  0.63%  16.7  380s
 96719 55802 39882.0000  138   45 39750.0000 40000.0000  0.63%  16.7  386s
 97886 56313 39778.6585   72   50 39750.0000 40000.0000  0.63%  16.7  390s
 99734 57424     cutoff  181      39750.0000 40000.0000  0.63%  16.7  395s
 100612 57951     cutoff   57      39750.0000 40000.0000  0.63%  16.7  400s
 102167 58813 39800.0000   84   43 39750.0000 40000.0000  0.63%  16.7  405s
 103402 59438 39777.0000   81   42 39750.0000 40000.0000  0.63%  16.7  410s
 104014 59803 39770.0000  109   40 39750.0000 40000.0000  0.63%  16.7  418s
 104219 59851 39763.0000  137   32 39750.0000 40000.0000  0.63%  16.7  420s
 105689 60698 39799.0000   96   51 39750.0000 40000.0000  0.63%  16.7  425s
 107891 61994 39944.0000  115   44 39750.0000 40000.0000  0.63%  16.8  430s
 109244 62805     cutoff  130      39750.0000 40000.0000  0.63%  16.8  435s
 111218 63905 39767.0000  117   37 39750.0000 40000.0000  0.63%  16.8  440s
 112985 65062 39768.0000  241   52 39750.0000 40000.0000  0.63%  16.8  445s
 115273 66508 39771.4779   94   45 39750.0000 40000.0000  0.63%  16.8  450s
 116359 67132 39755.4596  112   39 39750.0000 40000.0000  0.63%  16.8  455s
 117723 67839 39846.0000  183   39 39750.0000 40000.0000  0.63%  16.8  460s
 119219 68989 39827.0000  146   40 39750.0000 40000.0000  0.63%  16.8  465s
 121535 70668 39984.0000  108   42 39750.0000 40000.0000  0.63%  16.7  470s
 122749 71398 39753.0000  185   47 39750.0000 40000.0000  0.63%  16.7  475s
 125094 73107 39939.0000  235   47 39750.0000 40000.0000  0.63%  16.7  480s
 126131 73612 39769.0000  123   37 39750.0000 40000.0000  0.63%  16.7  485s
 127714 74756 39880.0000   83   48 39750.0000 40000.0000  0.63%  16.7  490s
 129871 75950 39944.0000  115   52 39750.0000 40000.0000  0.63%  16.7  495s
 131573 77057 39796.0000  168   47 39750.0000 40000.0000  0.63%  16.7  500s
 133343 78296 39910.0000  163   38 39750.0000 40000.0000  0.63%  16.7  505s
 134201 78796 39758.6960   97   49 39750.0000 40000.0000  0.63%  16.7  511s
 135431 79468 39764.0000  142   43 39750.0000 40000.0000  0.63%  16.8  515s
 136638 80156 39820.1580  132   49 39750.0000 40000.0000  0.63%  16.8  520s
 139264 81938 39782.0000  190   37 39750.0000 40000.0000  0.63%  16.7  525s
 141411 83130 39781.0000  233   40 39750.0000 40000.0000  0.63%  16.7  532s
 142465 83773     cutoff  136      39750.0000 40000.0000  0.63%  16.7  535s
 144618 84987 39798.0000  188   41 39750.0000 40000.0000  0.63%  16.7  540s
 146117 85626 39881.0000  117   43 39750.0000 40000.0000  0.63%  16.7  545s
 146943 86011 39782.0000  105   41 39750.0000 40000.0000  0.63%  16.8  552s
 147259 86153 39751.0000  159   43 39750.0000 40000.0000  0.63%  16.8  555s
 149299 87036 39760.0000  122   42 39750.0000 40000.0000  0.63%  16.8  560s
 150681 87697 39764.0000  250   56 39750.0000 40000.0000  0.63%  16.8  565s
 152949 88979     cutoff  166      39750.0000 40000.0000  0.63%  16.8  570s
 155068 90147 39864.0000  187   44 39750.0000 40000.0000  0.63%  16.8  575s
 156555 90929 39752.0000  216   35 39750.0000 40000.0000  0.63%  16.9  580s
 159063 92309     cutoff  175      39750.0000 40000.0000  0.63%  16.9  585s
 160549 93103 39905.0299  129   54 39750.0000 40000.0000  0.63%  16.9  590s
 161306 93533 39758.0000  167   40 39750.0000 40000.0000  0.63%  16.9  595s

Cutting planes:
  Gomory: 4
  Cover: 51
  MIR: 6
  StrongCG: 6
  Flow cover: 7
  Zero half: 2
  RLT: 3

Explored 163178 nodes (2762246 simplex iterations) in 600.01 seconds (301.86 work units)
Thread count was 1 (of 12 available processors)

Solution count 10: 39750 39745 39568 ... 25236

Time limit reached
Best objective 3.975000000000e+04, best bound 4.000000000000e+04, gap 0.6289%
Solution = 39750.000000
