Hard28_BPP785
Set parameter Username
Academic license - for non-commercial use only - expires 2025-02-19
Set parameter Threads to value 1
Set parameter TimeLimit to value 600
Gurobi Optimizer version 11.0.0 build v11.0.0rc2 (linux64 - "Ubuntu 18.04.6 LTS")

CPU model: Intel(R) Xeon(R) CPU E5-2420 0 @ 1.90GHz, instruction set [SSE2|AVX]
Thread count: 6 physical cores, 12 logical processors, using up to 1 threads

Optimize a model with 197 rows, 5705 columns and 11247 nonzeros
Model fingerprint: 0x58af5ce1
Variable types: 0 continuous, 5705 integer (5705 binary)
Coefficient statistics:
  Matrix range     [1e+00, 7e+02]
  Objective range  [5e+00, 7e+02]
  Bounds range     [1e+00, 1e+00]
  RHS range        [1e+03, 1e+03]
Found heuristic solution: objective -0.0000000
Presolve removed 0 rows and 148 columns
Presolve time: 0.03s
Presolved: 197 rows, 5557 columns, 11099 nonzeros
Variable types: 0 continuous, 5557 integer (5557 binary)
Found heuristic solution: objective 33888.000000

Root relaxation: objective 3.400000e+04, 137 iterations, 0.01 seconds (0.00 work units)

    Nodes    |    Current Node    |     Objective Bounds      |     Work
 Expl Unexpl |  Obj  Depth IntInf | Incumbent    BestBd   Gap | It/Node Time

     0     0 34000.0000    0   32 33888.0000 34000.0000  0.33%     -    0s
H    0     0                    33890.000000 34000.0000  0.32%     -    0s
     0     0 34000.0000    0   48 33890.0000 34000.0000  0.32%     -    0s
H    0     0                    33945.000000 34000.0000  0.16%     -    0s
     0     0 34000.0000    0   51 33945.0000 34000.0000  0.16%     -    0s
     0     0 34000.0000    0   41 33945.0000 34000.0000  0.16%     -    0s
     0     0 34000.0000    0   39 33945.0000 34000.0000  0.16%     -    1s
     0     2 34000.0000    0   39 33945.0000 34000.0000  0.16%     -    1s
H  267   215                    33958.000000 34000.0000  0.12%  13.5    2s
H  557   436                    33962.000000 34000.0000  0.11%  17.7    4s
   559   437 34000.0000  142   33 33962.0000 34000.0000  0.11%  17.6    5s
H  595   438                    33967.000000 34000.0000  0.10%  34.1    7s
   688   502 34000.0000   70   41 33967.0000 34000.0000  0.10%  31.1   10s
H  757   525                    33970.000000 34000.0000  0.09%  29.6   11s
H 1757   940                    33975.000000 34000.0000  0.07%  18.3   15s
H 2939  1815                    33976.000000 34000.0000  0.07%  14.8   18s
H 3346  2019                    33978.000000 34000.0000  0.06%  14.0   19s
  3609  2155 34000.0000  202   33 33978.0000 34000.0000  0.06%  13.5   20s
H 5176  3364                    33979.000000 34000.0000  0.06%  11.8   24s
H 5289  2865                    33985.000000 34000.0000  0.04%  11.7   25s
H 6289  3546                    33986.000000 34000.0000  0.04%  10.9   26s
  9107  5757 33999.0000  304   35 33986.0000 34000.0000  0.04%   9.2   30s
 11381  7489 33999.0000  290   31 33986.0000 34000.0000  0.04%   8.5   35s
 13191  8905 33996.0000  364   37 33986.0000 34000.0000  0.04%   8.2   40s
 16587 11464 34000.0000  329   38 33986.0000 34000.0000  0.04%   7.8   45s
H18648 12742                    33987.000000 34000.0000  0.04%   7.6   48s
 19486 13353 33999.0000  406   33 33987.0000 34000.0000  0.04%   7.5   50s
H19648 13120                    33988.000000 34000.0000  0.04%   7.5   50s
H21112 13596                    33989.000000 34000.0000  0.03%   7.3   53s
 21821 14079 33997.0000  264   44 33989.0000 34000.0000  0.03%   7.3   55s
 25505 16884 34000.0000  288   37 33989.0000 34000.0000  0.03%   7.0   60s
 27549 18342 33994.0000  235   32 33989.0000 34000.0000  0.03%   7.0   65s
H28313 18200                    33991.000000 34000.0000  0.03%   6.9   66s
 30457 19628 33999.0000  365   40 33991.0000 34000.0000  0.03%   6.9   70s
H32035 15481                    33996.000000 34000.0000  0.01%   6.8   72s
 34033 16868 34000.0000  260   30 33996.0000 34000.0000  0.01%   6.8   75s
 37487 19482 34000.0000  210   33 33996.0000 34000.0000  0.01%   6.7   80s
 40556 21858 34000.0000  261   30 33996.0000 34000.0000  0.01%   6.6   85s
H41295 21131                    33997.000000 34000.0000  0.01%   6.6   88s

Cutting planes:
  Gomory: 1
  Cover: 31
  Clique: 2
  MIR: 14
  StrongCG: 11
  Flow cover: 15
  Zero half: 2
  RLT: 11

Explored 41296 nodes (274836 simplex iterations) in 88.03 seconds (43.54 work units)
Thread count was 1 (of 12 available processors)

Solution count 10: 33997 33996 33991 ... 33978

Optimal solution found (tolerance 1.00e-04)
Best objective 3.399700000000e+04, best bound 3.400000000000e+04, gap 0.0088%
Solution = 33997.000000
