N1C1W1_F
Set parameter Username
Academic license - for non-commercial use only - expires 2025-02-19
Set parameter Threads to value 1
Set parameter TimeLimit to value 600
Gurobi Optimizer version 11.0.0 build v11.0.0rc2 (linux64 - "Ubuntu 18.04.6 LTS")

CPU model: Intel(R) Xeon(R) CPU E5-2420 0 @ 1.90GHz, instruction set [SSE2|AVX]
Thread count: 6 physical cores, 12 logical processors, using up to 1 threads

Optimize a model with 53 rows, 560 columns and 1080 nonzeros
Model fingerprint: 0x2f196c16
Variable types: 0 continuous, 560 integer (560 binary)
Coefficient statistics:
  Matrix range     [1e+00, 1e+02]
  Objective range  [2e+00, 1e+02]
  Bounds range     [1e+00, 1e+00]
  RHS range        [1e+02, 1e+02]
Found heuristic solution: objective -0.0000000
Presolve removed 0 rows and 30 columns
Presolve time: 0.01s
Presolved: 53 rows, 530 columns, 1050 nonzeros
Variable types: 0 continuous, 530 integer (530 binary)
Found heuristic solution: objective 1231.0000000

Root relaxation: objective 1.300000e+03, 73 iterations, 0.00 seconds (0.00 work units)

    Nodes    |    Current Node    |     Objective Bounds      |     Work
 Expl Unexpl |  Obj  Depth IntInf | Incumbent    BestBd   Gap | It/Node Time

     0     0 1300.00000    0   11 1231.00000 1300.00000  5.61%     -    0s
H    0     0                    1248.0000000 1300.00000  4.17%     -    0s
     0     0 1300.00000    0   31 1248.00000 1300.00000  4.17%     -    0s
     0     0 1300.00000    0    9 1248.00000 1300.00000  4.17%     -    0s
H    0     0                    1285.0000000 1300.00000  1.17%     -    0s
H    0     0                    1287.0000000 1300.00000  1.01%     -    0s
     0     0 1300.00000    0   11 1287.00000 1300.00000  1.01%     -    0s
     0     0 1300.00000    0    6 1287.00000 1300.00000  1.01%     -    0s
H    0     0                    1295.0000000 1300.00000  0.39%     -    0s
     0     0 1300.00000    0   17 1295.00000 1300.00000  0.39%     -    0s
     0     0 1300.00000    0    7 1295.00000 1300.00000  0.39%     -    0s
     0     0 1300.00000    0    7 1295.00000 1300.00000  0.39%     -    0s
     0     2 1300.00000    0    7 1295.00000 1300.00000  0.39%     -    0s
H   53    41                    1296.0000000 1300.00000  0.31%  11.7    0s
H  302   187                    1297.0000000 1300.00000  0.23%  16.6    1s
H  620   242                    1298.0000000 1300.00000  0.15%  18.7    1s
H 1155   290                    1299.0000000 1300.00000  0.08%  21.0    3s
  1340   286 1300.00000   49   16 1299.00000 1300.00000  0.08%  11.4    5s
  2529   159 1300.00000   48   13 1299.00000 1300.00000  0.08%  18.0   10s
H 3367     0                    1300.0000000 1300.00000  0.00%  19.9   12s

Cutting planes:
  Gomory: 6
  Cover: 33
  Clique: 11
  MIR: 1
  StrongCG: 2
  Flow cover: 6
  Zero half: 10
  RLT: 2

Explored 3368 nodes (85001 simplex iterations) in 13.00 seconds (3.43 work units)
Thread count was 1 (of 12 available processors)

Solution count 10: 1300 1299 1298 ... 1231

Optimal solution found (tolerance 1.00e-04)
Best objective 1.300000000000e+03, best bound 1.300000000000e+03, gap 0.0000%
Solution = 1300.000000
