N1C1W2_L
Set parameter Username
Academic license - for non-commercial use only - expires 2025-02-19
Set parameter Threads to value 1
Set parameter TimeLimit to value 600
Gurobi Optimizer version 11.0.0 build v11.0.0rc2 (linux64 - "Ubuntu 18.04.6 LTS")

CPU model: Intel(R) Xeon(R) CPU E5-2420 0 @ 1.90GHz, instruction set [SSE2|AVX]
Thread count: 6 physical cores, 12 logical processors, using up to 1 threads

Optimize a model with 54 rows, 624 columns and 1209 nonzeros
Model fingerprint: 0xb9fb3fd8
Variable types: 0 continuous, 624 integer (624 binary)
Coefficient statistics:
  Matrix range     [1e+00, 1e+02]
  Objective range  [2e+01, 1e+02]
  Bounds range     [1e+00, 1e+00]
  RHS range        [1e+02, 1e+02]
Found heuristic solution: objective -0.0000000
Presolve removed 0 rows and 29 columns
Presolve time: 0.01s
Presolved: 54 rows, 595 columns, 1180 nonzeros
Variable types: 0 continuous, 595 integer (595 binary)
Found heuristic solution: objective 1369.0000000

Root relaxation: objective 1.496720e+03, 126 iterations, 0.00 seconds (0.00 work units)

    Nodes    |    Current Node    |     Objective Bounds      |     Work
 Expl Unexpl |  Obj  Depth IntInf | Incumbent    BestBd   Gap | It/Node Time

     0     0 1496.72000    0    3 1369.00000 1496.72000  9.33%     -    0s
H    0     0                    1469.0000000 1496.72000  1.89%     -    0s
H    0     0                    1473.0000000 1496.72000  1.61%     -    0s
H    0     0                    1476.0000000 1496.72000  1.40%     -    0s
     0     0 1496.72000    0   20 1476.00000 1496.72000  1.40%     -    0s
H    0     0                    1478.0000000 1496.72000  1.27%     -    0s
     0     0 1496.72000    0   11 1478.00000 1496.72000  1.27%     -    0s
     0     0 1496.72000    0   10 1478.00000 1496.72000  1.27%     -    0s
     0     0 1496.72000    0   10 1478.00000 1496.72000  1.27%     -    0s
     0     2 1496.72000    0    9 1478.00000 1496.72000  1.27%     -    0s
H  809   438                    1479.0000000 1495.92308  1.14%  12.9    2s
H 1366   476                    1483.0000000 1495.53704  0.85%  14.2    3s
  1904   512 1487.94046   40   32 1483.00000 1495.04546  0.81%  18.8    5s
H 2942   829                    1484.0000000 1494.52564  0.71%  27.8    9s
  3078   849     cutoff   43      1484.00000 1494.33334  0.70%  29.3   10s
  3991  1005 1489.11429   29   25 1484.00000 1493.54000  0.64%  37.4   15s
  4955  1199 1488.51420   29   63 1484.00000 1493.00000  0.61%  41.7   20s
  5888  1420 1486.12857   31   31 1484.00000 1492.69697  0.59%  44.1   25s
  6863  1544 1485.81250   24   37 1484.00000 1492.21429  0.55%  46.3   30s
  7875  1711 1486.44156   23   54 1484.00000 1492.00000  0.54%  48.1   35s
  8800  1810 1490.15113   29   66 1484.00000 1491.64025  0.51%  49.6   40s
  9730  1860 1487.22524   25   38 1484.00000 1491.24286  0.49%  50.2   45s
 10219  1924 1489.11429   31   73 1484.00000 1491.04286  0.47%  50.2   50s
 10385  1950 1486.00000   33   37 1484.00000 1488.10000  0.28%  51.6   55s
H10855  1721                    1485.0000000 1487.26667  0.15%  51.1   59s
*10887  1533              44    1487.0000000 1487.13636  0.01%  51.1   59s

Cutting planes:
  Gomory: 42
  Cover: 134
  Clique: 9
  MIR: 73
  StrongCG: 42
  Flow cover: 28
  RLT: 1

Explored 10888 nodes (557879 simplex iterations) in 59.85 seconds (18.96 work units)
Thread count was 1 (of 12 available processors)

Solution count 10: 1487 1485 1484 ... 1369

Optimal solution found (tolerance 1.00e-04)
Best objective 1.487000000000e+03, best bound 1.487000000000e+03, gap 0.0000%
Solution = 1487.000000
