N1C1W4_S
Set parameter Username
Academic license - for non-commercial use only - expires 2025-02-19
Set parameter Threads to value 1
Set parameter TimeLimit to value 600
Gurobi Optimizer version 11.0.0 build v11.0.0rc2 (linux64 - "Ubuntu 18.04.6 LTS")

CPU model: Intel(R) Xeon(R) CPU E5-2420 0 @ 1.90GHz, instruction set [SSE2|AVX]
Thread count: 6 physical cores, 12 logical processors, using up to 1 threads

Optimize a model with 53 rows, 648 columns and 1260 nonzeros
Model fingerprint: 0xd8305a4c
Variable types: 0 continuous, 648 integer (648 binary)
Coefficient statistics:
  Matrix range     [1e+00, 1e+02]
  Objective range  [3e+01, 1e+02]
  Bounds range     [1e+00, 1e+00]
  RHS range        [1e+02, 1e+02]
Found heuristic solution: objective -0.0000000
Presolve removed 0 rows and 23 columns
Presolve time: 0.01s
Presolved: 53 rows, 625 columns, 1237 nonzeros
Variable types: 0 continuous, 625 integer (625 binary)
Found heuristic solution: objective 1445.0000000

Root relaxation: objective 1.681308e+03, 171 iterations, 0.00 seconds (0.00 work units)

    Nodes    |    Current Node    |     Objective Bounds      |     Work
 Expl Unexpl |  Obj  Depth IntInf | Incumbent    BestBd   Gap | It/Node Time

     0     0 1681.30769    0   11 1445.00000 1681.30769  16.4%     -    0s
H    0     0                    1572.0000000 1681.30769  6.95%     -    0s
H    0     0                    1623.0000000 1681.30769  3.59%     -    0s
     0     0 1681.30769    0   29 1623.00000 1681.30769  3.59%     -    0s
H    0     0                    1639.0000000 1681.30769  2.58%     -    0s
     0     0 1681.30769    0   31 1639.00000 1681.30769  2.58%     -    0s
     0     0 1681.30769    0    8 1639.00000 1681.30769  2.58%     -    0s
     0     0 1681.30769    0   10 1639.00000 1681.30769  2.58%     -    0s
     0     0 1681.30769    0   13 1639.00000 1681.30769  2.58%     -    0s
     0     0 1681.30769    0   13 1639.00000 1681.30769  2.58%     -    0s
     0     2 1680.56000    0    9 1639.00000 1680.56000  2.54%     -    0s
H   27    20                    1658.0000000 1680.56000  1.36%   9.1    0s
H  136    62                    1663.0000000 1680.20000  1.03%  10.5    0s
H  959   336                    1665.0000000 1679.13636  0.85%  19.8    2s

Cutting planes:
  Gomory: 12
  Cover: 81
  Clique: 4
  MIR: 29
  StrongCG: 26
  Flow cover: 24
  Inf proof: 1
  Zero half: 16

Explored 1335 nodes (47609 simplex iterations) in 4.15 seconds (1.66 work units)
Thread count was 1 (of 12 available processors)

Solution count 8: 1665 1663 1658 ... -0

Optimal solution found (tolerance 1.00e-04)
Best objective 1.665000000000e+03, best bound 1.665000000000e+03, gap 0.0000%
Solution = 1665.000000
