N1C2W4_B
Set parameter Username
Academic license - for non-commercial use only - expires 2025-02-19
Set parameter Threads to value 1
Set parameter TimeLimit to value 600
Gurobi Optimizer version 11.0.0 build v11.0.0rc2 (linux64 - "Ubuntu 18.04.6 LTS")

CPU model: Intel(R) Xeon(R) CPU E5-2420 0 @ 1.90GHz, instruction set [SSE2|AVX]
Thread count: 6 physical cores, 12 logical processors, using up to 1 threads

Optimize a model with 47 rows, 495 columns and 957 nonzeros
Model fingerprint: 0xdad6c29b
Variable types: 0 continuous, 495 integer (495 binary)
Coefficient statistics:
  Matrix range     [1e+00, 1e+02]
  Objective range  [3e+01, 1e+02]
  Bounds range     [1e+00, 1e+00]
  RHS range        [1e+02, 1e+02]
Found heuristic solution: objective -0.0000000
Presolve removed 0 rows and 21 columns
Presolve time: 0.01s
Presolved: 47 rows, 474 columns, 936 nonzeros
Variable types: 0 continuous, 474 integer (474 binary)
Found heuristic solution: objective 1279.0000000

Root relaxation: objective 1.678159e+03, 117 iterations, 0.00 seconds (0.00 work units)

    Nodes    |    Current Node    |     Objective Bounds      |     Work
 Expl Unexpl |  Obj  Depth IntInf | Incumbent    BestBd   Gap | It/Node Time

     0     0 1678.15909    0   10 1279.00000 1678.15909  31.2%     -    0s
H    0     0                    1634.0000000 1678.15909  2.70%     -    0s
     0     0 1678.15909    0   27 1634.00000 1678.15909  2.70%     -    0s
H    0     0                    1639.0000000 1678.15909  2.39%     -    0s
     0     0 1678.15909    0   11 1639.00000 1678.15909  2.39%     -    0s
H    0     0                    1648.0000000 1678.15909  1.83%     -    0s
     0     0 1678.15909    0   14 1648.00000 1678.15909  1.83%     -    0s
     0     0 1678.15909    0   15 1648.00000 1678.15909  1.83%     -    0s
     0     0 1678.15909    0   14 1648.00000 1678.15909  1.83%     -    0s
H    0     0                    1652.0000000 1678.15909  1.58%     -    0s
     0     2 1678.15909    0   10 1652.00000 1678.15909  1.58%     -    0s
H  156    86                    1668.0000000 1678.00000  0.60%   8.9    0s
  2187   524 1673.42857   37   29 1668.00000 1676.79545  0.53%  20.2    5s
  4814  1168 1671.20208   44   18 1668.00000 1676.42373  0.51%  19.8   10s
  9850  2411 1671.66939   43   27 1668.00000 1675.72000  0.46%  17.0   15s
 10271  2548 1670.00072   34   52 1668.00000 1670.00072  0.12%  16.8   20s

Cutting planes:
  Gomory: 36
  Cover: 47
  MIR: 86
  StrongCG: 51
  Flow cover: 17
  Zero half: 4

Explored 10281 nodes (194029 simplex iterations) in 20.50 seconds (5.53 work units)
Thread count was 1 (of 12 available processors)

Solution count 10: 1668 1652 1648 ... -0

Optimal solution found (tolerance 1.00e-04)
Best objective 1.668000000000e+03, best bound 1.668000000000e+03, gap 0.0000%
Solution = 1668.000000
