N1C2W1_C
Set parameter Username
Academic license - for non-commercial use only - expires 2025-02-19
Set parameter Threads to value 1
Set parameter TimeLimit to value 600
Gurobi Optimizer version 11.0.0 build v11.0.0rc2 (linux64 - "Ubuntu 18.04.6 LTS")

CPU model: Intel(R) Xeon(R) CPU E5-2420 0 @ 1.90GHz, instruction set [SSE2|AVX]
Thread count: 6 physical cores, 12 logical processors, using up to 1 threads

Optimize a model with 49 rows, 456 columns and 874 nonzeros
Model fingerprint: 0x3941c138
Variable types: 0 continuous, 456 integer (456 binary)
Coefficient statistics:
  Matrix range     [1e+00, 1e+02]
  Objective range  [2e+00, 1e+02]
  Bounds range     [1e+00, 1e+00]
  RHS range        [1e+02, 1e+02]
Found heuristic solution: objective -0.0000000
Presolve removed 0 rows and 29 columns
Presolve time: 0.00s
Presolved: 49 rows, 427 columns, 845 nonzeros
Variable types: 0 continuous, 427 integer (427 binary)
Found heuristic solution: objective 1261.0000000

Root relaxation: objective 1.320000e+03, 55 iterations, 0.00 seconds (0.00 work units)

    Nodes    |    Current Node    |     Objective Bounds      |     Work
 Expl Unexpl |  Obj  Depth IntInf | Incumbent    BestBd   Gap | It/Node Time

     0     0 1320.00000    0   10 1261.00000 1320.00000  4.68%     -    0s
H    0     0                    1297.0000000 1320.00000  1.77%     -    0s
     0     0 1320.00000    0   26 1297.00000 1320.00000  1.77%     -    0s
     0     0 1320.00000    0   26 1297.00000 1320.00000  1.77%     -    0s
     0     0 1320.00000    0   11 1297.00000 1320.00000  1.77%     -    0s
     0     0 1320.00000    0   10 1297.00000 1320.00000  1.77%     -    0s
     0     0 1320.00000    0    9 1297.00000 1320.00000  1.77%     -    0s
H    0     0                    1312.0000000 1320.00000  0.61%     -    0s
     0     2 1320.00000    0    9 1312.00000 1320.00000  0.61%     -    0s
H   54    41                    1313.0000000 1320.00000  0.53%  11.4    0s
H  157    99                    1316.0000000 1320.00000  0.30%   9.3    0s
H  209   112                    1317.0000000 1320.00000  0.23%   8.7    0s
H  274   150                    1318.0000000 1320.00000  0.15%   9.2    0s
H 1121   340                    1319.0000000 1320.00000  0.08%  15.2    1s
H 1699   146                    1320.0000000 1320.00000  0.00%  11.2    3s

Cutting planes:
  Gomory: 2
  Cover: 21
  MIR: 2
  StrongCG: 1
  Flow cover: 1
  Zero half: 7
  RLT: 3

Explored 1700 nodes (30445 simplex iterations) in 3.24 seconds (1.11 work units)
Thread count was 1 (of 12 available processors)

Solution count 10: 1320 1319 1318 ... -0

Optimal solution found (tolerance 1.00e-04)
Best objective 1.320000000000e+03, best bound 1.320000000000e+03, gap 0.0000%
Solution = 1320.000000
