N1C2W2_F
Set parameter Username
Academic license - for non-commercial use only - expires 2025-02-19
Set parameter Threads to value 1
Set parameter TimeLimit to value 600
Gurobi Optimizer version 11.0.0 build v11.0.0rc2 (linux64 - "Ubuntu 18.04.6 LTS")

CPU model: Intel(R) Xeon(R) CPU E5-2420 0 @ 1.90GHz, instruction set [SSE2|AVX]
Thread count: 6 physical cores, 12 logical processors, using up to 1 threads

Optimize a model with 48 rows, 490 columns and 945 nonzeros
Model fingerprint: 0x04c7264f
Variable types: 0 continuous, 490 integer (490 binary)
Coefficient statistics:
  Matrix range     [1e+00, 1e+02]
  Objective range  [2e+01, 1e+02]
  Bounds range     [1e+00, 1e+00]
  RHS range        [1e+02, 1e+02]
Found heuristic solution: objective -0.0000000
Presolve removed 0 rows and 22 columns
Presolve time: 0.01s
Presolved: 48 rows, 468 columns, 923 nonzeros
Variable types: 0 continuous, 468 integer (468 binary)
Found heuristic solution: objective 1322.0000000

Root relaxation: objective 1.560000e+03, 70 iterations, 0.00 seconds (0.00 work units)

    Nodes    |    Current Node    |     Objective Bounds      |     Work
 Expl Unexpl |  Obj  Depth IntInf | Incumbent    BestBd   Gap | It/Node Time

     0     0 1560.00000    0   14 1322.00000 1560.00000  18.0%     -    0s
H    0     0                    1448.0000000 1560.00000  7.73%     -    0s
H    0     0                    1452.0000000 1560.00000  7.44%     -    0s
H    0     0                    1498.0000000 1560.00000  4.14%     -    0s
     0     0 1560.00000    0   34 1498.00000 1560.00000  4.14%     -    0s
H    0     0                    1526.0000000 1560.00000  2.23%     -    0s
     0     0 1560.00000    0   29 1526.00000 1560.00000  2.23%     -    0s
     0     0 1560.00000    0   10 1526.00000 1560.00000  2.23%     -    0s
     0     0 1560.00000    0   15 1526.00000 1560.00000  2.23%     -    0s
     0     0 1560.00000    0   27 1526.00000 1560.00000  2.23%     -    0s
     0     0 1560.00000    0   14 1526.00000 1560.00000  2.23%     -    0s
     0     2 1560.00000    0   14 1526.00000 1560.00000  2.23%     -    0s
H   52    17                    1533.0000000 1560.00000  1.76%  10.6    0s
H   78    42                    1542.0000000 1560.00000  1.17%  12.1    0s
H  163    50                    1547.0000000 1560.00000  0.84%  10.5    0s
H  986   347                    1549.0000000 1560.00000  0.71%  18.7    3s
H 1239   359                    1550.0000000 1560.00000  0.65%  17.9    4s
H 1266   317                    1552.0000000 1560.00000  0.52%  17.9    4s
H 1358   307                    1553.0000000 1560.00000  0.45%  17.2    4s
  1526   371 1560.00000   51   14 1553.00000 1560.00000  0.45%  16.5    5s
H 1741   427                    1554.0000000 1560.00000  0.39%  15.7    5s
  6089  2173 1559.81081   53   21 1554.00000 1560.00000  0.39%  12.9   10s
 11469  3780     cutoff   44      1554.00000 1560.00000  0.39%  12.1   15s
 16404  5190 1557.00000   48   15 1554.00000 1560.00000  0.39%  11.6   20s
H22595  4668                    1556.0000000 1560.00000  0.26%  10.8   24s
 23260  4856     cutoff   50      1556.00000 1560.00000  0.26%  10.8   25s
H25792  5562                    1557.0000000 1560.00000  0.19%  10.8   28s
 26210  5607 1559.18182   57   17 1557.00000 1560.00000  0.19%  10.8   30s
H27990  5404                    1558.0000000 1560.00000  0.13%  10.8   34s
 28632  5395     cutoff   52      1558.00000 1560.00000  0.13%  10.8   35s
H28990  4856                    1559.0000000 1560.00000  0.06%  10.9   35s
 29683  4735 1560.00000   59    6 1559.00000 1560.00000  0.06%  10.8   40s
 30978  4422 1560.00000   60   16 1559.00000 1560.00000  0.06%  11.6   45s
 32404  3967 1560.00000   59   13 1559.00000 1560.00000  0.06%  12.3   50s
 33549  3640 1560.00000   59   17 1559.00000 1560.00000  0.06%  12.9   55s
 35229  3078 infeasible   60      1559.00000 1560.00000  0.06%  13.6   60s
 36534  2584 1560.00000   66   15 1559.00000 1560.00000  0.06%  14.1   65s
 38122  1981 infeasible   65      1559.00000 1560.00000  0.06%  14.6   70s

Cutting planes:
  Gomory: 1
  Cover: 22
  Clique: 2
  MIR: 5
  StrongCG: 2
  Flow cover: 7
  Zero half: 4
  RLT: 2

Explored 39194 nodes (597583 simplex iterations) in 73.67 seconds (18.82 work units)
Thread count was 1 (of 12 available processors)

Solution count 10: 1559 1558 1557 ... 1547

Optimal solution found (tolerance 1.00e-04)
Best objective 1.559000000000e+03, best bound 1.559000000000e+03, gap 0.0000%
Solution = 1559.000000
