N1C3W2_P
Set parameter Username
Academic license - for non-commercial use only - expires 2025-02-19
Set parameter Threads to value 1
Set parameter TimeLimit to value 600
Gurobi Optimizer version 11.0.0 build v11.0.0rc2 (linux64 - "Ubuntu 18.04.6 LTS")

CPU model: Intel(R) Xeon(R) CPU E5-2420 0 @ 1.90GHz, instruction set [SSE2|AVX]
Thread count: 6 physical cores, 12 logical processors, using up to 1 threads

Optimize a model with 45 rows, 360 columns and 684 nonzeros
Model fingerprint: 0x4d06d82d
Variable types: 0 continuous, 360 integer (360 binary)
Coefficient statistics:
  Matrix range     [1e+00, 1e+02]
  Objective range  [2e+01, 1e+02]
  Bounds range     [1e+00, 1e+00]
  RHS range        [2e+02, 2e+02]
Found heuristic solution: objective -0.0000000
Presolve removed 0 rows and 26 columns
Presolve time: 0.00s
Presolved: 45 rows, 334 columns, 658 nonzeros
Variable types: 0 continuous, 334 integer (334 binary)
Found heuristic solution: objective 1304.0000000

Root relaxation: objective 1.350000e+03, 46 iterations, 0.00 seconds (0.00 work units)

    Nodes    |    Current Node    |     Objective Bounds      |     Work
 Expl Unexpl |  Obj  Depth IntInf | Incumbent    BestBd   Gap | It/Node Time

     0     0 1350.00000    0    9 1304.00000 1350.00000  3.53%     -    0s
H    0     0                    1328.0000000 1350.00000  1.66%     -    0s
     0     0 1350.00000    0   23 1328.00000 1350.00000  1.66%     -    0s
H    0     0                    1329.0000000 1350.00000  1.58%     -    0s
     0     0 1350.00000    0   25 1329.00000 1350.00000  1.58%     -    0s
     0     0 1350.00000    0   10 1329.00000 1350.00000  1.58%     -    0s
H    0     0                    1336.0000000 1350.00000  1.05%     -    0s
     0     0 1350.00000    0   17 1336.00000 1350.00000  1.05%     -    0s
     0     0 1350.00000    0   12 1336.00000 1350.00000  1.05%     -    0s
     0     0 1350.00000    0   12 1336.00000 1350.00000  1.05%     -    0s
     0     2 1350.00000    0   12 1336.00000 1350.00000  1.05%     -    0s
H    8     8                    1342.0000000 1350.00000  0.60%   5.1    0s
H   79    10                    1349.0000000 1350.00000  0.07%   4.6    0s
H   80     8                    1350.0000000 1350.00000  0.00%   4.7    0s

Explored 81 nodes (1091 simplex iterations) in 0.21 seconds (0.05 work units)
Thread count was 1 (of 12 available processors)

Solution count 8: 1350 1349 1342 ... -0

Optimal solution found (tolerance 1.00e-04)
Best objective 1.350000000000e+03, best bound 1.350000000000e+03, gap 0.0000%
Solution = 1350.000000
