N2C1W1_R
Set parameter Username
Academic license - for non-commercial use only - expires 2025-02-19
Set parameter Threads to value 1
Set parameter TimeLimit to value 600
Gurobi Optimizer version 11.0.0 build v11.0.0rc2 (linux64 - "Ubuntu 18.04.6 LTS")

CPU model: Intel(R) Xeon(R) CPU E5-2420 0 @ 1.90GHz, instruction set [SSE2|AVX]
Thread count: 6 physical cores, 12 logical processors, using up to 1 threads

Optimize a model with 97 rows, 2001 columns and 3933 nonzeros
Model fingerprint: 0xbe3bedf2
Variable types: 0 continuous, 2001 integer (2001 binary)
Coefficient statistics:
  Matrix range     [1e+00, 1e+02]
  Objective range  [3e+00, 1e+02]
  Bounds range     [1e+00, 1e+00]
  RHS range        [1e+02, 1e+02]
Found heuristic solution: objective -0.0000000
Presolve removed 0 rows and 43 columns
Presolve time: 0.03s
Presolved: 97 rows, 1958 columns, 3890 nonzeros
Variable types: 0 continuous, 1958 integer (1958 binary)
Found heuristic solution: objective 2299.0000000

Root relaxation: objective 2.800000e+03, 109 iterations, 0.01 seconds (0.00 work units)

    Nodes    |    Current Node    |     Objective Bounds      |     Work
 Expl Unexpl |  Obj  Depth IntInf | Incumbent    BestBd   Gap | It/Node Time

     0     0 2800.00000    0   21 2299.00000 2800.00000  21.8%     -    0s
H    0     0                    2722.0000000 2800.00000  2.87%     -    0s
H    0     0                    2745.0000000 2800.00000  2.00%     -    0s
     0     0 2800.00000    0   47 2745.00000 2800.00000  2.00%     -    0s
     0     0 2800.00000    0   25 2745.00000 2800.00000  2.00%     -    0s
     0     0 2800.00000    0   19 2745.00000 2800.00000  2.00%     -    0s
     0     2 2800.00000    0   19 2745.00000 2800.00000  2.00%     -    0s
H   28    24                    2768.0000000 2800.00000  1.16%  31.7    1s
H  139    45                    2775.0000000 2800.00000  0.90%  13.6    1s
H  436   276                    2778.0000000 2800.00000  0.79%  19.5    2s
H  469   293                    2781.0000000 2800.00000  0.68%  19.1    2s
H  619   359                    2783.0000000 2800.00000  0.61%  19.0    4s
   622   361 2800.00000   17   27 2783.00000 2800.00000  0.61%  18.9    5s
H  652   362                    2787.0000000 2800.00000  0.47%  31.8    6s
H  678   362                    2789.0000000 2800.00000  0.39%  32.0    6s
H  860   347                    2794.0000000 2800.00000  0.21%  28.5    8s
   882   347 2800.00000   18   23 2794.00000 2800.00000  0.21%  28.3   10s
H 1347   393                    2797.0000000 2800.00000  0.11%  24.9   13s
  2022   786 2799.00000  117   26 2797.00000 2800.00000  0.11%  23.0   15s
H 2704  1084                    2798.0000000 2800.00000  0.07%  21.7   16s
  3505  1478 2799.00000  120   24 2798.00000 2800.00000  0.07%  20.1   20s
  5686  2122     cutoff  133      2798.00000 2800.00000  0.07%  20.4   25s
  7266  2670     cutoff  107      2798.00000 2800.00000  0.07%  20.2   30s
  8820  3383 2800.00000   51   43 2798.00000 2800.00000  0.07%  19.9   35s
 10208  4131 2800.00000  130   21 2798.00000 2800.00000  0.07%  19.9   40s
 10367  4190 2799.00000   95   28 2798.00000 2800.00000  0.07%  20.8   45s
H10510  3957                    2799.0000000 2800.00000  0.04%  20.9   46s
 10611  4003 2800.00000   32   26 2799.00000 2800.00000  0.04%  20.9   50s
H10689  3721                    2800.0000000 2800.00000  0.00%  21.0   51s

Cutting planes:
  Gomory: 8
  Cover: 40
  Clique: 9
  StrongCG: 5
  Flow cover: 2
  Zero half: 12
  RLT: 5

Explored 10690 nodes (238616 simplex iterations) in 51.67 seconds (16.37 work units)
Thread count was 1 (of 12 available processors)

Solution count 10: 2800 2799 2798 ... 2778

Optimal solution found (tolerance 1.00e-04)
Best objective 2.800000000000e+03, best bound 2.800000000000e+03, gap 0.0000%
Solution = 2800.000000
