N2C2W1_G
Set parameter Username
Academic license - for non-commercial use only - expires 2025-02-19
Set parameter Threads to value 1
Set parameter TimeLimit to value 600
Gurobi Optimizer version 11.0.0 build v11.0.0rc2 (linux64 - "Ubuntu 18.04.6 LTS")

CPU model: Intel(R) Xeon(R) CPU E5-2420 0 @ 1.90GHz, instruction set [SSE2|AVX]
Thread count: 6 physical cores, 12 logical processors, using up to 1 threads

Optimize a model with 82 rows, 1380 columns and 2700 nonzeros
Model fingerprint: 0x7dc424ab
Variable types: 0 continuous, 1380 integer (1380 binary)
Coefficient statistics:
  Matrix range     [1e+00, 1e+02]
  Objective range  [1e+00, 1e+02]
  Bounds range     [1e+00, 1e+00]
  RHS range        [1e+02, 1e+02]
Found heuristic solution: objective -0.0000000
Presolve removed 0 rows and 34 columns
Presolve time: 0.02s
Presolved: 82 rows, 1346 columns, 2666 nonzeros
Variable types: 0 continuous, 1346 integer (1346 binary)
Found heuristic solution: objective 1716.0000000

Root relaxation: objective 2.640000e+03, 117 iterations, 0.00 seconds (0.00 work units)

    Nodes    |    Current Node    |     Objective Bounds      |     Work
 Expl Unexpl |  Obj  Depth IntInf | Incumbent    BestBd   Gap | It/Node Time

     0     0 2640.00000    0   23 1716.00000 2640.00000  53.8%     -    0s
H    0     0                    2509.0000000 2640.00000  5.22%     -    0s
H    0     0                    2549.0000000 2640.00000  3.57%     -    0s
     0     0 2640.00000    0   49 2549.00000 2640.00000  3.57%     -    0s
H    0     0                    2578.0000000 2640.00000  2.40%     -    0s
     0     0 2640.00000    0   51 2578.00000 2640.00000  2.40%     -    0s
     0     0 2640.00000    0   17 2578.00000 2640.00000  2.40%     -    0s
     0     0 2640.00000    0   27 2578.00000 2640.00000  2.40%     -    0s
     0     0 2640.00000    0   21 2578.00000 2640.00000  2.40%     -    0s
     0     0 2640.00000    0   21 2578.00000 2640.00000  2.40%     -    0s
H    0     0                    2613.0000000 2640.00000  1.03%     -    0s
     0     2 2640.00000    0   21 2613.00000 2640.00000  1.03%     -    0s
H   26    24                    2618.0000000 2640.00000  0.84%  19.4    0s
H  108    74                    2626.0000000 2640.00000  0.53%  13.8    1s
H  683   454                    2627.0000000 2640.00000  0.49%  26.3    4s
   713   476 2640.00000   54   24 2627.00000 2640.00000  0.49%  26.2    5s
H  786   488                    2629.0000000 2640.00000  0.42%  26.1    5s
  1447   796 2640.00000   39   24 2629.00000 2640.00000  0.42%  22.0   10s
  3900  1929 2633.00000  116   14 2629.00000 2640.00000  0.42%  15.3   15s
H 4798  2066                    2631.0000000 2640.00000  0.34%  13.8   16s
  7428  2807 2639.00000  113   12 2631.00000 2640.00000  0.34%  11.9   20s
H 8621  2655                    2633.0000000 2640.00000  0.27%  12.5   22s
H 9431  2609                    2634.0000000 2640.00000  0.23%  12.9   24s
  9477  2627 2640.00000   76   22 2634.00000 2640.00000  0.23%  12.9   25s
H10260  2845                    2635.0000000 2640.00000  0.19%  13.2   27s
 11142  3035 2636.00000   80   30 2635.00000 2640.00000  0.19%  13.6   30s
H11262  2683                    2636.0000000 2640.00000  0.15%  13.6   30s
H12562  2920                    2638.0000000 2640.00000  0.08%  13.4   33s
 13390  2993 2640.00000   97   19 2638.00000 2640.00000  0.08%  14.1   35s
 14564  3410 2640.00000  143   26 2638.00000 2640.00000  0.08%  14.5   40s
 17453  4423 2639.00000   94   28 2638.00000 2640.00000  0.08%  14.8   45s
 20002  5748 2640.00000   89   32 2638.00000 2640.00000  0.08%  14.6   50s
H22087  5306                    2639.0000000 2640.00000  0.04%  14.8   54s
 22104  5319 2640.00000   94   18 2639.00000 2640.00000  0.04%  14.8   55s
 22639  5486 2640.00000   41   29 2639.00000 2640.00000  0.04%  14.7   60s
 23463  5580 infeasible   84      2639.00000 2640.00000  0.04%  15.2   65s
 24106  5479 2640.00000   73   20 2639.00000 2640.00000  0.04%  15.6   70s
 25035  5598 2640.00000   64   18 2639.00000 2640.00000  0.04%  16.0   75s
 25703  5572 2640.00000   58   23 2639.00000 2640.00000  0.04%  16.3   80s
 26647  5329 2640.00000   68   24 2639.00000 2640.00000  0.04%  16.7   85s
 27529  5200 2640.00000   78   18 2639.00000 2640.00000  0.04%  17.0   90s
H27950  3108                    2640.0000000 2640.00000  0.00%  17.2   92s

Cutting planes:
  Gomory: 6
  Cover: 28
  Clique: 7
  MIR: 2
  StrongCG: 1
  Flow cover: 4
  Zero half: 5
  RLT: 7

Explored 27951 nodes (493282 simplex iterations) in 92.37 seconds (33.43 work units)
Thread count was 1 (of 12 available processors)

Solution count 10: 2640 2639 2638 ... 2627

Optimal solution found (tolerance 1.00e-04)
Best objective 2.640000000000e+03, best bound 2.640000000000e+03, gap 0.0000%
Solution = 2640.000000
