N2C3W2_O
Set parameter Username
Academic license - for non-commercial use only - expires 2025-02-19
Set parameter Threads to value 1
Set parameter TimeLimit to value 600
Gurobi Optimizer version 11.0.0 build v11.0.0rc2 (linux64 - "Ubuntu 18.04.6 LTS")

CPU model: Intel(R) Xeon(R) CPU E5-2420 0 @ 1.90GHz, instruction set [SSE2|AVX]
Thread count: 6 physical cores, 12 logical processors, using up to 1 threads

Optimize a model with 78 rows, 1288 columns and 2520 nonzeros
Model fingerprint: 0x697221b3
Variable types: 0 continuous, 1288 integer (1288 binary)
Coefficient statistics:
  Matrix range     [1e+00, 1e+02]
  Objective range  [2e+01, 1e+02]
  Bounds range     [1e+00, 1e+00]
  RHS range        [2e+02, 2e+02]
Found heuristic solution: objective -0.0000000
Presolve removed 0 rows and 27 columns
Presolve time: 0.02s
Presolved: 78 rows, 1261 columns, 2493 nonzeros
Variable types: 0 continuous, 1261 integer (1261 binary)
Found heuristic solution: objective 1624.0000000

Root relaxation: objective 3.300000e+03, 100 iterations, 0.00 seconds (0.00 work units)

    Nodes    |    Current Node    |     Objective Bounds      |     Work
 Expl Unexpl |  Obj  Depth IntInf | Incumbent    BestBd   Gap | It/Node Time

     0     0 3300.00000    0   27 1624.00000 3300.00000   103%     -    0s
H    0     0                    3200.0000000 3300.00000  3.12%     -    0s
H    0     0                    3227.0000000 3300.00000  2.26%     -    0s
     0     0 3300.00000    0   47 3227.00000 3300.00000  2.26%     -    0s
H    0     0                    3228.0000000 3300.00000  2.23%     -    0s
     0     0 3300.00000    0   46 3228.00000 3300.00000  2.23%     -    0s
     0     0 3300.00000    0   21 3228.00000 3300.00000  2.23%     -    0s
     0     0 3300.00000    0   24 3228.00000 3300.00000  2.23%     -    0s
     0     0 3300.00000    0   14 3228.00000 3300.00000  2.23%     -    0s
     0     0 3300.00000    0   17 3228.00000 3300.00000  2.23%     -    0s
     0     0 3300.00000    0   14 3228.00000 3300.00000  2.23%     -    0s
     0     0 3300.00000    0   12 3228.00000 3300.00000  2.23%     -    0s
H    0     0                    3242.0000000 3300.00000  1.79%     -    0s
H    0     0                    3263.0000000 3300.00000  1.13%     -    0s
     0     2 3300.00000    0   12 3263.00000 3300.00000  1.13%     -    0s
H   26    24                    3264.0000000 3300.00000  1.10%  10.4    0s
H   27    25                    3271.0000000 3300.00000  0.89%  10.1    0s
H  110    42                    3277.0000000 3300.00000  0.70%   7.3    1s
H  322   121                    3282.0000000 3300.00000  0.55%  11.5    1s
H  446   131                    3289.0000000 3300.00000  0.33%  13.1    2s
H  616   246                    3291.0000000 3300.00000  0.27%  12.1    2s
   807   332 3300.00000  103   26 3291.00000 3300.00000  0.27%  18.1    5s
  2566  1112 3300.00000   39   28 3291.00000 3300.00000  0.27%  12.3   10s
  6252  3230 3297.00000   89   25 3291.00000 3300.00000  0.27%   9.6   15s
 10133  5814 3294.00000   70   35 3291.00000 3300.00000  0.27%   9.1   20s
H10584  5049                    3292.0000000 3300.00000  0.24%   9.2   21s
H11584  5122                    3293.0000000 3300.00000  0.21%   9.1   22s
 13408  6162 3300.00000   70   28 3293.00000 3300.00000  0.21%   8.9   25s
H15149  5656                    3294.0000000 3300.00000  0.18%   8.9   28s
H15625  5002                    3295.0000000 3300.00000  0.15%   8.8   28s
 16891  5635 infeasible  113      3295.00000 3300.00000  0.15%   8.8   30s
 19600  6949 3296.00000   36   23 3295.00000 3300.00000  0.15%   8.6   35s
 24785  7659     cutoff  130      3295.00000 3300.00000  0.15%   8.4   40s
 28020  8288 3300.00000   76   29 3295.00000 3300.00000  0.15%   8.6   45s
 32107  9718 3300.00000   71   29 3295.00000 3300.00000  0.15%   8.8   50s
 35067 10969 3296.00000  106   29 3295.00000 3300.00000  0.15%   9.0   55s
 37992 12805 3299.00000   44   31 3295.00000 3300.00000  0.15%   9.0   61s
 41052 14832 3297.00000  126   30 3295.00000 3300.00000  0.15%   9.0   65s
 45964 17109 3296.00000   71   27 3295.00000 3300.00000  0.15%   8.9   70s
 48741 18181 3297.00000   48   25 3295.00000 3300.00000  0.15%   8.8   75s
 52516 19553 3297.00000   82   26 3295.00000 3300.00000  0.15%   8.7   80s
 56127 21247 3300.00000   50   28 3295.00000 3300.00000  0.15%   8.6   85s
 61716 23847 3299.00000   62   24 3295.00000 3300.00000  0.15%   8.4   90s
 65194 25782 3300.00000   26   24 3295.00000 3300.00000  0.15%   8.4   95s
 70450 28506 3296.00000  224   23 3295.00000 3300.00000  0.15%   8.2  100s
 75885 30602 3298.00000  214   24 3295.00000 3300.00000  0.15%   7.9  105s
H80057 25406                    3296.0000000 3300.00000  0.12%   7.8  108s
 80955 25563 3299.00000  104   25 3296.00000 3300.00000  0.12%   7.7  110s
H83358 22538                    3297.0000000 3300.00000  0.09%   7.7  113s
 84467 23066 3298.00000  165   22 3297.00000 3300.00000  0.09%   7.7  115s
 87555 24665 3300.00000   64   37 3297.00000 3300.00000  0.09%   7.7  120s
 90982 26589 3300.00000   62   25 3297.00000 3300.00000  0.09%   7.8  125s
 95612 29151 3300.00000   83   31 3297.00000 3300.00000  0.09%   7.7  130s
 99958 30215 3299.37931  150   33 3297.00000 3300.00000  0.09%   7.7  135s
 104469 31351     cutoff  135      3297.00000 3300.00000  0.09%   7.6  140s
 109968 32322     cutoff  144      3297.00000 3300.00000  0.09%   7.5  145s
H110383 23038                    3298.0000000 3300.00000  0.06%   7.5  145s
 112845 24037     cutoff  109      3298.00000 3300.00000  0.06%   7.5  150s
 115369 24864 3299.00000   94   35 3298.00000 3300.00000  0.06%   7.6  155s
 119972 26152 3300.00000  107   31 3298.00000 3300.00000  0.06%   7.6  160s
 122899 27030 3300.00000   76   24 3298.00000 3300.00000  0.06%   7.6  165s
H124751 17425                    3299.0000000 3300.00000  0.03%   7.6  167s
 124772 17441 3300.00000   39   17 3299.00000 3300.00000  0.03%   7.6  170s
 125087 17465 infeasible   56      3299.00000 3300.00000  0.03%   7.7  175s
 125694 17382 3300.00000   81    3 3299.00000 3300.00000  0.03%   7.8  180s
*125957 16174              81    3300.0000000 3300.00000  0.00%   7.9  181s

Cutting planes:
  Gomory: 1
  Cover: 29
  MIR: 1
  RLT: 5

Explored 125958 nodes (1001224 simplex iterations) in 181.90 seconds (64.14 work units)
Thread count was 1 (of 12 available processors)

Solution count 10: 3300 3299 3298 ... 3291

Optimal solution found (tolerance 1.00e-04)
Best objective 3.300000000000e+03, best bound 3.300000000000e+03, gap 0.0000%
Solution = 3300.000000
