N2C3W1_P
Set parameter Username
Academic license - for non-commercial use only - expires 2025-02-19
Set parameter Threads to value 1
Set parameter TimeLimit to value 600
Gurobi Optimizer version 11.0.0 build v11.0.0rc2 (linux64 - "Ubuntu 18.04.6 LTS")

CPU model: Intel(R) Xeon(R) CPU E5-2420 0 @ 1.90GHz, instruction set [SSE2|AVX]
Thread count: 6 physical cores, 12 logical processors, using up to 1 threads

Optimize a model with 84 rows, 1254 columns and 2442 nonzeros
Model fingerprint: 0x16b623b1
Variable types: 0 continuous, 1254 integer (1254 binary)
Coefficient statistics:
  Matrix range     [1e+00, 1e+02]
  Objective range  [3e+00, 1e+02]
  Bounds range     [1e+00, 1e+00]
  RHS range        [2e+02, 2e+02]
Found heuristic solution: objective -0.0000000
Presolve removed 0 rows and 40 columns
Presolve time: 0.01s
Presolved: 84 rows, 1214 columns, 2402 nonzeros
Variable types: 0 continuous, 1214 integer (1214 binary)
Found heuristic solution: objective 2058.0000000

Root relaxation: objective 2.700000e+03, 106 iterations, 0.00 seconds (0.00 work units)

    Nodes    |    Current Node    |     Objective Bounds      |     Work
 Expl Unexpl |  Obj  Depth IntInf | Incumbent    BestBd   Gap | It/Node Time

     0     0 2700.00000    0   17 2058.00000 2700.00000  31.2%     -    0s
H    0     0                    2669.0000000 2700.00000  1.16%     -    0s
H    0     0                    2686.0000000 2700.00000  0.52%     -    0s
     0     0 2700.00000    0   43 2686.00000 2700.00000  0.52%     -    0s
     0     0 2700.00000    0   39 2686.00000 2700.00000  0.52%     -    0s
     0     0 2700.00000    0   11 2686.00000 2700.00000  0.52%     -    0s
     0     0 2700.00000    0   16 2686.00000 2700.00000  0.52%     -    0s
     0     0 2700.00000    0   11 2686.00000 2700.00000  0.52%     -    0s
     0     0 2700.00000    0   10 2686.00000 2700.00000  0.52%     -    0s
     0     2 2700.00000    0   10 2686.00000 2700.00000  0.52%     -    0s
H   26    26                    2688.0000000 2700.00000  0.45%  27.7    0s
H  111   101                    2693.0000000 2700.00000  0.26%  14.6    0s
H 1556   592                    2695.0000000 2700.00000  0.19%  12.2    2s
H 1634   336                    2699.0000000 2700.00000  0.04%  12.0    2s
H 1635   314                    2700.0000000 2700.00000  0.00%  11.9    2s

Explored 1636 nodes (21067 simplex iterations) in 2.99 seconds (1.23 work units)
Thread count was 1 (of 12 available processors)

Solution count 9: 2700 2699 2695 ... -0

Optimal solution found (tolerance 1.00e-04)
Best objective 2.700000000000e+03, best bound 2.700000000000e+03, gap 0.0000%
Solution = 2700.000000
