N2W2B3R7
Set parameter Username
Academic license - for non-commercial use only - expires 2025-02-19
Set parameter Threads to value 1
Set parameter TimeLimit to value 600
Gurobi Optimizer version 11.0.0 build v11.0.0rc2 (linux64 - "Ubuntu 18.04.6 LTS")

CPU model: Intel(R) Xeon(R) CPU E5-2420 0 @ 1.90GHz, instruction set [SSE2|AVX]
Thread count: 6 physical cores, 12 logical processors, using up to 1 threads

Optimize a model with 96 rows, 1020 columns and 1955 nonzeros
Model fingerprint: 0xe54adfe9
Variable types: 0 continuous, 1020 integer (1020 binary)
Coefficient statistics:
  Matrix range     [1e+00, 4e+02]
  Objective range  [2e+01, 4e+02]
  Bounds range     [1e+00, 1e+00]
  RHS range        [1e+03, 1e+03]
Found heuristic solution: objective -0.0000000
Presolve removed 0 rows and 73 columns
Presolve time: 0.01s
Presolved: 96 rows, 947 columns, 1882 nonzeros
Variable types: 0 continuous, 947 integer (947 binary)
Found heuristic solution: objective 10937.000000

Root relaxation: objective 1.100000e+04, 92 iterations, 0.00 seconds (0.00 work units)

    Nodes    |    Current Node    |     Objective Bounds      |     Work
 Expl Unexpl |  Obj  Depth IntInf | Incumbent    BestBd   Gap | It/Node Time

     0     0 11000.0000    0   11 10937.0000 11000.0000  0.58%     -    0s
H    0     0                    10950.000000 11000.0000  0.46%     -    0s
     0     0 11000.0000    0   17 10950.0000 11000.0000  0.46%     -    0s
H    0     0                    10955.000000 11000.0000  0.41%     -    0s
     0     0 11000.0000    0   27 10955.0000 11000.0000  0.41%     -    0s
     0     0 11000.0000    0   16 10955.0000 11000.0000  0.41%     -    0s
     0     0 11000.0000    0   17 10955.0000 11000.0000  0.41%     -    0s
     0     0 11000.0000    0   13 10955.0000 11000.0000  0.41%     -    0s
     0     0 11000.0000    0    9 10955.0000 11000.0000  0.41%     -    0s
     0     2 11000.0000    0    9 10955.0000 11000.0000  0.41%     -    0s
H   26    26                    10966.000000 11000.0000  0.31%   4.5    0s
H  207   171                    10992.000000 11000.0000  0.07%   6.0    0s
H  552   456                    10993.000000 11000.0000  0.06%   7.2    1s
H 1265   708                    10996.000000 11000.0000  0.04%   8.9    2s
H 1379   722                    10997.000000 11000.0000  0.03%   8.8    2s
H 1797   766                    10999.000000 11000.0000  0.01%   7.9    2s

Cutting planes:
  Gomory: 1
  Cover: 8
  MIR: 6
  StrongCG: 3
  Flow cover: 1
  RLT: 5

Explored 1798 nodes (15092 simplex iterations) in 2.95 seconds (0.95 work units)
Thread count was 1 (of 12 available processors)

Solution count 10: 10999 10997 10996 ... -0

Optimal solution found (tolerance 1.00e-04)
Best objective 1.099900000000e+04, best bound 1.100000000000e+04, gap 0.0091%
Solution = 10999.000000
