N2W3B1R0
Set parameter Username
Academic license - for non-commercial use only - expires 2025-02-19
Set parameter Threads to value 1
Set parameter TimeLimit to value 600
Gurobi Optimizer version 11.0.0 build v11.0.0rc2 (linux64 - "Ubuntu 18.04.6 LTS")

CPU model: Intel(R) Xeon(R) CPU E5-2420 0 @ 1.90GHz, instruction set [SSE2|AVX]
Thread count: 6 physical cores, 12 logical processors, using up to 1 threads

Optimize a model with 54 rows, 414 columns and 782 nonzeros
Model fingerprint: 0x9243db73
Variable types: 0 continuous, 414 integer (414 binary)
Coefficient statistics:
  Matrix range     [1e+00, 2e+02]
  Objective range  [1e+02, 2e+02]
  Bounds range     [1e+00, 1e+00]
  RHS range        [1e+03, 1e+03]
Found heuristic solution: objective -0.0000000
Presolve removed 0 rows and 16 columns
Presolve time: 0.00s
Presolved: 54 rows, 398 columns, 766 nonzeros
Variable types: 0 continuous, 398 integer (398 binary)
Found heuristic solution: objective 2309.0000000

Root relaxation: objective 8.000000e+03, 94 iterations, 0.00 seconds (0.00 work units)

    Nodes    |    Current Node    |     Objective Bounds      |     Work
 Expl Unexpl |  Obj  Depth IntInf | Incumbent    BestBd   Gap | It/Node Time

     0     0 8000.00000    0   10 2309.00000 8000.00000   246%     -    0s
H    0     0                    7683.0000000 8000.00000  4.13%     -    0s
H    0     0                    7711.0000000 8000.00000  3.75%     -    0s
     0     0 8000.00000    0   17 7711.00000 8000.00000  3.75%     -    0s
     0     0 8000.00000    0   26 7711.00000 8000.00000  3.75%     -    0s
     0     0 8000.00000    0   10 7711.00000 8000.00000  3.75%     -    0s
     0     0 8000.00000    0   15 7711.00000 8000.00000  3.75%     -    0s
     0     0 8000.00000    0   11 7711.00000 8000.00000  3.75%     -    0s
     0     0 8000.00000    0   11 7711.00000 8000.00000  3.75%     -    0s
H    0     0                    7907.0000000 8000.00000  1.18%     -    0s
H    0     0                    7945.0000000 8000.00000  0.69%     -    0s
     0     2 8000.00000    0   11 7945.00000 8000.00000  0.69%     -    0s
H   28    22                    7956.0000000 8000.00000  0.55%   6.0    0s
H   82    56                    7958.0000000 8000.00000  0.53%   5.0    0s
H  109    83                    7965.0000000 8000.00000  0.44%   4.8    0s
H  156   126                    7973.0000000 8000.00000  0.34%   4.7    0s
H  678   414                    7979.0000000 8000.00000  0.26%   6.7    1s
H 1680   544                    7996.0000000 8000.00000  0.05%   6.4    2s
  7441  3254 7998.00000  154   12 7996.00000 8000.00000  0.05%   4.2    5s
H 9301  2105                    7999.0000000 8000.00000  0.01%   4.1    6s
H 9302  2000                    8000.0000000 8000.00000  0.00%   4.1    6s

Explored 9303 nodes (39141 simplex iterations) in 6.34 seconds (1.32 work units)
Thread count was 1 (of 12 available processors)

Solution count 10: 8000 7999 7996 ... 7907

Optimal solution found (tolerance 1.00e-04)
Best objective 8.000000000000e+03, best bound 8.000000000000e+03, gap 0.0000%
Solution = 8000.000000
