N2W4B2R9
Set parameter Username
Academic license - for non-commercial use only - expires 2025-02-19
Set parameter Threads to value 1
Set parameter TimeLimit to value 600
Gurobi Optimizer version 11.0.0 build v11.0.0rc2 (linux64 - "Ubuntu 18.04.6 LTS")

CPU model: Intel(R) Xeon(R) CPU E5-2420 0 @ 1.90GHz, instruction set [SSE2|AVX]
Thread count: 6 physical cores, 12 logical processors, using up to 1 threads

Optimize a model with 67 rows, 427 columns and 793 nonzeros
Model fingerprint: 0xad872902
Variable types: 0 continuous, 427 integer (427 binary)
Coefficient statistics:
  Matrix range     [1e+00, 2e+02]
  Objective range  [6e+01, 2e+02]
  Bounds range     [1e+00, 1e+00]
  RHS range        [1e+03, 1e+03]
Found heuristic solution: objective -0.0000000
Presolve removed 0 rows and 32 columns
Presolve time: 0.00s
Presolved: 67 rows, 395 columns, 761 nonzeros
Variable types: 0 continuous, 395 integer (395 binary)
Found heuristic solution: objective 3548.0000000

Root relaxation: objective 6.000000e+03, 70 iterations, 0.00 seconds (0.00 work units)

    Nodes    |    Current Node    |     Objective Bounds      |     Work
 Expl Unexpl |  Obj  Depth IntInf | Incumbent    BestBd   Gap | It/Node Time

     0     0 6000.00000    0    5 3548.00000 6000.00000  69.1%     -    0s
H    0     0                    5975.0000000 6000.00000  0.42%     -    0s
H    0     0                    5977.0000000 6000.00000  0.38%     -    0s
     0     0 6000.00000    0   21 5977.00000 6000.00000  0.38%     -    0s
     0     0 6000.00000    0   21 5977.00000 6000.00000  0.38%     -    0s
     0     0 6000.00000    0    7 5977.00000 6000.00000  0.38%     -    0s
H    0     0                    5984.0000000 6000.00000  0.27%     -    0s
     0     0 6000.00000    0   12 5984.00000 6000.00000  0.27%     -    0s
     0     0 6000.00000    0    6 5984.00000 6000.00000  0.27%     -    0s
     0     0 6000.00000    0    6 5984.00000 6000.00000  0.27%     -    0s
H    0     0                    5995.0000000 6000.00000  0.08%     -    0s
     0     2 6000.00000    0    6 5995.00000 6000.00000  0.08%     -    0s
H  108    34                    5998.0000000 6000.00000  0.03%   4.5    0s
H  716   320                    5999.0000000 6000.00000  0.02%   5.1    0s
H  720   306                    6000.0000000 6000.00000  0.00%   5.1    0s

Cutting planes:
  Cover: 16
  Clique: 2
  Zero half: 2
  RLT: 1

Explored 720 nodes (5022 simplex iterations) in 0.76 seconds (0.20 work units)
Thread count was 1 (of 12 available processors)

Solution count 9: 6000 5999 5998 ... -0

Optimal solution found (tolerance 1.00e-04)
Best objective 6.000000000000e+03, best bound 6.000000000000e+03, gap 0.0000%
Solution = 6000.000000
