N3C1W2_F
Set parameter Username
Academic license - for non-commercial use only - expires 2025-02-19
Set parameter Threads to value 1
Set parameter TimeLimit to value 600
Gurobi Optimizer version 11.0.0 build v11.0.0rc2 (linux64 - "Ubuntu 18.04.6 LTS")

CPU model: Intel(R) Xeon(R) CPU E5-2420 0 @ 1.90GHz, instruction set [SSE2|AVX]
Thread count: 6 physical cores, 12 logical processors, using up to 1 threads

Optimize a model with 132 rows, 4380 columns and 8687 nonzeros
Model fingerprint: 0xec7dda83
Variable types: 0 continuous, 4380 integer (4380 binary)
Coefficient statistics:
  Matrix range     [1e+00, 1e+02]
  Objective range  [2e+01, 1e+02]
  Bounds range     [1e+00, 1e+00]
  RHS range        [1e+02, 1e+02]
Found heuristic solution: objective -0.0000000
Presolve removed 0 rows and 15 columns
Presolve time: 0.05s
Presolved: 132 rows, 4365 columns, 8672 nonzeros
Variable types: 0 continuous, 4365 integer (4365 binary)
Found heuristic solution: objective 1035.0000000

Root relaxation: objective 5.900000e+03, 281 iterations, 0.02 seconds (0.01 work units)

    Nodes    |    Current Node    |     Objective Bounds      |     Work
 Expl Unexpl |  Obj  Depth IntInf | Incumbent    BestBd   Gap | It/Node Time

     0     0 5900.00000    0   62 1035.00000 5900.00000   470%     -    0s
H    0     0                    4273.0000000 5900.00000  38.1%     -    0s
H    0     0                    4846.0000000 5900.00000  21.7%     -    0s
     0     0 5900.00000    0  113 4846.00000 5900.00000  21.7%     -    0s
H    0     0                    5503.0000000 5900.00000  7.21%     -    0s
H    0     0                    5658.0000000 5900.00000  4.28%     -    1s
     0     0 5900.00000    0   94 5658.00000 5900.00000  4.28%     -    1s
     0     0 5900.00000    0   53 5658.00000 5900.00000  4.28%     -    1s
     0     0 5900.00000    0   63 5658.00000 5900.00000  4.28%     -    1s
     0     0 5900.00000    0   50 5658.00000 5900.00000  4.28%     -    1s
     0     0 5900.00000    0   48 5658.00000 5900.00000  4.28%     -    1s
     0     2 5900.00000    0   46 5658.00000 5900.00000  4.28%     -    2s
H   27    25                    5815.0000000 5900.00000  1.46%  93.3    4s
   120   102 5889.00000   78   49 5815.00000 5900.00000  1.46%  40.7    5s
   433   298 5834.96000   58   73 5815.00000 5900.00000  1.46%  55.8   10s
H  496   293                    5834.0000000 5900.00000  1.13%  54.5   12s
H  643   376                    5838.0000000 5900.00000  1.06%  50.0   13s
   649   380 5886.00000   94   73 5838.00000 5900.00000  1.06%  49.5   15s
H  680   380                    5842.0000000 5900.00000  0.99%  70.2   19s
   719   404 5883.00000   48   74 5842.00000 5900.00000  0.99%  71.3   20s
  1033   551 5896.00000   36   67 5842.00000 5900.00000  0.99%  60.7   25s
H 1082   561                    5846.0000000 5900.00000  0.92%  58.8   27s
  1330   641 5869.00000   59   60 5846.00000 5900.00000  0.92%  53.2   30s
H 1421   500                    5858.0000000 5900.00000  0.72%  51.2   31s
  1683   623 5870.00000  110   51 5858.00000 5900.00000  0.72%  47.3   36s
  1975   860 5876.00000   99   56 5858.00000 5900.00000  0.72%  44.5   40s
H 2421  1198                    5859.0000000 5900.00000  0.70%  39.9   43s
  3057  1666 5891.00000   87   52 5859.00000 5900.00000  0.70%  36.2   45s
  3579  2033 5900.00000   20   76 5859.00000 5900.00000  0.70%  35.5   50s
  3884  2214 5896.00000   39   63 5859.00000 5900.00000  0.70%  38.1   55s
  3962  2257 5872.00000   46   57 5859.00000 5900.00000  0.70%  39.2   60s
  4382  2552 5900.00000   32   70 5859.00000 5900.00000  0.70%  40.1   66s
  4797  2846 5887.00000   56   61 5859.00000 5900.00000  0.70%  40.4   70s
H 4852  2796                    5861.0000000 5900.00000  0.67%  40.5   70s
  5069  2943 5900.00000   43   64 5861.00000 5900.00000  0.67%  41.0   76s
  5537  3256 5865.00000  107   52 5861.00000 5900.00000  0.67%  40.4   80s
  6145  3677 5899.00000   77   74 5861.00000 5900.00000  0.67%  39.7   85s
  6784  4070 5862.00000   99   64 5861.00000 5900.00000  0.67%  38.8   90s
  7763  4605     cutoff   96      5861.00000 5900.00000  0.67%  38.8   95s
H 8108  4579                    5864.0000000 5900.00000  0.61%  38.6   98s
  8340  4726 5870.00000   92   52 5864.00000 5900.00000  0.61%  38.8  100s
  8817  4977     cutoff  100      5864.00000 5900.00000  0.61%  39.0  105s
H 9108  5005                    5865.0000000 5900.00000  0.60%  38.9  107s
  9304  5118 5892.14000   93   59 5865.00000 5900.00000  0.60%  38.8  110s
  9771  5378 5879.00000  113   58 5865.00000 5900.00000  0.60%  38.9  115s
 10210  5632 5869.00000  109   54 5865.00000 5900.00000  0.60%  38.9  120s
H10213  5352                    5876.0000000 5900.00000  0.41%  38.9  122s
 10295  5406 5900.00000   68   57 5876.00000 5900.00000  0.41%  40.1  126s
 10528  5491 5900.00000   76   53 5876.00000 5900.00000  0.41%  39.9  130s
 11083  5748 5897.00000  102   58 5876.00000 5900.00000  0.41%  39.7  135s
 11322  5880 5900.00000   83   57 5876.00000 5900.00000  0.41%  39.6  142s
 11459  5951 5896.00000   66   55 5876.00000 5900.00000  0.41%  39.9  145s
 11892  6140 5900.00000  120   65 5876.00000 5900.00000  0.41%  39.7  150s
 12465  6417 5900.00000   82   74 5876.00000 5900.00000  0.41%  40.0  155s
 12580  6465 5900.00000   63   50 5876.00000 5900.00000  0.41%  40.1  160s
 13079  6720 5884.00000  123   85 5876.00000 5900.00000  0.41%  39.9  165s
 13699  6948 5877.34722   88   90 5876.00000 5900.00000  0.41%  40.2  170s
 13955  7023 5878.00000   82   77 5876.00000 5900.00000  0.41%  40.6  175s
 14494  7181     cutoff  133      5876.00000 5900.00000  0.41%  41.6  180s
 14754  7249 5896.00000   91   83 5876.00000 5900.00000  0.41%  41.9  185s
 15307  7447 5896.00000   68   57 5876.00000 5900.00000  0.41%  41.6  190s
 15324  7460 5900.00000   41   49 5876.00000 5900.00000  0.41%  42.8  195s
 15483  7565 5900.00000  120   57 5876.00000 5900.00000  0.41%  42.7  200s
 15899  7745 5900.00000   92   62 5876.00000 5900.00000  0.41%  42.7  205s
H15907  7367                    5877.0000000 5900.00000  0.39%  42.7  206s
 16086  7470 5884.00000  106   38 5877.00000 5900.00000  0.39%  42.5  210s
 16667  7660 5900.00000   62   54 5877.00000 5900.00000  0.39%  42.0  215s
 16934  7771 5900.00000   93   59 5877.00000 5900.00000  0.39%  41.8  220s
 17764  8111 5881.00000   70   55 5877.00000 5900.00000  0.39%  41.1  225s
 17985  8172 5884.42857  122   58 5877.00000 5900.00000  0.39%  40.9  230s
 18744  8382 5898.00000   82   53 5877.00000 5900.00000  0.39%  40.9  235s
 19536  8650     cutoff  106      5877.00000 5900.00000  0.39%  40.6  240s
 19947  8752 5878.00000  111   57 5877.00000 5900.00000  0.39%  40.6  246s
 20367  8918     cutoff   84      5877.00000 5900.00000  0.39%  40.6  250s
 20748  9030 5879.00000   93   51 5877.00000 5900.00000  0.39%  40.6  255s
 21019  9152 5881.00000  112   60 5877.00000 5900.00000  0.39%  40.7  260s
 21635  9376 5892.00000   74   40 5877.00000 5900.00000  0.39%  40.5  266s
 22102  9528 5894.00000  117   49 5877.00000 5900.00000  0.39%  40.9  270s
 22576  9697 5887.00000   85   41 5877.00000 5900.00000  0.39%  40.7  275s
 23188  9904 5879.00000  105   47 5877.00000 5900.00000  0.39%  40.5  280s
 24257 10224 5898.00000   67   51 5877.00000 5900.00000  0.39%  40.2  285s
 24778 10348 5878.00000   86   61 5877.00000 5900.00000  0.39%  40.2  290s
 25492 10582 5889.00000  101   69 5877.00000 5900.00000  0.39%  40.0  295s
 26181 10799 5880.92208  138   51 5877.00000 5900.00000  0.39%  39.7  300s
 26799 11012 5893.00000   80   46 5877.00000 5900.00000  0.39%  39.6  305s
 27823 11315 5878.00000   71   39 5877.00000 5900.00000  0.39%  39.3  310s
 28098 11381 5895.00000   92   54 5877.00000 5900.00000  0.39%  39.3  315s
 28463 11451 5890.00000   71   47 5877.00000 5900.00000  0.39%  39.3  320s
 29240 11719 5897.00000   60   52 5877.00000 5900.00000  0.39%  39.2  325s
 29486 11782 5894.00000   75   52 5877.00000 5900.00000  0.39%  39.3  330s
 30648 12123     cutoff   95      5877.00000 5900.00000  0.39%  38.8  335s
 31469 12339 5895.00000   90   52 5877.00000 5900.00000  0.39%  38.6  340s
 32047 12511 5882.00000  129   47 5877.00000 5900.00000  0.39%  38.5  345s
 32947 12769 5892.00000  125   40 5877.00000 5900.00000  0.39%  38.4  352s
 33211 12850     cutoff   81      5877.00000 5900.00000  0.39%  38.4  355s
 34070 13156 5892.00000  112   52 5877.00000 5900.00000  0.39%  38.3  360s
 35116 13473 5893.00000   98   61 5877.00000 5900.00000  0.39%  38.3  365s
 35309 13505 5896.00000   82   44 5877.00000 5900.00000  0.39%  38.3  370s
 35707 13566 5888.00000   87   38 5877.00000 5900.00000  0.39%  38.2  375s
 36161 13688 5895.00000  155   48 5877.00000 5900.00000  0.39%  38.3  380s
 36673 13861 5885.00000  125   47 5877.00000 5900.00000  0.39%  38.2  385s
 36821 13917 5898.00000  113   37 5877.00000 5900.00000  0.39%  38.3  390s
 37491 14318 5899.00000  114   43 5877.00000 5900.00000  0.39%  38.2  395s
 38107 14712 5882.00000  133   47 5877.00000 5900.00000  0.39%  38.0  400s
 38659 14971 5888.00000  117   43 5877.00000 5900.00000  0.39%  38.1  405s
 39142 15252 5882.00000  112   72 5877.00000 5900.00000  0.39%  38.0  410s
 39466 15452 5884.87234  109   49 5877.00000 5900.00000  0.39%  38.0  415s
 40117 15762 5900.00000  116   47 5877.00000 5900.00000  0.39%  37.9  420s
 40790 16126 5887.00000  130   41 5877.00000 5900.00000  0.39%  37.8  425s
 41090 16335 5878.00000  162   50 5877.00000 5900.00000  0.39%  37.7  430s
 41386 16493 5887.00000  130   44 5877.00000 5900.00000  0.39%  37.7  436s
 41856 16769 5892.00000  106   44 5877.00000 5900.00000  0.39%  37.6  440s
 42461 17154     cutoff  139      5877.00000 5900.00000  0.39%  37.5  445s
 43097 17480     cutoff  149      5877.00000 5900.00000  0.39%  37.5  450s
 43576 17722 5878.00000  142   44 5877.00000 5900.00000  0.39%  37.6  455s
 44202 18023 5898.00000  104   47 5877.00000 5900.00000  0.39%  37.6  460s
 44565 18251 5893.00000  104   39 5877.00000 5900.00000  0.39%  37.6  465s
 44594 18268     cutoff  126      5877.00000 5900.00000  0.39%  37.6  470s
 45108 18503 5881.00000  134   39 5877.00000 5900.00000  0.39%  37.6  475s
 45382 18662 5898.81818  126   47 5877.00000 5900.00000  0.39%  37.6  481s
 45771 18842 5889.00000  137   49 5877.00000 5900.00000  0.39%  37.5  485s
 46215 19173 5890.63636  120   40 5877.00000 5900.00000  0.39%  37.5  490s
 47193 19651 5883.00000  127   58 5877.00000 5900.00000  0.39%  37.3  495s
 48118 20249 5888.00000  137   44 5877.00000 5900.00000  0.39%  37.1  500s
 48279 20348 5898.00000  117   47 5877.00000 5900.00000  0.39%  37.1  505s
 48902 20684 5878.00000  135   53 5877.00000 5900.00000  0.39%  37.0  510s
 49401 20949     cutoff  121      5877.00000 5900.00000  0.39%  37.1  515s
 50087 21356 5879.85000  127   53 5877.00000 5900.00000  0.39%  37.1  520s
 50327 21527 5885.00000  131   40 5877.00000 5900.00000  0.39%  37.1  525s
 50874 21836 5893.36364  105   46 5877.00000 5900.00000  0.39%  37.1  530s
 51254 22068 5899.90909   87   47 5877.00000 5900.00000  0.39%  37.1  535s
 51718 22361 5887.00000   97   37 5877.00000 5900.00000  0.39%  37.1  542s
 51872 22439     cutoff  117      5877.00000 5900.00000  0.39%  37.0  545s
 52615 22797 5899.00000  107   44 5877.00000 5900.00000  0.39%  37.0  550s
 53426 23270 5890.00000  103   47 5877.00000 5900.00000  0.39%  36.9  555s
 53980 23558 5878.00000  111   51 5877.00000 5900.00000  0.39%  36.8  561s
 54381 23800 5880.00000  113   72 5877.00000 5900.00000  0.39%  36.8  565s
 55145 24253 5890.00000  193   44 5877.00000 5900.00000  0.39%  36.6  571s
 55472 24419 5880.00000  138   60 5877.00000 5900.00000  0.39%  36.6  575s
 55975 24683 5888.00000  100   43 5877.00000 5900.00000  0.39%  36.6  580s
 56535 25004 5900.00000   92   46 5877.00000 5900.00000  0.39%  36.6  585s
 56899 25220 5900.00000   90   53 5877.00000 5900.00000  0.39%  36.5  590s
 57426 25562 5900.00000   91   46 5877.00000 5900.00000  0.39%  36.5  595s

Cutting planes:
  Gomory: 4
  Cover: 78
  Clique: 8
  MIR: 25
  StrongCG: 25
  Flow cover: 8

Explored 58586 nodes (2132643 simplex iterations) in 600.00 seconds (311.06 work units)
Thread count was 1 (of 12 available processors)

Solution count 10: 5877 5876 5865 ... 5838

Time limit reached
Best objective 5.877000000000e+03, best bound 5.900000000000e+03, gap 0.3914%
Solution = 5877.000000
