N3C2W2_S
Set parameter Username
Academic license - for non-commercial use only - expires 2025-02-19
Set parameter Threads to value 1
Set parameter TimeLimit to value 600
Gurobi Optimizer version 11.0.0 build v11.0.0rc2 (linux64 - "Ubuntu 18.04.6 LTS")

CPU model: Intel(R) Xeon(R) CPU E5-2420 0 @ 1.90GHz, instruction set [SSE2|AVX]
Thread count: 6 physical cores, 12 logical processors, using up to 1 threads

Optimize a model with 125 rows, 3848 columns and 7622 nonzeros
Model fingerprint: 0x2e7b990c
Variable types: 0 continuous, 3848 integer (3848 binary)
Coefficient statistics:
  Matrix range     [1e+00, 1e+02]
  Objective range  [2e+01, 1e+02]
  Bounds range     [1e+00, 1e+00]
  RHS range        [1e+02, 1e+02]
Found heuristic solution: objective -0.0000000
Presolve removed 0 rows and 18 columns
Presolve time: 0.04s
Presolved: 125 rows, 3830 columns, 7604 nonzeros
Variable types: 0 continuous, 3830 integer (3830 binary)
Found heuristic solution: objective 945.0000000

Root relaxation: objective 6.120000e+03, 287 iterations, 0.01 seconds (0.00 work units)

    Nodes    |    Current Node    |     Objective Bounds      |     Work
 Expl Unexpl |  Obj  Depth IntInf | Incumbent    BestBd   Gap | It/Node Time

     0     0 6120.00000    0   52  945.00000 6120.00000   548%     -    0s
H    0     0                    5219.0000000 6120.00000  17.3%     -    0s
H    0     0                    5455.0000000 6120.00000  12.2%     -    0s
H    0     0                    5614.0000000 6120.00000  9.01%     -    0s
     0     0 6120.00000    0  132 5614.00000 6120.00000  9.01%     -    0s
H    0     0                    5839.0000000 6120.00000  4.81%     -    0s
     0     0 6120.00000    0  120 5839.00000 6120.00000  4.81%     -    0s
     0     0 6120.00000    0   66 5839.00000 6120.00000  4.81%     -    1s
     0     0 6120.00000    0   60 5839.00000 6120.00000  4.81%     -    1s
     0     2 6120.00000    0   56 5839.00000 6120.00000  4.81%     -    1s
H   27    23                    5952.0000000 6120.00000  2.82%  47.6    3s
   312   270 6054.00000   81   50 5952.00000 6120.00000  2.82%  27.6    5s
H  559   458                    5971.0000000 6120.00000  2.50%  27.5    6s
   571   466 6011.00000   63   56 5971.00000 6120.00000  2.50%  26.9   10s
H  597   460                    5987.0000000 6120.00000  2.22%  61.4   11s
H  598   438                    6022.0000000 6120.00000  1.63%  61.5   13s
H  649   451                    6035.0000000 6120.00000  1.41%  59.0   14s
   679   473 6120.00000   66   51 6035.00000 6120.00000  1.41%  57.6   15s
H  785   518                    6036.0000000 6120.00000  1.39%  53.4   18s
  1002   635 6100.00000   17   48 6036.00000 6120.00000  1.39%  44.5   20s
H 1072   659                    6047.0000000 6120.00000  1.21%  43.7   22s
  1226   741 6117.00000   34   58 6047.00000 6120.00000  1.21%  41.3   25s
  1397   853 6094.00000  120   49 6047.00000 6120.00000  1.21%  40.2   30s
H 1975  1196                    6051.0000000 6120.00000  1.14%  33.8   37s
  2562  1661 6117.00000  112   60 6051.00000 6120.00000  1.14%  29.3   40s
H 2975  1951                    6056.0000000 6120.00000  1.06%  26.6   41s
H 3046  1881                    6062.0000000 6120.00000  0.96%  26.5   42s
  3615  2345 6120.00000   28   60 6062.00000 6120.00000  0.96%  24.6   45s
H 4259  2787                    6067.0000000 6120.00000  0.87%  24.1   50s
  5274  3627 6076.00000  204   44 6067.00000 6120.00000  0.87%  23.4   55s
H 5741  3833                    6070.0000000 6120.00000  0.82%  23.8   58s
H 5823  3587                    6079.0000000 6120.00000  0.67%  23.9   59s
  5832  3592 6120.00000   28   60 6079.00000 6120.00000  0.67%  24.0   60s
H 6142  3781                    6080.0000000 6120.00000  0.66%  23.9   63s
  6364  3933 6115.00000   91   62 6080.00000 6120.00000  0.66%  24.0   65s
  6698  4150 6111.00000   41   65 6080.00000 6120.00000  0.66%  24.6   71s
  7345  4637 6085.00000  103   52 6080.00000 6120.00000  0.66%  24.3   75s
  8037  4944 6099.00000   58   70 6080.00000 6120.00000  0.66%  24.6   80s
  8861  5540 6083.00000   83   62 6080.00000 6120.00000  0.66%  24.9   85s
  9230  5811 6081.00000   75   53 6080.00000 6120.00000  0.66%  25.1   90s
 10048  6405 6088.00000  106   59 6080.00000 6120.00000  0.66%  24.9   95s
 10526  6757 6086.00000   99   60 6080.00000 6120.00000  0.66%  24.8  100s
 11015  7126 6113.00000   22   59 6080.00000 6120.00000  0.66%  24.6  105s
 11339  7384 6120.00000   33   65 6080.00000 6120.00000  0.66%  24.9  110s
 12393  8242 6083.89626  235   49 6080.00000 6120.00000  0.66%  24.8  115s
H12697  7641                    6083.0000000 6120.00000  0.61%  24.8  118s
 13103  7974 6091.00000  187   51 6083.00000 6120.00000  0.61%  24.6  120s
 14371  8953 6119.00000   50   73 6083.00000 6120.00000  0.61%  24.9  125s
 15140  9566 6093.00000   71   69 6083.00000 6120.00000  0.61%  24.9  130s
 16323 10499 6120.00000   81   65 6083.00000 6120.00000  0.61%  24.6  135s
 17538 11370 6105.00000  102   55 6083.00000 6120.00000  0.61%  24.6  140s
H18967 12033                    6084.0000000 6120.00000  0.59%  24.2  145s
 20358 13117 6100.00000  112   60 6084.00000 6120.00000  0.59%  23.7  150s
 21802 14150 6119.00000  143   57 6084.00000 6120.00000  0.59%  23.2  157s
 22961 14989 6111.00000  151   50 6084.00000 6120.00000  0.59%  22.7  160s
H23744 13817                    6088.0000000 6120.00000  0.53%  22.4  162s
 25350 14964 6111.00000  138   51 6088.00000 6120.00000  0.53%  21.9  165s
H25511 13984                    6091.0000000 6120.00000  0.48%  21.9  165s
 26981 15049 6096.00000  223   53 6091.00000 6120.00000  0.48%  21.3  170s
 29012 16546 6104.00000  176   57 6091.00000 6120.00000  0.48%  20.5  175s
 31345 18209 6100.00000  183   54 6091.00000 6120.00000  0.48%  19.7  180s
H31695 17088                    6093.0000000 6120.00000  0.44%  19.5  182s
H31722 16081                    6095.0000000 6120.00000  0.41%  19.5  182s
H32722 15746                    6097.0000000 6120.00000  0.38%  19.2  185s
 35800 17778 6099.00000  255   50 6097.00000 6120.00000  0.38%  18.3  190s
 37105 18708 6120.00000  217   49 6097.00000 6120.00000  0.38%  18.0  195s
 40145 20535 6100.00000  242   48 6097.00000 6120.00000  0.38%  17.3  200s
 43243 22364 6113.00000  262   44 6097.00000 6120.00000  0.38%  16.7  205s
 45082 23447 6110.00000  242   51 6097.00000 6120.00000  0.38%  16.3  211s
 47155 24565     cutoff  255      6097.00000 6120.00000  0.38%  16.0  215s
 48758 25379 6109.00000  222   47 6097.00000 6120.00000  0.38%  15.7  222s
 50229 26260 6106.00000  238   50 6097.00000 6120.00000  0.38%  15.5  225s
 52633 27774     cutoff  274      6097.00000 6120.00000  0.38%  15.2  230s
 53821 28566 6102.00000  231   44 6097.00000 6120.00000  0.38%  15.0  238s
 54218 28810 6099.00000  260   45 6097.00000 6120.00000  0.38%  15.0  241s
 55626 29567 6109.00000  251   44 6097.00000 6120.00000  0.38%  14.8  245s
 57872 31076 6116.00000  202   51 6097.00000 6120.00000  0.38%  14.5  250s
 59549 32017 6113.00000  278   45 6097.00000 6120.00000  0.38%  14.3  255s
 61650 33423 6101.00000  256   35 6097.00000 6120.00000  0.38%  14.2  260s
 63230 34473 6103.00000  216   45 6097.00000 6120.00000  0.38%  14.0  265s
 64794 35434 6104.00000  220   47 6097.00000 6120.00000  0.38%  13.9  270s
 66514 36486 6120.00000  164   47 6097.00000 6120.00000  0.38%  13.7  275s
 67627 37237 6120.00000  166   55 6097.00000 6120.00000  0.38%  13.6  280s
 69598 38567 6103.00000  308   41 6097.00000 6120.00000  0.38%  13.5  285s
 71621 39884 6104.00000  177   52 6097.00000 6120.00000  0.38%  13.3  290s
 72072 40248 6113.00000  165   50 6097.00000 6120.00000  0.38%  13.3  295s
 73326 40933 6099.00000  262   49 6097.00000 6120.00000  0.38%  13.3  300s
 74942 41972 6100.00000  245   41 6097.00000 6120.00000  0.38%  13.4  305s
 76363 42751     cutoff  246      6097.00000 6120.00000  0.38%  13.5  310s
 78214 43407 6117.00000  255   45 6097.00000 6120.00000  0.38%  13.4  315s
 78601 43582 infeasible  258      6097.00000 6120.00000  0.38%  13.4  320s
 80284 44353 6117.00000  250   49 6097.00000 6120.00000  0.38%  13.4  325s
 81702 44986 6115.00000  257   46 6097.00000 6120.00000  0.38%  13.3  330s
H81968 31797                    6102.0000000 6120.00000  0.29%  13.3  331s
 82516 32073 6112.00000  241   50 6102.00000 6120.00000  0.29%  13.3  336s
 84096 32963 infeasible  260      6102.00000 6120.00000  0.29%  13.3  340s
 86607 34308 6112.00000  225   49 6102.00000 6120.00000  0.29%  13.3  345s
 88154 35175 6110.00000  292   42 6102.00000 6120.00000  0.29%  13.3  350s
 89774 35972 6107.00000  301   37 6102.00000 6120.00000  0.29%  13.3  356s
 92068 37270 6107.00000  290   45 6102.00000 6120.00000  0.29%  13.2  360s
 95392 39033     cutoff  276      6102.00000 6120.00000  0.29%  13.1  365s
H97409 34179                    6104.0000000 6120.00000  0.26%  13.0  368s
 97955 34414 6110.00000  293   40 6104.00000 6120.00000  0.26%  13.0  370s
 100283 35399 6105.00000  273   38 6104.00000 6120.00000  0.26%  12.9  375s
 103200 36730 6107.00000  247   39 6104.00000 6120.00000  0.26%  12.8  380s
 105257 37631 6105.00000  268   41 6104.00000 6120.00000  0.26%  12.7  385s
 107815 38613 6109.00000  273   43 6104.00000 6120.00000  0.26%  12.6  390s
 109064 39087 6105.00000  283   41 6104.00000 6120.00000  0.26%  12.6  395s
 112433 40557 6105.00000  295   37 6104.00000 6120.00000  0.26%  12.5  400s
 114843 41677 6111.00000  255   43 6104.00000 6120.00000  0.26%  12.4  405s
 116968 42539 6116.00000  293   42 6104.00000 6120.00000  0.26%  12.4  410s
 119715 43745 6108.00000  313   43 6104.00000 6120.00000  0.26%  12.3  415s
 122026 44496 6110.00000  288   46 6104.00000 6120.00000  0.26%  12.2  421s
 123903 45127 6111.00000  247   45 6104.00000 6120.00000  0.26%  12.2  425s
H125266 38280                    6106.0000000 6120.00000  0.23%  12.2  428s
 125699 38484 6109.00000  286   43 6106.00000 6120.00000  0.23%  12.2  430s
 127959 39347 6108.00000  286   36 6106.00000 6120.00000  0.23%  12.2  435s
 129806 40076 6108.00000  282   37 6106.00000 6120.00000  0.23%  12.1  440s
 131771 40686 6115.00000  280   38 6106.00000 6120.00000  0.23%  12.1  445s
 133691 41297     cutoff  262      6106.00000 6120.00000  0.23%  12.1  450s
 136185 42289 6108.00000  279   38 6106.00000 6120.00000  0.23%  12.0  455s
 138665 43119 6117.00000  306   40 6106.00000 6120.00000  0.23%  12.0  460s
 140945 43595 6111.00000  288   33 6106.00000 6120.00000  0.23%  12.0  465s
 142587 44071     cutoff  267      6106.00000 6120.00000  0.23%  12.0  470s
 145144 44901 6111.00000  301   39 6106.00000 6120.00000  0.23%  11.9  475s
 147234 45538     cutoff  271      6106.00000 6120.00000  0.23%  11.9  480s
 149383 46198 6111.00000  268   39 6106.00000 6120.00000  0.23%  11.9  485s
 150838 46706 6118.00000  259   44 6106.00000 6120.00000  0.23%  11.9  490s
 153169 47540 6120.00000  258   44 6106.00000 6120.00000  0.23%  11.9  495s
 154658 47870     cutoff  265      6106.00000 6120.00000  0.23%  11.9  500s
H156805 33223                    6110.0000000 6120.00000  0.16%  11.9  504s
 157547 33379 6120.00000  276   39 6110.00000 6120.00000  0.16%  11.9  505s
 159457 33894 6112.00000  290   40 6110.00000 6120.00000  0.16%  11.9  510s
 162449 34897 6112.00000  298   40 6110.00000 6120.00000  0.16%  11.8  515s
 163598 35314     cutoff  274      6110.00000 6120.00000  0.16%  11.8  520s
 166686 36279 6115.00000  267   44 6110.00000 6120.00000  0.16%  11.8  525s
 168261 36744 6111.00000  310   34 6110.00000 6120.00000  0.16%  11.8  530s
 171528 37792 6120.00000  248   49 6110.00000 6120.00000  0.16%  11.8  535s
 173476 38316 6114.00000  248   41 6110.00000 6120.00000  0.16%  11.8  540s
 175967 39040 6120.00000  288   42 6110.00000 6120.00000  0.16%  11.7  545s
 177449 39379 6120.00000  249   45 6110.00000 6120.00000  0.16%  11.7  550s
 178586 39837     cutoff  317      6110.00000 6120.00000  0.16%  11.7  555s
 180214 40388 6114.00000  278   36 6110.00000 6120.00000  0.16%  11.7  560s
 181511 40838 6111.00000  284   38 6110.00000 6120.00000  0.16%  11.7  565s
 182847 41248     cutoff  275      6110.00000 6120.00000  0.16%  11.7  570s
 184030 41628 6113.00000  295   38 6110.00000 6120.00000  0.16%  11.7  575s
 184875 41869 6111.00000  301   40 6110.00000 6120.00000  0.16%  11.7  580s
 187917 42573     cutoff  287      6110.00000 6120.00000  0.16%  11.6  585s
 189204 42843 6111.00000  328   36 6110.00000 6120.00000  0.16%  11.6  590s
 192166 43680 6115.00000  304   39 6110.00000 6120.00000  0.16%  11.6  595s

Cutting planes:
  Gomory: 3
  Cover: 31
  Clique: 6
  MIR: 9
  StrongCG: 14
  Flow cover: 5
  RLT: 2

Explored 193237 nodes (2247647 simplex iterations) in 600.00 seconds (312.83 work units)
Thread count was 1 (of 12 available processors)

Solution count 10: 6110 6106 6104 ... 6084

Time limit reached
Best objective 6.110000000000e+03, best bound 6.120000000000e+03, gap 0.1637%
Solution = 6110.000000
