N4C1W1_O
Set parameter Username
Academic license - for non-commercial use only - expires 2025-02-19
Set parameter Threads to value 1
Set parameter TimeLimit to value 600
Gurobi Optimizer version 11.0.0 build v11.0.0rc2 (linux64 - "Ubuntu 18.04.6 LTS")

CPU model: Intel(R) Xeon(R) CPU E5-2420 0 @ 1.90GHz, instruction set [SSE2|AVX]
Thread count: 6 physical cores, 12 logical processors, using up to 1 threads

Optimize a model with 226 rows, 12672 columns and 25245 nonzeros
Model fingerprint: 0x0dde0804
Variable types: 0 continuous, 12672 integer (12672 binary)
Coefficient statistics:
  Matrix range     [1e+00, 1e+02]
  Objective range  [1e+00, 1e+02]
  Bounds range     [1e+00, 1e+00]
  RHS range        [1e+02, 1e+02]
Found heuristic solution: objective -0.0000000
Presolve removed 0 rows and 4 columns
Presolve time: 0.10s
Presolved: 226 rows, 12668 columns, 25241 nonzeros
Variable types: 0 continuous, 12668 integer (12668 binary)
Found heuristic solution: objective 203.0000000

Root relaxation: objective 1.270000e+04, 569 iterations, 0.06 seconds (0.02 work units)

    Nodes    |    Current Node    |     Objective Bounds      |     Work
 Expl Unexpl |  Obj  Depth IntInf | Incumbent    BestBd   Gap | It/Node Time

     0     0 12700.0000    0   98  203.00000 12700.0000  6156%     -    0s
H    0     0                    9532.0000000 12700.0000  33.2%     -    0s
H    0     0                    11019.000000 12700.0000  15.3%     -    1s
     0     0 12700.0000    0  186 11019.0000 12700.0000  15.3%     -    1s
H    0     0                    12250.000000 12700.0000  3.67%     -    3s
     0     0 12700.0000    0  189 12250.0000 12700.0000  3.67%     -    3s
     0     0 12700.0000    0  153 12250.0000 12700.0000  3.67%     -    4s
     0     0 12700.0000    0  136 12250.0000 12700.0000  3.67%     -    5s
     0     2 12700.0000    0   99 12250.0000 12700.0000  3.67%     -    6s
H   27     9                    12306.000000 12700.0000  3.20%   153   14s
    29    11 12700.0000   15  141 12306.0000 12700.0000  3.20%   146   15s
    87    43 12699.0000   49  132 12306.0000 12700.0000  3.20%  85.1   22s
   205   103 12700.0000    9  137 12306.0000 12700.0000  3.20%  57.5   25s
   405   231 12700.0000   40  150 12306.0000 12700.0000  3.20%  76.3   30s
   650   414 12690.0000  196  107 12306.0000 12700.0000  3.20%  77.6   35s
H  677   401                    12329.000000 12700.0000  3.01%  77.4   40s
   693   414 12700.0000   17  131 12329.0000 12700.0000  3.01%   126   45s
   731   433 12697.0000   36  128 12329.0000 12700.0000  3.01%   131   50s
H  764   433                    12383.000000 12700.0000  2.56%   132   55s
   786   450 12695.0000   63  117 12383.0000 12700.0000  2.56%   134   64s
   790   453 12695.0000   65  117 12383.0000 12700.0000  2.56%   134   65s
   858   496 12693.0000   99  117 12383.0000 12700.0000  2.56%   132   70s
H  868   481                    12390.000000 12700.0000  2.50%   131   70s
H  882   472                    12392.000000 12700.0000  2.49%   130   72s
   937   511 12691.0000  139  115 12392.0000 12700.0000  2.49%   129   75s
  1072   597 12655.0000  206   67 12392.0000 12700.0000  2.49%   119   80s
  1321   753 12620.0000  333   52 12392.0000 12700.0000  2.49%  99.0   85s
H 1330   737                    12406.000000 12700.0000  2.37%  98.5   85s
  1385   751 12700.0000   22  131 12406.0000 12700.0000  2.37%  96.6   90s
  1424   777 12700.0000   42  136 12406.0000 12700.0000  2.37%  97.2   95s
  1510   819 12697.0000   85  141 12406.0000 12700.0000  2.37%  95.6  100s
  1643   867 12697.0000  150  136 12406.0000 12700.0000  2.37%  93.1  105s
  1909  1060 12677.0000  285  107 12406.0000 12700.0000  2.37%  84.6  110s
H 1975  1090                    12458.000000 12700.0000  1.94%  82.7  112s
  2066  1119 12700.0000   18  126 12458.0000 12700.0000  1.94%  79.9  115s
  2240  1233 12697.0000  102  125 12458.0000 12700.0000  1.94%  77.3  120s
  2405  1344 12698.0000   67  147 12458.0000 12700.0000  1.94%  75.7  125s
H 2449  1382                    12512.000000 12700.0000  1.50%  75.2  126s
  2536  1451 12691.0000  132  140 12512.0000 12700.0000  1.50%  74.3  130s
  2675  1558 12569.0000  200  113 12512.0000 12700.0000  1.50%  72.2  135s
  2811  1651 12700.0000   50  144 12512.0000 12700.0000  1.50%  71.6  141s
  2867  1691 12700.0000   76  137 12512.0000 12700.0000  1.50%  72.0  145s
  2946  1752 12700.0000  114  130 12512.0000 12700.0000  1.50%  72.4  154s
  2958  1764 12700.0000  120  126 12512.0000 12700.0000  1.50%  72.2  156s
  3066  1864 12650.0000  174  112 12512.0000 12700.0000  1.50%  72.0  160s
  3244  1995 12700.0000   25  132 12512.0000 12700.0000  1.50%  71.7  165s
  3355  2103 12700.0000   81  135 12512.0000 12700.0000  1.50%  71.4  170s
  3453  2181 12700.0000   28  129 12512.0000 12700.0000  1.50%  70.8  175s
  3547  2271 12694.0000   75  134 12512.0000 12700.0000  1.50%  70.8  180s
  3642  2365 12693.0000  122  139 12512.0000 12700.0000  1.50%  71.1  185s
  3765  2456 12691.0000  186  116 12512.0000 12700.0000  1.50%  70.8  190s
  3872  2515 12700.0000   45  125 12512.0000 12700.0000  1.50%  70.4  195s
  3940  2577 12698.0000   94  142 12512.0000 12700.0000  1.50%  72.2  200s
  3952  2587 12620.0000  100  120 12512.0000 12700.0000  1.50%  72.7  205s
  4019  2638 12668.0000  133  133 12512.0000 12700.0000  1.50%  72.6  210s
  4108  2694 12700.0000   72  141 12512.0000 12700.0000  1.50%  73.4  215s
  4190  2757 12700.0000  140  140 12512.0000 12700.0000  1.50%  74.0  220s
  4265  2805 12700.0000   43  134 12512.0000 12700.0000  1.50%  74.7  225s
  4345  2864 12700.0000  102  147 12512.0000 12700.0000  1.50%  76.1  230s
H 4364  2847                    12521.000000 12700.0000  1.43%  76.2  231s
  4396  2877 12700.0000   61  139 12521.0000 12700.0000  1.43%  76.4  235s
  4462  2938 12700.0000  115  149 12521.0000 12700.0000  1.43%  77.3  240s
  4548  3013 12690.0000  169  153 12521.0000 12700.0000  1.43%  77.4  245s
  4677  3127 12618.0000  206  137 12521.0000 12700.0000  1.43%  77.6  250s
H 4728  3133                    12530.000000 12700.0000  1.36%  77.5  251s
  4763  3150 12700.0000   46  145 12530.0000 12700.0000  1.36%  77.7  255s
  4846  3219 12700.0000  119  167 12530.0000 12700.0000  1.36%  78.7  260s
  4940  3288     cutoff  159      12530.0000 12700.0000  1.36%  78.9  265s
  5003  3337 12700.0000   59  125 12530.0000 12700.0000  1.36%  79.9  270s
  5111  3426 12690.0000  132  133 12530.0000 12700.0000  1.36%  80.8  276s
  5165  3455 12700.0000   76  138 12530.0000 12700.0000  1.36%  81.0  280s
  5273  3557 12696.0000  149  140 12530.0000 12700.0000  1.36%  81.3  285s
H 5276  3500                    12564.000000 12700.0000  1.08%  81.3  286s
  5332  3546 12700.0000   81  139 12564.0000 12700.0000  1.08%  81.4  290s
  5423  3618 12700.0000   84  135 12564.0000 12700.0000  1.08%  82.1  295s
  5527  3691 12700.0000   63  132 12564.0000 12700.0000  1.08%  82.1  300s
  5642  3806 12700.0000  121  141 12564.0000 12700.0000  1.08%  82.2  305s
H 5723  3850                    12566.000000 12700.0000  1.07%  82.0  308s
  5756  3872 12700.0000   77  141 12566.0000 12700.0000  1.07%  82.2  310s
  5844  3930 12678.0000  155  130 12566.0000 12700.0000  1.07%  82.4  315s
  5945  3987 12588.0000  126  122 12566.0000 12700.0000  1.07%  83.3  320s
  6006  4042 12700.0000  100  133 12566.0000 12700.0000  1.07%  83.3  327s
  6060  4092 12700.0000  129  140 12566.0000 12700.0000  1.07%  83.5  330s
  6168  4159 12700.0000   82  130 12566.0000 12700.0000  1.07%  83.6  335s
  6286  4223 12700.0000   85  135 12566.0000 12700.0000  1.07%  83.8  340s
  6378  4287 12700.0000  110  140 12566.0000 12700.0000  1.07%  84.3  345s
  6452  4307 12700.0000   71  133 12566.0000 12700.0000  1.07%  84.1  350s
H 6457  4273                    12586.000000 12700.0000  0.91%  84.1  350s
  6547  4323 12691.0000  134  132 12586.0000 12700.0000  0.91%  84.5  355s
  6641  4375 12700.0000   94  144 12586.0000 12700.0000  0.91%  84.7  360s
  6738  4460 12700.0000   94  127 12586.0000 12700.0000  0.91%  84.9  365s
  6819  4531 12690.0000  138  138 12586.0000 12700.0000  0.91%  85.2  370s
  6944  4630 12599.0000  190  113 12586.0000 12700.0000  0.91%  84.8  375s
  7035  4677 12700.0000   85  138 12586.0000 12700.0000  0.91%  84.9  380s
  7162  4756 12700.0000   90  132 12586.0000 12700.0000  0.91%  84.9  385s
  7260  4823 12700.0000   76  123 12586.0000 12700.0000  0.91%  85.1  390s
  7367  4916 12695.0000  132  131 12586.0000 12700.0000  0.91%  85.2  395s
  7476  4988 12591.5176  186  141 12586.0000 12700.0000  0.91%  85.0  400s
  7610  5099 12700.0000  123  135 12586.0000 12700.0000  0.91%  84.7  405s
  7719  5170 12659.0000  160  132 12586.0000 12700.0000  0.91%  84.2  410s
  7776  5182 12700.0000   79  127 12586.0000 12700.0000  0.91%  83.9  415s
  7860  5229 12700.0000  113  136 12586.0000 12700.0000  0.91%  84.0  420s
  7960  5292 12700.0000  102  136 12586.0000 12700.0000  0.91%  84.1  425s
  8064  5368 12694.0000  159  128 12586.0000 12700.0000  0.91%  84.1  430s
  8152  5427 12700.0000  109  140 12586.0000 12700.0000  0.91%  84.6  435s
  8248  5463 12700.0000   94  127 12586.0000 12700.0000  0.91%  84.3  440s
  8362  5528 12700.0000   94  127 12586.0000 12700.0000  0.91%  84.4  445s
  8453  5586 12700.0000  118  133 12586.0000 12700.0000  0.91%  84.8  450s
  8546  5643 12700.0000  108  133 12586.0000 12700.0000  0.91%  84.9  455s
  8627  5712 12700.0000  129  140 12586.0000 12700.0000  0.91%  85.2  460s
  8763  5798 12700.0000  123  135 12586.0000 12700.0000  0.91%  85.2  465s
  8851  5830 12700.0000  105  119 12586.0000 12700.0000  0.91%  85.3  471s
  8929  5887 12700.0000  108  128 12586.0000 12700.0000  0.91%  85.3  475s
  9029  5930 12700.0000  107  119 12586.0000 12700.0000  0.91%  85.7  480s
  9147  6030 12700.0000  167  143 12586.0000 12700.0000  0.91%  85.9  485s
  9259  6076 12700.0000  126  133 12586.0000 12700.0000  0.91%  86.2  490s
  9372  6143 12602.0000  157  106 12586.0000 12700.0000  0.91%  86.7  495s
  9503  6207 12700.0000  136  132 12586.0000 12700.0000  0.91%  86.8  500s
  9615  6282 12700.0000  125  127 12586.0000 12700.0000  0.91%  86.9  505s
  9666  6330 12700.0000  141  149 12586.0000 12700.0000  0.91%  87.0  510s
  9799  6432 12700.0000  153  131 12586.0000 12700.0000  0.91%  87.5  515s
  9921  6511 12699.0000  145  144 12586.0000 12700.0000  0.91%  87.6  520s
 10074  6598 infeasible  131      12586.0000 12700.0000  0.91%  87.6  525s
 10193  6672     cutoff  163      12586.0000 12700.0000  0.91%  87.9  530s
 10202  6673 12700.0000  125  123 12586.0000 12700.0000  0.91%  87.9  539s
 10228  6696 12595.0000  150  117 12586.0000 12700.0000  0.91%  88.0  540s
 10364  6769 infeasible  148      12586.0000 12700.0000  0.91%  88.2  545s
 10441  6827 12700.0000  149  134 12586.0000 12700.0000  0.91%  88.1  551s
 10636  6980 12698.0000  154  125 12586.0000 12700.0000  0.91%  87.9  555s
 10741  7047 12700.0000  141  140 12586.0000 12700.0000  0.91%  88.3  560s
 10969  7204 12626.9508  155  117 12586.0000 12700.0000  0.91%  88.4  565s
 11102  7275 12697.0000  156  129 12586.0000 12700.0000  0.91%  88.6  570s
 11298  7374 12696.2500  144  123 12586.0000 12700.0000  0.91%  88.3  575s
 11428  7475 12684.0000  173  126 12586.0000 12700.0000  0.91%  88.6  580s
 11511  7548 12633.0000  203  109 12586.0000 12700.0000  0.91%  88.3  588s
 11557  7572 12679.0000  159  133 12586.0000 12700.0000  0.91%  88.3  590s
 11818  7714 12668.0000  155  116 12586.0000 12700.0000  0.91%  87.9  595s

Cutting planes:
  Gomory: 14
  Cover: 190
  Clique: 34
  MIR: 51
  StrongCG: 51
  Flow cover: 27
  Zero half: 1
  RLT: 8

Explored 12110 nodes (1074699 simplex iterations) in 600.00 seconds (432.24 work units)
Thread count was 1 (of 12 available processors)

Solution count 10: 12586 12566 12564 ... 12390

Time limit reached
Best objective 1.258600000000e+04, best bound 1.270000000000e+04, gap 0.9058%
Solution = 12586.000000
