N4C3W2_J
Set parameter Username
Academic license - for non-commercial use only - expires 2025-02-19
Set parameter Threads to value 1
Set parameter TimeLimit to value 600
Gurobi Optimizer version 11.0.0 build v11.0.0rc2 (linux64 - "Ubuntu 18.04.6 LTS")

CPU model: Intel(R) Xeon(R) CPU E5-2420 0 @ 1.90GHz, instruction set [SSE2|AVX]
Thread count: 6 physical cores, 12 logical processors, using up to 1 threads

Optimize a model with 183 rows, 8343 columns and 16605 nonzeros
Model fingerprint: 0xc35e3fc2
Variable types: 0 continuous, 8343 integer (8343 binary)
Coefficient statistics:
  Matrix range     [1e+00, 1e+02]
  Objective range  [2e+01, 1e+02]
  Bounds range     [1e+00, 1e+00]
  RHS range        [2e+02, 2e+02]
Found heuristic solution: objective -0.0000000
Presolve removed 0 rows and 1 columns
Presolve time: 0.06s
Presolved: 183 rows, 8342 columns, 16604 nonzeros
Variable types: 0 continuous, 8342 integer (8342 binary)
Found heuristic solution: objective 20.0000000

Root relaxation: objective 1.530000e+04, 480 iterations, 0.02 seconds (0.01 work units)

    Nodes    |    Current Node    |     Objective Bounds      |     Work
 Expl Unexpl |  Obj  Depth IntInf | Incumbent    BestBd   Gap | It/Node Time

     0     0 15300.0000    0   98   20.00000 15300.0000      -     -    0s
H    0     0                    10926.000000 15300.0000  40.0%     -    0s
H    0     0                    12300.000000 15300.0000  24.4%     -    0s
     0     0 15300.0000    0  204 12300.0000 15300.0000  24.4%     -    0s
H    0     0                    14458.000000 15300.0000  5.82%     -    1s
     0     0 15300.0000    0  195 14458.0000 15300.0000  5.82%     -    2s
     0     0 15300.0000    0  100 14458.0000 15300.0000  5.82%     -    2s
     0     0 15300.0000    0   72 14458.0000 15300.0000  5.82%     -    2s
     0     2 15300.0000    0   72 14458.0000 15300.0000  5.82%     -    3s
   124    98 15278.0000   82  105 14458.0000 15300.0000  5.82%  33.9    6s
H  125    97                    14810.000000 15300.0000  3.31%  33.6    8s
   203   169 15244.0000  136   96 14810.0000 15300.0000  3.31%  34.1   10s
H  659   523                    14958.000000 15300.0000  2.29%  20.1   13s
   663   526 15054.0000  351   67 14958.0000 15300.0000  2.29%  20.0   16s
   678   538 15300.0000   16   90 14958.0000 15300.0000  2.29%  55.8   20s
   710   559 15300.0000   32   93 14958.0000 15300.0000  2.29%  57.4   27s
H  727   542                    15000.000000 15300.0000  2.00%  58.1   31s
   785   582 15300.0000   69   99 15000.0000 15300.0000  2.00%  57.7   36s
   829   604 15285.0000   91  116 15000.0000 15300.0000  2.00%  58.1   40s
   897   629 15300.0000   28  102 15000.0000 15300.0000  2.00%  60.2   45s
   993   693 15300.0000   76  103 15000.0000 15300.0000  2.00%  60.7   54s
   994   694 15300.0000   76  100 15000.0000 15300.0000  2.00%  60.8   55s
  1123   772 15283.0000  141  112 15000.0000 15300.0000  2.00%  59.4   60s
  1168   802 15271.0000  163  106 15000.0000 15300.0000  2.00%  59.5   65s
  1302   868 15300.0000   54  119 15000.0000 15300.0000  2.00%  59.2   70s
  1404   936 15273.0000  105  124 15000.0000 15300.0000  2.00%  59.1   75s
  1564  1040 15246.0000  186  109 15000.0000 15300.0000  2.00%  56.5   80s
  1620  1077 15227.0000  214  115 15000.0000 15300.0000  2.00%  55.4   89s
H 1621  1050                    15096.000000 15300.0000  1.35%  55.4   91s
  1828  1125 15300.0000   57   94 15096.0000 15300.0000  1.35%  52.8   95s
  1975  1221 15294.0000  130  116 15096.0000 15300.0000  1.35%  54.1  101s
  2060  1267 15276.0000  172  118 15096.0000 15300.0000  1.35%  54.6  105s
  2136  1287 15225.0000  199  104 15096.0000 15300.0000  1.35%  55.3  113s
  2163  1304 15297.0000   32   87 15096.0000 15300.0000  1.35%  55.3  115s
  2304  1441 15273.0000  102  116 15096.0000 15300.0000  1.35%  55.2  120s
  2408  1527 15300.0000   73  106 15096.0000 15300.0000  1.35%  55.3  125s
  2544  1659 15300.0000  141  120 15096.0000 15300.0000  1.35%  55.2  130s
  2667  1763 15277.0000   93  109 15096.0000 15300.0000  1.35%  54.8  135s
H 2831  1881                    15103.000000 15300.0000  1.30%  53.9  143s
  2857  1909 15300.0000  112  104 15103.0000 15300.0000  1.30%  53.8  145s
  2983  2034 15300.0000  176  115 15103.0000 15300.0000  1.30%  53.2  150s
  3083  2116 15299.0000  108  105 15103.0000 15300.0000  1.30%  53.3  155s
  3142  2173 15279.0000  144  115 15103.0000 15300.0000  1.30%  53.5  161s
  3217  2232 15174.0000  176   93 15103.0000 15300.0000  1.30%  54.0  165s
  3375  2341 15287.0000   77  129 15103.0000 15300.0000  1.30%  54.3  170s
  3563  2506 15290.0000  104  116 15103.0000 15300.0000  1.30%  55.7  175s
  3711  2621 infeasible  130      15103.0000 15300.0000  1.30%  56.1  180s
  3866  2754 15300.0000  108  127 15103.0000 15300.0000  1.30%  56.6  189s
  3896  2766 15300.0000   63  102 15103.0000 15300.0000  1.30%  56.4  190s
  3993  2816 15299.0000   71  110 15103.0000 15300.0000  1.30%  56.9  195s
  4215  2990 infeasible   76      15103.0000 15300.0000  1.30%  56.9  200s
H 4232  3001                    15153.000000 15300.0000  0.97%  56.9  203s
  4280  3049 15266.0000  105  121 15153.0000 15300.0000  0.97%  57.2  205s
  4457  3212 15213.0000  176   97 15153.0000 15300.0000  0.97%  57.0  210s
  4735  3468 15183.0000  287   82 15153.0000 15300.0000  0.97%  55.4  215s
  5013  3648 15287.0000  102  128 15153.0000 15300.0000  0.97%  53.8  220s
  5236  3820 15278.0000   86  105 15153.0000 15300.0000  0.97%  53.8  225s
  5405  3936 15284.0000  116  113 15153.0000 15300.0000  0.97%  54.0  233s
  5414  3945 15283.0000  125  116 15153.0000 15300.0000  0.97%  54.0  235s
  5611  4092 15280.0000  132  129 15153.0000 15300.0000  0.97%  55.1  240s
  5835  4244 15226.0000  104  112 15153.0000 15300.0000  0.97%  55.3  245s
  5939  4319 15162.0000   65  113 15153.0000 15300.0000  0.97%  56.2  250s
  6123  4451 15300.0000   58  104 15153.0000 15300.0000  0.97%  56.7  255s
  6160  4488 15288.0000   76  114 15153.0000 15300.0000  0.97%  56.7  260s
  6281  4605 15300.0000  137  125 15153.0000 15300.0000  0.97%  57.0  265s
  6504  4764 15260.0000   72  107 15153.0000 15300.0000  0.97%  56.6  270s
  6693  4882 15254.0000   81  124 15153.0000 15300.0000  0.97%  56.9  275s
  6991  5091 15300.0000   36   93 15153.0000 15300.0000  0.97%  56.5  281s
  7211  5275 15300.0000   54  100 15153.0000 15300.0000  0.97%  56.2  286s
  7639  5557 15300.0000   55   96 15153.0000 15300.0000  0.97%  55.4  290s
  8159  5885 15291.0000   74  117 15153.0000 15300.0000  0.97%  54.1  295s
  8633  6291 15281.0000  192  102 15153.0000 15300.0000  0.97%  53.4  300s
  9199  6778 15300.0000   48   87 15153.0000 15300.0000  0.97%  52.2  306s
  9413  6917 infeasible  166      15153.0000 15300.0000  0.97%  52.1  310s
  9791  7166 15261.0000   68  117 15153.0000 15300.0000  0.97%  52.3  315s
 10202  7395 15300.0000   64  109 15153.0000 15300.0000  0.97%  51.6  322s
 10500  7685 15178.0000  169  116 15153.0000 15300.0000  0.97%  51.5  326s
 10887  7908 infeasible  188      15153.0000 15300.0000  0.97%  51.2  330s
 10967  7935 15294.0000   57   98 15153.0000 15300.0000  0.97%  51.5  335s
 11376  8254 15271.0000  181  114 15153.0000 15300.0000  0.97%  51.3  340s
 12008  8641 15275.0000  147  117 15153.0000 15300.0000  0.97%  50.7  345s
 12418  8865 15295.0000  107  122 15153.0000 15300.0000  0.97%  50.5  350s
 13091  9315 infeasible   94      15153.0000 15300.0000  0.97%  50.1  355s
 13583  9626 15300.0000   89  114 15153.0000 15300.0000  0.97%  49.9  362s
 13881  9781 15279.0000  186  114 15153.0000 15300.0000  0.97%  49.7  365s
H14238 10014                    15154.000000 15300.0000  0.96%  49.2  368s
 14342 10076 15284.0000  123  132 15154.0000 15300.0000  0.96%  49.2  370s
 15035 10512 15275.0000  173  118 15154.0000 15300.0000  0.96%  48.7  375s
 15668 10840 15294.0000   76  116 15154.0000 15300.0000  0.96%  48.5  380s
 15967 11016 15228.0000  137  109 15154.0000 15300.0000  0.96%  48.6  387s
 16038 11037 15300.0000   70  104 15154.0000 15300.0000  0.96%  48.5  390s
 16732 11549 15256.0000   90  102 15154.0000 15300.0000  0.96%  48.2  395s
 17423 12061 15257.0000  103  108 15154.0000 15300.0000  0.96%  47.9  400s
 17846 12315 15266.0000  111  119 15154.0000 15300.0000  0.96%  48.1  405s
 18336 12671 15290.0000   76  112 15154.0000 15300.0000  0.96%  48.0  410s
 18594 12798 15173.0000  239   91 15154.0000 15300.0000  0.96%  47.8  415s
 19225 13270 15278.0000   87  110 15154.0000 15300.0000  0.96%  47.5  421s
 19501 13432 15199.0000  109  117 15154.0000 15300.0000  0.96%  47.6  425s
 20400 13971 15281.0000  114  122 15154.0000 15300.0000  0.96%  46.8  430s
 20999 14438 15254.0000  161  123 15154.0000 15300.0000  0.96%  46.8  435s
 21683 14828 15156.0000  244   94 15154.0000 15300.0000  0.96%  46.2  444s
 21721 14848 15262.0000  178  108 15154.0000 15300.0000  0.96%  46.2  445s
 22412 15332 15300.0000   45  100 15154.0000 15300.0000  0.96%  45.8  450s
 22834 15591 15287.0000   64  112 15154.0000 15300.0000  0.96%  46.0  455s
 23505 16031 15293.0000   67  125 15154.0000 15300.0000  0.96%  45.7  460s
 23953 16267 15209.0000   93  114 15154.0000 15300.0000  0.96%  46.0  465s
 24332 16569 15268.0000   60   99 15154.0000 15300.0000  0.96%  46.1  470s
 24389 16618 15227.0000   83  106 15154.0000 15300.0000  0.96%  46.2  475s
 24490 16685 15181.0000  113  102 15154.0000 15300.0000  0.96%  46.3  480s
 24705 16805 15267.0000   98  114 15154.0000 15300.0000  0.96%  46.6  485s
 24835 16895 15269.0000   70  111 15154.0000 15300.0000  0.96%  46.7  490s
 25226 17269 15218.0000  228  117 15154.0000 15300.0000  0.96%  46.7  495s
 25419 17435 15191.0000   84   93 15154.0000 15300.0000  0.96%  46.8  500s
 25628 17575 15300.0000   51   95 15154.0000 15300.0000  0.96%  46.8  505s
 25987 17881 15296.0000   50  112 15154.0000 15300.0000  0.96%  46.8  510s
 26095 17945 15261.0000   55  108 15154.0000 15300.0000  0.96%  46.9  515s
 26225 18001 infeasible   70      15154.0000 15300.0000  0.96%  47.1  520s
 26408 18134 15159.0000  122  109 15154.0000 15300.0000  0.96%  47.3  526s
 26421 18141 15159.0000  130  105 15154.0000 15300.0000  0.96%  47.3  533s
 26535 18215 15284.0000   60  105 15154.0000 15300.0000  0.96%  47.4  535s
 26598 18242 15294.0000   50  111 15154.0000 15300.0000  0.96%  47.6  543s
 26663 18273 15293.0000   46  108 15154.0000 15300.0000  0.96%  47.6  545s
 26870 18426 15300.0000   48  113 15154.0000 15300.0000  0.96%  47.8  550s
 27144 18596 15264.0000   71  105 15154.0000 15300.0000  0.96%  47.9  555s
 27204 18646 15161.0000  126  106 15154.0000 15300.0000  0.96%  48.1  563s
 27266 18678 15240.0000   80  115 15154.0000 15300.0000  0.96%  48.1  565s
 27547 18863 15280.0000  114  115 15154.0000 15300.0000  0.96%  48.3  570s
 27769 19021 15232.0000   82  102 15154.0000 15300.0000  0.96%  48.7  575s
 28182 19227 15155.0000  166   95 15154.0000 15300.0000  0.96%  48.5  580s
 28426 19397 15268.0000   80  123 15154.0000 15300.0000  0.96%  48.6  585s
 28479 19441 15243.0000  100  118 15154.0000 15300.0000  0.96%  48.7  590s
 28713 19603 15156.0000  159   91 15154.0000 15300.0000  0.96%  48.7  595s

Cutting planes:
  Gomory: 5
  Cover: 63
  Clique: 28
  MIR: 10
  StrongCG: 18
  Flow cover: 11
  RLT: 10

Explored 29246 nodes (1430014 simplex iterations) in 600.00 seconds (367.76 work units)
Thread count was 1 (of 12 available processors)

Solution count 10: 15154 15153 15103 ... 10926

Time limit reached
Best objective 1.515400000000e+04, best bound 1.530000000000e+04, gap 0.9634%
Solution = 15154.000000
