N4W2B3R4
Set parameter Username
Academic license - for non-commercial use only - expires 2025-02-19
Set parameter Threads to value 1
Set parameter TimeLimit to value 600
Gurobi Optimizer version 11.0.0 build v11.0.0rc2 (linux64 - "Ubuntu 18.04.6 LTS")

CPU model: Intel(R) Xeon(R) CPU E5-2420 0 @ 1.90GHz, instruction set [SSE2|AVX]
Thread count: 6 physical cores, 12 logical processors, using up to 1 threads

Optimize a model with 315 rows, 13515 columns and 26765 nonzeros
Model fingerprint: 0x5648b30a
Variable types: 0 continuous, 13515 integer (13515 binary)
Coefficient statistics:
  Matrix range     [1e+00, 4e+02]
  Objective range  [2e+01, 4e+02]
  Bounds range     [1e+00, 1e+00]
  RHS range        [1e+03, 1e+03]
Found heuristic solution: objective -0.0000000
Presolve removed 0 rows and 124 columns
Presolve time: 0.11s
Presolved: 315 rows, 13391 columns, 26641 nonzeros
Variable types: 0 continuous, 13391 integer (13391 binary)
Found heuristic solution: objective 24548.000000

Root relaxation: objective 5.000000e+04, 564 iterations, 0.04 seconds (0.02 work units)

    Nodes    |    Current Node    |     Objective Bounds      |     Work
 Expl Unexpl |  Obj  Depth IntInf | Incumbent    BestBd   Gap | It/Node Time

     0     0 50000.0000    0   55 24548.0000 50000.0000   104%     -    0s
H    0     0                    49122.000000 50000.0000  1.79%     -    0s
H    0     0                    49611.000000 50000.0000  0.78%     -    1s
H    0     0                    49696.000000 50000.0000  0.61%     -    1s
     0     0 50000.0000    0  102 49696.0000 50000.0000  0.61%     -    1s
H    0     0                    49794.000000 50000.0000  0.41%     -    2s
     0     0 50000.0000    0  114 49794.0000 50000.0000  0.41%     -    2s
     0     0 50000.0000    0   65 49794.0000 50000.0000  0.41%     -    3s
     0     0 50000.0000    0   64 49794.0000 50000.0000  0.41%     -    3s
     0     2 50000.0000    0   59 49794.0000 50000.0000  0.41%     -    3s
H   28    28                    49818.000000 50000.0000  0.37%  22.3    5s
H   71    71                    49822.000000 50000.0000  0.36%  18.2    7s
   207   209 49987.0000  180   70 49822.0000 50000.0000  0.36%  16.9   10s
   904   906 49913.0000  823   48 49822.0000 50000.0000  0.36%  10.8   15s
H  994   994                    49860.000000 50000.0000  0.28%  10.3   19s
  1101  1103 49898.0000 1001   47 49860.0000 50000.0000  0.28%  10.2   20s
H 1502  1394                    49877.000000 50000.0000  0.25%  10.5   26s
  1514  1402 49985.0000  259   57 49877.0000 50000.0000  0.25%  10.4   30s
H 1547  1353                    49898.000000 50000.0000  0.20%  34.7   34s
H 1548  1287                    49903.000000 50000.0000  0.19%  34.8   36s
H 1575  1241                    49909.000000 50000.0000  0.18%  35.0   38s
H 1579  1184                    49912.000000 50000.0000  0.18%  35.1   39s
  1583  1188 50000.0000   42   67 49912.0000 50000.0000  0.18%  35.2   40s
  1654  1236 50000.0000   78   71 49912.0000 50000.0000  0.18%  35.5   45s
  1710  1273 50000.0000  106   75 49912.0000 50000.0000  0.18%  35.5   50s
H 1746  1237                    49915.000000 50000.0000  0.17%  35.4   52s
  1796  1272 50000.0000  149   79 49915.0000 50000.0000  0.17%  35.5   55s
  1869  1321 50000.0000  185   81 49915.0000 50000.0000  0.17%  35.5   60s
H 1940  1311                    49921.000000 50000.0000  0.16%  35.5   64s
  1941  1314 50000.0000  221   80 49921.0000 50000.0000  0.16%  35.5   65s
  2011  1361 50000.0000  256   77 49921.0000 50000.0000  0.16%  35.5   70s
  2583  1735 49954.0000  542   39 49921.0000 50000.0000  0.16%  30.2   75s
H 2675  1701                    49922.000000 50000.0000  0.16%  30.0   78s
  2708  1725 50000.0000   46   60 49922.0000 50000.0000  0.16%  30.2   80s
  2833  1809 50000.0000  109   74 49922.0000 50000.0000  0.16%  30.5   85s
  2958  1892 50000.0000  171   75 49922.0000 50000.0000  0.16%  30.2   92s
  3068  1965 50000.0000  226   75 49922.0000 50000.0000  0.16%  30.0   95s
H 3218  1930                    49945.000000 50000.0000  0.11%  30.0   98s
  3410  2060 50000.0000  397   66 49945.0000 50000.0000  0.11%  29.7  100s
  3763  2212 50000.0000   18   50 49945.0000 50000.0000  0.11%  28.0  105s
H 3818  2165                    49948.000000 50000.0000  0.10%  28.3  108s
  3911  2229 50000.0000   92   69 49948.0000 50000.0000  0.10%  28.4  110s
  4142  2383 50000.0000  207   79 49948.0000 50000.0000  0.10%  28.4  115s
  4551  2782 49987.0000  412   65 49948.0000 50000.0000  0.10%  28.0  120s
  4899  3082 50000.0000   78   65 49948.0000 50000.0000  0.10%  27.2  125s
  4924  3107 50000.0000   90   63 49948.0000 50000.0000  0.10%  27.2  130s
H 5040  3089                    49958.000000 50000.0000  0.08%  27.3  135s
  5250  3301 49979.0000  253   73 49958.0000 50000.0000  0.08%  27.3  140s
  5644  3690 49988.0000  451   60 49958.0000 50000.0000  0.08%  26.7  145s
  6215  4158 50000.0000   67   65 49958.0000 50000.0000  0.08%  25.3  150s
  6350  4293 50000.0000  134   70 49958.0000 50000.0000  0.08%  25.5  155s
  6760  4703 50000.0000  339   76 49958.0000 50000.0000  0.08%  25.4  160s
  7235  5151     cutoff  578      49958.0000 50000.0000  0.08%  24.6  165s
  7559  5357 50000.0000  122   70 49958.0000 50000.0000  0.08%  24.3  170s
  7911  5709 50000.0000  298   77 49958.0000 50000.0000  0.08%  24.3  175s
H 7918  5579                    49964.000000 50000.0000  0.07%  24.3  176s
  8434  6091 50000.0000  560   55 49964.0000 50000.0000  0.07%  23.9  180s
  8788  6385 50000.0000  151   70 49964.0000 50000.0000  0.07%  23.8  185s
  8856  6453 50000.0000  185   74 49964.0000 50000.0000  0.07%  23.8  191s
  8918  6515 50000.0000  216   77 49964.0000 50000.0000  0.07%  23.8  195s
H 8938  6473                    49967.000000 50000.0000  0.07%  23.8  196s
  9151  6688 50000.0000  332   68 49967.0000 50000.0000  0.07%  23.7  200s
  9761  7256 50000.0000   93   64 49967.0000 50000.0000  0.07%  23.2  205s
  9938  7433 50000.0000  181   69 49967.0000 50000.0000  0.07%  23.4  211s
 10119  7614 50000.0000  272   72 49967.0000 50000.0000  0.07%  23.4  215s
 10202  7697 50000.0000  313   74 49967.0000 50000.0000  0.07%  23.3  225s
 10698  8188 49998.0000  561   60 49967.0000 50000.0000  0.07%  23.0  230s
 11012  8486 50000.0000  270   80 49967.0000 50000.0000  0.07%  23.0  235s
 11305  8779 50000.0000  400   78 49967.0000 50000.0000  0.07%  23.0  240s
 11741  9215 50000.0000  628   71 49967.0000 50000.0000  0.07%  22.8  245s
 12445  9919 50000.0000  982   58 49967.0000 50000.0000  0.07%  22.3  250s
 13246 10587 49988.0000  471   69 49967.0000 50000.0000  0.07%  21.5  255s
 13945 11215 50000.0000   31   64 49967.0000 50000.0000  0.07%  20.9  260s
 14049 11319 50000.0000   89   83 49967.0000 50000.0000  0.07%  21.2  265s
 14171 11441 50000.0000  158   78 49967.0000 50000.0000  0.07%  21.3  270s
 14523 11793 50000.0000  305   82 49967.0000 50000.0000  0.07%  21.3  275s
 14754 12024 50000.0000  400   89 49967.0000 50000.0000  0.07%  21.3  282s
 14867 12137 50000.0000  456   82 49967.0000 50000.0000  0.07%  21.3  285s
 15327 12597 50000.0000  749   72 49967.0000 50000.0000  0.07%  21.0  290s
 16177 13308 50000.0000   40   66 49967.0000 50000.0000  0.07%  20.4  295s
 16269 13400 50000.0000   99   79 49967.0000 50000.0000  0.07%  20.6  300s
 16406 13537 50000.0000  171   85 49967.0000 50000.0000  0.07%  20.7  305s
H16624 13655                    49969.000000 50000.0000  0.06%  20.7  308s
 16694 13727 50000.0000  305   70 49969.0000 50000.0000  0.06%  20.7  310s
 17128 14161 50000.0000  523   72 49969.0000 50000.0000  0.06%  20.6  315s
 17654 14687 50000.0000  808   67 49969.0000 50000.0000  0.06%  20.4  320s
 18304 15293 49990.0000 1179   54 49969.0000 50000.0000  0.06%  20.1  325s
 18396 15370 50000.0000   74   81 49969.0000 50000.0000  0.06%  20.3  330s
 18668 15642 50000.0000  199   77 49969.0000 50000.0000  0.06%  20.5  335s
 19368 16342 50000.0000  491   80 49969.0000 50000.0000  0.06%  20.3  340s
 19745 16719 50000.0000  707   74 49969.0000 50000.0000  0.06%  20.1  345s
 20251 17147 50000.0000  102   82 49969.0000 50000.0000  0.06%  20.1  350s
 20556 17452 50000.0000  267   79 49969.0000 50000.0000  0.06%  20.3  355s
 21070 17966 50000.0000  475   76 49969.0000 50000.0000  0.06%  20.3  360s
 21780 18640 50000.0000  204   74 49969.0000 50000.0000  0.06%  20.2  365s
H21794 18602                    49970.000000 50000.0000  0.06%  20.2  365s
 22090 18900 50000.0000  369   75 49970.0000 50000.0000  0.06%  20.3  370s
 22524 19334 50000.0000  556   77 49970.0000 50000.0000  0.06%  20.4  375s
 23508 20259 50000.0000  102   78 49970.0000 50000.0000  0.06%  20.2  380s
 23706 20457 50000.0000  300   96 49970.0000 50000.0000  0.06%  20.6  385s
 24046 20783 50000.0000  631   85 49970.0000 50000.0000  0.06%  20.7  390s
 24371 21074 50000.0000  100   74 49970.0000 50000.0000  0.06%  20.7  395s
 24584 21287 50000.0000  207   70 49970.0000 50000.0000  0.06%  20.7  401s
 24845 21548 50000.0000  337   75 49970.0000 50000.0000  0.06%  20.7  405s
 25407 22110 50000.0000  618   64 49970.0000 50000.0000  0.06%  20.7  410s
 25906 22555 49986.0000  293   80 49970.0000 50000.0000  0.06%  20.8  415s
H25972 22555                    49971.000000 50000.0000  0.06%  21.0  417s
 26124 22648 50000.0000  124   76 49971.0000 50000.0000  0.06%  21.2  420s
H26204 22616                    49972.000000 50000.0000  0.06%  21.2  421s
 26367 22781 50000.0000  367   86 49972.0000 50000.0000  0.06%  21.5  425s
H26372 22353                    49978.000000 50000.0000  0.04%  21.5  425s
 26772 22741 50000.0000  766   78 49978.0000 50000.0000  0.04%  21.5  430s
H26815 22572                    49979.000000 50000.0000  0.04%  21.5  430s
 27273 22991 50000.0000  183   80 49979.0000 50000.0000  0.04%  21.4  435s
 27815 23533 50000.0000  432   76 49979.0000 50000.0000  0.04%  21.5  440s
 28497 24215 50000.0000  754   70 49979.0000 50000.0000  0.04%  21.4  445s
 29129 24782 49986.0000  272   78 49979.0000 50000.0000  0.04%  21.3  450s
 29424 25077 49986.0000  567   85 49979.0000 50000.0000  0.04%  21.4  455s
 30112 25752 49986.0000 1250   89 49979.0000 50000.0000  0.04%  21.3  460s
 30668 26302 49986.0000 1803   80 49979.0000 50000.0000  0.04%  21.1  465s
 31260 26852 50000.0000  295   89 49979.0000 50000.0000  0.04%  21.1  470s
 31571 27163 50000.0000  606   85 49979.0000 50000.0000  0.04%  21.3  475s
 32167 27759 50000.0000 1202   80 49979.0000 50000.0000  0.04%  21.2  480s
 32710 28278 49986.0000 1736   81 49979.0000 50000.0000  0.04%  21.1  485s
 33072 28626 50000.0000  456   86 49979.0000 50000.0000  0.04%  21.2  490s
 33731 29266 49982.0000 1105   89 49979.0000 50000.0000  0.04%  21.1  495s
 34519 29838 50000.0000  668   76 49979.0000 50000.0000  0.04%  20.9  500s
 36094 31247 49981.0000  924   66 49979.0000 50000.0000  0.04%  20.3  505s
 37158 32271 49988.0000  664   72 49979.0000 50000.0000  0.04%  19.9  510s
 38703 33738 49987.0000 1726   61 49979.0000 50000.0000  0.04%  19.3  515s
 39179 34154 50000.0000  719   71 49979.0000 50000.0000  0.04%  19.2  520s
 40110 34972 49988.0000 1208   61 49979.0000 50000.0000  0.04%  18.9  525s
 41584 36084 49980.0000  787   58 49979.0000 50000.0000  0.04%  18.5  530s
 42913 37243 49984.0000 1646   62 49979.0000 50000.0000  0.04%  18.2  535s
 44055 38275 49980.0000  860   63 49979.0000 50000.0000  0.04%  17.9  540s
 45439 39448 49989.0000  935   70 49979.0000 50000.0000  0.04%  17.5  545s
 46550 40513 50000.0000  723   70 49979.0000 50000.0000  0.04%  17.2  550s
 48387 42279 49981.0000 1429   67 49979.0000 50000.0000  0.04%  16.8  555s
 49668 43280 49981.0000  942   65 49979.0000 50000.0000  0.04%  16.5  560s
 51194 44421 50000.0000  775   73 49979.0000 50000.0000  0.04%  16.3  565s
 52631 45783 49982.0000  783   60 49979.0000 50000.0000  0.04%  16.0  570s
 54063 47139 49985.0000  687   73 49979.0000 50000.0000  0.04%  15.8  575s
 55447 48318 49981.0000  788   58 49979.0000 50000.0000  0.04%  15.6  580s
 56697 49447 49982.0000  679   68 49979.0000 50000.0000  0.04%  15.4  585s
 58225 50849 49983.0000 1312   59 49979.0000 50000.0000  0.04%  15.1  590s
 59448 51974 50000.0000  744   72 49979.0000 50000.0000  0.04%  15.0  595s
 60983 53165 infeasible 1177      49979.0000 50000.0000  0.04%  14.8  600s

Cutting planes:
  Gomory: 1
  Cover: 27
  Clique: 7
  MIR: 3
  StrongCG: 4
  Flow cover: 4
  RLT: 9

Explored 60984 nodes (909023 simplex iterations) in 600.01 seconds (247.18 work units)
Thread count was 1 (of 12 available processors)

Solution count 10: 49979 49978 49972 ... 49948

Time limit reached
Best objective 4.997900000000e+04, best bound 5.000000000000e+04, gap 0.0420%
Solution = 49979.000000
