Schwerin1_BPP19
Set parameter Username
Academic license - for non-commercial use only - expires 2025-02-19
Set parameter Threads to value 1
Set parameter TimeLimit to value 600
Gurobi Optimizer version 11.0.0 build v11.0.0rc2 (linux64 - "Ubuntu 18.04.6 LTS")

CPU model: Intel(R) Xeon(R) CPU E5-2420 0 @ 1.90GHz, instruction set [SSE2|AVX]
Thread count: 6 physical cores, 12 logical processors, using up to 1 threads

Optimize a model with 53 rows, 440 columns and 836 nonzeros
Model fingerprint: 0xfd78033b
Variable types: 0 continuous, 440 integer (440 binary)
Coefficient statistics:
  Matrix range     [1e+00, 2e+02]
  Objective range  [2e+02, 2e+02]
  Bounds range     [1e+00, 1e+00]
  RHS range        [1e+03, 1e+03]
Found heuristic solution: objective -0.0000000
Presolve removed 0 rows and 17 columns
Presolve time: 0.00s
Presolved: 53 rows, 423 columns, 819 nonzeros
Variable types: 0 continuous, 423 integer (423 binary)
Found heuristic solution: objective 2966.0000000

Root relaxation: objective 9.000000e+03, 78 iterations, 0.00 seconds (0.00 work units)

    Nodes    |    Current Node    |     Objective Bounds      |     Work
 Expl Unexpl |  Obj  Depth IntInf | Incumbent    BestBd   Gap | It/Node Time

     0     0 9000.00000    0   12 2966.00000 9000.00000   203%     -    0s
H    0     0                    8172.0000000 9000.00000  10.1%     -    0s
     0     0 9000.00000    0   20 8172.00000 9000.00000  10.1%     -    0s
H    0     0                    8441.0000000 9000.00000  6.62%     -    0s
     0     0 9000.00000    0   39 8441.00000 9000.00000  6.62%     -    0s
     0     0 9000.00000    0   13 8441.00000 9000.00000  6.62%     -    0s
     0     0 9000.00000    0   15 8441.00000 9000.00000  6.62%     -    0s
     0     0 9000.00000    0   16 8441.00000 9000.00000  6.62%     -    0s
     0     0 9000.00000    0   16 8441.00000 9000.00000  6.62%     -    0s
H    0     0                    8703.0000000 9000.00000  3.41%     -    0s
H    0     0                    8725.0000000 9000.00000  3.15%     -    0s
H    0     0                    8764.0000000 9000.00000  2.69%     -    0s
     0     2 9000.00000    0   16 8764.00000 9000.00000  2.69%     -    0s
H   26    26                    8853.0000000 9000.00000  1.66%   4.6    0s
H   27    27                    8891.0000000 9000.00000  1.23%   4.5    0s
H   81    45                    8895.0000000 9000.00000  1.18%   6.5    0s
H  130    78                    8910.0000000 9000.00000  1.01%   6.1    0s
H  306   121                    8921.0000000 9000.00000  0.89%   6.8    0s
H  342   129                    8985.0000000 9000.00000  0.17%   6.8    0s
H  937   324                    8994.0000000 9000.00000  0.07%   8.5    2s
H  990   323                    8995.0000000 9000.00000  0.06%   8.2    2s
  3024  1302 9000.00000   82   22 8995.00000 9000.00000  0.06%   5.1    5s
 13351  5363 9000.00000   83   11 8995.00000 9000.00000  0.06%   4.2   10s
 24433  7265 9000.00000  100   14 8995.00000 9000.00000  0.06%   4.1   15s
H34608  8154                    8997.0000000 9000.00000  0.03%   4.1   19s
 36099  8094 9000.00000  102   16 8997.00000 9000.00000  0.03%   4.1   20s
 49307 10327 9000.00000   39   12 8997.00000 9000.00000  0.03%   4.1   25s
H52170 11387                    8998.0000000 9000.00000  0.02%   4.1   26s
 60359 14382     cutoff   79      8998.00000 9000.00000  0.02%   4.2   30s
 73568 19161 9000.00000   71   11 8998.00000 9000.00000  0.02%   4.2   35s
 86130 23015     cutoff   79      8998.00000 9000.00000  0.02%   4.2   40s
H92691 24441                    8999.0000000 9000.00000  0.01%   4.2   43s
 92930 24554 9000.00000   30   12 8999.00000 9000.00000  0.01%   4.2   45s
 95090 25241 infeasible  106      8999.00000 9000.00000  0.01%   4.3   50s
H101285 20377                    9000.0000000 9000.00000  0.00%   4.3   53s

Cutting planes:
  Gomory: 2
  Cover: 19
  Flow cover: 1
  Zero half: 4
  RLT: 5

Explored 101286 nodes (440373 simplex iterations) in 53.79 seconds (10.88 work units)
Thread count was 1 (of 12 available processors)

Solution count 10: 9000 8999 8998 ... 8895

Optimal solution found (tolerance 1.00e-04)
Best objective 9.000000000000e+03, best bound 9.000000000000e+03, gap 0.0000%
Solution = 9000.000000
