Schwerin1_BPP100
Set parameter Username
Academic license - for non-commercial use only - expires 2025-02-19
Set parameter Threads to value 1
Set parameter TimeLimit to value 600
Gurobi Optimizer version 11.0.0 build v11.0.0rc2 (linux64 - "Ubuntu 18.04.6 LTS")

CPU model: Intel(R) Xeon(R) CPU E5-2420 0 @ 1.90GHz, instruction set [SSE2|AVX]
Thread count: 6 physical cores, 12 logical processors, using up to 1 threads

Optimize a model with 52 rows, 430 columns and 817 nonzeros
Model fingerprint: 0xf916d742
Variable types: 0 continuous, 430 integer (430 binary)
Coefficient statistics:
  Matrix range     [1e+00, 2e+02]
  Objective range  [2e+02, 2e+02]
  Bounds range     [1e+00, 1e+00]
  RHS range        [1e+03, 1e+03]
Found heuristic solution: objective -0.0000000
Presolve removed 0 rows and 12 columns
Presolve time: 0.00s
Presolved: 52 rows, 418 columns, 805 nonzeros
Variable types: 0 continuous, 418 integer (418 binary)
Found heuristic solution: objective 2161.0000000

Root relaxation: objective 9.000000e+03, 91 iterations, 0.00 seconds (0.00 work units)

    Nodes    |    Current Node    |     Objective Bounds      |     Work
 Expl Unexpl |  Obj  Depth IntInf | Incumbent    BestBd   Gap | It/Node Time

     0     0 9000.00000    0   12 2161.00000 9000.00000   316%     -    0s
H    0     0                    8451.0000000 9000.00000  6.50%     -    0s
     0     0 9000.00000    0   22 8451.00000 9000.00000  6.50%     -    0s
     0     0 9000.00000    0   37 8451.00000 9000.00000  6.50%     -    0s
     0     0 9000.00000    0   11 8451.00000 9000.00000  6.50%     -    0s
H    0     0                    8479.0000000 9000.00000  6.14%     -    0s
H    0     0                    8515.0000000 9000.00000  5.70%     -    0s
     0     0 9000.00000    0   16 8515.00000 9000.00000  5.70%     -    0s
     0     0 9000.00000    0   12 8515.00000 9000.00000  5.70%     -    0s
H    0     0                    8562.0000000 9000.00000  5.12%     -    0s
     0     0 9000.00000    0   15 8562.00000 9000.00000  5.12%     -    0s
     0     0 9000.00000    0   10 8562.00000 9000.00000  5.12%     -    0s
H    0     0                    8598.0000000 9000.00000  4.68%     -    0s
     0     0 9000.00000    0   25 8598.00000 9000.00000  4.68%     -    0s
     0     0 9000.00000    0   11 8598.00000 9000.00000  4.68%     -    0s
     0     0 9000.00000    0   10 8598.00000 9000.00000  4.68%     -    0s
H    0     0                    8785.0000000 9000.00000  2.45%     -    0s
H    0     0                    8790.0000000 9000.00000  2.39%     -    0s
     0     2 9000.00000    0   10 8790.00000 9000.00000  2.39%     -    0s
H   27    15                    8903.0000000 9000.00000  1.09%   5.5    0s
H  329    40                    8917.0000000 9000.00000  0.93%   5.5    0s
H  367    54                    8923.0000000 9000.00000  0.86%   6.6    0s
H  595   152                    8939.0000000 9000.00000  0.68%   6.9    0s
H 1137   288                    8943.0000000 9000.00000  0.64%   9.0    1s
 10202  3264     cutoff   71      8943.00000 9000.00000  0.64%   5.0    5s
H18652  3721                    8947.0000000 9000.00000  0.59%   4.9    8s
 25707  6691 9000.00000   63   14 8947.00000 9000.00000  0.59%   4.6   10s
H43115  7346                    8955.0000000 9000.00000  0.50%   4.0   14s
 45227  8459 8992.00000  132   12 8955.00000 9000.00000  0.50%   4.0   15s
H61100 12351                    8970.0000000 9000.00000  0.33%   3.9   19s
 61316 12455 9000.00000   54   13 8970.00000 9000.00000  0.33%   3.9   20s
H62101 11880                    8990.0000000 9000.00000  0.11%   3.9   20s
H66008 12406                    8996.0000000 9000.00000  0.04%   3.9   21s
 80863 13479     cutoff  111      8996.00000 9000.00000  0.04%   3.8   25s
H99846 16841                    8998.0000000 9000.00000  0.02%   3.7   29s
 100835 16980 9000.00000  120   21 8998.00000 9000.00000  0.02%   3.7   30s
H107951     4                    9000.0000000 9000.00000  0.00%   3.7   31s

Cutting planes:
  Cover: 17
  Clique: 2
  StrongCG: 3
  Flow cover: 1
  RLT: 6

Explored 107952 nodes (401276 simplex iterations) in 31.72 seconds (11.99 work units)
Thread count was 1 (of 12 available processors)

Solution count 10: 9000 8998 8996 ... 8923

Optimal solution found (tolerance 1.00e-04)
Best objective 9.000000000000e+03, best bound 9.000000000000e+03, gap 0.0000%
Solution = 9000.000000
