44
1000
200	1
198	1
197	1
195	1
194	2
193	1
192	3
191	1
190	1
189	6
188	1
187	4
185	1
184	3
183	3
182	3
181	4
180	1
179	1
178	1
177	4
176	2
175	5
174	3
173	2
172	7
171	3
170	2
169	1
167	2
166	3
165	3
164	2
163	2
162	2
161	1
158	4
156	3
155	1
154	1
153	2
152	2
151	1
150	2
