46
1000
200	1
199	5
198	6
197	4
195	3
194	1
192	3
191	1
190	2
189	4
188	2
187	5
186	2
185	3
183	1
182	2
180	3
179	4
178	2
177	2
176	2
175	3
174	2
173	2
172	1
171	4
170	4
169	4
167	1
166	3
165	1
164	1
163	6
162	2
161	1
160	1
159	3
158	3
157	2
156	2
155	3
154	1
153	5
152	3
151	3
150	1
