47
1000
200	1
199	2
198	1
197	1
196	1
195	2
194	1
193	3
192	5
191	4
190	3
189	1
187	3
186	2
185	3
184	2
183	3
182	4
181	1
180	5
179	4
177	3
176	2
175	2
174	1
173	1
172	5
171	2
170	4
169	3
168	2
167	2
165	2
164	2
163	4
162	5
161	4
159	2
158	5
157	3
156	1
155	1
154	2
153	4
152	1
151	3
150	2
