47
1000
200	4
198	4
197	2
195	1
194	3
193	2
192	2
191	2
190	2
189	3
188	1
187	3
186	2
185	3
183	1
182	1
181	4
180	1
179	2
178	2
177	1
176	3
175	5
174	1
173	3
172	2
170	1
169	2
168	2
167	4
166	2
165	3
164	3
163	5
162	3
161	3
160	2
159	2
158	4
157	1
156	2
155	4
154	2
153	3
152	5
151	3
150	4
