47
1000
200	2
199	2
198	2
197	3
196	4
195	4
193	3
192	2
191	1
190	2
189	6
188	3
187	4
186	2
185	2
184	1
183	2
182	2
181	7
180	4
179	2
178	1
177	2
174	4
173	2
172	3
171	1
170	1
169	3
167	1
166	1
165	4
164	3
163	4
162	3
161	2
160	2
159	1
158	2
157	2
156	3
155	1
154	3
153	2
152	3
151	2
150	4
