48
1000
200	3
199	2
198	2
197	2
196	3
195	2
194	2
193	3
192	3
191	1
190	1
188	1
187	4
186	3
185	3
184	2
183	4
182	3
181	2
180	5
179	2
178	1
177	2
176	3
175	3
174	6
173	1
172	1
171	2
170	2
169	2
168	3
167	4
166	3
165	5
163	3
162	3
161	1
159	5
158	1
157	4
156	1
155	1
154	1
153	1
152	3
151	3
150	2
