46
1000
200	5
199	3
198	3
197	1
194	1
193	2
192	5
191	2
190	1
188	2
187	5
186	1
185	2
184	3
182	2
181	1
180	2
179	5
178	2
177	2
176	4
175	3
174	1
173	2
172	3
171	5
170	3
169	1
168	3
167	7
166	2
165	3
164	1
163	3
162	7
161	2
159	2
158	1
157	3
156	1
155	1
154	2
153	2
152	1
151	6
150	1
