45
1000
200	2
199	2
198	1
197	1
196	1
195	2
194	3
193	1
192	3
191	4
190	1
188	1
187	7
186	4
185	5
184	1
183	3
182	3
181	2
180	5
179	6
177	6
176	2
175	1
173	2
172	2
171	3
170	2
169	5
168	2
167	2
166	1
165	2
164	3
163	2
162	1
160	5
159	3
158	2
156	4
155	5
154	1
153	4
152	1
150	1
