45
1000
200	3
199	3
198	2
197	2
196	2
194	2
193	2
192	1
191	1
188	2
187	6
186	4
185	4
184	4
183	2
182	2
181	1
180	3
179	2
178	2
177	1
176	5
174	4
173	2
172	2
171	3
170	3
169	7
168	2
167	1
166	2
165	2
164	1
163	3
162	2
160	2
159	2
158	6
157	6
156	1
155	2
154	3
153	2
152	4
151	2
