45
1000
200	3
199	1
198	1
197	2
196	1
195	4
194	2
193	5
192	3
190	2
189	2
188	1
186	1
185	2
184	3
183	2
182	1
181	2
180	1
179	1
178	3
177	1
176	1
175	4
174	5
173	5
172	5
171	2
170	2
169	1
167	4
166	5
165	2
164	5
163	5
162	5
161	1
160	3
158	5
157	2
156	4
155	1
153	1
152	5
151	3
