45
1000
200	2
199	1
198	3
197	1
195	1
194	3
193	3
192	3
191	4
190	3
189	1
188	5
187	2
186	1
185	2
184	4
183	1
182	2
181	2
180	4
179	2
178	4
177	1
176	5
174	3
173	4
172	5
171	4
169	1
168	1
167	1
166	4
165	5
164	4
163	4
162	2
161	5
160	2
159	1
157	3
156	2
154	3
153	2
152	1
150	3
