41
1000
199	1
198	3
196	1
194	2
193	1
192	2
191	4
190	1
189	3
188	4
187	6
186	3
185	5
183	4
182	2
181	1
180	1
179	2
177	1
175	1
174	4
173	4
171	1
170	3
169	2
168	1
167	1
166	2
165	3
164	2
163	1
161	1
160	5
159	6
158	2
157	1
155	2
154	2
152	3
151	3
150	3
