500_125_50_9
Academic license - for non-commercial use only
Optimize a model with 1125 rows, 62501 columns and 125125 nonzeros
Variable types: 0 continuous, 62501 integer (62500 binary)
Coefficient statistics:
  Matrix range     [1e+00, 3e+01]
  Objective range  [1e+00, 1e+00]
  Bounds range     [1e+00, 1e+00]
  RHS range        [6e+00, 1e+01]
Found heuristic solution: objective 1131.0000000
Presolve removed 500 rows and 0 columns
Presolve time: 0.11s
Presolved: 625 rows, 62501 columns, 125125 nonzeros
Variable types: 0 continuous, 62501 integer (62500 binary)

Root relaxation: objective 7.733840e+02, 2371 iterations, 0.54 seconds

    Nodes    |    Current Node    |     Objective Bounds      |     Work
 Expl Unexpl |  Obj  Depth IntInf | Incumbent    BestBd   Gap | It/Node Time

     0     0  773.38400    0  129 1131.00000  773.38400  31.6%     -    2s
H    0     0                     841.0000000  773.38400  8.04%     -    2s
H    0     0                     781.0000000  773.38400  0.98%     -    2s
H    0     0                     777.0000000  773.38400  0.47%     -    5s
     0     0  774.00000    0  206  777.00000  774.00000  0.39%     -    6s
     0     0  774.00000    0  180  777.00000  774.00000  0.39%     -   18s
     0     0  774.00000    0  197  777.00000  774.00000  0.39%     -   21s
     0     0  774.00000    0  197  777.00000  774.00000  0.39%     -   22s
     0     1  774.00000    0  197  777.00000  774.00000  0.39%     -   30s
     6     2 infeasible    4       777.00000  774.00000  0.39%   562   40s
     8     2  774.00000    5  124  777.00000  774.00000  0.39%   485   46s
    10     4  774.00000    6  159  777.00000  774.00000  0.39%   500   52s
    12     8  774.00000    7  158  777.00000  774.00000  0.39%   486   57s
    16    14 infeasible    8       777.00000  774.00000  0.39%   454   66s
    24    16  774.00000    9   94  777.00000  774.00000  0.39%   389   76s
    34    26  774.00000   10  100  777.00000  774.00000  0.39%   316   95s
H   38    26                     776.0000000  774.00000  0.26%   332   95s
    44    33  774.00000   11   97  776.00000  774.00000  0.26%   436  112s
    54    42  774.00000   10  136  776.00000  774.00000  0.26%   516  131s
    64    48  774.00000   11  174  776.00000  774.00000  0.26%   514  154s
    74    48  774.00000   12   95  776.00000  774.00000  0.26%   555  172s
    84    57  774.00000   13  162  776.00000  774.00000  0.26%   573  188s
    94    60  774.00000   13   88  776.00000  774.00000  0.26%   561  213s
   105    70  774.00000   11   92  776.00000  774.00000  0.26%   537  231s
   122    77  774.00000   14  153  776.00000  774.00000  0.26%   518  252s
   146    90  774.00000   14  133  776.00000  774.00000  0.26%   512  287s
H  193   120                     775.0000000  774.00000  0.13%   479  347s
   252   156  774.00000   20  178  775.00000  774.00000  0.13%   454  432s
   355   215  774.00000   27  182  775.00000  774.00000  0.13%   437  566s
   506   302  774.00000   37  180  775.00000  774.00000  0.13%   376  733s
   700   424  774.00000   44  194  775.00000  774.00000  0.13%   366  909s
   885   521  774.00000   53  193  775.00000  774.00000  0.13%   332 1097s
  1090   641  774.00000   57  190  775.00000  774.00000  0.13%   333 1298s
  1338   804  774.00000   69  187  775.00000  774.00000  0.13%   364 1506s
  1565   967  774.00000   76  201  775.00000  774.00000  0.13%   367 1730s
  1799  1140  774.00000   24  169  775.00000  774.00000  0.13%   363 1738s
  1800  1141  774.00000   42   14  775.00000  774.00000  0.13%   363 1763s
H 1800  1083                     774.0000000  774.00000  0.00%   363 1768s

Cutting planes:
  Cover: 8
  MIR: 2
  StrongCG: 3
  Flow cover: 1

Explored 1800 nodes (674678 simplex iterations) in 1768.59 seconds
Thread count was 20 (of 20 available processors)

Solution count 7: 774 775 776 ... 1131

Optimal solution found (tolerance 1.00e-04)
Best objective 7.740000000000e+02, best bound 7.740000000000e+02, gap 0.0000%
Solution = 774.000000
