instances,GRASP,Hybrid-GA,LSMF,MFAP2,PLI,VNS,VNS2,brkga,brkga-TAQ,localSearch
10000_500_200_1,3068.42,258.06,0.12,3600.0,3600.0,3600.0,3600.0,321.94,668.3,13.44
10000_500_200_2,3600.0,256.26,0.1,3503.24,3600.0,3600.0,3600.0,293.1,623.44,60.82
10000_500_200_3,3600.0,260.09,0.15,3600.0,3600.0,3600.0,3600.0,312.4,1370.85,393.29
1000_250_125_1,60.77,48.94,0.0,3600.0,3600.0,607.83,607.83,86.83,245.32,0.91
1000_250_125_2,364.24,112.87,0.01,1521.69,33.7,3600.0,3600.0,127.41,123.76,1.08
1000_250_125_3,688.53,125.37,0.01,400.78,3600.0,1517.12,1517.12,102.19,165.33,2.11
1000_500_250_1,431.44,210.88,0.01,3600.0,3600.0,3600.0,3600.0,180.78,414.11,0.45
1000_500_250_2,3600.0,258.46,0.02,1055.44,75.61,3600.0,3600.0,257.52,252.77,120.68
1000_500_250_3,3600.0,257.52,0.02,189.78,3600.0,3600.0,3600.0,259.85,341.0,460.09
100_50_40_1,0.87,9.9,0.0,3.81,0.54,0.63,0.63,7.3,4.91,0.28
100_50_40_2,1.3,7.83,0.0,5.03,2.91,0.25,0.25,8.27,3.47,0.01
100_50_40_3,1.76,7.8,0.04,2132.24,4.04,0.28,0.28,7.48,7.35,0.02
100_75_50_1,1.31,13.6,0.0,3600.0,1.5,1.77,1.77,10.31,7.2,0.02
100_75_50_2,1.97,13.65,0.0,3600.0,934.23,3.9,3.9,10.84,6.01,0.04
100_75_50_3,2.91,14.06,0.0,1102.35,3600.0,0.59,0.59,10.7,21.88,0.1
200_100_50_1,1.83,23.0,0.0,2656.68,1169.21,2.12,2.12,17.6,20.89,0.02
200_100_50_2,2.88,21.56,0.0,67.17,3600.0,13.24,13.24,19.13,12.49,0.01
200_100_50_3,5.12,15.94,0.0,3600.0,3600.0,4.78,4.78,17.68,50.52,0.02
200_50_40_1,0.87,8.4,0.0,7.75,2.35,1.11,1.11,12.4,8.39,0.01
200_50_40_2,1.34,8.13,0.0,2930.73,7.94,0.53,0.53,13.39,6.16,0.0
200_50_40_3,1.92,8.87,0.08,372.67,12.39,0.19,0.19,11.46,9.19,0.01
400_100_50_1,4.69,16.91,0.0,38.31,519.02,6.71,6.71,27.13,32.43,0.06
400_100_50_2,7.1,17.1,0.0,3600.0,3600.0,20.36,20.36,31.04,22.65,0.05
400_100_50_3,11.22,17.71,0.0,3600.0,3600.0,5.65,5.65,25.44,29.94,0.03
400_150_75_1,8.72,25.05,0.0,920.95,47.77,31.66,31.66,34.84,47.52,0.08
400_150_75_2,17.94,42.48,0.0,1054.95,3600.0,144.93,144.93,41.19,33.39,0.03
400_150_75_3,42.05,45.78,0.0,3600.0,3600.0,23.93,23.93,37.28,45.56,0.15
400_200_100_1,14.36,54.04,0.0,3600.0,1866.53,110.85,110.85,43.49,64.51,0.08
400_200_100_2,84.43,54.6,0.0,1795.98,3600.0,409.93,409.93,64.09,46.61,0.14
400_200_100_3,180.2,57.61,0.0,592.19,3600.0,211.28,211.28,53.0,69.79,0.5
500_125_50_1,12.64,21.71,0.0,3600.0,28.17,25.79,25.79,32.83,56.06,0.19
500_125_50_2,21.83,22.16,0.0,3600.0,3600.0,33.01,33.01,36.9,34.31,0.06
500_125_50_3,33.76,23.18,0.0,3600.0,3600.0,11.22,11.22,34.27,58.34,0.08
500_250_100_1,41.49,72.92,0.0,3600.0,3600.0,480.27,480.27,58.63,88.18,0.57
500_250_100_2,199.67,72.32,0.0,1755.57,470.88,1932.52,1932.52,86.35,70.59,0.47
500_250_100_3,446.99,77.5,0.01,3600.0,3600.0,882.94,882.94,70.14,89.82,1.77
10000_500_200_4,3600.0,261.48,0.3,2222.11,846.77,3600.0,3600.0,313.87,695.5,1354.31
1000_500_250_4,3600.0,256.87,0.01,307.19,89.69,3600.0,3600.0,258.42,352.76,216.85
1000_250_125_4,3092.4,138.02,0.01,3600.0,3.92,3600.0,3600.0,134.17,171.47,7.43
500_250_100_4,970.36,87.43,0.0,41.17,145.42,3600.0,3600.0,88.81,94.09,3.65
500_125_50_4,70.0,24.86,0.0,645.46,60.27,277.78,277.78,38.41,48.97,0.29
400_200_100_4,357.58,65.42,0.0,150.47,106.15,969.31,969.31,64.2,62.05,1.08
400_150_75_4,113.21,48.23,0.0,3600.0,3600.0,294.06,294.06,46.06,48.21,0.79
400_100_50_4,21.81,19.58,0.0,83.73,5.76,80.71,80.71,30.1,30.92,0.12
200_100_50_4,12.1,26.65,0.0,89.74,8.61,19.5,19.5,20.49,17.52,0.06
200_50_40_4,1.79,9.3,0.0,6.37,2.88,2.5,2.5,13.89,8.77,0.01
100_75_50_4,4.31,14.94,0.0,67.18,3600.0,6.93,6.93,11.54,7.82,0.02
100_50_40_4,2.18,8.23,0.0,4.93,4.57,1.58,1.58,8.84,5.18,0.01
10000_500_200_5,3600.0,263.4,0.08,1456.79,1577.9,3600.0,3600.0,284.78,575.85,1310.11
1000_500_250_5,3600.0,262.6,0.02,19.76,19.84,604.15,604.15,259.32,293.77,239.02
1000_250_125_5,1536.24,209.83,0.0,115.51,52.25,2796.99,2796.99,261.5,139.21,5.41
500_250_100_5,1733.14,137.67,0.0,28.52,20.78,466.75,466.75,170.99,77.73,5.3
500_125_50_5,325.53,58.15,0.0,11.43,12.48,111.97,111.97,77.97,39.85,1.18
400_200_100_5,557.35,94.94,0.0,40.91,12.78,161.01,161.01,126.91,55.82,0.92
400_150_75_5,114.63,66.25,0.0,15.34,6.49,154.07,154.07,94.45,40.57,0.34
400_100_50_5,104.89,45.69,0.0,4.47,3.56,26.14,26.14,61.12,25.96,0.33
200_100_50_5,19.33,31.41,0.0,5.37,3.37,10.77,10.77,42.33,16.33,0.07
200_50_40_5,9.29,19.69,0.0,3.43,1.33,2.57,2.57,25.05,8.31,0.03
100_75_50_5,13.06,19.67,0.0,3.39,0.85,4.09,4.09,26.23,8.31,0.08
100_50_40_5,6.47,13.85,0.0,4.18,1.64,1.31,1.31,18.07,5.57,0.03
10000_500_200_6,3135.62,258.16,0.12,3600.0,3600.0,3600.0,3600.0,322.16,897.28,20.95
1000_500_250_6,536.68,207.41,0.01,3600.0,3600.0,3600.0,3600.0,179.91,323.7,2.68
1000_250_125_6,57.95,48.79,0.01,3600.0,3600.0,550.08,550.08,86.53,214.15,0.25
500_250_100_6,44.63,74.05,0.0,3600.0,614.51,292.23,292.23,59.4,87.58,0.33
500_125_50_6,13.37,21.28,0.0,2547.32,457.56,63.1,63.1,32.95,70.86,0.21
400_200_100_6,16.65,56.56,0.0,3600.0,248.4,124.9,124.9,42.55,93.14,0.16
400_150_75_6,7.9,24.89,0.0,3600.0,43.33,40.95,40.95,33.56,51.39,0.08
400_100_50_6,4.56,17.58,0.0,3600.0,283.62,9.93,9.93,26.91,31.73,0.04
200_100_50_6,1.75,22.07,0.0,12.17,27.93,3.11,3.11,17.47,21.02,0.02
200_50_40_6,0.9,8.22,0.0,16.98,9.49,0.64,0.64,12.8,8.85,0.02
100_75_50_6,1.24,13.33,0.0,34.03,8.54,0.88,0.88,10.55,8.32,0.03
100_50_40_6,0.86,10.0,0.0,9.25,1.9,0.67,0.67,7.96,6.16,0.03
10000_500_200_7,3600.0,252.32,0.1,3600.0,3600.0,3600.0,3600.0,300.27,612.64,20.57
1000_500_250_7,586.57,172.99,0.02,3600.0,3600.0,3600.0,3600.0,219.13,237.9,0.79
1000_250_125_7,66.46,48.29,0.0,3600.0,3600.0,500.32,500.32,101.94,120.68,0.92
500_250_100_7,47.6,65.3,0.01,3600.0,3600.0,410.9,410.9,68.62,64.4,0.35
500_125_50_7,13.25,21.46,0.0,3600.0,37.14,35.71,35.71,36.12,35.06,0.08
400_200_100_7,17.5,49.72,0.0,3600.0,61.17,86.13,86.13,48.13,44.41,0.07
400_150_75_7,8.23,24.28,0.0,2118.85,437.17,46.12,46.12,36.88,33.95,0.1
400_100_50_7,4.74,16.99,0.0,180.66,16.31,10.74,10.74,28.77,25.73,0.04
200_100_50_7,2.09,21.34,0.0,3600.0,3600.0,5.95,5.95,19.41,12.2,0.02
200_50_40_7,1.0,8.14,0.0,3600.0,1.34,0.53,0.53,12.34,6.32,0.01
100_75_50_7,1.41,13.29,0.0,3600.0,160.65,0.88,0.88,10.49,5.68,0.02
100_50_40_7,0.97,9.67,0.0,327.19,4.3,0.46,0.46,8.62,3.81,0.0
10000_500_200_8,3600.0,255.8,0.13,3542.81,325.76,3600.0,3600.0,320.92,1252.79,13.16
1000_500_250_8,2211.52,202.62,0.02,3600.0,3600.0,3600.0,3600.0,182.38,423.46,13.48
1000_250_125_8,181.54,50.81,0.0,3600.0,3600.0,591.94,591.94,83.72,161.67,0.62
500_250_100_8,136.45,73.49,0.01,3600.0,3600.0,279.79,279.79,57.44,87.57,0.3
500_125_50_8,30.82,22.21,0.0,552.52,3600.0,22.2,22.2,31.68,154.79,0.11
400_200_100_8,45.32,55.88,0.0,3600.0,3600.0,68.05,68.05,41.49,61.09,0.22
400_150_75_8,20.97,25.02,0.0,1685.98,3600.0,17.68,17.68,31.6,139.9,0.07
400_100_50_8,9.67,17.49,0.0,3600.0,3600.0,2.29,2.29,25.71,37.25,0.06
200_100_50_8,4.64,22.48,0.0,3600.0,3600.0,3.21,3.21,17.1,26.74,0.01
200_50_40_8,1.5,7.8,0.0,948.79,3600.0,0.65,0.65,11.78,11.8,0.03
100_75_50_8,2.39,13.9,0.0,699.94,3600.0,0.53,0.53,10.19,8.42,0.01
100_50_40_8,1.42,10.18,0.0,7.25,3600.0,0.22,0.22,7.99,5.69,0.02
10000_500_200_9,3600.0,257.98,0.14,3600.0,3600.0,3600.0,3600.0,323.55,692.54,8.99
1000_500_250_9,3030.54,208.98,0.01,3600.0,3600.0,3600.0,3600.0,162.13,320.67,10.25
1000_250_125_9,96.42,51.69,0.0,3600.0,3600.0,3600.0,3600.0,82.24,163.74,0.61
500_250_100_9,95.74,71.71,0.01,3600.0,3600.0,3161.51,3161.51,54.95,88.75,0.27
500_125_50_9,16.2,23.44,0.0,1792.92,190.54,176.0,176.0,33.98,47.09,0.27
400_200_100_9,29.47,53.27,0.0,2404.38,3600.0,606.97,606.97,40.52,60.47,0.13
400_150_75_9,11.26,25.47,0.0,3600.0,3600.0,212.41,212.41,33.52,45.55,0.04
400_100_50_9,5.38,17.82,0.0,1854.91,3600.0,40.54,40.54,28.62,31.29,0.04
200_100_50_9,2.73,22.86,0.0,337.71,228.63,27.16,27.16,17.38,16.89,0.01
200_50_40_9,1.0,8.94,0.0,52.13,10.16,1.91,1.91,13.13,8.39,0.01
100_75_50_9,1.67,13.45,0.0,19.18,11.0,9.07,9.07,10.36,7.16,0.05
100_50_40_9,0.84,11.17,0.0,4.19,1.75,1.08,1.08,8.24,4.71,0.0
10000_500_200_10,3600.0,255.15,0.11,3600.0,3600.0,3600.0,3600.0,303.56,697.47,11.67
1000_500_250_10,2579.22,176.08,0.01,3600.0,3600.0,3600.0,3600.0,200.32,234.01,8.83
1000_250_125_10,106.05,49.38,0.01,3600.0,3600.0,3600.0,3600.0,96.12,122.34,0.25
500_250_100_10,79.01,63.01,0.0,3600.0,3600.0,1969.81,1969.81,62.62,66.73,0.38
500_125_50_10,16.99,22.21,0.0,65.11,26.1,131.22,131.22,37.94,35.6,0.08
400_200_100_10,34.26,48.86,0.0,3600.0,3600.0,516.17,516.17,46.78,44.92,0.07
400_150_75_10,11.91,25.06,0.0,3600.0,3600.0,219.77,219.77,37.6,33.81,0.04
400_100_50_10,5.69,17.04,0.0,92.49,61.63,36.95,36.95,31.15,23.07,0.02
200_100_50_10,2.9,21.47,0.0,71.54,79.46,20.58,20.58,18.74,12.28,0.02
200_50_40_10,1.1,8.41,0.0,1.52,1.04,2.19,2.19,14.21,6.53,0.01
100_75_50_10,1.81,13.4,0.0,15.69,17.97,4.66,4.66,11.39,5.99,0.01
100_50_40_10,0.96,11.25,0.0,15.13,87.7,1.13,1.13,8.22,4.03,0.0
