instances,GRASP,Hybrid-GA,LSMF,MFAP2,PLI,VNS,brkga,brkga-TAQ,localSearch
10000_500_200_1,3600.0,1938.82,0.12,3600.0,3600.0,3600.0,3600.0,3600.0,13.44
10000_500_200_2,3600.0,3600.0,0.1,3503.24,3600.0,3600.0,3600.0,3600.0,60.82
10000_500_200_3,3600.0,3600.0,0.15,3600.0,3600.0,3600.0,3600.0,3600.0,393.29
1000_250_125_1,358.26,470.62,0.0,3600.0,3600.0,607.83,590.38,1073.89,0.91
1000_250_125_2,757.52,915.32,0.01,1521.69,33.7,3600.0,1102.56,793.55,1.08
1000_250_125_3,1488.35,1091.39,0.01,400.78,3600.0,1517.12,751.57,1093.09,2.11
1000_500_250_1,967.07,2020.33,0.01,3600.0,3600.0,3600.0,1466.98,2107.95,0.45
1000_500_250_2,3600.0,3600.0,0.02,1055.44,75.61,3600.0,3600.0,1731.53,120.68
1000_500_250_3,3600.0,3600.0,0.02,189.78,3600.0,3600.0,3428.43,2280.71,460.09
100_50_40_1,3600.0,34.66,0.0,3.81,0.54,0.63,28.02,21.12,0.28
100_50_40_2,196.4,29.62,0.0,5.03,2.91,0.25,34.55,14.04,0.01
100_50_40_3,8.1,34.9,0.04,2132.24,4.04,0.28,27.76,20.74,0.02
100_75_50_1,0.0,60.64,0.0,3600.0,1.5,1.77,44.47,36.27,0.02
100_75_50_2,0.0,55.53,0.0,3600.0,934.23,3.9,54.82,26.82,0.04
100_75_50_3,0.0,61.83,0.0,1102.35,3600.0,0.59,45.66,60.98,0.1
200_100_50_1,0.0,55.91,0.0,2656.68,1169.21,2.12,88.39,92.93,0.02
200_100_50_2,0.0,50.58,0.0,67.17,3600.0,13.24,108.25,70.43,0.01
200_100_50_3,0.0,39.03,0.0,3600.0,3600.0,4.78,85.07,153.99,0.02
200_50_40_1,0.0,18.66,0.0,7.75,2.35,1.11,42.33,45.42,0.01
200_50_40_2,0.0,21.17,0.0,2930.73,7.94,0.53,52.35,29.47,0.0
200_50_40_3,0.0,26.37,0.08,372.67,12.39,0.19,39.85,41.39,0.01
400_100_50_1,0.0,53.8,0.0,38.31,519.02,6.71,126.37,195.4,0.06
400_100_50_2,0.0,50.49,0.0,3600.0,3600.0,20.36,167.99,127.81,0.05
400_100_50_3,0.0,54.31,0.0,3600.0,3600.0,5.65,119.31,192.73,0.03
400_150_75_1,8.72,95.98,0.0,920.95,47.77,31.66,193.63,266.14,0.08
400_150_75_2,17.94,140.91,0.0,1054.95,3600.0,144.93,275.99,204.02,0.03
400_150_75_3,42.05,165.4,0.0,3600.0,3600.0,23.93,210.71,266.15,0.15
400_200_100_1,14.36,213.32,0.0,3600.0,1866.53,110.85,282.75,358.37,0.08
400_200_100_2,84.43,248.72,0.0,1795.98,3600.0,409.93,486.44,284.58,0.14
400_200_100_3,180.2,288.24,0.0,592.19,3600.0,211.28,319.73,392.2,0.5
500_125_50_1,12.64,169.27,0.0,3600.0,28.17,25.79,181.52,274.87,0.19
500_125_50_2,21.83,156.07,0.0,3600.0,3600.0,33.01,240.3,204.6,0.06
500_125_50_3,33.76,171.65,0.0,3600.0,3600.0,11.22,171.31,273.87,0.08
500_250_100_1,41.49,656.3,0.0,3600.0,3600.0,480.27,411.84,557.14,0.57
500_250_100_2,199.67,870.2,0.0,1755.57,470.88,1932.52,722.06,423.76,0.47
500_250_100_3,446.99,1018.82,0.01,3600.0,3600.0,882.94,493.16,557.79,1.77
10000_500_200_4,3600.0,3600.0,0.3,2222.11,846.77,3600.0,3600.0,3600.0,1354.31
1000_500_250_4,3600.0,3600.0,0.01,307.19,89.69,3600.0,3600.0,2434.49,216.85
1000_250_125_4,3092.4,1175.83,0.01,3600.0,3.92,3600.0,1250.66,1172.54,7.43
500_250_100_4,970.36,1132.03,0.0,41.17,145.42,3600.0,820.57,611.25,3.65
500_125_50_4,70.0,180.96,0.0,645.46,60.27,277.78,243.64,292.97,0.29
400_200_100_4,357.58,300.48,0.0,150.47,106.15,969.31,566.04,398.68,1.08
400_150_75_4,113.21,171.8,0.0,3600.0,3600.0,294.06,320.9,291.58,0.79
400_100_50_4,21.81,56.01,0.0,83.73,5.76,80.71,168.19,187.25,0.12
200_100_50_4,12.1,57.17,0.0,89.74,8.61,19.5,121.32,94.75,0.06
200_50_40_4,1.79,17.25,0.0,6.37,2.88,2.5,54.74,40.72,0.01
100_75_50_4,4.31,62.92,0.0,67.18,3600.0,6.93,55.46,32.14,0.02
100_50_40_4,2.18,29.98,0.0,4.93,4.57,1.58,34.67,17.89,0.01
10000_500_200_5,3600.0,3600.0,0.08,1456.79,1577.9,3600.0,3600.0,3600.0,1310.11
1000_500_250_5,3600.0,3600.0,0.02,19.76,19.84,604.15,3600.0,2028.77,239.02
1000_250_125_5,1536.24,2628.63,0.0,115.51,52.25,2796.99,2723.81,978.96,5.41
500_250_100_5,1733.14,2671.65,0.0,28.52,20.78,466.75,1669.53,537.78,5.3
500_125_50_5,325.53,358.51,0.0,11.43,12.48,111.97,554.24,258.17,1.18
400_200_100_5,557.35,560.95,0.0,40.91,12.78,161.01,1096.29,366.41,0.92
400_150_75_5,114.63,263.77,0.0,15.34,6.49,154.07,744.84,268.51,0.34
400_100_50_5,104.89,107.17,0.0,4.47,3.56,26.14,392.17,171.36,0.33
200_100_50_5,19.33,67.78,0.0,5.37,3.37,10.77,260.72,97.36,0.07
200_50_40_5,9.29,28.74,0.0,3.43,1.33,2.57,128.22,38.86,0.03
100_75_50_5,13.06,83.2,0.0,3.39,0.85,4.09,151.27,35.83,0.08
100_50_40_5,6.47,42.6,0.0,4.18,1.64,1.31,88.6,20.69,0.03
10000_500_200_6,3135.62,1934.36,0.12,3600.0,3600.0,3600.0,3600.0,3600.0,20.95
1000_500_250_6,536.68,2020.35,0.01,3600.0,3600.0,3600.0,1806.72,2224.31,2.68
1000_250_125_6,57.95,468.15,0.01,3600.0,3600.0,550.08,685.73,1169.14,0.25
500_250_100_6,44.63,668.66,0.0,3600.0,614.51,292.23,482.54,564.24,0.33
500_125_50_6,13.37,169.18,0.0,2547.32,457.56,63.1,201.18,300.04,0.21
400_200_100_6,16.65,213.93,0.0,3600.0,248.4,124.9,329.07,472.74,0.16
400_150_75_6,7.9,95.94,0.0,3600.0,43.33,40.95,220.94,339.83,0.08
400_100_50_6,4.56,54.01,0.0,3600.0,283.62,9.93,142.07,179.54,0.04
200_100_50_6,1.75,55.77,0.0,12.17,27.93,3.11,96.52,88.68,0.02
200_50_40_6,0.9,17.32,0.0,16.98,9.49,0.64,47.12,45.42,0.02
100_75_50_6,1.24,60.46,0.0,34.03,8.54,0.88,48.91,28.89,0.03
100_50_40_6,0.86,34.78,0.0,9.25,1.9,0.67,29.04,19.34,0.03
10000_500_200_7,3600.0,1699.34,0.1,3600.0,3600.0,3600.0,3600.0,3600.0,20.57
1000_500_250_7,586.57,1741.88,0.02,3600.0,3600.0,3600.0,2287.08,1592.9,0.79
1000_250_125_7,66.46,401.67,0.0,3600.0,3600.0,500.32,894.61,798.33,0.92
500_250_100_7,47.6,553.89,0.01,3600.0,3600.0,410.9,596.74,412.54,0.35
500_125_50_7,13.25,146.58,0.0,3600.0,37.14,35.71,253.18,205.01,0.08
400_200_100_7,17.5,180.28,0.0,3600.0,61.17,86.13,395.78,273.19,0.07
400_150_75_7,8.23,86.64,0.0,2118.85,437.17,46.12,281.05,201.57,0.1
400_100_50_7,4.74,49.35,0.0,180.66,16.31,10.74,176.27,133.09,0.04
200_100_50_7,2.09,49.22,0.0,3600.0,3600.0,5.95,113.72,63.12,0.02
200_50_40_7,1.0,16.87,0.0,3600.0,1.34,0.53,58.75,24.54,0.01
100_75_50_7,1.41,53.39,0.0,3600.0,160.65,0.88,57.39,19.76,0.02
100_50_40_7,0.97,33.24,0.0,327.19,4.3,0.46,39.0,12.35,0.0
10000_500_200_8,3600.0,2010.24,0.13,3542.81,325.76,3600.0,3600.0,3600.0,13.16
1000_500_250_8,2211.52,2030.01,0.02,3600.0,3600.0,3600.0,1828.16,2459.25,13.48
1000_250_125_8,181.54,479.41,0.0,3600.0,3600.0,591.94,651.25,1261.88,0.62
500_250_100_8,136.45,665.69,0.01,3600.0,3600.0,279.79,457.92,637.52,0.3
500_125_50_8,30.82,174.34,0.0,552.52,3600.0,22.2,189.96,560.7,0.11
400_200_100_8,45.32,215.9,0.0,3600.0,3600.0,68.05,311.85,365.81,0.22
400_150_75_8,20.97,98.4,0.0,1685.98,3600.0,17.68,201.74,526.98,0.07
400_100_50_8,9.67,55.58,0.0,3600.0,3600.0,2.29,134.91,211.09,0.06
200_100_50_8,4.64,56.2,0.0,3600.0,3600.0,3.21,90.77,98.05,0.01
200_50_40_8,1.5,17.63,0.0,948.79,3600.0,0.65,46.18,47.03,0.03
100_75_50_8,2.39,61.92,0.0,699.94,3600.0,0.53,48.35,36.81,0.01
100_50_40_8,1.42,35.73,0.0,7.25,3600.0,0.22,28.55,16.15,0.02
10000_500_200_9,3600.0,1932.22,0.14,3600.0,3600.0,3600.0,3600.0,3600.0,8.99
1000_500_250_9,3030.54,2023.29,0.01,3600.0,3600.0,3600.0,1570.44,2212.92,10.25
1000_250_125_9,96.42,475.73,0.0,3600.0,3600.0,3600.0,635.31,1115.09,0.61
500_250_100_9,95.74,662.14,0.01,3600.0,3600.0,3161.51,431.22,567.85,0.27
500_125_50_9,16.2,169.11,0.0,1792.92,190.54,176.0,209.76,289.11,0.27
400_200_100_9,29.47,213.48,0.0,2404.38,3600.0,606.97,303.74,367.75,0.13
400_150_75_9,11.26,96.54,0.0,3600.0,3600.0,212.41,215.21,277.64,0.04
400_100_50_9,5.38,53.84,0.0,1854.91,3600.0,40.54,145.41,185.55,0.04
200_100_50_9,2.73,55.49,0.0,337.71,228.63,27.16,93.23,89.68,0.01
200_50_40_9,1.0,17.36,0.0,52.13,10.16,1.91,51.59,40.28,0.01
100_75_50_9,1.67,60.45,0.0,19.18,11.0,9.07,49.68,28.52,0.05
100_50_40_9,0.84,35.18,0.0,4.19,1.75,1.08,31.32,17.09,0.0
10000_500_200_10,3600.0,1699.15,0.11,3600.0,3600.0,3600.0,3600.0,3600.0,11.67
1000_500_250_10,2579.22,1692.99,0.01,3600.0,3600.0,3600.0,2070.46,1574.85,8.83
1000_250_125_10,106.05,407.52,0.01,3600.0,3600.0,3600.0,837.53,791.79,0.25
500_250_100_10,79.01,558.54,0.0,3600.0,3600.0,1969.81,548.96,419.38,0.38
500_125_50_10,16.99,149.72,0.0,65.11,26.1,131.22,274.48,209.88,0.08
400_200_100_10,34.26,180.75,0.0,3600.0,3600.0,516.17,355.67,273.04,0.07
400_150_75_10,11.91,85.75,0.0,3600.0,3600.0,219.77,268.04,198.8,0.04
400_100_50_10,5.69,48.79,0.0,92.49,61.63,36.95,187.28,130.95,0.02
200_100_50_10,2.9,48.76,0.0,71.54,79.46,20.58,115.0,62.64,0.02
200_50_40_10,1.1,17.01,0.0,1.52,1.04,2.19,66.01,25.96,0.01
100_75_50_10,1.81,53.77,0.0,15.69,17.97,4.66,62.58,21.75,0.01
100_50_40_10,0.96,32.91,0.0,15.13,87.7,1.13,38.47,13.07,0.0
