instances,GRASP,GRASP-Tabu,GRASP-VNS,Hybrid-GA,VNS
10000_500_200_2_0,600.0,600.0,600.0,600.0,600.0
10000_500_200_2_1,600.0,600.0,600.0,600.0,600.0
10000_500_200_2_2,600.0,600.0,600.0,600.0,600.0
10000_500_200_2_3,600.0,600.0,600.0,600.0,600.0
10000_500_200_2_4,600.0,600.0,600.0,600.0,600.0
10000_500_200_2_5,600.0,600.0,600.0,600.0,600.0
10000_500_200_2_6,600.0,600.0,600.0,600.0,600.0
10000_500_200_2_7,600.0,600.0,600.0,600.0,600.0
10000_500_200_2_8,600.0,600.0,600.0,600.0,600.0
10000_500_200_2_9,600.0,600.0,600.0,600.0,600.0
1000_500_250_2_0,33.17,600.0,600.0,600.0,265.35
1000_500_250_2_1,27.78,600.0,600.0,600.0,385.66
1000_500_250_2_2,32.69,600.0,600.0,600.0,555.1
1000_500_250_2_3,33.75,600.0,600.0,600.0,282.63
1000_500_250_2_4,26.67,600.0,600.0,600.0,322.63
1000_500_250_2_5,30.85,600.0,600.0,600.0,276.54
1000_500_250_2_6,26.33,600.0,600.0,600.0,600.0
1000_500_250_2_7,35.61,600.0,600.0,600.0,264.69
1000_500_250_2_8,27.74,600.0,600.0,600.0,304.15
1000_500_250_2_9,35.45,600.0,600.0,600.0,362.59
500_250_100_2_0,8.16,600.0,600.0,600.0,26.39
500_250_100_2_1,10.0,600.0,600.0,600.0,140.11
500_250_100_2_2,9.24,600.0,600.0,600.0,28.58
500_250_100_2_3,7.85,600.0,600.0,600.0,34.91
500_250_100_2_4,10.84,600.0,600.0,600.0,26.03
500_250_100_2_5,8.16,600.0,600.0,600.0,248.54
500_250_100_2_6,10.02,600.0,600.0,600.0,600.0
500_250_100_2_7,7.88,600.0,600.0,600.0,22.15
500_250_100_2_8,11.76,600.0,600.0,600.0,37.85
500_250_100_2_9,9.01,600.0,600.0,600.0,25.44
100_75_50_2_0,1.16,600.0,107.46,600.0,0.34
100_75_50_2_1,0.99,600.0,94.7,600.0,0.36
100_75_50_2_2,1.74,600.0,147.25,600.0,12.95
100_75_50_2_3,0.91,600.0,84.85,600.0,0.37
100_75_50_2_4,1.4,600.0,160.41,600.0,0.67
100_75_50_2_5,0.97,600.0,101.88,600.0,0.33
100_75_50_2_6,1.1,600.0,172.1,600.0,1.9
100_75_50_2_7,1.04,600.0,96.82,600.0,0.2
100_75_50_2_8,1.26,600.0,134.25,600.0,0.39
100_75_50_2_9,0.61,600.0,102.45,600.0,0.37
10000_500_200_3_0,600.0,600.0,600.0,600.0,600.0
10000_500_200_3_1,600.0,600.0,600.0,600.0,600.0
10000_500_200_3_2,600.0,600.0,600.0,600.0,600.0
10000_500_200_3_3,600.0,600.0,600.0,600.0,600.0
10000_500_200_3_4,600.0,600.0,600.0,600.0,600.0
10000_500_200_3_5,600.0,600.0,600.0,600.0,600.0
10000_500_200_3_6,600.0,600.0,600.0,600.0,600.0
10000_500_200_3_7,600.0,600.0,600.0,600.0,600.0
10000_500_200_3_8,600.0,600.0,600.0,600.0,600.0
10000_500_200_3_9,600.0,600.0,600.0,600.0,600.0
1000_500_250_3_0,47.36,600.0,600.0,600.0,600.0
1000_500_250_3_1,43.22,600.0,600.0,600.0,600.0
1000_500_250_3_2,44.63,600.0,600.0,600.0,600.0
1000_500_250_3_3,44.9,600.0,600.0,600.0,600.0
1000_500_250_3_4,43.02,600.0,600.0,600.0,600.0
1000_500_250_3_5,43.31,600.0,600.0,600.0,600.0
1000_500_250_3_6,42.46,600.0,600.0,600.0,600.0
1000_500_250_3_7,40.58,600.0,600.0,600.0,600.0
1000_500_250_3_8,40.92,600.0,600.0,600.0,600.0
1000_500_250_3_9,40.75,600.0,600.0,600.0,600.0
500_250_100_3_0,9.99,600.0,600.0,600.0,296.14
500_250_100_3_1,11.83,600.0,600.0,600.0,360.13
500_250_100_3_2,8.91,600.0,600.0,600.0,344.87
500_250_100_3_3,12.07,600.0,600.0,600.0,293.0
500_250_100_3_4,12.41,600.0,600.0,600.0,331.99
500_250_100_3_5,11.77,600.0,600.0,600.0,340.92
500_250_100_3_6,10.67,600.0,600.0,600.0,339.11
500_250_100_3_7,11.79,600.0,600.0,600.0,266.37
500_250_100_3_8,11.29,600.0,600.0,600.0,178.84
500_250_100_3_9,12.06,600.0,600.0,600.0,277.73
100_75_50_3_0,1.11,600.0,600.0,600.0,2.8
100_75_50_3_1,1.16,600.0,600.0,600.0,0.71
100_75_50_3_2,1.19,600.0,600.0,600.0,0.84
100_75_50_3_3,1.18,600.0,600.0,600.0,1.38
100_75_50_3_4,1.18,600.0,600.0,600.0,0.61
100_75_50_3_5,1.15,600.0,600.0,600.0,1.58
100_75_50_3_6,1.18,600.0,600.0,600.0,1.45
100_75_50_3_7,1.16,600.0,600.0,600.0,1.68
100_75_50_3_8,1.16,600.0,600.0,600.0,1.17
100_75_50_3_9,1.13,600.0,600.0,600.0,2.27
10000_500_200_4_0,600.0,600.0,600.0,600.0,600.0
10000_500_200_4_1,600.0,600.0,600.0,600.0,600.0
10000_500_200_4_2,600.0,600.0,600.0,600.0,600.0
10000_500_200_4_3,600.0,600.0,600.0,600.0,600.0
10000_500_200_4_4,600.0,600.0,600.0,600.0,600.0
10000_500_200_4_5,600.0,600.0,600.0,600.0,600.0
10000_500_200_4_6,600.0,600.0,600.0,600.0,600.0
10000_500_200_4_7,600.0,600.0,600.0,600.0,600.0
10000_500_200_4_8,600.0,600.0,600.0,600.0,600.0
10000_500_200_4_9,600.0,600.0,600.0,600.0,600.0
1000_500_250_4_0,23.5,600.0,600.0,600.0,600.0
1000_500_250_4_1,24.58,600.0,600.0,600.0,312.12
1000_500_250_4_2,22.52,600.0,600.0,600.0,478.94
1000_500_250_4_3,25.23,600.0,600.0,600.0,394.46
1000_500_250_4_4,22.28,600.0,600.0,600.0,291.62
1000_500_250_4_5,22.78,600.0,600.0,600.0,283.72
1000_500_250_4_6,23.21,600.0,600.0,600.0,600.0
1000_500_250_4_7,25.54,600.0,600.0,600.0,444.2
1000_500_250_4_8,24.33,600.0,600.0,600.0,600.0
1000_500_250_4_9,24.93,600.0,600.0,600.0,316.73
500_250_100_4_0,7.72,600.0,600.0,600.0,600.0
500_250_100_4_1,6.83,600.0,600.0,600.0,33.46
500_250_100_4_2,7.4,600.0,600.0,600.0,27.2
500_250_100_4_3,7.36,600.0,600.0,600.0,32.16
500_250_100_4_4,5.37,600.0,600.0,600.0,29.11
500_250_100_4_5,6.76,600.0,600.0,600.0,600.0
500_250_100_4_6,6.44,600.0,600.0,600.0,600.0
500_250_100_4_7,7.15,600.0,600.0,600.0,600.0
500_250_100_4_8,7.12,600.0,600.0,600.0,28.04
500_250_100_4_9,6.86,600.0,600.0,600.0,25.28
100_75_50_4_0,1.03,600.0,98.57,600.0,0.34
100_75_50_4_1,0.96,600.0,171.8,600.0,0.4
100_75_50_4_2,1.02,600.0,171.35,600.0,5.11
100_75_50_4_3,0.92,600.0,88.78,600.0,0.92
100_75_50_4_4,0.55,600.0,132.2,600.0,0.35
100_75_50_4_5,0.87,600.0,95.55,600.0,1.35
100_75_50_4_6,0.85,600.0,70.93,600.0,1.12
100_75_50_4_7,0.92,600.0,100.7,600.0,7.4
100_75_50_4_8,1.02,600.0,79.22,600.0,0.4
100_75_50_4_9,0.96,600.0,82.74,600.0,2.37
10000_500_200_6_0,600.0,600.0,600.0,600.0,600.0
10000_500_200_6_1,600.0,600.0,600.0,600.0,600.0
10000_500_200_6_2,600.0,600.0,600.0,600.0,600.0
10000_500_200_6_3,600.0,600.0,600.0,600.0,600.0
10000_500_200_6_4,600.0,600.0,600.0,600.0,600.0
10000_500_200_6_5,600.0,600.0,600.0,600.0,600.0
10000_500_200_6_6,600.0,600.0,600.0,600.0,600.0
10000_500_200_6_7,600.0,600.0,600.0,600.0,600.0
10000_500_200_6_8,600.0,600.0,600.0,600.0,600.0
10000_500_200_6_9,600.0,600.0,600.0,600.0,600.0
1000_500_250_6_0,40.69,600.0,600.0,600.0,600.0
1000_500_250_6_1,32.95,600.0,600.0,600.0,600.0
1000_500_250_6_2,38.42,600.0,600.0,600.0,600.0
1000_500_250_6_3,39.03,600.0,600.0,600.0,600.0
1000_500_250_6_4,33.61,600.0,600.0,600.0,600.0
1000_500_250_6_5,36.03,600.0,600.0,600.0,188.61
1000_500_250_6_6,31.03,600.0,600.0,600.0,600.0
1000_500_250_6_7,37.63,600.0,600.0,600.0,600.0
1000_500_250_6_8,36.81,600.0,600.0,600.0,600.0
1000_500_250_6_9,41.04,600.0,600.0,600.0,324.63
500_250_100_6_0,9.34,600.0,600.0,600.0,476.17
500_250_100_6_1,16.15,600.0,600.0,600.0,107.93
500_250_100_6_2,12.99,600.0,600.0,600.0,24.24
500_250_100_6_3,15.16,600.0,600.0,600.0,406.44
500_250_100_6_4,13.98,600.0,600.0,600.0,412.28
500_250_100_6_5,17.41,600.0,600.0,600.0,600.0
500_250_100_6_6,12.84,600.0,600.0,600.0,399.84
500_250_100_6_7,12.26,600.0,600.0,600.0,42.06
500_250_100_6_8,12.93,600.0,600.0,600.0,447.41
500_250_100_6_9,13.71,600.0,600.0,600.0,369.1
100_75_50_6_0,1.69,600.0,215.27,600.0,5.47
100_75_50_6_1,1.84,600.0,183.1,600.0,3.08
100_75_50_6_2,1.31,600.0,172.45,600.0,3.07
100_75_50_6_3,1.51,600.0,165.61,600.0,3.38
100_75_50_6_4,1.55,600.0,179.77,600.0,1.43
100_75_50_6_5,1.48,600.0,148.91,600.0,2.16
100_75_50_6_6,1.9,600.0,197.42,600.0,6.3
100_75_50_6_7,1.67,600.0,158.3,600.0,1.58
100_75_50_6_8,1.46,600.0,173.19,600.0,1.93
100_75_50_6_9,1.23,600.0,153.92,600.0,3.63
10000_500_200_7_0,600.0,600.0,600.0,600.0,600.0
10000_500_200_7_1,600.0,600.0,600.0,600.0,600.0
10000_500_200_7_2,600.0,600.0,600.0,600.0,600.0
10000_500_200_7_3,600.0,600.0,600.0,600.0,600.0
10000_500_200_7_4,600.0,600.0,600.0,600.0,600.0
10000_500_200_7_5,600.0,600.0,600.0,600.0,600.0
10000_500_200_7_6,600.0,600.0,600.0,600.0,600.0
10000_500_200_7_7,600.0,600.0,600.0,600.0,600.0
10000_500_200_7_8,600.0,600.0,600.0,600.0,600.0
10000_500_200_7_9,600.0,600.0,600.0,600.0,600.0
1000_500_250_7_0,51.79,600.0,600.0,600.0,600.0
1000_500_250_7_1,50.36,600.0,600.0,600.0,600.0
1000_500_250_7_2,48.37,600.0,600.0,600.0,600.0
1000_500_250_7_3,52.37,600.0,600.0,600.0,600.0
1000_500_250_7_4,48.76,600.0,600.0,600.0,600.0
1000_500_250_7_5,50.6,600.0,600.0,600.0,600.0
1000_500_250_7_6,50.58,600.0,600.0,600.0,600.0
1000_500_250_7_7,49.77,600.0,600.0,600.0,600.0
1000_500_250_7_8,49.52,600.0,600.0,600.0,600.0
1000_500_250_7_9,47.6,600.0,600.0,600.0,600.0
500_250_100_7_0,9.96,600.0,600.0,600.0,302.22
500_250_100_7_1,13.78,600.0,600.0,600.0,600.0
500_250_100_7_2,12.0,600.0,600.0,600.0,477.0
500_250_100_7_3,12.77,600.0,600.0,600.0,600.0
500_250_100_7_4,14.28,600.0,600.0,600.0,600.0
500_250_100_7_5,13.63,600.0,600.0,600.0,341.63
500_250_100_7_6,12.21,600.0,600.0,600.0,600.0
500_250_100_7_7,11.79,600.0,600.0,600.0,532.23
500_250_100_7_8,13.19,600.0,600.0,600.0,600.0
500_250_100_7_9,11.58,600.0,600.0,600.0,600.0
100_75_50_7_0,1.2,600.0,600.0,600.0,4.86
100_75_50_7_1,1.27,600.0,600.0,600.0,5.98
100_75_50_7_2,1.29,600.0,600.0,600.0,6.09
100_75_50_7_3,0.73,600.0,600.0,600.0,5.51
100_75_50_7_4,1.65,600.0,600.0,600.0,6.02
100_75_50_7_5,1.45,600.0,600.0,600.0,0.47
100_75_50_7_6,1.62,600.0,600.0,600.0,7.75
100_75_50_7_7,1.44,600.0,600.0,600.0,11.11
100_75_50_7_8,1.37,600.0,600.0,600.0,1.9
100_75_50_7_9,1.2,600.0,600.0,600.0,16.69
10000_500_200_8_0,600.0,600.0,600.0,600.0,600.0
10000_500_200_8_1,600.0,600.0,600.0,600.0,600.0
10000_500_200_8_2,600.0,600.0,600.0,600.0,600.0
10000_500_200_8_3,600.0,600.0,600.0,600.0,600.0
10000_500_200_8_4,600.0,600.0,600.0,600.0,600.0
10000_500_200_8_5,600.0,600.0,600.0,600.0,600.0
10000_500_200_8_6,600.0,600.0,600.0,600.0,600.0
10000_500_200_8_7,600.0,600.0,600.0,600.0,600.0
10000_500_200_8_8,600.0,600.0,600.0,600.0,600.0
10000_500_200_8_9,600.0,600.0,600.0,600.0,600.0
1000_500_250_8_0,27.47,600.0,600.0,600.0,600.0
1000_500_250_8_1,34.92,600.0,600.0,600.0,600.0
1000_500_250_8_2,24.38,600.0,600.0,600.0,600.0
1000_500_250_8_3,28.51,600.0,600.0,600.0,600.0
1000_500_250_8_4,25.84,600.0,600.0,600.0,280.54
1000_500_250_8_5,20.42,600.0,600.0,600.0,600.0
1000_500_250_8_6,27.28,600.0,600.0,600.0,600.0
1000_500_250_8_7,29.45,600.0,600.0,600.0,600.0
1000_500_250_8_8,30.69,600.0,600.0,600.0,600.0
1000_500_250_8_9,25.14,600.0,600.0,600.0,600.0
500_250_100_8_0,7.52,600.0,600.0,600.0,173.07
500_250_100_8_1,6.66,600.0,600.0,600.0,238.09
500_250_100_8_2,9.02,600.0,600.0,600.0,175.42
500_250_100_8_3,8.4,600.0,600.0,600.0,147.97
500_250_100_8_4,7.9,600.0,600.0,600.0,399.34
500_250_100_8_5,8.5,600.0,600.0,600.0,412.52
500_250_100_8_6,7.45,600.0,600.0,600.0,229.51
500_250_100_8_7,8.61,600.0,600.0,600.0,278.24
500_250_100_8_8,8.16,600.0,600.0,600.0,260.58
500_250_100_8_9,8.45,600.0,600.0,600.0,406.15
100_75_50_8_0,1.27,600.0,107.24,600.0,1.16
100_75_50_8_1,1.31,600.0,112.13,600.0,1.47
100_75_50_8_2,1.15,600.0,97.55,600.0,1.43
100_75_50_8_3,1.1,600.0,40.45,600.0,1.09
100_75_50_8_4,1.13,600.0,111.45,600.0,1.75
100_75_50_8_5,1.29,600.0,102.78,600.0,1.33
100_75_50_8_6,0.88,600.0,79.07,600.0,1.38
100_75_50_8_7,1.42,600.0,95.86,600.0,1.66
100_75_50_8_8,1.05,600.0,55.66,600.0,4.05
100_75_50_8_9,0.94,600.0,128.22,600.0,1.26
10000_500_200_10_0,600.0,600.0,600.0,600.0,600.0
10000_500_200_10_1,600.0,600.0,600.0,600.0,600.0
10000_500_200_10_2,600.0,600.0,600.0,600.0,600.0
10000_500_200_10_3,600.0,600.0,600.0,600.0,600.0
10000_500_200_10_4,600.0,600.0,600.0,600.0,600.0
10000_500_200_10_5,600.0,600.0,600.0,600.0,600.0
10000_500_200_10_6,600.0,600.0,600.0,600.0,600.0
10000_500_200_10_7,600.0,600.0,600.0,600.0,600.0
10000_500_200_10_8,600.0,600.0,600.0,600.0,600.0
10000_500_200_10_9,600.0,600.0,600.0,600.0,600.0
1000_500_250_10_0,48.11,600.0,600.0,600.0,600.0
1000_500_250_10_1,36.31,600.0,600.0,600.0,600.0
1000_500_250_10_2,46.14,600.0,600.0,600.0,600.0
1000_500_250_10_3,46.51,600.0,600.0,600.0,600.0
1000_500_250_10_4,32.54,600.0,600.0,600.0,600.0
1000_500_250_10_5,40.88,600.0,600.0,600.0,600.0
1000_500_250_10_6,38.84,600.0,600.0,600.0,600.0
1000_500_250_10_7,45.34,600.0,600.0,600.0,600.0
1000_500_250_10_8,34.34,600.0,600.0,600.0,600.0
1000_500_250_10_9,50.17,600.0,600.0,600.0,600.0
500_250_100_10_0,11.14,600.0,600.0,600.0,447.08
500_250_100_10_1,19.5,600.0,600.0,600.0,600.0
500_250_100_10_2,16.63,600.0,600.0,600.0,431.12
500_250_100_10_3,15.4,600.0,600.0,600.0,353.92
500_250_100_10_4,16.96,600.0,600.0,600.0,287.24
500_250_100_10_5,18.63,600.0,600.0,600.0,473.18
500_250_100_10_6,16.68,600.0,600.0,600.0,348.96
500_250_100_10_7,11.9,600.0,600.0,600.0,600.0
500_250_100_10_8,16.34,600.0,600.0,600.0,255.51
500_250_100_10_9,13.56,600.0,600.0,600.0,190.31
100_75_50_10_0,1.4,600.0,160.19,600.0,1.31
100_75_50_10_1,1.78,600.0,133.65,600.0,0.65
100_75_50_10_2,1.59,600.0,141.71,600.0,1.09
100_75_50_10_3,1.59,600.0,137.56,600.0,2.2
100_75_50_10_4,1.41,600.0,156.67,600.0,3.09
100_75_50_10_5,1.41,600.0,125.1,600.0,1.73
100_75_50_10_6,1.65,600.0,153.31,600.0,2.78
100_75_50_10_7,1.87,600.0,132.16,600.0,1.9
100_75_50_10_8,1.46,600.0,167.9,600.0,0.57
100_75_50_10_9,1.51,600.0,137.27,600.0,1.9
10000_500_200_11_0,600.0,600.0,600.0,600.0,600.0
10000_500_200_11_1,600.0,600.0,600.0,600.0,600.0
10000_500_200_11_2,600.0,600.0,600.0,600.0,600.0
10000_500_200_11_3,600.0,600.0,600.0,600.0,600.0
10000_500_200_11_4,600.0,600.0,600.0,600.0,600.0
10000_500_200_11_5,600.0,600.0,600.0,600.0,600.0
10000_500_200_11_6,600.0,600.0,600.0,600.0,600.0
10000_500_200_11_7,600.0,600.0,600.0,600.0,600.0
10000_500_200_11_8,600.0,600.0,600.0,600.0,600.0
10000_500_200_11_9,600.0,600.0,600.0,600.0,600.0
1000_500_250_11_0,48.77,600.0,600.0,600.0,600.0
1000_500_250_11_1,46.62,600.0,600.0,600.0,600.0
1000_500_250_11_2,49.17,600.0,600.0,600.0,600.0
1000_500_250_11_3,46.95,600.0,600.0,600.0,600.0
1000_500_250_11_4,45.55,600.0,600.0,600.0,600.0
1000_500_250_11_5,49.29,600.0,600.0,600.0,600.0
1000_500_250_11_6,51.97,600.0,600.0,600.0,600.0
1000_500_250_11_7,46.91,600.0,600.0,600.0,600.0
1000_500_250_11_8,50.77,600.0,600.0,600.0,600.0
1000_500_250_11_9,46.28,600.0,600.0,600.0,600.0
500_250_100_11_0,12.15,600.0,600.0,600.0,202.02
500_250_100_11_1,12.36,600.0,600.0,600.0,600.0
500_250_100_11_2,12.93,600.0,600.0,600.0,600.0
500_250_100_11_3,11.52,600.0,600.0,600.0,207.11
500_250_100_11_4,12.49,600.0,600.0,600.0,445.26
500_250_100_11_5,13.5,600.0,600.0,600.0,600.0
500_250_100_11_6,11.23,600.0,600.0,600.0,408.72
500_250_100_11_7,12.27,600.0,600.0,600.0,165.44
500_250_100_11_8,12.91,600.0,600.0,600.0,300.09
500_250_100_11_9,11.66,600.0,600.0,600.0,600.0
100_75_50_11_0,1.2,600.0,600.0,600.0,6.6
100_75_50_11_1,1.83,600.0,600.0,600.0,4.92
100_75_50_11_2,1.45,600.0,600.0,600.0,2.04
100_75_50_11_3,1.56,600.0,600.0,600.0,4.3
100_75_50_11_4,1.86,600.0,600.0,600.0,2.49
100_75_50_11_5,2.03,600.0,600.0,600.0,3.28
100_75_50_11_6,1.09,600.0,600.0,600.0,4.2
100_75_50_11_7,1.45,600.0,600.0,600.0,3.82
100_75_50_11_8,1.3,600.0,600.0,600.0,5.41
100_75_50_11_9,1.65,600.0,600.0,600.0,11.81
10000_500_200_12_0,600.0,600.0,600.0,600.0,600.0
10000_500_200_12_1,600.0,600.0,600.0,600.0,600.0
10000_500_200_12_2,600.0,600.0,600.0,600.0,600.0
10000_500_200_12_3,600.0,600.0,600.0,600.0,600.0
10000_500_200_12_4,600.0,600.0,600.0,600.0,600.0
10000_500_200_12_5,600.0,600.0,600.0,600.0,600.0
10000_500_200_12_6,600.0,600.0,600.0,600.0,600.0
10000_500_200_12_7,600.0,600.0,600.0,600.0,600.0
10000_500_200_12_8,600.0,600.0,600.0,600.0,600.0
10000_500_200_12_9,600.0,600.0,600.0,600.0,600.0
1000_500_250_12_0,24.79,600.0,600.0,600.0,600.0
1000_500_250_12_1,46.93,600.0,600.0,600.0,600.0
1000_500_250_12_2,26.39,600.0,600.0,600.0,600.0
1000_500_250_12_3,24.37,600.0,600.0,600.0,600.0
1000_500_250_12_4,27.03,600.0,600.0,600.0,600.0
1000_500_250_12_5,23.68,600.0,600.0,600.0,600.0
1000_500_250_12_6,26.18,600.0,600.0,600.0,600.0
1000_500_250_12_7,31.23,600.0,600.0,600.0,600.0
1000_500_250_12_8,31.37,600.0,600.0,600.0,600.0
1000_500_250_12_9,28.29,600.0,600.0,600.0,600.0
500_250_100_12_0,7.58,600.0,600.0,600.0,380.22
500_250_100_12_1,8.45,600.0,600.0,600.0,333.98
500_250_100_12_2,9.31,600.0,600.0,600.0,140.63
500_250_100_12_3,9.49,600.0,600.0,600.0,498.97
500_250_100_12_4,8.78,600.0,600.0,600.0,407.32
500_250_100_12_5,9.57,600.0,600.0,600.0,143.99
500_250_100_12_6,7.73,600.0,600.0,600.0,158.54
500_250_100_12_7,10.31,600.0,600.0,600.0,354.29
500_250_100_12_8,8.97,600.0,600.0,600.0,97.7
500_250_100_12_9,10.85,600.0,600.0,600.0,177.6
100_75_50_12_0,0.76,600.0,62.18,600.0,1.71
100_75_50_12_1,1.14,600.0,99.77,600.0,1.0
100_75_50_12_2,1.07,600.0,65.59,600.0,2.16
100_75_50_12_3,0.93,600.0,59.17,600.0,1.17
100_75_50_12_4,1.2,600.0,56.65,600.0,0.64
100_75_50_12_5,1.06,600.0,58.02,600.0,0.55
100_75_50_12_6,0.91,600.0,53.04,600.0,0.52
100_75_50_12_7,0.91,600.0,79.93,600.0,2.07
100_75_50_12_8,0.85,600.0,101.86,600.0,1.11
100_75_50_12_9,1.02,600.0,53.57,600.0,0.56
10000_500_200_14_0,600.0,600.0,600.0,600.0,600.0
10000_500_200_14_1,600.0,600.0,600.0,600.0,600.0
10000_500_200_14_2,600.0,600.0,600.0,600.0,600.0
10000_500_200_14_3,600.0,600.0,600.0,600.0,600.0
10000_500_200_14_4,600.0,600.0,600.0,600.0,600.0
10000_500_200_14_5,600.0,600.0,600.0,600.0,600.0
10000_500_200_14_6,600.0,600.0,600.0,600.0,600.0
10000_500_200_14_7,600.0,600.0,600.0,600.0,600.0
10000_500_200_14_8,600.0,600.0,600.0,600.0,600.0
10000_500_200_14_9,600.0,600.0,600.0,600.0,600.0
1000_500_250_14_0,33.32,600.0,600.0,600.0,266.26
1000_500_250_14_1,29.38,600.0,600.0,600.0,375.49
1000_500_250_14_2,35.33,600.0,600.0,600.0,547.46
1000_500_250_14_3,35.26,600.0,600.0,600.0,281.61
1000_500_250_14_4,30.28,600.0,600.0,600.0,315.57
1000_500_250_14_5,29.94,600.0,600.0,600.0,277.5
1000_500_250_14_6,27.77,600.0,600.0,600.0,600.0
1000_500_250_14_7,34.77,600.0,600.0,600.0,267.79
1000_500_250_14_8,28.72,600.0,600.0,600.0,302.75
1000_500_250_14_9,30.04,600.0,600.0,600.0,353.07
500_250_100_14_0,7.99,600.0,600.0,600.0,26.59
500_250_100_14_1,9.56,600.0,600.0,600.0,144.69
500_250_100_14_2,9.47,600.0,600.0,600.0,31.55
500_250_100_14_3,6.75,600.0,600.0,600.0,35.66
500_250_100_14_4,10.43,600.0,600.0,600.0,26.47
500_250_100_14_5,9.84,600.0,600.0,600.0,255.46
500_250_100_14_6,10.14,600.0,600.0,600.0,600.0
500_250_100_14_7,6.13,600.0,600.0,600.0,21.58
500_250_100_14_8,10.52,600.0,600.0,600.0,36.16
500_250_100_14_9,9.05,600.0,600.0,600.0,26.62
100_75_50_14_0,1.01,600.0,104.74,600.0,0.21
100_75_50_14_1,1.0,600.0,93.9,600.0,0.34
100_75_50_14_2,1.58,600.0,130.42,600.0,13.96
100_75_50_14_3,0.91,600.0,78.7,600.0,0.24
100_75_50_14_4,1.18,600.0,155.41,600.0,0.65
100_75_50_14_5,1.04,600.0,99.51,600.0,0.32
100_75_50_14_6,1.38,600.0,162.42,600.0,1.84
100_75_50_14_7,0.94,600.0,92.67,600.0,0.34
100_75_50_14_8,1.2,600.0,122.76,600.0,0.42
100_75_50_14_9,0.91,600.0,88.65,600.0,0.31
10000_500_200_15_0,600.0,600.0,600.0,600.0,600.0
10000_500_200_15_1,600.0,600.0,600.0,600.0,600.0
10000_500_200_15_2,600.0,600.0,600.0,600.0,600.0
10000_500_200_15_3,600.0,600.0,600.0,600.0,600.0
10000_500_200_15_4,600.0,600.0,600.0,600.0,600.0
10000_500_200_15_5,600.0,600.0,600.0,600.0,600.0
10000_500_200_15_6,600.0,600.0,600.0,600.0,600.0
10000_500_200_15_7,600.0,600.0,600.0,600.0,600.0
10000_500_200_15_8,600.0,600.0,600.0,600.0,600.0
10000_500_200_15_9,600.0,600.0,600.0,600.0,600.0
1000_500_250_15_0,41.03,600.0,600.0,600.0,600.0
1000_500_250_15_1,39.31,600.0,600.0,600.0,600.0
1000_500_250_15_2,40.94,600.0,600.0,600.0,600.0
1000_500_250_15_3,40.7,600.0,600.0,600.0,600.0
1000_500_250_15_4,43.64,600.0,600.0,600.0,600.0
1000_500_250_15_5,41.97,600.0,600.0,600.0,600.0
1000_500_250_15_6,41.06,600.0,600.0,600.0,600.0
1000_500_250_15_7,40.99,600.0,600.0,600.0,600.0
1000_500_250_15_8,43.93,600.0,600.0,600.0,600.0
1000_500_250_15_9,40.55,600.0,600.0,600.0,600.0
500_250_100_15_0,11.92,600.0,600.0,600.0,296.94
500_250_100_15_1,11.62,600.0,600.0,600.0,349.17
500_250_100_15_2,12.0,600.0,600.0,600.0,350.56
500_250_100_15_3,11.13,600.0,600.0,600.0,295.71
500_250_100_15_4,9.51,600.0,600.0,600.0,348.93
500_250_100_15_5,10.33,600.0,600.0,600.0,339.63
500_250_100_15_6,12.08,600.0,600.0,600.0,334.22
500_250_100_15_7,10.45,600.0,600.0,600.0,250.86
500_250_100_15_8,11.63,600.0,600.0,600.0,172.77
500_250_100_15_9,8.91,600.0,600.0,600.0,272.6
100_75_50_15_0,1.21,600.0,600.0,600.0,2.44
100_75_50_15_1,1.21,600.0,600.0,600.0,0.69
100_75_50_15_2,1.3,600.0,600.0,600.0,0.79
100_75_50_15_3,1.18,600.0,600.0,600.0,1.41
100_75_50_15_4,1.12,600.0,600.0,600.0,0.6
100_75_50_15_5,1.18,600.0,600.0,600.0,1.87
100_75_50_15_6,1.18,600.0,600.0,600.0,2.35
100_75_50_15_7,1.07,600.0,600.0,600.0,1.81
100_75_50_15_8,1.12,600.0,600.0,600.0,1.4
100_75_50_15_9,1.32,600.0,600.0,600.0,2.59
10000_500_200_16_0,600.0,600.0,600.0,600.0,600.0
10000_500_200_16_1,600.0,600.0,600.0,600.0,600.0
10000_500_200_16_2,600.0,600.0,600.0,600.0,600.0
10000_500_200_16_3,600.0,600.0,600.0,600.0,600.0
10000_500_200_16_4,600.0,600.0,600.0,600.0,600.0
10000_500_200_16_5,600.0,600.0,600.0,600.0,600.0
10000_500_200_16_6,600.0,600.0,600.0,600.0,600.0
10000_500_200_16_7,600.0,600.0,600.0,600.0,600.0
10000_500_200_16_8,600.0,600.0,600.0,600.0,600.0
10000_500_200_16_9,600.0,600.0,600.0,600.0,600.0
1000_500_250_16_0,22.64,600.0,600.0,600.0,600.0
1000_500_250_16_1,22.75,600.0,600.0,600.0,317.42
1000_500_250_16_2,17.66,600.0,600.0,600.0,497.94
1000_500_250_16_3,24.86,600.0,600.0,600.0,372.25
1000_500_250_16_4,22.75,600.0,600.0,600.0,307.42
1000_500_250_16_5,22.88,600.0,600.0,600.0,307.33
1000_500_250_16_6,24.46,600.0,600.0,600.0,600.0
1000_500_250_16_7,24.94,600.0,600.0,600.0,464.71
1000_500_250_16_8,24.79,600.0,600.0,600.0,600.0
1000_500_250_16_9,21.13,600.0,600.0,600.0,311.71
500_250_100_16_0,7.06,600.0,600.0,600.0,600.0
500_250_100_16_1,6.83,600.0,600.0,600.0,38.94
500_250_100_16_2,7.04,600.0,600.0,600.0,27.39
500_250_100_16_3,7.24,600.0,600.0,600.0,31.16
500_250_100_16_4,7.17,600.0,600.0,600.0,30.77
500_250_100_16_5,6.82,600.0,600.0,600.0,600.0
500_250_100_16_6,6.11,600.0,600.0,600.0,600.0
500_250_100_16_7,7.68,600.0,600.0,600.0,600.0
500_250_100_16_8,7.28,600.0,600.0,600.0,23.33
500_250_100_16_9,6.93,600.0,600.0,600.0,29.64
100_75_50_16_0,1.03,600.0,92.52,600.0,0.35
100_75_50_16_1,0.89,600.0,167.98,600.0,0.43
100_75_50_16_2,1.07,600.0,186.11,600.0,5.31
100_75_50_16_3,1.03,600.0,90.59,600.0,0.92
100_75_50_16_4,0.87,600.0,141.46,600.0,0.35
100_75_50_16_5,0.97,600.0,106.82,600.0,1.34
100_75_50_16_6,0.94,600.0,76.2,600.0,1.3
100_75_50_16_7,1.08,600.0,114.35,600.0,6.92
100_75_50_16_8,0.95,600.0,78.04,600.0,0.41
100_75_50_16_9,0.99,600.0,86.17,600.0,2.39
10000_500_200_18_0,600.0,600.0,600.0,600.0,600.0
10000_500_200_18_1,600.0,600.0,600.0,600.0,600.0
10000_500_200_18_2,600.0,600.0,600.0,600.0,600.0
10000_500_200_18_3,600.0,600.0,600.0,600.0,600.0
10000_500_200_18_4,600.0,600.0,600.0,600.0,600.0
10000_500_200_18_5,600.0,600.0,600.0,600.0,600.0
10000_500_200_18_6,600.0,600.0,600.0,600.0,600.0
10000_500_200_18_7,600.0,600.0,600.0,600.0,600.0
10000_500_200_18_8,600.0,600.0,600.0,600.0,600.0
10000_500_200_18_9,600.0,600.0,600.0,600.0,600.0
1000_500_250_18_0,41.85,600.0,600.0,600.0,600.0
1000_500_250_18_1,34.48,600.0,600.0,600.0,600.0
1000_500_250_18_2,37.86,600.0,600.0,600.0,600.0
1000_500_250_18_3,35.45,600.0,600.0,600.0,600.0
1000_500_250_18_4,32.18,600.0,600.0,600.0,600.0
1000_500_250_18_5,33.85,600.0,600.0,600.0,185.27
1000_500_250_18_6,35.68,600.0,600.0,600.0,600.0
1000_500_250_18_7,44.31,600.0,600.0,600.0,600.0
1000_500_250_18_8,36.99,600.0,600.0,600.0,600.0
1000_500_250_18_9,43.15,600.0,600.0,600.0,302.85
500_250_100_18_0,10.55,600.0,600.0,600.0,481.79
500_250_100_18_1,17.57,600.0,600.0,600.0,109.39
500_250_100_18_2,13.23,600.0,600.0,600.0,24.83
500_250_100_18_3,13.86,600.0,600.0,600.0,413.25
500_250_100_18_4,12.92,600.0,600.0,600.0,394.33
500_250_100_18_5,17.62,600.0,600.0,600.0,600.0
500_250_100_18_6,14.49,600.0,600.0,600.0,406.42
500_250_100_18_7,12.08,600.0,600.0,600.0,46.53
500_250_100_18_8,13.74,600.0,600.0,600.0,447.77
500_250_100_18_9,13.17,600.0,600.0,600.0,366.68
100_75_50_18_0,1.6,600.0,218.78,600.0,5.15
100_75_50_18_1,1.87,600.0,190.96,600.0,3.52
100_75_50_18_2,2.23,600.0,164.96,600.0,3.23
100_75_50_18_3,1.5,600.0,169.27,600.0,3.52
100_75_50_18_4,1.56,600.0,179.77,600.0,1.57
100_75_50_18_5,1.36,600.0,144.54,600.0,3.42
100_75_50_18_6,2.07,600.0,195.98,600.0,6.23
100_75_50_18_7,1.67,600.0,164.5,600.0,1.3
100_75_50_18_8,1.46,600.0,173.7,600.0,3.01
100_75_50_18_9,1.5,600.0,150.74,600.0,3.73
10000_500_200_19_0,600.0,600.0,600.0,600.0,600.0
10000_500_200_19_1,600.0,600.0,600.0,600.0,600.0
10000_500_200_19_2,600.0,600.0,600.0,600.0,600.0
10000_500_200_19_3,600.0,600.0,600.0,600.0,600.0
10000_500_200_19_4,600.0,600.0,600.0,600.0,600.0
10000_500_200_19_5,600.0,600.0,600.0,600.0,600.0
10000_500_200_19_6,600.0,600.0,600.0,600.0,600.0
10000_500_200_19_7,600.0,600.0,600.0,600.0,600.0
10000_500_200_19_8,600.0,600.0,600.0,600.0,600.0
10000_500_200_19_9,600.0,600.0,600.0,600.0,600.0
1000_500_250_19_0,47.97,600.0,600.0,600.0,600.0
1000_500_250_19_1,50.7,600.0,600.0,600.0,600.0
1000_500_250_19_2,51.62,600.0,600.0,600.0,600.0
1000_500_250_19_3,54.57,600.0,600.0,600.0,600.0
1000_500_250_19_4,46.43,600.0,600.0,600.0,600.0
1000_500_250_19_5,57.36,600.0,600.0,600.0,600.0
1000_500_250_19_6,44.94,600.0,600.0,600.0,600.0
1000_500_250_19_7,51.68,600.0,600.0,600.0,600.0
1000_500_250_19_8,55.14,600.0,600.0,600.0,600.0
1000_500_250_19_9,54.69,600.0,600.0,600.0,600.0
500_250_100_19_0,11.59,600.0,600.0,600.0,302.17
500_250_100_19_1,11.01,600.0,600.0,600.0,600.0
500_250_100_19_2,12.15,600.0,600.0,600.0,474.99
500_250_100_19_3,14.83,600.0,600.0,600.0,600.0
500_250_100_19_4,14.63,600.0,600.0,600.0,600.0
500_250_100_19_5,14.07,600.0,600.0,600.0,335.37
500_250_100_19_6,14.21,600.0,600.0,600.0,600.0
500_250_100_19_7,13.14,600.0,600.0,600.0,530.43
500_250_100_19_8,12.74,600.0,600.0,600.0,600.0
500_250_100_19_9,11.89,600.0,600.0,600.0,600.0
100_75_50_19_0,1.24,600.0,600.0,600.0,3.71
100_75_50_19_1,1.18,600.0,600.0,600.0,7.25
100_75_50_19_2,1.33,600.0,600.0,600.0,5.65
100_75_50_19_3,0.96,600.0,600.0,600.0,5.44
100_75_50_19_4,1.84,600.0,600.0,600.0,5.79
100_75_50_19_5,1.29,600.0,600.0,600.0,0.42
100_75_50_19_6,1.86,600.0,600.0,600.0,9.14
100_75_50_19_7,0.81,600.0,600.0,600.0,9.41
100_75_50_19_8,1.34,600.0,600.0,600.0,1.95
100_75_50_19_9,1.22,600.0,600.0,600.0,16.75
10000_500_200_20_0,600.0,600.0,600.0,600.0,600.0
10000_500_200_20_1,600.0,600.0,600.0,600.0,600.0
10000_500_200_20_2,600.0,600.0,600.0,600.0,600.0
10000_500_200_20_3,600.0,600.0,600.0,600.0,600.0
10000_500_200_20_4,600.0,600.0,600.0,600.0,600.0
10000_500_200_20_5,600.0,600.0,600.0,600.0,600.0
10000_500_200_20_6,600.0,600.0,600.0,600.0,600.0
10000_500_200_20_7,600.0,600.0,600.0,600.0,600.0
10000_500_200_20_8,600.0,600.0,600.0,600.0,600.0
10000_500_200_20_9,600.0,600.0,600.0,600.0,600.0
1000_500_250_20_0,25.38,600.0,600.0,600.0,600.0
1000_500_250_20_1,32.07,600.0,600.0,600.0,600.0
1000_500_250_20_2,23.22,600.0,600.0,600.0,600.0
1000_500_250_20_3,26.93,600.0,600.0,600.0,600.0
1000_500_250_20_4,26.46,600.0,600.0,600.0,271.4
1000_500_250_20_5,23.04,600.0,600.0,600.0,600.0
1000_500_250_20_6,25.46,600.0,600.0,600.0,600.0
1000_500_250_20_7,29.19,600.0,600.0,600.0,600.0
1000_500_250_20_8,31.42,600.0,600.0,600.0,600.0
1000_500_250_20_9,25.86,600.0,600.0,600.0,600.0
500_250_100_20_0,7.38,600.0,600.0,600.0,152.07
500_250_100_20_1,7.67,600.0,600.0,600.0,248.51
500_250_100_20_2,9.57,600.0,600.0,600.0,180.96
500_250_100_20_3,8.49,600.0,600.0,600.0,148.27
500_250_100_20_4,11.46,600.0,600.0,600.0,401.27
500_250_100_20_5,9.57,600.0,600.0,600.0,407.43
500_250_100_20_6,8.24,600.0,600.0,600.0,225.95
500_250_100_20_7,8.78,600.0,600.0,600.0,299.39
500_250_100_20_8,8.59,600.0,600.0,600.0,275.7
500_250_100_20_9,8.49,600.0,600.0,600.0,415.83
100_75_50_20_0,1.18,600.0,108.87,600.0,0.69
100_75_50_20_1,1.5,600.0,117.71,600.0,1.19
100_75_50_20_2,1.08,600.0,103.65,600.0,1.33
100_75_50_20_3,0.93,600.0,37.26,600.0,1.08
100_75_50_20_4,1.02,600.0,101.99,600.0,1.84
100_75_50_20_5,1.28,600.0,104.33,600.0,1.39
100_75_50_20_6,0.9,600.0,71.1,600.0,1.33
100_75_50_20_7,1.12,600.0,88.26,600.0,1.42
100_75_50_20_8,1.04,600.0,58.75,600.0,5.34
100_75_50_20_9,0.93,600.0,118.78,600.0,1.45
10000_500_200_22_0,600.0,600.0,600.0,600.0,600.0
10000_500_200_22_1,600.0,600.0,600.0,600.0,600.0
10000_500_200_22_2,600.0,600.0,600.0,600.0,600.0
10000_500_200_22_3,600.0,600.0,600.0,600.0,600.0
10000_500_200_22_4,600.0,600.0,600.0,600.0,600.0
10000_500_200_22_5,600.0,600.0,600.0,600.0,600.0
10000_500_200_22_6,600.0,600.0,600.0,600.0,600.0
10000_500_200_22_7,600.0,600.0,600.0,600.0,600.0
10000_500_200_22_8,600.0,600.0,600.0,600.0,600.0
10000_500_200_22_9,600.0,600.0,600.0,600.0,600.0
1000_500_250_22_0,49.29,600.0,600.0,600.0,600.0
1000_500_250_22_1,39.52,600.0,600.0,600.0,600.0
1000_500_250_22_2,39.35,600.0,600.0,600.0,600.0
1000_500_250_22_3,43.74,600.0,600.0,600.0,600.0
1000_500_250_22_4,31.64,600.0,600.0,600.0,600.0
1000_500_250_22_5,39.28,600.0,600.0,600.0,600.0
1000_500_250_22_6,37.61,600.0,600.0,600.0,600.0
1000_500_250_22_7,41.48,600.0,600.0,600.0,600.0
1000_500_250_22_8,41.28,600.0,600.0,600.0,600.0
1000_500_250_22_9,50.17,600.0,600.0,600.0,600.0
500_250_100_22_0,11.92,600.0,600.0,600.0,457.46
500_250_100_22_1,19.69,600.0,600.0,600.0,600.0
500_250_100_22_2,16.08,600.0,600.0,600.0,442.68
500_250_100_22_3,18.54,600.0,600.0,600.0,350.3
500_250_100_22_4,15.92,600.0,600.0,600.0,285.53
500_250_100_22_5,20.51,600.0,600.0,600.0,474.53
500_250_100_22_6,17.42,600.0,600.0,600.0,346.96
500_250_100_22_7,13.31,600.0,600.0,600.0,600.0
500_250_100_22_8,15.31,600.0,600.0,600.0,251.88
500_250_100_22_9,14.37,600.0,600.0,600.0,187.69
100_75_50_22_0,1.52,600.0,165.83,600.0,1.35
100_75_50_22_1,1.67,600.0,136.11,600.0,0.73
100_75_50_22_2,1.52,600.0,141.01,600.0,1.15
100_75_50_22_3,1.65,600.0,133.72,600.0,2.56
100_75_50_22_4,1.54,600.0,157.96,600.0,2.81
100_75_50_22_5,1.52,600.0,127.13,600.0,1.9
100_75_50_22_6,1.62,600.0,153.42,600.0,2.87
100_75_50_22_7,1.73,600.0,137.55,600.0,2.16
100_75_50_22_8,1.46,600.0,185.63,600.0,0.51
100_75_50_22_9,1.52,600.0,134.62,600.0,1.9
10000_500_200_23_0,600.0,600.0,600.0,600.0,600.0
10000_500_200_23_1,600.0,600.0,600.0,600.0,600.0
10000_500_200_23_2,600.0,600.0,600.0,600.0,600.0
10000_500_200_23_3,600.0,600.0,600.0,600.0,600.0
10000_500_200_23_4,600.0,600.0,600.0,600.0,600.0
10000_500_200_23_5,600.0,600.0,600.0,600.0,600.0
10000_500_200_23_6,600.0,600.0,600.0,600.0,600.0
10000_500_200_23_7,600.0,600.0,600.0,600.0,600.0
10000_500_200_23_8,600.0,600.0,600.0,600.0,600.0
10000_500_200_23_9,600.0,600.0,600.0,600.0,600.0
1000_500_250_23_0,45.02,600.0,600.0,600.0,600.0
1000_500_250_23_1,45.52,600.0,600.0,600.0,600.0
1000_500_250_23_2,47.07,600.0,600.0,600.0,600.0
1000_500_250_23_3,46.71,600.0,600.0,600.0,600.0
1000_500_250_23_4,47.86,600.0,600.0,600.0,600.0
1000_500_250_23_5,51.17,600.0,600.0,600.0,600.0
1000_500_250_23_6,50.15,600.0,600.0,600.0,600.0
1000_500_250_23_7,50.93,600.0,600.0,600.0,600.0
1000_500_250_23_8,53.13,600.0,600.0,600.0,600.0
1000_500_250_23_9,50.1,600.0,600.0,600.0,600.0
500_250_100_23_0,13.27,600.0,600.0,600.0,199.05
500_250_100_23_1,12.35,600.0,600.0,600.0,600.0
500_250_100_23_2,12.97,600.0,600.0,600.0,600.0
500_250_100_23_3,11.9,600.0,600.0,600.0,216.68
500_250_100_23_4,9.29,600.0,600.0,600.0,460.54
500_250_100_23_5,12.77,600.0,600.0,600.0,600.0
500_250_100_23_6,12.9,600.0,600.0,600.0,443.25
500_250_100_23_7,11.74,600.0,600.0,600.0,177.67
500_250_100_23_8,12.41,600.0,600.0,600.0,317.58
500_250_100_23_9,11.8,600.0,600.0,600.0,600.0
100_75_50_23_0,1.55,600.0,600.0,600.0,6.38
100_75_50_23_1,1.62,600.0,600.0,600.0,4.99
100_75_50_23_2,1.63,600.0,600.0,600.0,2.08
100_75_50_23_3,1.0,600.0,600.0,600.0,4.01
100_75_50_23_4,1.82,600.0,600.0,600.0,2.6
100_75_50_23_5,2.13,600.0,600.0,600.0,2.86
100_75_50_23_6,1.09,600.0,600.0,600.0,4.09
100_75_50_23_7,1.33,600.0,600.0,600.0,4.04
100_75_50_23_8,1.01,600.0,600.0,600.0,5.67
100_75_50_23_9,1.67,600.0,600.0,600.0,12.18
10000_500_200_24_0,600.0,600.0,600.0,600.0,600.0
10000_500_200_24_1,600.0,600.0,600.0,600.0,600.0
10000_500_200_24_2,600.0,600.0,600.0,600.0,600.0
10000_500_200_24_3,600.0,600.0,600.0,600.0,600.0
10000_500_200_24_4,600.0,600.0,600.0,600.0,600.0
10000_500_200_24_5,600.0,600.0,600.0,600.0,600.0
10000_500_200_24_6,600.0,600.0,600.0,600.0,600.0
10000_500_200_24_7,600.0,600.0,600.0,600.0,600.0
10000_500_200_24_8,600.0,600.0,600.0,600.0,600.0
10000_500_200_24_9,600.0,600.0,600.0,600.0,600.0
1000_500_250_24_0,25.54,600.0,600.0,600.0,600.0
1000_500_250_24_1,42.33,600.0,600.0,600.0,600.0
1000_500_250_24_2,27.13,600.0,600.0,600.0,600.0
1000_500_250_24_3,26.74,600.0,600.0,600.0,600.0
1000_500_250_24_4,23.34,600.0,600.0,600.0,600.0
1000_500_250_24_5,24.25,600.0,600.0,600.0,600.0
1000_500_250_24_6,24.62,600.0,600.0,600.0,600.0
1000_500_250_24_7,29.65,600.0,600.0,600.0,600.0
1000_500_250_24_8,27.9,600.0,600.0,600.0,600.0
1000_500_250_24_9,26.39,600.0,600.0,600.0,600.0
500_250_100_24_0,8.57,600.0,600.0,600.0,380.32
500_250_100_24_1,8.09,600.0,600.0,600.0,337.83
500_250_100_24_2,10.32,600.0,600.0,600.0,138.79
500_250_100_24_3,9.44,600.0,600.0,600.0,500.31
500_250_100_24_4,8.75,600.0,600.0,600.0,406.61
500_250_100_24_5,9.53,600.0,600.0,600.0,141.64
500_250_100_24_6,8.17,600.0,600.0,600.0,165.09
500_250_100_24_7,9.38,600.0,600.0,600.0,371.96
500_250_100_24_8,8.75,600.0,600.0,600.0,99.35
500_250_100_24_9,8.76,600.0,600.0,600.0,177.96
100_75_50_24_0,0.83,600.0,65.73,600.0,1.52
100_75_50_24_1,1.17,600.0,95.75,600.0,1.13
100_75_50_24_2,1.08,600.0,57.0,600.0,2.19
100_75_50_24_3,0.95,600.0,62.18,600.0,1.04
100_75_50_24_4,1.33,600.0,66.95,600.0,0.7
100_75_50_24_5,1.23,600.0,63.99,600.0,0.75
100_75_50_24_6,0.99,600.0,57.54,600.0,0.73
100_75_50_24_7,0.95,600.0,81.13,600.0,2.01
100_75_50_24_8,0.68,600.0,111.44,600.0,1.12
100_75_50_24_9,1.02,600.0,57.51,600.0,0.56
10000_500_200_26_0,600.0,600.0,600.0,600.0,600.0
10000_500_200_26_1,600.0,600.0,600.0,600.0,600.0
10000_500_200_26_2,600.0,600.0,600.0,600.0,600.0
10000_500_200_26_3,600.0,600.0,600.0,600.0,600.0
10000_500_200_26_4,600.0,600.0,600.0,600.0,600.0
10000_500_200_26_5,600.0,600.0,600.0,600.0,600.0
10000_500_200_26_6,600.0,600.0,600.0,600.0,600.0
10000_500_200_26_7,600.0,600.0,600.0,600.0,600.0
10000_500_200_26_8,600.0,600.0,600.0,600.0,600.0
10000_500_200_26_9,600.0,600.0,600.0,600.0,600.0
1000_500_250_26_0,39.35,600.0,600.0,600.0,275.92
1000_500_250_26_1,32.34,600.0,600.0,600.0,372.35
1000_500_250_26_2,35.94,600.0,600.0,600.0,551.73
1000_500_250_26_3,33.32,600.0,600.0,600.0,289.12
1000_500_250_26_4,28.23,600.0,600.0,600.0,323.9
1000_500_250_26_5,26.13,600.0,600.0,600.0,288.23
1000_500_250_26_6,32.63,600.0,600.0,600.0,600.0
1000_500_250_26_7,32.25,600.0,600.0,600.0,259.81
1000_500_250_26_8,26.03,600.0,600.0,600.0,304.28
1000_500_250_26_9,34.5,600.0,600.0,600.0,370.16
500_250_100_26_0,8.41,600.0,600.0,600.0,29.43
500_250_100_26_1,7.77,600.0,600.0,600.0,146.69
500_250_100_26_2,10.61,600.0,600.0,600.0,31.24
500_250_100_26_3,8.01,600.0,600.0,600.0,38.5
500_250_100_26_4,8.46,600.0,600.0,600.0,27.47
500_250_100_26_5,10.07,600.0,600.0,600.0,254.58
500_250_100_26_6,10.58,600.0,600.0,600.0,600.0
500_250_100_26_7,8.36,600.0,600.0,600.0,22.6
500_250_100_26_8,10.9,600.0,600.0,600.0,36.84
500_250_100_26_9,8.97,600.0,600.0,600.0,23.89
100_75_50_26_0,1.29,600.0,104.84,600.0,0.38
100_75_50_26_1,0.95,600.0,98.94,600.0,0.41
100_75_50_26_2,1.81,600.0,156.39,600.0,15.26
100_75_50_26_3,0.74,600.0,84.12,600.0,0.39
100_75_50_26_4,1.52,600.0,154.04,600.0,0.67
100_75_50_26_5,1.03,600.0,112.59,600.0,0.32
100_75_50_26_6,1.44,600.0,182.83,600.0,1.49
100_75_50_26_7,0.99,600.0,99.6,600.0,0.3
100_75_50_26_8,1.0,600.0,125.14,600.0,0.39
100_75_50_26_9,0.94,600.0,96.21,600.0,0.37
10000_500_200_27_0,600.0,600.0,600.0,600.0,600.0
10000_500_200_27_1,600.0,600.0,600.0,600.0,600.0
10000_500_200_27_2,600.0,600.0,600.0,600.0,600.0
10000_500_200_27_3,600.0,600.0,600.0,600.0,600.0
10000_500_200_27_4,600.0,600.0,600.0,600.0,600.0
10000_500_200_27_5,600.0,600.0,600.0,600.0,600.0
10000_500_200_27_6,600.0,600.0,600.0,600.0,600.0
10000_500_200_27_7,600.0,600.0,600.0,600.0,600.0
10000_500_200_27_8,600.0,600.0,600.0,600.0,600.0
10000_500_200_27_9,600.0,600.0,600.0,600.0,600.0
1000_500_250_27_0,42.49,600.0,600.0,600.0,600.0
1000_500_250_27_1,42.4,600.0,600.0,600.0,600.0
1000_500_250_27_2,45.61,600.0,600.0,600.0,600.0
1000_500_250_27_3,44.34,600.0,600.0,600.0,600.0
1000_500_250_27_4,42.37,600.0,600.0,600.0,600.0
1000_500_250_27_5,41.55,600.0,600.0,600.0,600.0
1000_500_250_27_6,43.19,600.0,600.0,600.0,600.0
1000_500_250_27_7,34.87,600.0,600.0,600.0,600.0
1000_500_250_27_8,42.22,600.0,600.0,600.0,600.0
1000_500_250_27_9,42.23,600.0,600.0,600.0,600.0
500_250_100_27_0,12.68,600.0,600.0,600.0,298.32
500_250_100_27_1,11.4,600.0,600.0,600.0,349.9
500_250_100_27_2,10.42,600.0,600.0,600.0,350.54
500_250_100_27_3,11.67,600.0,600.0,600.0,304.39
500_250_100_27_4,9.77,600.0,600.0,600.0,344.27
500_250_100_27_5,11.29,600.0,600.0,600.0,329.31
500_250_100_27_6,11.66,600.0,600.0,600.0,340.0
500_250_100_27_7,10.62,600.0,600.0,600.0,258.32
500_250_100_27_8,11.43,600.0,600.0,600.0,181.34
500_250_100_27_9,13.38,600.0,600.0,600.0,294.86
100_75_50_27_0,1.14,600.0,600.0,600.0,2.54
100_75_50_27_1,1.14,600.0,600.0,600.0,0.77
100_75_50_27_2,1.18,600.0,600.0,600.0,0.84
100_75_50_27_3,1.18,600.0,600.0,600.0,1.41
100_75_50_27_4,1.14,600.0,600.0,600.0,0.61
100_75_50_27_5,1.21,600.0,600.0,600.0,1.64
100_75_50_27_6,1.34,600.0,600.0,600.0,2.42
100_75_50_27_7,1.15,600.0,600.0,600.0,1.68
100_75_50_27_8,1.09,600.0,600.0,600.0,1.43
100_75_50_27_9,0.97,600.0,600.0,600.0,2.54
10000_500_200_28_0,600.0,600.0,600.0,600.0,600.0
10000_500_200_28_1,600.0,600.0,600.0,600.0,600.0
10000_500_200_28_2,600.0,600.0,600.0,600.0,600.0
10000_500_200_28_3,600.0,600.0,600.0,600.0,600.0
10000_500_200_28_4,600.0,600.0,600.0,600.0,600.0
10000_500_200_28_5,600.0,600.0,600.0,600.0,600.0
10000_500_200_28_6,600.0,600.0,600.0,600.0,600.0
10000_500_200_28_7,600.0,600.0,600.0,600.0,600.0
10000_500_200_28_8,600.0,600.0,600.0,600.0,600.0
10000_500_200_28_9,600.0,600.0,600.0,600.0,600.0
1000_500_250_28_0,21.0,600.0,600.0,600.0,600.0
1000_500_250_28_1,22.42,600.0,600.0,600.0,324.0
1000_500_250_28_2,20.71,600.0,600.0,600.0,499.88
1000_500_250_28_3,23.39,600.0,600.0,600.0,372.78
1000_500_250_28_4,24.31,600.0,600.0,600.0,297.73
1000_500_250_28_5,23.29,600.0,600.0,600.0,291.01
1000_500_250_28_6,22.27,600.0,600.0,600.0,600.0
1000_500_250_28_7,24.14,600.0,600.0,600.0,447.19
1000_500_250_28_8,25.96,600.0,600.0,600.0,600.0
1000_500_250_28_9,25.63,600.0,600.0,600.0,319.96
500_250_100_28_0,6.73,600.0,600.0,600.0,600.0
500_250_100_28_1,6.8,600.0,600.0,600.0,32.53
500_250_100_28_2,6.51,600.0,600.0,600.0,26.49
500_250_100_28_3,5.81,600.0,600.0,600.0,33.58
500_250_100_28_4,6.8,600.0,600.0,600.0,31.25
500_250_100_28_5,6.46,600.0,600.0,600.0,600.0
500_250_100_28_6,6.92,600.0,600.0,600.0,600.0
500_250_100_28_7,4.68,600.0,600.0,600.0,592.9
500_250_100_28_8,7.88,600.0,600.0,600.0,28.17
500_250_100_28_9,6.93,600.0,600.0,600.0,32.17
100_75_50_28_0,1.16,600.0,98.61,600.0,0.37
100_75_50_28_1,0.98,600.0,168.67,600.0,0.39
100_75_50_28_2,1.02,600.0,179.27,600.0,4.17
100_75_50_28_3,0.97,600.0,91.35,600.0,0.89
100_75_50_28_4,0.93,600.0,138.73,600.0,0.4
100_75_50_28_5,0.85,600.0,101.1,600.0,1.35
100_75_50_28_6,1.02,600.0,70.37,600.0,1.22
100_75_50_28_7,0.9,600.0,101.69,600.0,6.39
100_75_50_28_8,1.03,600.0,84.71,600.0,0.4
100_75_50_28_9,0.98,600.0,76.27,600.0,2.4
10000_500_200_30_0,600.0,600.0,600.0,600.0,600.0
10000_500_200_30_1,600.0,600.0,600.0,600.0,600.0
10000_500_200_30_2,600.0,600.0,600.0,600.0,600.0
10000_500_200_30_3,600.0,600.0,600.0,600.0,600.0
10000_500_200_30_4,600.0,600.0,600.0,600.0,600.0
10000_500_200_30_5,600.0,600.0,600.0,600.0,600.0
10000_500_200_30_6,600.0,600.0,600.0,600.0,600.0
10000_500_200_30_7,600.0,600.0,600.0,600.0,600.0
10000_500_200_30_8,600.0,600.0,600.0,600.0,600.0
10000_500_200_30_9,600.0,600.0,600.0,600.0,600.0
1000_500_250_30_0,40.91,600.0,600.0,600.0,600.0
1000_500_250_30_1,35.52,600.0,600.0,600.0,600.0
1000_500_250_30_2,40.03,600.0,600.0,600.0,600.0
1000_500_250_30_3,39.44,600.0,600.0,600.0,600.0
1000_500_250_30_4,31.46,600.0,600.0,600.0,600.0
1000_500_250_30_5,36.06,600.0,600.0,600.0,184.39
1000_500_250_30_6,32.84,600.0,600.0,600.0,600.0
1000_500_250_30_7,34.3,600.0,600.0,600.0,600.0
1000_500_250_30_8,35.39,600.0,600.0,600.0,600.0
1000_500_250_30_9,38.74,600.0,600.0,600.0,308.47
500_250_100_30_0,12.87,600.0,600.0,600.0,460.27
500_250_100_30_1,14.74,600.0,600.0,600.0,110.24
500_250_100_30_2,13.33,600.0,600.0,600.0,23.83
500_250_100_30_3,13.43,600.0,600.0,600.0,422.67
500_250_100_30_4,12.03,600.0,600.0,600.0,412.3
500_250_100_30_5,20.22,600.0,600.0,600.0,600.0
500_250_100_30_6,10.01,600.0,600.0,600.0,397.18
500_250_100_30_7,11.27,600.0,600.0,600.0,45.26
500_250_100_30_8,14.14,600.0,600.0,600.0,438.05
500_250_100_30_9,14.61,600.0,600.0,600.0,381.75
100_75_50_30_0,1.69,600.0,219.06,600.0,5.41
100_75_50_30_1,1.79,600.0,176.41,600.0,4.01
100_75_50_30_2,1.94,600.0,176.14,600.0,3.1
100_75_50_30_3,1.67,600.0,167.4,600.0,3.37
100_75_50_30_4,1.54,600.0,180.69,600.0,1.47
100_75_50_30_5,1.38,600.0,155.69,600.0,3.99
100_75_50_30_6,1.86,600.0,182.41,600.0,6.32
100_75_50_30_7,1.65,600.0,171.66,600.0,1.42
100_75_50_30_8,1.45,600.0,173.39,600.0,2.22
100_75_50_30_9,1.5,600.0,152.18,600.0,3.72
10000_500_200_31_0,600.0,600.0,600.0,600.0,600.0
10000_500_200_31_1,600.0,600.0,600.0,600.0,600.0
10000_500_200_31_2,600.0,600.0,600.0,600.0,600.0
10000_500_200_31_3,600.0,600.0,600.0,600.0,600.0
10000_500_200_31_4,600.0,600.0,600.0,600.0,600.0
10000_500_200_31_5,600.0,600.0,600.0,600.0,600.0
10000_500_200_31_6,600.0,600.0,600.0,600.0,600.0
10000_500_200_31_7,600.0,600.0,600.0,600.0,600.0
10000_500_200_31_8,600.0,600.0,600.0,600.0,600.0
10000_500_200_31_9,600.0,600.0,600.0,600.0,600.0
1000_500_250_31_0,56.31,600.0,600.0,600.0,600.0
1000_500_250_31_1,49.56,600.0,600.0,600.0,600.0
1000_500_250_31_2,50.94,600.0,600.0,600.0,600.0
1000_500_250_31_3,51.64,600.0,600.0,600.0,600.0
1000_500_250_31_4,46.11,600.0,600.0,600.0,600.0
1000_500_250_31_5,43.93,600.0,600.0,600.0,600.0
1000_500_250_31_6,50.87,600.0,600.0,600.0,600.0
1000_500_250_31_7,48.39,600.0,600.0,600.0,600.0
1000_500_250_31_8,53.02,600.0,600.0,600.0,600.0
1000_500_250_31_9,50.29,600.0,600.0,600.0,600.0
500_250_100_31_0,13.38,600.0,600.0,600.0,300.38
500_250_100_31_1,13.92,600.0,600.0,600.0,600.0
500_250_100_31_2,14.87,600.0,600.0,600.0,471.06
500_250_100_31_3,12.7,600.0,600.0,600.0,600.0
500_250_100_31_4,12.61,600.0,600.0,600.0,600.0
500_250_100_31_5,14.11,600.0,600.0,600.0,323.8
500_250_100_31_6,13.43,600.0,600.0,600.0,600.0
500_250_100_31_7,11.32,600.0,600.0,600.0,544.43
500_250_100_31_8,13.17,600.0,600.0,600.0,600.0
500_250_100_31_9,11.62,600.0,600.0,600.0,600.0
100_75_50_31_0,1.18,600.0,600.0,600.0,4.88
100_75_50_31_1,1.2,600.0,600.0,600.0,7.46
100_75_50_31_2,1.24,600.0,600.0,600.0,4.08
100_75_50_31_3,1.17,600.0,600.0,600.0,5.47
100_75_50_31_4,1.04,600.0,600.0,600.0,4.87
100_75_50_31_5,1.37,600.0,600.0,600.0,0.48
100_75_50_31_6,1.65,600.0,600.0,600.0,8.01
100_75_50_31_7,1.45,600.0,600.0,600.0,8.4
100_75_50_31_8,1.43,600.0,600.0,600.0,1.94
100_75_50_31_9,1.2,600.0,600.0,600.0,16.96
10000_500_200_32_0,600.0,600.0,600.0,600.0,600.0
10000_500_200_32_1,600.0,600.0,600.0,600.0,600.0
10000_500_200_32_2,600.0,600.0,600.0,600.0,600.0
10000_500_200_32_3,600.0,600.0,600.0,600.0,600.0
10000_500_200_32_4,600.0,600.0,600.0,600.0,600.0
10000_500_200_32_5,600.0,600.0,600.0,600.0,600.0
10000_500_200_32_6,600.0,600.0,600.0,600.0,600.0
10000_500_200_32_7,600.0,600.0,600.0,600.0,600.0
10000_500_200_32_8,600.0,600.0,600.0,600.0,600.0
10000_500_200_32_9,600.0,600.0,600.0,600.0,600.0
1000_500_250_32_0,25.52,600.0,600.0,600.0,600.0
1000_500_250_32_1,35.6,600.0,600.0,600.0,600.0
1000_500_250_32_2,22.58,600.0,600.0,600.0,600.0
1000_500_250_32_3,28.2,600.0,600.0,600.0,600.0
1000_500_250_32_4,27.23,600.0,600.0,600.0,260.51
1000_500_250_32_5,23.86,600.0,600.0,600.0,600.0
1000_500_250_32_6,25.27,600.0,600.0,600.0,600.0
1000_500_250_32_7,29.0,600.0,600.0,600.0,600.0
1000_500_250_32_8,30.04,600.0,600.0,600.0,600.0
1000_500_250_32_9,26.96,600.0,600.0,600.0,600.0
500_250_100_32_0,6.84,600.0,600.0,600.0,168.46
500_250_100_32_1,7.35,600.0,600.0,600.0,238.43
500_250_100_32_2,7.8,600.0,600.0,600.0,178.29
500_250_100_32_3,8.51,600.0,600.0,600.0,147.87
500_250_100_32_4,9.81,600.0,600.0,600.0,403.99
500_250_100_32_5,8.67,600.0,600.0,600.0,410.47
500_250_100_32_6,8.34,600.0,600.0,600.0,239.57
500_250_100_32_7,8.67,600.0,600.0,600.0,292.43
500_250_100_32_8,8.73,600.0,600.0,600.0,270.7
500_250_100_32_9,7.84,600.0,600.0,600.0,405.45
100_75_50_32_0,1.13,600.0,108.51,600.0,1.18
100_75_50_32_1,1.31,600.0,116.86,600.0,1.28
100_75_50_32_2,1.24,600.0,101.6,600.0,1.56
100_75_50_32_3,1.22,600.0,43.11,600.0,0.65
100_75_50_32_4,1.16,600.0,101.93,600.0,1.8
100_75_50_32_5,1.28,600.0,101.49,600.0,1.37
100_75_50_32_6,0.89,600.0,75.27,600.0,1.5
100_75_50_32_7,1.27,600.0,96.99,600.0,1.67
100_75_50_32_8,1.04,600.0,64.18,600.0,3.9
100_75_50_32_9,0.83,600.0,119.75,600.0,0.77
10000_500_200_34_0,600.0,600.0,600.0,600.0,600.0
10000_500_200_34_1,600.0,600.0,600.0,600.0,600.0
10000_500_200_34_2,600.0,600.0,600.0,600.0,600.0
10000_500_200_34_3,600.0,600.0,600.0,600.0,600.0
10000_500_200_34_4,600.0,600.0,600.0,600.0,600.0
10000_500_200_34_5,600.0,600.0,600.0,600.0,600.0
10000_500_200_34_6,600.0,600.0,600.0,600.0,600.0
10000_500_200_34_7,600.0,600.0,600.0,600.0,600.0
10000_500_200_34_8,600.0,600.0,600.0,600.0,600.0
10000_500_200_34_9,600.0,600.0,600.0,600.0,600.0
1000_500_250_34_0,53.21,600.0,600.0,600.0,600.0
1000_500_250_34_1,38.15,600.0,600.0,600.0,600.0
1000_500_250_34_2,46.98,600.0,600.0,600.0,600.0
1000_500_250_34_3,46.11,600.0,600.0,600.0,600.0
1000_500_250_34_4,34.63,600.0,600.0,600.0,600.0
1000_500_250_34_5,39.45,600.0,600.0,600.0,600.0
1000_500_250_34_6,39.47,600.0,600.0,600.0,600.0
1000_500_250_34_7,45.98,600.0,600.0,600.0,600.0
1000_500_250_34_8,45.75,600.0,600.0,600.0,600.0
1000_500_250_34_9,46.78,600.0,600.0,600.0,600.0
500_250_100_34_0,13.05,600.0,600.0,600.0,432.16
500_250_100_34_1,19.35,600.0,600.0,600.0,600.0
500_250_100_34_2,13.46,600.0,600.0,600.0,430.87
500_250_100_34_3,14.99,600.0,600.0,600.0,352.85
500_250_100_34_4,16.59,600.0,600.0,600.0,275.25
500_250_100_34_5,20.16,600.0,600.0,600.0,485.61
500_250_100_34_6,13.76,600.0,600.0,600.0,362.05
500_250_100_34_7,11.3,600.0,600.0,600.0,600.0
500_250_100_34_8,18.39,600.0,600.0,600.0,236.17
500_250_100_34_9,14.96,600.0,600.0,600.0,187.61
100_75_50_34_0,1.51,600.0,173.84,600.0,1.49
100_75_50_34_1,1.39,600.0,139.68,600.0,0.66
100_75_50_34_2,1.8,600.0,151.74,600.0,1.08
100_75_50_34_3,1.63,600.0,137.19,600.0,2.12
100_75_50_34_4,1.47,600.0,167.98,600.0,2.82
100_75_50_34_5,1.43,600.0,125.75,600.0,1.77
100_75_50_34_6,1.56,600.0,156.62,600.0,1.63
100_75_50_34_7,1.75,600.0,127.9,600.0,1.75
100_75_50_34_8,1.43,600.0,165.77,600.0,0.51
100_75_50_34_9,1.54,600.0,140.51,600.0,2.05
10000_500_200_35_0,600.0,600.0,600.0,600.0,600.0
10000_500_200_35_1,600.0,600.0,600.0,600.0,600.0
10000_500_200_35_2,600.0,600.0,600.0,600.0,600.0
10000_500_200_35_3,600.0,600.0,600.0,600.0,600.0
10000_500_200_35_4,600.0,600.0,600.0,600.0,600.0
10000_500_200_35_5,600.0,600.0,600.0,600.0,600.0
10000_500_200_35_6,600.0,600.0,600.0,600.0,600.0
10000_500_200_35_7,600.0,600.0,600.0,600.0,600.0
10000_500_200_35_8,600.0,600.0,600.0,600.0,600.0
10000_500_200_35_9,600.0,600.0,600.0,600.0,600.0
1000_500_250_35_0,49.33,600.0,600.0,600.0,600.0
1000_500_250_35_1,48.43,600.0,600.0,600.0,600.0
1000_500_250_35_2,48.91,600.0,600.0,600.0,600.0
1000_500_250_35_3,46.79,600.0,600.0,600.0,600.0
1000_500_250_35_4,49.52,600.0,600.0,600.0,600.0
1000_500_250_35_5,47.76,600.0,600.0,600.0,600.0
1000_500_250_35_6,44.17,600.0,600.0,600.0,600.0
1000_500_250_35_7,53.22,600.0,600.0,600.0,600.0
1000_500_250_35_8,45.13,600.0,600.0,600.0,600.0
1000_500_250_35_9,52.63,600.0,600.0,600.0,600.0
500_250_100_35_0,12.3,600.0,600.0,600.0,205.3
500_250_100_35_1,12.57,600.0,600.0,600.0,600.0
500_250_100_35_2,13.4,600.0,600.0,600.0,600.0
500_250_100_35_3,12.2,600.0,600.0,600.0,217.81
500_250_100_35_4,12.03,600.0,600.0,600.0,452.46
500_250_100_35_5,10.96,600.0,600.0,600.0,600.0
500_250_100_35_6,11.84,600.0,600.0,600.0,427.25
500_250_100_35_7,11.06,600.0,600.0,600.0,179.98
500_250_100_35_8,13.35,600.0,600.0,600.0,311.27
500_250_100_35_9,11.63,600.0,600.0,600.0,600.0
100_75_50_35_0,1.69,600.0,600.0,600.0,6.46
100_75_50_35_1,1.64,600.0,600.0,600.0,5.47
100_75_50_35_2,1.02,600.0,600.0,600.0,2.08
100_75_50_35_3,1.41,600.0,600.0,600.0,4.02
100_75_50_35_4,1.77,600.0,600.0,600.0,2.54
100_75_50_35_5,2.0,600.0,600.0,600.0,3.95
100_75_50_35_6,1.8,600.0,600.0,600.0,4.49
100_75_50_35_7,1.35,600.0,600.0,600.0,3.11
100_75_50_35_8,1.3,600.0,600.0,600.0,5.74
100_75_50_35_9,1.59,600.0,600.0,600.0,10.46
10000_500_200_36_0,600.0,600.0,600.0,600.0,600.0
10000_500_200_36_1,600.0,600.0,600.0,600.0,600.0
10000_500_200_36_2,600.0,600.0,600.0,600.0,600.0
10000_500_200_36_3,600.0,600.0,600.0,600.0,600.0
10000_500_200_36_4,600.0,600.0,600.0,600.0,600.0
10000_500_200_36_5,600.0,600.0,600.0,600.0,600.0
10000_500_200_36_6,600.0,600.0,600.0,600.0,600.0
10000_500_200_36_7,600.0,600.0,600.0,600.0,600.0
10000_500_200_36_8,600.0,600.0,600.0,600.0,600.0
10000_500_200_36_9,600.0,600.0,600.0,600.0,600.0
1000_500_250_36_0,24.59,600.0,600.0,600.0,600.0
1000_500_250_36_1,43.16,600.0,600.0,600.0,600.0
1000_500_250_36_2,26.13,600.0,600.0,600.0,600.0
1000_500_250_36_3,26.79,600.0,600.0,600.0,600.0
1000_500_250_36_4,27.54,600.0,600.0,600.0,600.0
1000_500_250_36_5,24.61,600.0,600.0,600.0,600.0
1000_500_250_36_6,24.3,600.0,600.0,600.0,600.0
1000_500_250_36_7,28.29,600.0,600.0,600.0,600.0
1000_500_250_36_8,29.25,600.0,600.0,600.0,600.0
1000_500_250_36_9,31.56,600.0,600.0,600.0,600.0
500_250_100_36_0,7.48,600.0,600.0,600.0,392.67
500_250_100_36_1,8.62,600.0,600.0,600.0,354.27
500_250_100_36_2,8.57,600.0,600.0,600.0,130.57
500_250_100_36_3,9.68,600.0,600.0,600.0,506.92
500_250_100_36_4,8.8,600.0,600.0,600.0,404.3
500_250_100_36_5,8.7,600.0,600.0,600.0,146.55
500_250_100_36_6,7.51,600.0,600.0,600.0,174.0
500_250_100_36_7,9.91,600.0,600.0,600.0,366.4
500_250_100_36_8,8.76,600.0,600.0,600.0,98.05
500_250_100_36_9,9.83,600.0,600.0,600.0,173.36
100_75_50_36_0,0.85,600.0,59.9,600.0,1.45
100_75_50_36_1,1.15,600.0,104.65,600.0,1.01
100_75_50_36_2,1.05,600.0,60.46,600.0,2.27
100_75_50_36_3,1.02,600.0,65.43,600.0,1.04
100_75_50_36_4,1.28,600.0,58.26,600.0,0.71
100_75_50_36_5,1.06,600.0,57.07,600.0,0.75
100_75_50_36_6,0.57,600.0,54.56,600.0,0.7
100_75_50_36_7,0.94,600.0,78.58,600.0,1.79
100_75_50_36_8,0.87,600.0,110.51,600.0,1.06
100_75_50_36_9,1.01,600.0,58.8,600.0,0.56
Falkenauer_u120_03,0.29,178.99,21.18,542.74,0.08
Falkenauer_t501_05,9.03,600.0,600.0,600.0,378.69
Falkenauer_u120_07,0.48,273.47,34.05,289.77,1.42
Falkenauer_u1000_03,16.75,600.0,600.0,600.0,15.95
Falkenauer_u500_04,3.35,600.0,600.0,600.0,16.39
Falkenauer_u500_09,4.47,600.0,600.0,600.0,14.29
Falkenauer_u500_01,3.78,600.0,600.0,600.0,37.18
Falkenauer_u500_05,2.37,600.0,600.0,600.0,20.12
Falkenauer_u120_06,0.26,152.84,17.61,265.3,0.08
Falkenauer_u1000_08,16.22,600.0,600.0,600.0,148.12
Falkenauer_t120_06,0.83,600.0,600.0,600.0,0.52
Falkenauer_u1000_01,11.84,600.0,600.0,600.0,162.52
Falkenauer_u120_00,0.43,234.58,31.54,600.0,0.06
Falkenauer_u120_04,0.46,325.57,36.13,600.0,0.11
Falkenauer_t120_08,0.82,600.0,600.0,600.0,0.45
Falkenauer_u120_01,0.45,291.28,41.38,473.23,2.0
Falkenauer_t501_00,8.24,600.0,600.0,600.0,315.83
Falkenauer_u1000_05,17.36,600.0,600.0,600.0,333.39
Falkenauer_t501_01,5.43,600.0,600.0,600.0,267.3
Falkenauer_t120_07,0.82,600.0,600.0,600.0,0.44
Falkenauer_u500_03,4.47,600.0,600.0,600.0,0.79
Falkenauer_t120_01,0.47,600.0,600.0,600.0,0.31
Falkenauer_u500_02,4.48,600.0,600.0,600.0,13.81
Falkenauer_t501_02,9.51,600.0,600.0,600.0,66.29
Falkenauer_t120_05,0.52,513.36,600.0,600.0,0.49
Falkenauer_t501_04,7.68,600.0,600.0,600.0,188.85
Falkenauer_t501_09,10.42,600.0,600.0,600.0,88.43
Falkenauer_u120_02,0.3,243.75,29.04,600.0,0.09
Falkenauer_u1000_00,12.59,600.0,600.0,600.0,197.94
Falkenauer_t120_03,0.51,493.65,600.0,600.0,3.14
Falkenauer_t120_02,0.51,600.0,600.0,600.0,0.46
Falkenauer_t501_06,6.77,600.0,600.0,600.0,52.55
Falkenauer_u120_08,0.47,226.02,20.16,276.25,0.04
Falkenauer_u1000_06,13.37,600.0,600.0,600.0,228.99
Falkenauer_u1000_09,16.14,600.0,600.0,600.0,139.5
Falkenauer_u500_07,2.64,600.0,600.0,600.0,1.47
Falkenauer_u1000_07,8.6,600.0,600.0,600.0,180.71
Falkenauer_t501_03,4.85,600.0,600.0,600.0,204.33
Falkenauer_t120_00,0.42,600.0,600.0,600.0,0.36
Falkenauer_u1000_02,9.37,600.0,600.0,600.0,72.99
Falkenauer_t501_08,7.2,600.0,600.0,600.0,229.19
Falkenauer_u500_06,4.08,600.0,600.0,600.0,14.48
Falkenauer_u500_00,3.97,600.0,600.0,600.0,13.57
Falkenauer_t501_07,8.91,600.0,600.0,600.0,27.0
Falkenauer_u120_05,0.33,246.16,29.3,471.09,2.37
Falkenauer_u120_09,0.42,272.05,26.41,377.83,0.05
Falkenauer_t120_04,0.48,555.47,600.0,600.0,0.43
Falkenauer_t120_09,0.76,600.0,600.0,600.0,0.42
Falkenauer_u1000_04,11.65,600.0,600.0,600.0,297.34
Falkenauer_u500_08,4.17,600.0,600.0,600.0,24.58
