instances,Hybrid-GA,GRASP,GRASP+VNS,GRASP+Tabu,VNS
10000_500_200_2_0,600.0,29.44,600.0,600.0,0.33
10000_500_200_2_1,600.0,356.88,600.0,600.0,0.34
10000_500_200_2_2,600.0,296.88,600.0,600.0,0.32
10000_500_200_2_3,600.0,391.21,600.0,600.0,0.32
10000_500_200_2_4,600.0,422.96,600.0,600.0,0.33
10000_500_200_2_5,600.0,247.82,600.0,600.0,600.0
10000_500_200_2_6,600.0,79.08,600.0,600.0,0.33
10000_500_200_2_7,600.0,521.35,600.0,600.0,0.32
10000_500_200_2_8,600.0,392.23,600.0,600.0,0.33
10000_500_200_2_9,600.0,21.16,600.0,600.0,600.0
1000_500_250_2_0,461.98,1.93,600.0,600.0,600.0
1000_500_250_2_1,482.91,55.26,600.0,600.0,600.0
1000_500_250_2_2,447.46,15.9,600.0,600.0,600.0
1000_500_250_2_3,470.88,306.78,600.0,600.0,600.0
1000_500_250_2_4,450.7,36.68,600.0,600.0,600.0
1000_500_250_2_5,470.1,23.2,600.0,600.0,600.0
1000_500_250_2_6,481.33,534.02,600.0,600.0,600.0
1000_500_250_2_7,499.21,0.39,600.0,600.0,600.0
1000_500_250_2_8,459.88,46.19,600.0,600.0,600.0
1000_500_250_2_9,458.64,255.74,600.0,600.0,597.13
500_250_100_2_0,143.27,66.42,600.0,356.23,600.0
500_250_100_2_1,167.08,146.14,600.0,386.07,600.0
500_250_100_2_2,170.05,518.02,600.0,372.06,600.0
500_250_100_2_3,155.77,238.25,600.0,387.5,596.91
500_250_100_2_4,165.96,244.08,600.0,349.36,600.0
500_250_100_2_5,167.12,299.52,600.0,367.85,579.13
500_250_100_2_6,163.21,259.48,600.0,377.54,600.0
500_250_100_2_7,167.07,330.53,600.0,360.85,600.0
500_250_100_2_8,175.35,583.06,600.0,344.66,600.0
500_250_100_2_9,165.44,483.62,600.0,387.84,600.0
100_75_50_2_0,20.94,168.6,105.53,318.34,13.14
100_75_50_2_1,19.89,32.87,260.79,166.93,10.12
100_75_50_2_2,22.79,328.71,567.73,32.47,11.3
100_75_50_2_3,20.74,82.6,197.02,131.79,10.02
100_75_50_2_4,21.75,342.86,596.25,597.69,12.8
100_75_50_2_5,17.98,309.9,216.56,496.18,13.95
100_75_50_2_6,21.46,426.47,503.84,536.51,37.04
100_75_50_2_7,22.84,209.34,74.56,199.57,12.77
100_75_50_2_8,23.6,434.74,439.06,126.42,16.43
100_75_50_2_9,22.74,73.0,236.11,77.18,10.21
10000_500_200_3_0,600.0,63.12,600.0,600.0,0.16
10000_500_200_3_1,600.0,204.04,600.0,600.0,0.27
10000_500_200_3_2,600.0,376.09,600.0,600.0,0.27
10000_500_200_3_3,600.0,441.86,600.0,600.0,0.29
10000_500_200_3_4,600.0,566.78,600.0,600.0,0.27
10000_500_200_3_5,600.0,486.66,600.0,600.0,0.28
10000_500_200_3_6,600.0,221.47,600.0,600.0,0.24
10000_500_200_3_7,600.0,31.49,600.0,600.0,0.28
10000_500_200_3_8,600.0,332.43,600.0,600.0,0.27
10000_500_200_3_9,600.0,250.24,600.0,600.0,0.28
1000_500_250_3_0,600.0,160.07,600.0,600.0,0.01
1000_500_250_3_1,600.0,484.54,600.0,600.0,0.01
1000_500_250_3_2,600.0,152.74,600.0,600.0,0.01
1000_500_250_3_3,600.0,407.02,600.0,600.0,0.01
1000_500_250_3_4,600.0,560.89,600.0,600.0,0.01
1000_500_250_3_5,600.0,187.5,600.0,600.0,0.01
1000_500_250_3_6,600.0,284.26,600.0,600.0,0.01
1000_500_250_3_7,600.0,87.3,600.0,600.0,0.01
1000_500_250_3_8,600.0,328.5,600.0,600.0,0.0
1000_500_250_3_9,600.0,426.95,600.0,600.0,0.01
500_250_100_3_0,228.41,566.46,600.0,600.0,599.34
500_250_100_3_1,237.46,294.81,600.0,600.0,600.0
500_250_100_3_2,222.0,303.0,600.0,600.0,598.45
500_250_100_3_3,230.76,78.9,600.0,600.0,598.51
500_250_100_3_4,206.7,257.09,600.0,600.0,600.0
500_250_100_3_5,222.97,178.52,600.0,600.0,600.0
500_250_100_3_6,224.96,398.33,600.0,600.0,600.0
500_250_100_3_7,242.32,31.82,600.0,600.0,600.0
500_250_100_3_8,229.77,259.25,600.0,600.0,600.0
500_250_100_3_9,212.29,222.52,600.0,600.0,600.0
100_75_50_3_0,27.32,441.89,121.55,76.4,22.77
100_75_50_3_1,25.94,351.22,449.55,284.01,15.0
100_75_50_3_2,27.95,360.08,506.12,451.64,25.01
100_75_50_3_3,172.16,183.48,538.13,254.9,30.79
100_75_50_3_4,17.52,559.53,355.32,306.43,15.93
100_75_50_3_5,26.74,501.09,449.03,449.74,29.16
100_75_50_3_6,27.92,451.97,183.11,600.0,24.24
100_75_50_3_7,26.06,527.51,55.81,255.61,27.79
100_75_50_3_8,26.67,586.71,355.64,44.24,28.9
100_75_50_3_9,27.89,81.98,340.37,553.33,25.99
10000_500_200_4_0,600.0,467.02,600.0,600.0,0.26
10000_500_200_4_1,600.0,517.17,600.0,600.0,0.27
10000_500_200_4_2,600.0,586.79,600.0,600.0,600.0
10000_500_200_4_3,600.0,169.38,600.0,600.0,600.0
10000_500_200_4_4,600.0,17.13,600.0,600.0,0.23
10000_500_200_4_5,600.0,537.47,600.0,600.0,0.26
10000_500_200_4_6,600.0,524.24,600.0,600.0,0.27
10000_500_200_4_7,600.0,106.71,600.0,600.0,0.24
10000_500_200_4_8,600.0,110.88,600.0,600.0,0.26
10000_500_200_4_9,600.0,134.25,600.0,600.0,0.26
1000_500_250_4_0,409.95,465.97,600.0,600.0,600.0
1000_500_250_4_1,471.84,396.08,600.0,600.0,600.0
1000_500_250_4_2,454.38,267.95,600.0,600.0,600.0
1000_500_250_4_3,493.52,223.84,600.0,600.0,598.83
1000_500_250_4_4,463.84,599.07,600.0,600.0,600.0
1000_500_250_4_5,419.67,277.82,600.0,600.0,600.0
1000_500_250_4_6,440.83,427.74,600.0,600.0,600.0
1000_500_250_4_7,452.39,388.36,600.0,600.0,600.0
1000_500_250_4_8,424.1,597.03,600.0,600.0,592.44
1000_500_250_4_9,486.36,454.46,600.0,600.0,600.0
500_250_100_4_0,161.47,501.94,600.0,600.0,539.78
500_250_100_4_1,162.53,32.85,600.0,600.0,580.85
500_250_100_4_2,160.7,551.8,600.0,600.0,590.51
500_250_100_4_3,164.24,284.29,600.0,600.0,596.32
500_250_100_4_4,136.87,214.32,600.0,600.0,600.0
500_250_100_4_5,159.92,296.56,600.0,545.45,580.61
500_250_100_4_6,170.77,77.04,600.0,600.0,595.31
500_250_100_4_7,168.55,28.05,600.0,600.0,600.0
500_250_100_4_8,168.23,339.96,600.0,381.89,593.19
500_250_100_4_9,150.47,105.09,600.0,474.62,596.32
100_75_50_4_0,19.19,171.64,542.06,281.44,9.66
100_75_50_4_1,19.75,161.09,434.51,191.94,3.85
100_75_50_4_2,21.58,440.1,54.96,564.65,17.68
100_75_50_4_3,22.72,506.89,18.82,270.66,17.91
100_75_50_4_4,23.31,281.57,311.9,133.65,6.02
100_75_50_4_5,21.4,572.46,57.91,226.03,8.82
100_75_50_4_6,17.2,140.48,536.8,42.63,7.63
100_75_50_4_7,23.03,361.44,519.42,252.18,9.06
100_75_50_4_8,18.82,412.94,136.19,368.58,5.33
100_75_50_4_9,23.36,400.26,585.04,221.73,7.1
10000_500_200_6_0,600.0,41.63,600.0,600.0,600.0
10000_500_200_6_1,600.0,202.06,600.0,600.0,0.33
10000_500_200_6_2,600.0,191.34,600.0,600.0,0.32
10000_500_200_6_3,600.0,105.66,600.0,600.0,0.34
10000_500_200_6_4,600.0,1.52,600.0,600.0,600.0
10000_500_200_6_5,600.0,333.62,600.0,600.0,600.0
10000_500_200_6_6,600.0,315.33,600.0,600.0,600.0
10000_500_200_6_7,600.0,16.49,600.0,600.0,0.33
10000_500_200_6_8,600.0,297.05,600.0,600.0,0.33
10000_500_200_6_9,600.0,544.27,600.0,600.0,0.32
1000_500_250_6_0,482.5,165.04,600.0,600.0,600.0
1000_500_250_6_1,489.35,585.03,600.0,600.0,600.0
1000_500_250_6_2,502.25,518.78,600.0,600.0,600.0
1000_500_250_6_3,461.97,144.64,600.0,600.0,600.0
1000_500_250_6_4,461.93,35.04,600.0,600.0,600.0
1000_500_250_6_5,462.38,418.41,600.0,600.0,600.0
1000_500_250_6_6,482.41,73.1,600.0,600.0,600.0
1000_500_250_6_7,489.38,159.5,600.0,600.0,600.0
1000_500_250_6_8,469.3,521.32,600.0,600.0,600.0
1000_500_250_6_9,500.81,363.28,600.0,600.0,600.0
500_250_100_6_0,148.83,100.01,600.0,600.0,265.8
500_250_100_6_1,139.66,29.92,600.0,599.6,597.0
500_250_100_6_2,179.05,213.21,600.0,137.93,589.11
500_250_100_6_3,375.47,172.13,600.0,560.07,595.98
500_250_100_6_4,143.23,592.19,600.0,310.09,594.57
500_250_100_6_5,159.97,387.21,600.0,524.96,580.39
500_250_100_6_6,171.81,162.45,600.0,472.76,586.62
500_250_100_6_7,166.2,457.09,600.0,131.63,449.09
500_250_100_6_8,158.1,316.21,600.0,498.45,366.73
500_250_100_6_9,158.48,104.09,600.0,313.5,295.14
100_75_50_6_0,42.53,28.93,590.28,396.66,9.1
100_75_50_6_1,22.38,307.6,249.32,160.43,4.27
100_75_50_6_2,18.61,303.52,387.65,336.83,8.04
100_75_50_6_3,19.43,78.41,246.06,83.15,6.39
100_75_50_6_4,16.34,321.23,289.38,189.15,2.52
100_75_50_6_5,22.34,101.5,448.42,277.96,6.89
100_75_50_6_6,21.67,6.01,181.44,49.93,7.45
100_75_50_6_7,20.52,104.56,78.91,70.64,5.5
100_75_50_6_8,22.22,578.04,198.98,278.32,4.97
100_75_50_6_9,420.84,593.35,270.8,189.31,8.1
10000_500_200_7_0,600.0,544.6,600.0,600.0,0.29
10000_500_200_7_1,600.0,573.12,600.0,600.0,0.28
10000_500_200_7_2,600.0,274.33,600.0,600.0,0.28
10000_500_200_7_3,600.0,55.63,600.0,600.0,0.27
10000_500_200_7_4,600.0,521.49,600.0,600.0,0.27
10000_500_200_7_5,600.0,531.69,600.0,600.0,0.28
10000_500_200_7_6,600.0,220.89,600.0,600.0,0.29
10000_500_200_7_7,600.0,428.13,600.0,600.0,0.27
10000_500_200_7_8,600.0,591.26,600.0,600.0,0.3
10000_500_200_7_9,600.0,37.73,600.0,600.0,0.28
1000_500_250_7_0,600.0,109.75,600.0,600.0,0.01
1000_500_250_7_1,600.0,220.82,600.0,600.0,0.01
1000_500_250_7_2,600.0,19.78,600.0,600.0,0.01
1000_500_250_7_3,600.0,224.34,600.0,600.0,0.01
1000_500_250_7_4,600.0,172.44,600.0,600.0,0.01
1000_500_250_7_5,600.0,402.03,600.0,600.0,0.01
1000_500_250_7_6,600.0,247.18,600.0,600.0,0.01
1000_500_250_7_7,600.0,334.9,600.0,600.0,0.01
1000_500_250_7_8,600.0,483.83,600.0,600.0,0.01
1000_500_250_7_9,600.0,265.51,600.0,600.0,0.01
500_250_100_7_0,180.55,404.98,600.0,600.0,599.11
500_250_100_7_1,231.6,559.81,600.0,600.0,570.47
500_250_100_7_2,226.86,363.79,600.0,600.0,593.33
500_250_100_7_3,224.11,445.64,600.0,600.0,586.26
500_250_100_7_4,214.13,5.82,600.0,600.0,574.86
500_250_100_7_5,230.59,247.8,600.0,600.0,600.0
500_250_100_7_6,235.04,10.09,600.0,600.0,591.83
500_250_100_7_7,219.72,564.45,600.0,600.0,600.0
500_250_100_7_8,234.61,474.91,600.0,600.0,600.0
500_250_100_7_9,211.6,31.67,600.0,600.0,591.57
100_75_50_7_0,25.32,314.12,22.74,245.75,18.61
100_75_50_7_1,26.86,297.39,525.21,185.51,12.99
100_75_50_7_2,25.58,459.88,502.91,191.53,10.67
100_75_50_7_3,25.15,539.01,396.89,380.25,12.62
100_75_50_7_4,26.68,108.02,13.83,2.92,10.86
100_75_50_7_5,24.54,161.17,521.18,197.03,9.4
100_75_50_7_6,26.35,544.24,8.3,444.27,20.0
100_75_50_7_7,19.85,453.09,80.39,192.29,22.07
100_75_50_7_8,27.28,301.09,129.02,31.72,9.6
100_75_50_7_9,27.51,281.98,16.62,543.88,22.27
10000_500_200_8_0,600.0,491.72,600.0,600.0,0.26
10000_500_200_8_1,600.0,255.23,600.0,600.0,0.27
10000_500_200_8_2,600.0,44.72,600.0,600.0,0.27
10000_500_200_8_3,600.0,106.05,600.0,600.0,600.0
10000_500_200_8_4,600.0,235.23,600.0,600.0,0.26
10000_500_200_8_5,600.0,0.02,600.0,600.0,0.26
10000_500_200_8_6,600.0,352.26,600.0,600.0,0.26
10000_500_200_8_7,600.0,94.07,600.0,600.0,0.26
10000_500_200_8_8,600.0,428.74,600.0,600.0,0.26
10000_500_200_8_9,600.0,58.91,600.0,600.0,600.0
1000_500_250_8_0,429.85,321.03,600.0,600.0,600.0
1000_500_250_8_1,471.14,571.93,600.0,600.0,600.0
1000_500_250_8_2,477.09,171.82,600.0,600.0,600.0
1000_500_250_8_3,476.92,43.57,600.0,600.0,600.0
1000_500_250_8_4,452.05,87.24,600.0,600.0,600.0
1000_500_250_8_5,439.73,73.89,600.0,600.0,600.0
1000_500_250_8_6,479.7,120.71,600.0,600.0,600.0
1000_500_250_8_7,468.06,253.38,600.0,600.0,584.37
1000_500_250_8_8,447.32,207.49,600.0,600.0,599.49
1000_500_250_8_9,458.47,582.18,600.0,600.0,600.0
500_250_100_8_0,165.44,203.05,600.0,366.95,506.96
500_250_100_8_1,152.13,242.4,600.0,104.4,599.92
500_250_100_8_2,149.46,468.36,600.0,429.14,417.94
500_250_100_8_3,170.69,76.53,600.0,600.0,600.0
500_250_100_8_4,144.85,468.85,600.0,600.0,600.0
500_250_100_8_5,164.76,120.01,600.0,534.63,600.0
500_250_100_8_6,162.45,136.54,600.0,304.27,598.88
500_250_100_8_7,166.79,594.48,600.0,454.71,513.25
500_250_100_8_8,158.23,574.89,600.0,457.42,570.14
500_250_100_8_9,117.51,547.67,558.68,479.18,600.0
100_75_50_8_0,20.8,126.05,244.15,31.74,4.44
100_75_50_8_1,22.11,557.4,145.73,63.71,4.13
100_75_50_8_2,22.77,444.31,246.06,290.98,2.68
100_75_50_8_3,21.82,522.95,551.7,536.36,8.67
100_75_50_8_4,22.07,226.25,144.09,154.58,6.11
100_75_50_8_5,22.59,22.19,480.49,348.21,4.23
100_75_50_8_6,21.35,37.87,130.81,253.31,3.37
100_75_50_8_7,21.67,257.03,221.63,595.18,5.94
100_75_50_8_8,20.89,150.68,472.09,71.24,6.38
100_75_50_8_9,31.19,493.97,453.06,352.91,4.98
10000_500_200_10_0,600.0,545.91,600.0,600.0,600.0
10000_500_200_10_1,600.0,259.73,600.0,600.0,0.33
10000_500_200_10_2,600.0,375.67,600.0,600.0,600.0
10000_500_200_10_3,600.0,436.49,600.0,600.0,0.34
10000_500_200_10_4,600.0,107.51,600.0,600.0,600.0
10000_500_200_10_5,600.0,237.31,600.0,600.0,600.0
10000_500_200_10_6,600.0,227.3,600.0,600.0,0.3
10000_500_200_10_7,600.0,153.48,600.0,600.0,600.0
10000_500_200_10_8,600.0,353.86,600.0,600.0,0.33
10000_500_200_10_9,600.0,44.94,600.0,600.0,0.31
1000_500_250_10_0,492.77,400.08,600.0,600.0,600.0
1000_500_250_10_1,478.62,582.13,600.0,600.0,600.0
1000_500_250_10_2,483.79,594.41,600.0,600.0,600.0
1000_500_250_10_3,454.22,524.35,600.0,600.0,600.0
1000_500_250_10_4,472.62,273.05,600.0,600.0,600.0
1000_500_250_10_5,464.79,561.01,600.0,445.85,524.38
1000_500_250_10_6,481.91,585.17,600.0,600.0,600.0
1000_500_250_10_7,469.85,509.62,600.0,600.0,600.0
1000_500_250_10_8,482.98,496.14,600.0,600.0,549.0
1000_500_250_10_9,448.35,550.32,600.0,600.0,600.0
500_250_100_10_0,165.24,247.3,600.0,391.99,527.66
500_250_100_10_1,147.99,98.57,600.0,311.11,600.0
500_250_100_10_2,147.01,552.13,600.0,505.69,599.67
500_250_100_10_3,153.91,83.87,600.0,561.42,561.56
500_250_100_10_4,131.72,190.61,600.0,305.22,387.86
500_250_100_10_5,157.62,387.15,574.37,439.84,594.32
500_250_100_10_6,159.27,272.06,569.09,490.27,283.96
500_250_100_10_7,167.62,115.65,600.0,517.59,555.32
500_250_100_10_8,146.36,265.78,600.0,276.98,583.43
500_250_100_10_9,171.62,110.25,600.0,600.0,485.19
100_75_50_10_0,21.5,80.98,283.64,378.39,2.61
100_75_50_10_1,18.34,541.58,39.34,538.12,1.37
100_75_50_10_2,21.94,260.76,408.8,17.12,12.55
100_75_50_10_3,21.53,227.25,262.54,540.78,4.81
100_75_50_10_4,16.16,151.95,517.99,208.66,2.61
100_75_50_10_5,21.97,557.14,580.66,354.21,2.12
100_75_50_10_6,20.56,269.02,391.26,378.09,2.02
100_75_50_10_7,15.05,350.4,309.33,298.11,2.45
100_75_50_10_8,22.65,330.99,185.91,404.3,4.82
100_75_50_10_9,547.43,95.95,9.47,583.24,1.44
10000_500_200_11_0,600.0,391.19,600.0,600.0,0.28
10000_500_200_11_1,600.0,575.78,600.0,600.0,0.28
10000_500_200_11_2,600.0,570.05,600.0,600.0,0.28
10000_500_200_11_3,600.0,404.08,600.0,600.0,0.25
10000_500_200_11_4,600.0,409.75,600.0,600.0,0.27
10000_500_200_11_5,600.0,494.86,600.0,600.0,0.26
10000_500_200_11_6,600.0,495.71,600.0,600.0,0.27
10000_500_200_11_7,600.0,339.02,600.0,600.0,0.19
10000_500_200_11_8,600.0,530.84,600.0,600.0,0.27
10000_500_200_11_9,600.0,98.69,600.0,600.0,0.27
1000_500_250_11_0,600.0,13.92,600.0,600.0,0.01
1000_500_250_11_1,600.0,155.0,600.0,600.0,0.01
1000_500_250_11_2,600.0,520.34,600.0,600.0,0.01
1000_500_250_11_3,600.0,531.47,600.0,600.0,0.0
1000_500_250_11_4,600.0,563.62,600.0,600.0,0.01
1000_500_250_11_5,600.0,112.72,600.0,600.0,0.01
1000_500_250_11_6,600.0,517.89,600.0,600.0,0.01
1000_500_250_11_7,600.0,308.06,600.0,600.0,0.01
1000_500_250_11_8,600.0,416.18,600.0,600.0,0.01
1000_500_250_11_9,600.0,579.82,600.0,600.0,0.01
500_250_100_11_0,230.7,139.0,600.0,600.0,585.13
500_250_100_11_1,236.11,573.47,600.0,600.0,415.49
500_250_100_11_2,235.67,47.27,600.0,600.0,521.72
500_250_100_11_3,231.49,103.46,600.0,600.0,555.09
500_250_100_11_4,221.28,471.92,600.0,600.0,561.8
500_250_100_11_5,231.64,392.69,600.0,600.0,599.13
500_250_100_11_6,231.42,257.59,600.0,600.0,455.61
500_250_100_11_7,220.71,72.55,600.0,600.0,571.41
500_250_100_11_8,216.82,40.1,600.0,600.0,582.17
500_250_100_11_9,222.57,97.47,600.0,600.0,555.05
100_75_50_11_0,26.68,230.55,77.17,203.78,9.17
100_75_50_11_1,26.39,394.07,101.5,455.29,10.98
100_75_50_11_2,22.07,220.27,241.12,7.15,3.27
100_75_50_11_3,21.39,8.61,437.1,90.58,11.15
100_75_50_11_4,23.8,452.8,29.48,551.07,13.94
100_75_50_11_5,19.85,173.1,490.65,196.2,7.95
100_75_50_11_6,24.49,9.95,429.48,17.25,7.96
100_75_50_11_7,20.47,499.83,365.4,204.57,12.83
100_75_50_11_8,24.27,28.44,428.83,93.01,5.54
100_75_50_11_9,24.12,378.94,275.94,300.86,17.85
10000_500_200_12_0,600.0,49.14,600.0,600.0,0.27
10000_500_200_12_1,600.0,237.77,600.0,600.0,600.0
10000_500_200_12_2,600.0,469.67,600.0,600.0,600.0
10000_500_200_12_3,600.0,91.64,600.0,600.0,600.0
10000_500_200_12_4,600.0,573.55,600.0,600.0,600.0
10000_500_200_12_5,600.0,504.28,600.0,600.0,600.0
10000_500_200_12_6,600.0,408.13,600.0,600.0,0.16
10000_500_200_12_7,600.0,497.59,600.0,600.0,0.27
10000_500_200_12_8,600.0,380.31,600.0,600.0,0.26
10000_500_200_12_9,600.0,550.71,600.0,600.0,600.0
1000_500_250_12_0,470.45,131.98,600.0,600.0,545.37
1000_500_250_12_1,466.22,497.82,600.0,600.0,570.14
1000_500_250_12_2,482.19,62.03,600.0,600.0,598.76
1000_500_250_12_3,506.96,105.42,600.0,600.0,513.86
1000_500_250_12_4,480.96,426.06,600.0,600.0,525.12
1000_500_250_12_5,481.96,127.36,600.0,600.0,569.01
1000_500_250_12_6,501.03,399.32,600.0,600.0,581.14
1000_500_250_12_7,498.89,510.0,600.0,600.0,583.53
1000_500_250_12_8,497.26,129.14,600.0,600.0,600.0
1000_500_250_12_9,481.8,93.77,600.0,600.0,594.66
500_250_100_12_0,130.65,144.83,419.08,600.0,597.07
500_250_100_12_1,136.86,429.36,600.0,314.75,525.02
500_250_100_12_2,158.95,298.35,499.56,600.0,600.0
500_250_100_12_3,157.49,279.12,600.0,395.38,507.65
500_250_100_12_4,145.2,125.31,600.0,464.61,416.63
500_250_100_12_5,162.52,52.19,600.0,588.69,564.07
500_250_100_12_6,165.93,89.95,513.3,544.77,600.0
500_250_100_12_7,160.79,172.28,600.0,251.0,558.16
500_250_100_12_8,161.55,31.12,492.57,344.69,411.76
500_250_100_12_9,162.82,398.33,600.0,417.06,179.96
100_75_50_12_0,15.55,438.17,322.88,4.74,2.17
100_75_50_12_1,21.21,186.91,73.14,15.36,1.55
100_75_50_12_2,21.29,381.07,78.39,44.52,1.69
100_75_50_12_3,21.38,33.97,530.26,55.08,1.44
100_75_50_12_4,19.59,130.07,349.8,189.31,1.65
100_75_50_12_5,21.75,356.0,325.24,53.72,2.73
100_75_50_12_6,19.43,562.07,234.65,98.25,1.39
100_75_50_12_7,17.59,481.21,448.33,8.54,2.39
100_75_50_12_8,20.59,434.5,496.78,17.83,9.32
100_75_50_12_9,21.12,393.54,272.82,2.52,1.28
10000_500_200_14_0,600.0,31.92,600.0,600.0,0.33
10000_500_200_14_1,600.0,553.21,600.0,600.0,0.32
10000_500_200_14_2,600.0,318.8,600.0,600.0,0.32
10000_500_200_14_3,600.0,410.3,600.0,600.0,0.33
10000_500_200_14_4,600.0,568.75,600.0,600.0,0.32
10000_500_200_14_5,600.0,270.67,600.0,600.0,600.0
10000_500_200_14_6,600.0,75.45,600.0,600.0,0.33
10000_500_200_14_7,600.0,409.15,600.0,600.0,0.32
10000_500_200_14_8,600.0,424.78,600.0,600.0,0.33
10000_500_200_14_9,600.0,19.78,600.0,600.0,600.0
1000_500_250_14_0,473.3,1.91,600.0,600.0,600.0
1000_500_250_14_1,515.95,62.14,600.0,600.0,599.29
1000_500_250_14_2,460.96,11.74,600.0,600.0,600.0
1000_500_250_14_3,458.91,327.03,600.0,600.0,600.0
1000_500_250_14_4,450.23,37.34,600.0,600.0,600.0
1000_500_250_14_5,502.44,23.9,600.0,600.0,600.0
1000_500_250_14_6,475.54,524.25,600.0,600.0,600.0
1000_500_250_14_7,513.49,0.39,600.0,600.0,600.0
1000_500_250_14_8,480.03,42.75,600.0,600.0,600.0
1000_500_250_14_9,478.15,236.42,600.0,600.0,600.0
500_250_100_14_0,161.53,72.11,600.0,358.4,594.31
500_250_100_14_1,169.54,149.54,600.0,400.99,596.59
500_250_100_14_2,157.27,524.0,600.0,373.75,600.0
500_250_100_14_3,166.17,238.36,600.0,390.43,599.09
500_250_100_14_4,161.81,244.96,600.0,358.45,600.0
500_250_100_14_5,158.09,294.54,600.0,351.06,580.93
500_250_100_14_6,166.55,247.28,600.0,382.97,600.0
500_250_100_14_7,158.36,331.59,600.0,349.13,600.0
500_250_100_14_8,165.16,564.2,600.0,359.86,600.0
500_250_100_14_9,171.83,478.97,600.0,342.03,600.0
100_75_50_14_0,21.28,169.57,92.77,347.39,12.21
100_75_50_14_1,19.16,32.21,279.83,194.15,6.92
100_75_50_14_2,18.4,309.42,187.6,28.73,11.96
100_75_50_14_3,21.66,73.78,206.58,157.05,9.78
100_75_50_14_4,22.04,346.18,444.61,581.44,11.41
100_75_50_14_5,20.92,301.15,210.1,443.31,14.1
100_75_50_14_6,23.23,439.29,507.84,511.96,38.12
100_75_50_14_7,19.87,213.16,83.61,191.66,11.74
100_75_50_14_8,22.28,450.86,453.25,115.14,17.01
100_75_50_14_9,22.97,89.39,243.85,74.21,7.62
10000_500_200_15_0,600.0,64.38,600.0,600.0,0.16
10000_500_200_15_1,600.0,210.31,600.0,600.0,0.27
10000_500_200_15_2,600.0,325.28,600.0,600.0,0.27
10000_500_200_15_3,600.0,442.35,600.0,600.0,0.27
10000_500_200_15_4,600.0,581.11,600.0,600.0,0.28
10000_500_200_15_5,600.0,459.91,600.0,600.0,0.27
10000_500_200_15_6,600.0,211.7,600.0,600.0,0.26
10000_500_200_15_7,600.0,36.32,600.0,600.0,0.27
10000_500_200_15_8,600.0,337.19,600.0,600.0,0.26
10000_500_200_15_9,600.0,251.06,600.0,600.0,0.28
1000_500_250_15_0,600.0,163.44,600.0,600.0,0.01
1000_500_250_15_1,600.0,484.78,600.0,600.0,0.01
1000_500_250_15_2,600.0,164.78,600.0,600.0,0.01
1000_500_250_15_3,600.0,445.14,600.0,600.0,0.01
1000_500_250_15_4,600.0,511.29,600.0,600.0,0.01
1000_500_250_15_5,600.0,173.18,600.0,600.0,0.01
1000_500_250_15_6,600.0,286.01,600.0,600.0,0.01
1000_500_250_15_7,600.0,585.31,600.0,600.0,0.01
1000_500_250_15_8,600.0,321.15,600.0,600.0,0.01
1000_500_250_15_9,600.0,597.56,600.0,600.0,0.0
500_250_100_15_0,211.6,585.02,600.0,600.0,599.11
500_250_100_15_1,228.32,310.39,600.0,600.0,600.0
500_250_100_15_2,215.79,304.31,600.0,600.0,595.72
500_250_100_15_3,209.07,75.36,600.0,600.0,594.72
500_250_100_15_4,227.61,270.55,600.0,600.0,600.0
500_250_100_15_5,215.01,183.38,600.0,600.0,600.0
500_250_100_15_6,223.89,404.17,600.0,600.0,600.0
500_250_100_15_7,228.09,33.99,600.0,600.0,600.0
500_250_100_15_8,226.66,242.79,600.0,600.0,600.0
500_250_100_15_9,233.93,204.57,600.0,600.0,600.0
100_75_50_15_0,26.7,463.58,112.24,76.36,21.38
100_75_50_15_1,24.79,303.67,490.14,288.54,15.62
100_75_50_15_2,23.59,366.51,535.41,466.57,29.17
100_75_50_15_3,24.64,185.81,524.82,248.61,30.31
100_75_50_15_4,25.03,572.46,328.11,313.6,16.09
100_75_50_15_5,25.2,495.83,443.66,420.22,33.13
100_75_50_15_6,25.21,458.69,190.86,581.61,22.84
100_75_50_15_7,23.61,496.39,53.6,267.89,27.48
100_75_50_15_8,28.09,585.03,317.68,37.06,28.58
100_75_50_15_9,24.63,83.7,278.19,534.93,25.21
10000_500_200_16_0,600.0,430.01,600.0,600.0,0.27
10000_500_200_16_1,600.0,524.9,600.0,600.0,0.25
10000_500_200_16_2,600.0,584.4,600.0,600.0,600.0
10000_500_200_16_3,600.0,225.59,600.0,600.0,600.0
10000_500_200_16_4,600.0,16.23,600.0,600.0,0.25
10000_500_200_16_5,600.0,489.69,600.0,600.0,0.23
10000_500_200_16_6,600.0,526.92,600.0,600.0,0.27
10000_500_200_16_7,600.0,109.55,600.0,600.0,0.26
10000_500_200_16_8,600.0,108.59,600.0,600.0,0.27
10000_500_200_16_9,600.0,140.3,600.0,600.0,0.27
1000_500_250_16_0,416.92,448.42,600.0,600.0,600.0
1000_500_250_16_1,463.69,395.51,600.0,600.0,600.0
1000_500_250_16_2,464.5,275.04,600.0,600.0,596.54
1000_500_250_16_3,450.57,228.47,600.0,600.0,600.0
1000_500_250_16_4,467.39,586.96,600.0,600.0,598.4
1000_500_250_16_5,454.77,249.66,600.0,600.0,600.0
1000_500_250_16_6,442.29,415.08,600.0,600.0,600.0
1000_500_250_16_7,446.15,375.21,600.0,600.0,600.0
1000_500_250_16_8,475.54,588.16,600.0,600.0,600.0
1000_500_250_16_9,479.26,450.44,600.0,600.0,600.0
500_250_100_16_0,149.87,571.82,600.0,600.0,539.67
500_250_100_16_1,173.09,28.8,600.0,600.0,600.0
500_250_100_16_2,165.2,485.38,600.0,600.0,600.0
500_250_100_16_3,161.44,296.81,600.0,600.0,582.99
500_250_100_16_4,166.76,220.25,600.0,600.0,599.97
500_250_100_16_5,166.32,320.43,600.0,521.08,583.49
500_250_100_16_6,171.12,72.38,600.0,600.0,596.39
500_250_100_16_7,171.56,30.57,600.0,600.0,600.0
500_250_100_16_8,160.43,330.55,600.0,383.0,592.36
500_250_100_16_9,158.07,590.24,600.0,477.45,586.08
100_75_50_16_0,20.81,180.7,525.75,236.24,9.56
100_75_50_16_1,22.98,157.87,436.87,193.37,4.03
100_75_50_16_2,16.15,438.21,55.33,558.42,19.02
100_75_50_16_3,22.93,508.68,21.7,271.3,17.73
100_75_50_16_4,20.58,596.6,313.76,141.58,4.74
100_75_50_16_5,20.92,596.2,61.91,246.49,9.09
100_75_50_16_6,21.2,155.93,530.5,46.93,5.0
100_75_50_16_7,17.5,390.49,513.03,273.19,9.42
100_75_50_16_8,20.06,414.39,157.02,368.15,5.92
100_75_50_16_9,35.36,401.43,526.71,218.04,7.09
10000_500_200_18_0,600.0,40.19,600.0,600.0,600.0
10000_500_200_18_1,600.0,229.95,600.0,600.0,0.23
10000_500_200_18_2,600.0,205.39,600.0,600.0,0.33
10000_500_200_18_3,600.0,87.15,600.0,600.0,0.33
10000_500_200_18_4,600.0,1.53,600.0,600.0,600.0
10000_500_200_18_5,600.0,337.97,600.0,600.0,600.0
10000_500_200_18_6,600.0,311.3,600.0,600.0,600.0
10000_500_200_18_7,600.0,14.22,600.0,600.0,600.0
10000_500_200_18_8,600.0,297.22,600.0,600.0,0.31
10000_500_200_18_9,600.0,506.77,600.0,600.0,600.0
1000_500_250_18_0,480.37,170.93,600.0,600.0,600.0
1000_500_250_18_1,439.49,17.67,600.0,600.0,600.0
1000_500_250_18_2,493.43,503.94,600.0,600.0,600.0
1000_500_250_18_3,453.88,126.61,600.0,600.0,600.0
1000_500_250_18_4,471.38,34.47,600.0,600.0,600.0
1000_500_250_18_5,450.55,589.46,600.0,600.0,600.0
1000_500_250_18_6,473.52,71.14,600.0,600.0,600.0
1000_500_250_18_7,456.11,161.13,600.0,600.0,600.0
1000_500_250_18_8,483.87,501.89,600.0,600.0,600.0
1000_500_250_18_9,450.5,341.48,600.0,600.0,600.0
500_250_100_18_0,160.89,105.53,600.0,577.73,249.59
500_250_100_18_1,154.37,31.18,600.0,588.87,599.32
500_250_100_18_2,150.2,207.77,600.0,146.63,600.0
500_250_100_18_3,152.72,155.15,600.0,563.62,592.91
500_250_100_18_4,161.38,589.32,600.0,297.37,597.0
500_250_100_18_5,160.91,403.23,600.0,511.85,600.0
500_250_100_18_6,160.77,162.13,600.0,453.13,599.6
500_250_100_18_7,158.82,451.69,600.0,129.1,443.91
500_250_100_18_8,158.05,325.02,600.0,480.99,402.33
500_250_100_18_9,159.21,106.04,600.0,335.13,266.45
100_75_50_18_0,21.36,30.45,558.54,357.69,8.53
100_75_50_18_1,22.21,317.04,228.26,176.66,4.56
100_75_50_18_2,21.61,297.58,340.05,335.0,8.24
100_75_50_18_3,21.16,80.79,251.79,75.52,8.31
100_75_50_18_4,17.2,356.6,281.74,167.36,2.51
100_75_50_18_5,19.28,108.48,441.53,253.3,7.62
100_75_50_18_6,20.81,5.74,158.27,53.73,7.82
100_75_50_18_7,21.99,102.57,101.48,71.4,5.27
100_75_50_18_8,21.39,532.97,204.22,290.13,5.19
100_75_50_18_9,22.59,212.0,281.18,183.91,8.35
10000_500_200_19_0,600.0,506.36,600.0,600.0,0.24
10000_500_200_19_1,600.0,336.37,600.0,600.0,0.16
10000_500_200_19_2,600.0,308.72,600.0,600.0,0.26
10000_500_200_19_3,600.0,63.8,600.0,600.0,0.27
10000_500_200_19_4,600.0,563.21,600.0,600.0,0.27
10000_500_200_19_5,600.0,573.09,600.0,600.0,0.26
10000_500_200_19_6,600.0,238.66,600.0,600.0,0.26
10000_500_200_19_7,600.0,430.66,600.0,600.0,0.28
10000_500_200_19_8,600.0,596.93,600.0,600.0,0.27
10000_500_200_19_9,600.0,35.5,600.0,600.0,0.27
1000_500_250_19_0,600.0,106.79,600.0,600.0,0.01
1000_500_250_19_1,600.0,227.35,600.0,600.0,0.01
1000_500_250_19_2,600.0,20.14,600.0,600.0,0.01
1000_500_250_19_3,600.0,220.55,600.0,600.0,0.0
1000_500_250_19_4,600.0,171.12,600.0,600.0,0.01
1000_500_250_19_5,600.0,398.39,600.0,600.0,0.01
1000_500_250_19_6,600.0,237.99,600.0,600.0,0.01
1000_500_250_19_7,600.0,325.74,600.0,600.0,0.01
1000_500_250_19_8,600.0,488.3,600.0,600.0,0.0
1000_500_250_19_9,600.0,256.37,600.0,600.0,0.01
500_250_100_19_0,223.02,421.17,600.0,600.0,515.76
500_250_100_19_1,213.1,597.94,600.0,600.0,590.77
500_250_100_19_2,221.43,350.48,600.0,600.0,600.0
500_250_100_19_3,218.52,456.51,600.0,600.0,600.0
500_250_100_19_4,190.1,5.92,600.0,600.0,585.58
500_250_100_19_5,215.88,246.13,600.0,600.0,599.63
500_250_100_19_6,226.07,10.0,600.0,600.0,592.2
500_250_100_19_7,231.85,156.91,600.0,600.0,589.25
500_250_100_19_8,224.08,481.68,600.0,600.0,600.0
500_250_100_19_9,226.56,33.01,600.0,600.0,592.42
100_75_50_19_0,25.27,294.37,21.16,234.02,22.81
100_75_50_19_1,18.62,302.36,500.56,188.38,12.68
100_75_50_19_2,23.52,485.88,467.12,192.44,9.59
100_75_50_19_3,25.29,486.66,325.51,388.07,12.57
100_75_50_19_4,23.58,129.43,10.95,3.02,9.64
100_75_50_19_5,26.17,166.36,529.73,211.82,10.29
100_75_50_19_6,26.46,539.51,12.54,444.1,21.23
100_75_50_19_7,26.3,476.54,76.39,197.29,20.91
100_75_50_19_8,20.27,311.76,142.52,32.57,9.56
100_75_50_19_9,462.36,241.03,11.54,535.42,15.89
10000_500_200_20_0,600.0,466.52,600.0,600.0,0.17
10000_500_200_20_1,600.0,268.6,600.0,600.0,0.26
10000_500_200_20_2,600.0,42.56,600.0,600.0,0.26
10000_500_200_20_3,600.0,556.25,600.0,600.0,600.0
10000_500_200_20_4,600.0,233.07,600.0,600.0,0.26
10000_500_200_20_5,600.0,0.01,600.0,600.0,0.16
10000_500_200_20_6,600.0,355.38,600.0,600.0,0.26
10000_500_200_20_7,600.0,555.2,600.0,600.0,0.26
10000_500_200_20_8,600.0,419.16,600.0,600.0,0.27
10000_500_200_20_9,600.0,54.21,600.0,600.0,600.0
1000_500_250_20_0,450.84,326.64,600.0,600.0,600.0
1000_500_250_20_1,485.54,567.55,600.0,600.0,600.0
1000_500_250_20_2,478.87,163.71,600.0,600.0,578.77
1000_500_250_20_3,467.18,50.47,600.0,600.0,600.0
1000_500_250_20_4,462.31,90.51,600.0,600.0,600.0
1000_500_250_20_5,474.25,83.06,600.0,600.0,600.0
1000_500_250_20_6,472.41,123.03,600.0,600.0,600.0
1000_500_250_20_7,466.23,260.26,600.0,600.0,600.0
1000_500_250_20_8,491.31,235.83,600.0,600.0,598.3
1000_500_250_20_9,441.45,560.16,600.0,600.0,600.0
500_250_100_20_0,168.37,205.2,600.0,312.22,541.09
500_250_100_20_1,168.52,252.22,600.0,95.58,587.61
500_250_100_20_2,154.34,455.11,600.0,395.49,406.14
500_250_100_20_3,153.6,80.43,600.0,600.0,530.19
500_250_100_20_4,154.74,467.2,600.0,600.0,600.0
500_250_100_20_5,167.47,116.65,600.0,542.75,577.1
500_250_100_20_6,162.61,130.18,600.0,311.36,597.22
500_250_100_20_7,600.0,583.64,600.0,472.05,594.79
500_250_100_20_8,174.12,553.68,600.0,469.98,583.25
500_250_100_20_9,162.35,541.67,572.45,511.85,563.3
100_75_50_20_0,19.59,121.33,247.72,31.35,4.75
100_75_50_20_1,21.5,550.57,132.67,64.8,4.03
100_75_50_20_2,22.25,439.57,255.86,293.9,2.56
100_75_50_20_3,120.89,521.43,578.61,582.38,8.57
100_75_50_20_4,19.72,229.75,150.63,163.26,5.27
100_75_50_20_5,21.07,21.27,488.9,347.6,3.69
100_75_50_20_6,22.39,31.66,131.8,591.45,3.47
100_75_50_20_7,20.67,272.26,214.98,586.19,4.15
100_75_50_20_8,21.42,151.49,483.79,84.24,6.09
100_75_50_20_9,21.43,468.34,453.16,353.75,4.06
10000_500_200_22_0,600.0,529.0,600.0,600.0,600.0
10000_500_200_22_1,600.0,209.61,600.0,600.0,0.32
10000_500_200_22_2,600.0,421.22,600.0,600.0,600.0
10000_500_200_22_3,600.0,458.35,600.0,600.0,0.32
10000_500_200_22_4,600.0,107.17,600.0,600.0,600.0
10000_500_200_22_5,600.0,266.11,600.0,600.0,600.0
10000_500_200_22_6,600.0,269.06,600.0,600.0,0.33
10000_500_200_22_7,600.0,150.45,600.0,600.0,600.0
10000_500_200_22_8,600.0,346.51,600.0,600.0,0.32
10000_500_200_22_9,600.0,46.0,600.0,600.0,0.32
1000_500_250_22_0,481.44,382.33,600.0,600.0,600.0
1000_500_250_22_1,452.0,252.27,600.0,600.0,600.0
1000_500_250_22_2,515.21,570.68,600.0,600.0,600.0
1000_500_250_22_3,476.57,470.66,600.0,600.0,600.0
1000_500_250_22_4,450.03,262.29,600.0,600.0,600.0
1000_500_250_22_5,485.48,571.0,600.0,423.5,531.5
1000_500_250_22_6,481.69,531.99,600.0,600.0,600.0
1000_500_250_22_7,486.55,446.87,600.0,600.0,600.0
1000_500_250_22_8,440.16,513.59,600.0,600.0,552.91
1000_500_250_22_9,467.57,553.36,600.0,600.0,600.0
500_250_100_22_0,163.96,236.66,600.0,439.76,522.24
500_250_100_22_1,158.31,108.93,600.0,325.6,600.0
500_250_100_22_2,174.63,553.85,600.0,545.18,599.78
500_250_100_22_3,159.75,87.31,600.0,546.46,539.85
500_250_100_22_4,154.25,174.77,600.0,320.22,406.96
500_250_100_22_5,158.05,441.85,600.0,448.84,595.4
500_250_100_22_6,160.44,277.2,596.25,486.92,297.17
500_250_100_22_7,161.25,114.38,600.0,525.89,559.19
500_250_100_22_8,155.93,255.66,600.0,271.51,600.0
500_250_100_22_9,148.25,109.79,600.0,600.0,504.75
100_75_50_22_0,22.31,77.32,302.9,384.19,3.73
100_75_50_22_1,130.75,507.16,34.67,537.59,1.42
100_75_50_22_2,17.82,245.7,391.99,17.1,12.86
100_75_50_22_3,15.02,213.28,271.74,552.42,5.01
100_75_50_22_4,22.57,160.09,499.39,201.1,3.05
100_75_50_22_5,21.32,539.7,596.61,349.93,2.19
100_75_50_22_6,21.57,274.56,409.03,364.9,1.98
100_75_50_22_7,18.8,379.65,310.46,304.37,1.65
100_75_50_22_8,22.14,348.97,182.94,397.54,3.15
100_75_50_22_9,19.9,95.98,6.49,599.31,1.37
10000_500_200_23_0,600.0,386.03,600.0,600.0,0.27
10000_500_200_23_1,600.0,570.73,600.0,600.0,0.16
10000_500_200_23_2,600.0,598.89,600.0,600.0,0.24
10000_500_200_23_3,600.0,589.59,600.0,600.0,0.16
10000_500_200_23_4,600.0,356.43,600.0,600.0,0.27
10000_500_200_23_5,600.0,526.35,600.0,600.0,0.27
10000_500_200_23_6,600.0,509.34,600.0,600.0,0.28
10000_500_200_23_7,600.0,364.98,600.0,600.0,0.26
10000_500_200_23_8,600.0,505.55,600.0,600.0,0.27
10000_500_200_23_9,600.0,109.24,600.0,600.0,0.27
1000_500_250_23_0,600.0,14.1,600.0,600.0,0.01
1000_500_250_23_1,600.0,146.32,600.0,600.0,0.01
1000_500_250_23_2,600.0,524.4,600.0,600.0,0.01
1000_500_250_23_3,600.0,506.25,600.0,600.0,0.01
1000_500_250_23_4,600.0,550.7,600.0,600.0,0.01
1000_500_250_23_5,600.0,118.14,600.0,600.0,0.0
1000_500_250_23_6,600.0,562.56,600.0,600.0,0.01
1000_500_250_23_7,600.0,313.15,600.0,600.0,0.01
1000_500_250_23_8,600.0,412.36,600.0,600.0,0.01
1000_500_250_23_9,600.0,584.64,600.0,600.0,0.01
500_250_100_23_0,228.66,131.43,600.0,600.0,583.87
500_250_100_23_1,217.14,569.39,600.0,600.0,423.96
500_250_100_23_2,223.83,49.3,600.0,600.0,528.56
500_250_100_23_3,206.43,101.26,600.0,600.0,540.31
500_250_100_23_4,226.11,466.56,600.0,600.0,588.72
500_250_100_23_5,210.17,372.6,600.0,600.0,594.01
500_250_100_23_6,223.37,267.78,600.0,600.0,439.25
500_250_100_23_7,217.2,78.15,600.0,600.0,597.87
500_250_100_23_8,214.71,36.41,600.0,600.0,578.9
500_250_100_23_9,227.16,126.98,600.0,600.0,582.67
100_75_50_23_0,25.85,245.3,72.25,206.44,9.49
100_75_50_23_1,25.95,367.01,101.73,464.34,8.14
100_75_50_23_2,24.2,227.16,253.86,7.11,3.85
100_75_50_23_3,26.43,8.32,455.96,100.87,7.48
100_75_50_23_4,23.49,438.31,27.98,557.26,13.9
100_75_50_23_5,26.77,167.78,498.07,189.2,9.4
100_75_50_23_6,22.43,9.29,421.75,13.21,8.94
100_75_50_23_7,26.26,489.15,358.62,197.22,12.97
100_75_50_23_8,26.17,25.16,395.31,90.77,6.0
100_75_50_23_9,25.95,334.0,269.11,326.87,16.3
10000_500_200_24_0,600.0,48.72,600.0,600.0,0.26
10000_500_200_24_1,600.0,260.57,600.0,600.0,600.0
10000_500_200_24_2,600.0,494.86,600.0,600.0,600.0
10000_500_200_24_3,600.0,99.63,600.0,600.0,600.0
10000_500_200_24_4,600.0,529.77,600.0,600.0,600.0
10000_500_200_24_5,600.0,485.5,600.0,600.0,600.0
10000_500_200_24_6,600.0,410.01,600.0,600.0,0.26
10000_500_200_24_7,600.0,442.13,600.0,600.0,0.26
10000_500_200_24_8,600.0,393.62,600.0,600.0,0.26
10000_500_200_24_9,600.0,518.74,600.0,600.0,600.0
1000_500_250_24_0,428.96,130.33,600.0,600.0,537.96
1000_500_250_24_1,461.78,488.01,600.0,600.0,593.87
1000_500_250_24_2,436.38,62.41,600.0,600.0,594.36
1000_500_250_24_3,470.77,103.7,600.0,600.0,509.5
1000_500_250_24_4,426.09,440.31,600.0,600.0,541.79
1000_500_250_24_5,443.73,130.16,600.0,600.0,593.18
1000_500_250_24_6,486.45,420.63,600.0,600.0,578.2
1000_500_250_24_7,473.76,499.44,600.0,600.0,600.0
1000_500_250_24_8,473.58,117.08,600.0,600.0,600.0
1000_500_250_24_9,462.14,96.39,600.0,600.0,600.0
500_250_100_24_0,159.24,118.22,422.62,600.0,596.94
500_250_100_24_1,166.51,416.61,600.0,269.07,507.32
500_250_100_24_2,160.95,309.36,471.78,600.0,565.29
500_250_100_24_3,491.76,281.36,600.0,397.99,495.54
500_250_100_24_4,161.78,128.72,600.0,452.6,421.55
500_250_100_24_5,146.06,50.7,600.0,548.51,552.71
500_250_100_24_6,148.97,88.25,508.35,579.59,579.97
500_250_100_24_7,162.67,167.29,600.0,259.74,555.06
500_250_100_24_8,171.85,34.81,533.76,326.83,424.11
500_250_100_24_9,159.05,394.45,600.0,408.59,167.54
100_75_50_24_0,20.98,422.49,322.36,4.84,2.29
100_75_50_24_1,288.93,175.05,73.13,14.95,1.52
100_75_50_24_2,21.71,380.14,76.98,36.83,1.51
100_75_50_24_3,19.98,34.05,523.24,51.35,1.09
100_75_50_24_4,21.02,121.07,344.87,191.24,1.77
100_75_50_24_5,21.49,363.92,308.53,57.82,3.23
100_75_50_24_6,21.72,596.16,252.58,108.76,1.4
100_75_50_24_7,14.34,479.51,471.64,8.68,3.16
100_75_50_24_8,22.25,423.44,486.91,17.63,9.19
100_75_50_24_9,21.02,375.77,230.35,2.12,1.3
10000_500_200_26_0,600.0,31.5,600.0,600.0,0.29
10000_500_200_26_1,600.0,564.75,600.0,600.0,0.33
10000_500_200_26_2,600.0,338.62,600.0,600.0,0.33
10000_500_200_26_3,600.0,428.83,600.0,600.0,0.32
10000_500_200_26_4,600.0,516.58,600.0,600.0,0.33
10000_500_200_26_5,600.0,248.6,600.0,600.0,600.0
10000_500_200_26_6,600.0,74.23,600.0,600.0,0.32
10000_500_200_26_7,600.0,508.59,600.0,600.0,600.0
10000_500_200_26_8,600.0,437.49,600.0,600.0,0.32
10000_500_200_26_9,600.0,21.06,600.0,600.0,600.0
1000_500_250_26_0,489.73,1.2,600.0,600.0,600.0
1000_500_250_26_1,446.69,60.31,600.0,600.0,600.0
1000_500_250_26_2,466.98,13.55,600.0,600.0,600.0
1000_500_250_26_3,460.07,307.88,600.0,600.0,600.0
1000_500_250_26_4,495.18,34.44,600.0,600.0,600.0
1000_500_250_26_5,476.88,24.29,600.0,600.0,600.0
1000_500_250_26_6,501.65,512.14,600.0,600.0,600.0
1000_500_250_26_7,470.12,0.39,600.0,600.0,600.0
1000_500_250_26_8,482.36,34.26,600.0,600.0,600.0
1000_500_250_26_9,482.98,248.8,600.0,600.0,600.0
500_250_100_26_0,154.55,60.73,600.0,346.17,600.0
500_250_100_26_1,157.12,141.35,600.0,361.46,600.0
500_250_100_26_2,177.61,517.67,600.0,350.83,600.0
500_250_100_26_3,176.76,238.95,600.0,375.13,600.0
500_250_100_26_4,167.51,239.53,600.0,377.41,600.0
500_250_100_26_5,156.89,286.87,600.0,365.57,574.16
500_250_100_26_6,156.04,259.53,600.0,407.11,600.0
500_250_100_26_7,154.39,328.51,600.0,346.08,597.21
500_250_100_26_8,167.1,589.13,600.0,388.63,600.0
500_250_100_26_9,174.26,475.65,600.0,360.25,600.0
100_75_50_26_0,23.62,162.93,102.69,315.15,12.87
100_75_50_26_1,22.97,31.22,269.1,186.58,10.01
100_75_50_26_2,19.2,367.87,600.0,34.56,12.29
100_75_50_26_3,21.52,64.6,199.26,150.69,10.21
100_75_50_26_4,19.22,349.25,585.01,574.52,11.75
100_75_50_26_5,17.42,282.38,214.69,472.92,13.64
100_75_50_26_6,21.02,398.32,454.67,512.61,39.06
100_75_50_26_7,20.51,215.04,88.69,208.74,11.56
100_75_50_26_8,20.07,455.12,454.74,130.75,16.68
100_75_50_26_9,23.01,90.2,218.53,78.9,10.36
10000_500_200_27_0,600.0,65.47,600.0,600.0,0.27
10000_500_200_27_1,600.0,204.05,600.0,600.0,0.27
10000_500_200_27_2,600.0,343.91,600.0,600.0,0.27
10000_500_200_27_3,600.0,390.03,600.0,600.0,0.16
10000_500_200_27_4,600.0,574.16,600.0,600.0,0.27
10000_500_200_27_5,600.0,494.21,600.0,600.0,0.27
10000_500_200_27_6,600.0,231.83,600.0,600.0,0.27
10000_500_200_27_7,600.0,33.4,600.0,600.0,0.28
10000_500_200_27_8,600.0,290.73,600.0,600.0,0.27
10000_500_200_27_9,600.0,262.54,600.0,600.0,0.28
1000_500_250_27_0,600.0,162.13,600.0,600.0,0.0
1000_500_250_27_1,600.0,492.06,600.0,600.0,0.0
1000_500_250_27_2,600.0,157.31,600.0,600.0,0.01
1000_500_250_27_3,600.0,406.1,600.0,600.0,0.01
1000_500_250_27_4,600.0,541.41,600.0,600.0,0.01
1000_500_250_27_5,600.0,178.67,600.0,600.0,0.01
1000_500_250_27_6,600.0,311.89,600.0,600.0,0.01
1000_500_250_27_7,600.0,534.62,600.0,600.0,0.01
1000_500_250_27_8,600.0,306.95,600.0,600.0,0.01
1000_500_250_27_9,600.0,394.43,600.0,600.0,0.01
500_250_100_27_0,192.56,563.63,600.0,600.0,600.0
500_250_100_27_1,212.3,298.91,600.0,600.0,593.18
500_250_100_27_2,241.64,286.5,600.0,600.0,600.0
500_250_100_27_3,214.56,64.54,600.0,600.0,594.41
500_250_100_27_4,231.41,246.65,600.0,600.0,599.55
500_250_100_27_5,229.58,183.53,600.0,600.0,600.0
500_250_100_27_6,230.87,374.89,600.0,600.0,589.37
500_250_100_27_7,217.13,25.6,600.0,600.0,596.06
500_250_100_27_8,236.13,227.45,600.0,600.0,600.0
500_250_100_27_9,230.73,200.11,600.0,600.0,600.0
100_75_50_27_0,27.45,470.56,123.01,78.17,22.86
100_75_50_27_1,22.48,351.34,477.03,272.31,15.84
100_75_50_27_2,25.7,342.12,517.14,432.25,28.81
100_75_50_27_3,25.48,160.24,525.25,236.28,30.53
100_75_50_27_4,25.83,574.72,341.98,310.73,15.76
100_75_50_27_5,23.53,489.62,433.48,439.24,31.69
100_75_50_27_6,27.29,457.74,183.85,555.07,22.08
100_75_50_27_7,27.85,515.53,59.5,286.18,25.65
100_75_50_27_8,24.93,581.43,350.17,40.8,28.64
100_75_50_27_9,25.05,81.62,307.7,528.59,23.95
10000_500_200_28_0,600.0,439.84,600.0,600.0,0.26
10000_500_200_28_1,600.0,459.28,600.0,600.0,0.26
10000_500_200_28_2,600.0,512.13,600.0,600.0,600.0
10000_500_200_28_3,600.0,172.6,600.0,600.0,600.0
10000_500_200_28_4,600.0,15.74,600.0,600.0,0.26
10000_500_200_28_5,600.0,556.43,600.0,600.0,0.16
10000_500_200_28_6,600.0,577.81,600.0,600.0,0.26
10000_500_200_28_7,600.0,77.64,600.0,600.0,0.26
10000_500_200_28_8,600.0,113.47,600.0,600.0,0.24
10000_500_200_28_9,600.0,112.78,600.0,600.0,0.26
1000_500_250_28_0,400.08,451.53,600.0,600.0,600.0
1000_500_250_28_1,462.05,422.95,600.0,600.0,600.0
1000_500_250_28_2,493.82,267.16,600.0,600.0,600.0
1000_500_250_28_3,484.61,215.86,600.0,600.0,600.0
1000_500_250_28_4,455.62,584.33,600.0,600.0,600.0
1000_500_250_28_5,491.66,267.64,600.0,600.0,600.0
1000_500_250_28_6,453.15,417.75,600.0,600.0,600.0
1000_500_250_28_7,510.72,386.27,600.0,600.0,600.0
1000_500_250_28_8,497.07,578.88,600.0,600.0,592.81
1000_500_250_28_9,455.43,448.54,600.0,600.0,600.0
500_250_100_28_0,153.71,499.18,600.0,600.0,572.48
500_250_100_28_1,162.24,33.39,600.0,600.0,572.57
500_250_100_28_2,162.28,520.18,600.0,572.73,600.0
500_250_100_28_3,174.69,284.59,600.0,600.0,600.0
500_250_100_28_4,166.93,213.23,600.0,600.0,589.94
500_250_100_28_5,168.73,293.72,600.0,521.6,598.75
500_250_100_28_6,160.51,73.93,600.0,600.0,600.0
500_250_100_28_7,164.43,30.55,600.0,600.0,594.78
500_250_100_28_8,171.6,342.04,600.0,363.83,590.94
500_250_100_28_9,171.28,102.14,600.0,461.2,600.0
100_75_50_28_0,22.27,173.1,524.45,259.38,9.56
100_75_50_28_1,22.0,154.49,418.88,170.86,3.96
100_75_50_28_2,16.19,440.45,55.49,595.12,18.73
100_75_50_28_3,21.42,529.98,20.01,259.48,15.33
100_75_50_28_4,27.88,599.9,313.59,143.47,5.89
100_75_50_28_5,16.46,567.85,61.92,239.74,6.09
100_75_50_28_6,16.57,141.82,524.57,38.26,6.33
100_75_50_28_7,21.77,370.35,533.89,268.35,8.55
100_75_50_28_8,18.66,378.86,145.96,364.43,5.55
100_75_50_28_9,18.68,416.03,581.09,212.92,7.27
10000_500_200_30_0,600.0,36.28,600.0,600.0,600.0
10000_500_200_30_1,600.0,206.08,600.0,600.0,0.32
10000_500_200_30_2,600.0,211.74,600.0,600.0,0.2
10000_500_200_30_3,600.0,90.44,600.0,600.0,0.32
10000_500_200_30_4,600.0,1.56,600.0,600.0,600.0
10000_500_200_30_5,600.0,305.3,600.0,600.0,600.0
10000_500_200_30_6,600.0,372.47,600.0,600.0,600.0
10000_500_200_30_7,600.0,15.49,600.0,600.0,0.31
10000_500_200_30_8,600.0,313.66,600.0,600.0,0.34
10000_500_200_30_9,600.0,540.07,600.0,600.0,600.0
1000_500_250_30_0,469.04,154.4,600.0,600.0,600.0
1000_500_250_30_1,481.39,587.32,600.0,600.0,600.0
1000_500_250_30_2,458.62,492.7,600.0,600.0,600.0
1000_500_250_30_3,485.69,126.93,600.0,600.0,600.0
1000_500_250_30_4,473.32,27.08,600.0,600.0,600.0
1000_500_250_30_5,448.19,599.98,600.0,600.0,600.0
1000_500_250_30_6,494.68,78.57,600.0,600.0,600.0
1000_500_250_30_7,488.67,144.19,600.0,600.0,600.0
1000_500_250_30_8,504.51,504.36,600.0,600.0,600.0
1000_500_250_30_9,486.28,369.61,600.0,600.0,600.0
500_250_100_30_0,172.77,101.67,600.0,597.19,247.96
500_250_100_30_1,157.95,27.3,600.0,591.61,590.57
500_250_100_30_2,165.96,222.82,600.0,122.22,600.0
500_250_100_30_3,141.26,154.49,600.0,597.72,600.0
500_250_100_30_4,149.96,572.36,600.0,292.47,599.89
500_250_100_30_5,163.09,399.49,600.0,500.37,580.48
500_250_100_30_6,164.44,161.34,600.0,458.12,581.85
500_250_100_30_7,155.31,461.41,600.0,134.5,450.58
500_250_100_30_8,163.77,320.87,600.0,483.76,358.07
500_250_100_30_9,161.12,108.87,600.0,316.72,275.12
100_75_50_30_0,22.57,30.38,523.23,337.73,8.58
100_75_50_30_1,21.61,311.2,237.92,163.43,4.46
100_75_50_30_2,20.77,276.84,338.91,326.78,7.91
100_75_50_30_3,18.69,79.99,237.61,79.28,8.22
100_75_50_30_4,21.46,330.47,295.83,174.59,2.45
100_75_50_30_5,18.91,106.73,444.92,261.83,7.63
100_75_50_30_6,17.22,5.93,153.98,44.88,6.15
100_75_50_30_7,22.0,105.59,91.47,74.51,4.3
100_75_50_30_8,21.41,540.57,201.34,282.32,5.49
100_75_50_30_9,21.97,234.87,263.93,171.7,8.47
10000_500_200_31_0,600.0,534.84,600.0,600.0,0.27
10000_500_200_31_1,600.0,583.51,600.0,600.0,0.28
10000_500_200_31_2,600.0,311.59,600.0,600.0,0.27
10000_500_200_31_3,600.0,65.42,600.0,600.0,0.27
10000_500_200_31_4,600.0,531.2,600.0,600.0,0.27
10000_500_200_31_5,600.0,527.68,600.0,600.0,0.24
10000_500_200_31_6,600.0,221.04,600.0,600.0,0.16
10000_500_200_31_7,600.0,426.23,600.0,600.0,0.27
10000_500_200_31_8,600.0,556.5,600.0,600.0,0.27
10000_500_200_31_9,600.0,41.43,600.0,600.0,0.27
1000_500_250_31_0,600.0,101.86,600.0,600.0,0.01
1000_500_250_31_1,600.0,233.37,600.0,600.0,0.01
1000_500_250_31_2,600.0,19.52,600.0,600.0,0.0
1000_500_250_31_3,600.0,237.99,600.0,600.0,0.01
1000_500_250_31_4,600.0,173.57,600.0,600.0,0.0
1000_500_250_31_5,600.0,397.25,600.0,600.0,0.01
1000_500_250_31_6,600.0,272.25,600.0,600.0,0.01
1000_500_250_31_7,600.0,555.71,600.0,600.0,0.01
1000_500_250_31_8,600.0,477.18,600.0,600.0,0.01
1000_500_250_31_9,600.0,255.83,600.0,600.0,0.01
500_250_100_31_0,233.92,403.05,600.0,600.0,501.18
500_250_100_31_1,235.51,574.03,600.0,600.0,592.16
500_250_100_31_2,239.21,360.27,600.0,600.0,600.0
500_250_100_31_3,220.96,438.82,600.0,600.0,597.25
500_250_100_31_4,203.49,5.87,600.0,600.0,563.31
500_250_100_31_5,224.78,253.68,600.0,600.0,578.49
500_250_100_31_6,217.55,10.02,600.0,600.0,589.25
500_250_100_31_7,212.42,567.47,600.0,600.0,600.0
500_250_100_31_8,199.09,501.74,600.0,600.0,600.0
500_250_100_31_9,217.59,26.13,600.0,600.0,588.76
100_75_50_31_0,24.43,292.18,21.64,244.29,26.08
100_75_50_31_1,24.15,314.77,529.26,202.66,12.32
100_75_50_31_2,24.1,483.2,492.36,195.08,10.43
100_75_50_31_3,24.91,541.63,391.0,400.5,11.94
100_75_50_31_4,23.98,123.3,13.5,3.1,10.91
100_75_50_31_5,21.75,139.49,515.54,207.24,10.83
100_75_50_31_6,24.81,598.13,12.56,458.2,21.37
100_75_50_31_7,25.92,442.07,77.45,189.22,19.31
100_75_50_31_8,25.95,278.03,131.93,31.84,8.8
100_75_50_31_9,27.06,275.38,16.28,569.82,24.56
10000_500_200_32_0,600.0,527.48,600.0,600.0,0.26
10000_500_200_32_1,600.0,278.44,600.0,600.0,0.27
10000_500_200_32_2,600.0,44.54,600.0,600.0,0.16
10000_500_200_32_3,600.0,97.49,600.0,600.0,600.0
10000_500_200_32_4,600.0,563.34,600.0,600.0,0.26
10000_500_200_32_5,600.0,0.02,600.0,600.0,0.27
10000_500_200_32_6,600.0,312.95,600.0,600.0,0.26
10000_500_200_32_7,600.0,590.2,600.0,600.0,0.26
10000_500_200_32_8,600.0,422.94,600.0,600.0,0.25
10000_500_200_32_9,600.0,56.82,600.0,600.0,600.0
1000_500_250_32_0,478.96,307.85,600.0,600.0,600.0
1000_500_250_32_1,488.21,526.26,600.0,600.0,600.0
1000_500_250_32_2,447.58,169.6,600.0,600.0,600.0
1000_500_250_32_3,451.05,52.13,600.0,600.0,588.35
1000_500_250_32_4,444.14,91.81,600.0,600.0,600.0
1000_500_250_32_5,477.73,86.37,600.0,600.0,600.0
1000_500_250_32_6,462.61,127.65,600.0,600.0,569.0
1000_500_250_32_7,447.43,250.3,600.0,600.0,600.0
1000_500_250_32_8,414.85,218.64,600.0,600.0,595.2
1000_500_250_32_9,457.4,545.74,600.0,600.0,600.0
500_250_100_32_0,168.13,212.12,600.0,347.12,519.99
500_250_100_32_1,139.85,236.73,600.0,95.78,600.0
500_250_100_32_2,146.41,477.64,600.0,451.53,396.04
500_250_100_32_3,153.59,86.03,600.0,600.0,537.25
500_250_100_32_4,158.56,449.27,600.0,600.0,591.99
500_250_100_32_5,174.54,117.65,600.0,525.25,600.0
500_250_100_32_6,160.85,122.05,600.0,314.32,596.69
500_250_100_32_7,164.26,592.06,600.0,461.5,596.15
500_250_100_32_8,165.2,565.1,600.0,446.85,553.44
500_250_100_32_9,165.05,515.1,556.98,509.1,600.0
100_75_50_32_0,20.06,124.07,244.33,29.68,4.45
100_75_50_32_1,20.63,559.68,118.91,54.15,2.62
100_75_50_32_2,15.11,452.42,247.68,298.47,2.67
100_75_50_32_3,20.28,547.65,565.57,512.09,7.44
100_75_50_32_4,20.04,211.66,156.14,177.11,6.18
100_75_50_32_5,21.66,21.91,488.6,347.06,4.18
100_75_50_32_6,20.67,38.65,119.58,593.35,3.21
100_75_50_32_7,22.19,275.4,234.67,582.51,6.07
100_75_50_32_8,22.16,150.39,453.5,79.71,6.05
100_75_50_32_9,22.63,488.93,462.63,368.56,5.0
10000_500_200_34_0,600.0,570.08,600.0,600.0,600.0
10000_500_200_34_1,600.0,232.79,600.0,600.0,0.34
10000_500_200_34_2,600.0,444.71,600.0,600.0,600.0
10000_500_200_34_3,600.0,444.34,600.0,600.0,0.2
10000_500_200_34_4,600.0,90.14,600.0,600.0,600.0
10000_500_200_34_5,600.0,261.75,600.0,600.0,600.0
10000_500_200_34_6,600.0,233.37,600.0,600.0,0.33
10000_500_200_34_7,600.0,140.0,600.0,600.0,600.0
10000_500_200_34_8,600.0,358.26,600.0,600.0,0.26
10000_500_200_34_9,600.0,35.92,600.0,600.0,0.32
1000_500_250_34_0,438.05,379.97,600.0,600.0,600.0
1000_500_250_34_1,509.54,598.01,600.0,600.0,600.0
1000_500_250_34_2,505.62,590.04,600.0,600.0,598.89
1000_500_250_34_3,492.22,488.72,600.0,600.0,600.0
1000_500_250_34_4,511.17,234.69,600.0,600.0,600.0
1000_500_250_34_5,517.61,536.06,600.0,433.86,540.81
1000_500_250_34_6,475.89,556.14,600.0,600.0,600.0
1000_500_250_34_7,470.45,493.56,600.0,600.0,600.0
1000_500_250_34_8,450.82,533.13,600.0,600.0,572.92
1000_500_250_34_9,483.96,517.12,600.0,600.0,600.0
500_250_100_34_0,169.46,269.92,600.0,416.53,596.12
500_250_100_34_1,151.98,110.88,600.0,315.25,594.88
500_250_100_34_2,165.72,579.53,600.0,548.14,591.89
500_250_100_34_3,158.1,86.08,600.0,523.53,546.64
500_250_100_34_4,166.92,191.83,600.0,301.14,413.48
500_250_100_34_5,162.32,424.3,600.0,465.25,598.33
500_250_100_34_6,155.68,229.88,527.89,451.25,313.43
500_250_100_34_7,155.36,106.02,600.0,486.12,581.75
500_250_100_34_8,165.55,262.97,600.0,264.9,579.38
500_250_100_34_9,160.36,96.88,600.0,568.78,501.52
100_75_50_34_0,17.79,75.41,287.63,398.47,3.25
100_75_50_34_1,19.46,525.26,43.25,583.96,1.88
100_75_50_34_2,20.77,257.03,395.73,14.55,11.35
100_75_50_34_3,19.54,224.4,282.3,555.85,3.74
100_75_50_34_4,21.82,158.46,509.75,197.21,3.47
100_75_50_34_5,19.87,546.13,567.13,329.9,2.04
100_75_50_34_6,21.3,253.58,397.03,359.72,1.97
100_75_50_34_7,20.69,361.78,304.7,285.45,2.56
100_75_50_34_8,42.48,347.29,184.16,366.94,4.86
100_75_50_34_9,19.27,94.04,9.98,427.21,1.28
10000_500_200_35_0,600.0,418.79,600.0,600.0,0.25
10000_500_200_35_1,600.0,598.33,600.0,600.0,0.27
10000_500_200_35_2,600.0,574.06,600.0,600.0,0.27
10000_500_200_35_3,600.0,577.06,600.0,600.0,0.27
10000_500_200_35_4,600.0,386.62,600.0,600.0,0.16
10000_500_200_35_5,600.0,558.23,600.0,600.0,0.26
10000_500_200_35_6,600.0,527.41,600.0,600.0,0.27
10000_500_200_35_7,600.0,357.61,600.0,600.0,0.26
10000_500_200_35_8,600.0,502.71,600.0,600.0,0.27
10000_500_200_35_9,600.0,99.05,600.0,600.0,0.28
1000_500_250_35_0,600.0,13.48,600.0,600.0,0.0
1000_500_250_35_1,600.0,162.01,600.0,600.0,0.01
1000_500_250_35_2,600.0,515.62,600.0,600.0,0.01
1000_500_250_35_3,600.0,553.03,600.0,600.0,0.0
1000_500_250_35_4,600.0,566.19,600.0,600.0,0.01
1000_500_250_35_5,600.0,113.72,600.0,600.0,0.01
1000_500_250_35_6,600.0,529.92,600.0,600.0,0.01
1000_500_250_35_7,600.0,308.87,600.0,600.0,0.01
1000_500_250_35_8,600.0,396.8,600.0,600.0,0.01
1000_500_250_35_9,600.0,544.69,600.0,600.0,0.01
500_250_100_35_0,225.59,142.3,600.0,600.0,569.4
500_250_100_35_1,200.91,575.88,600.0,600.0,402.49
500_250_100_35_2,226.5,48.05,600.0,600.0,495.21
500_250_100_35_3,217.31,99.44,600.0,600.0,569.13
500_250_100_35_4,216.33,493.01,600.0,600.0,580.54
500_250_100_35_5,211.36,346.32,600.0,600.0,598.94
500_250_100_35_6,223.05,255.62,600.0,600.0,450.13
500_250_100_35_7,205.86,60.19,600.0,600.0,592.31
500_250_100_35_8,204.48,35.7,600.0,600.0,566.32
500_250_100_35_9,228.86,132.7,600.0,600.0,583.52
100_75_50_35_0,24.15,229.89,70.89,209.31,8.84
100_75_50_35_1,22.67,352.17,110.66,452.31,9.26
100_75_50_35_2,24.11,216.45,238.58,7.19,5.0
100_75_50_35_3,21.85,10.07,445.63,94.03,11.31
100_75_50_35_4,24.85,446.47,27.29,548.22,13.59
100_75_50_35_5,24.1,173.77,541.59,180.4,8.38
100_75_50_35_6,24.65,8.7,436.6,14.28,10.05
100_75_50_35_7,24.43,495.6,340.82,185.14,12.59
100_75_50_35_8,25.89,27.98,442.35,78.3,5.92
100_75_50_35_9,26.64,318.45,315.02,277.56,16.52
10000_500_200_36_0,600.0,37.93,600.0,600.0,0.26
10000_500_200_36_1,600.0,235.0,600.0,600.0,600.0
10000_500_200_36_2,600.0,477.94,600.0,600.0,600.0
10000_500_200_36_3,600.0,83.76,600.0,600.0,600.0
10000_500_200_36_4,600.0,597.87,600.0,600.0,600.0
10000_500_200_36_5,600.0,500.36,600.0,600.0,600.0
10000_500_200_36_6,600.0,418.79,600.0,600.0,0.26
10000_500_200_36_7,600.0,467.48,600.0,600.0,0.26
10000_500_200_36_8,600.0,387.85,600.0,600.0,0.27
10000_500_200_36_9,600.0,532.97,600.0,600.0,600.0
1000_500_250_36_0,429.55,115.95,600.0,600.0,560.5
1000_500_250_36_1,473.27,488.65,600.0,600.0,600.0
1000_500_250_36_2,498.74,68.82,600.0,600.0,598.61
1000_500_250_36_3,519.39,97.44,600.0,600.0,507.44
1000_500_250_36_4,431.14,432.47,600.0,600.0,552.5
1000_500_250_36_5,480.71,127.62,600.0,600.0,554.74
1000_500_250_36_6,511.61,450.88,600.0,600.0,600.0
1000_500_250_36_7,494.89,491.27,600.0,600.0,600.0
1000_500_250_36_8,481.6,123.65,600.0,600.0,600.0
1000_500_250_36_9,491.44,96.35,600.0,600.0,600.0
500_250_100_36_0,150.5,135.18,397.13,600.0,597.33
500_250_100_36_1,165.29,415.31,600.0,286.19,520.56
500_250_100_36_2,138.11,313.74,481.08,600.0,566.06
500_250_100_36_3,159.96,280.88,600.0,354.04,514.68
500_250_100_36_4,148.08,130.28,600.0,407.22,434.13
500_250_100_36_5,162.88,43.82,600.0,567.45,548.19
500_250_100_36_6,160.03,84.9,537.51,487.61,581.15
500_250_100_36_7,154.19,152.0,600.0,265.93,572.1
500_250_100_36_8,152.22,31.64,525.04,336.09,425.04
500_250_100_36_9,162.93,386.98,600.0,406.14,167.87
100_75_50_36_0,14.35,420.13,344.67,4.78,2.26
100_75_50_36_1,21.73,177.4,79.56,15.12,1.57
100_75_50_36_2,21.5,395.67,80.91,41.37,1.64
100_75_50_36_3,21.82,32.92,535.39,55.13,1.33
100_75_50_36_4,20.22,120.19,290.84,197.38,1.7
100_75_50_36_5,600.0,346.03,312.36,57.96,2.42
100_75_50_36_6,20.02,563.79,247.59,96.79,1.37
100_75_50_36_7,21.31,469.91,493.43,8.63,3.3
100_75_50_36_8,21.11,445.78,477.0,15.92,9.01
100_75_50_36_9,21.78,394.43,251.82,2.49,1.23
