instances,Hybrid-GA,GRASP,GRASP+VNS,GRASP+Tabu,VNS,LP-UB
10000_500_200_2_0,600.0,532.83,600.0,600.0,600.0,22.95
10000_500_200_2_1,600.0,186.86,600.0,600.0,600.0,22.93
10000_500_200_2_2,600.0,6.26,600.0,600.0,600.0,23.22
10000_500_200_2_3,600.0,465.14,600.0,600.0,600.0,23.17
10000_500_200_2_4,600.0,337.29,600.0,600.0,600.0,23.34
10000_500_200_2_5,600.0,562.6,600.0,600.0,600.0,22.73
10000_500_200_2_6,600.0,508.15,600.0,600.0,600.0,23.49
10000_500_200_2_7,600.0,451.36,600.0,600.0,600.0,25.53
10000_500_200_2_8,600.0,64.83,600.0,600.0,600.0,23.39
10000_500_200_2_9,600.0,495.17,600.0,600.0,600.0,22.11
1000_500_250_2_0,600.0,338.16,600.0,600.0,600.0,2.24
1000_500_250_2_1,600.0,398.33,600.0,600.0,544.28,2.21
1000_500_250_2_2,600.0,547.51,600.0,600.0,396.33,2.51
1000_500_250_2_3,600.0,591.41,600.0,600.0,314.3,2.57
1000_500_250_2_4,600.0,94.97,600.0,600.0,554.13,2.51
1000_500_250_2_5,600.0,269.7,600.0,600.0,600.0,2.4
1000_500_250_2_6,600.0,473.46,600.0,600.0,326.88,2.51
1000_500_250_2_7,600.0,32.04,600.0,600.0,378.9,2.01
1000_500_250_2_8,600.0,74.92,600.0,600.0,594.02,2.22
1000_500_250_2_9,600.0,582.75,600.0,600.0,391.34,2.57
500_250_100_2_0,268.44,170.03,600.0,325.42,600.0,0.52
500_250_100_2_1,257.06,192.65,600.0,361.56,600.0,0.44
500_250_100_2_2,247.31,381.29,600.0,254.58,407.65,0.47
500_250_100_2_3,259.01,24.22,600.0,600.0,600.0,0.45
500_250_100_2_4,262.79,443.09,215.87,560.53,110.22,0.45
500_250_100_2_5,242.36,441.66,600.0,241.55,600.0,0.46
500_250_100_2_6,257.49,353.05,600.0,72.45,600.0,0.48
500_250_100_2_7,281.43,472.77,600.0,229.67,600.0,0.47
500_250_100_2_8,278.31,545.97,600.0,330.57,597.17,0.47
500_250_100_2_9,253.29,90.61,357.34,267.56,87.16,0.45
100_75_50_2_0,23.51,381.57,204.37,2.18,7.45,0.04
100_75_50_2_1,25.74,128.64,91.41,504.27,0.17,0.03
100_75_50_2_2,22.37,106.74,494.53,67.31,5.06,0.03
100_75_50_2_3,27.18,196.09,285.27,100.32,3.89,0.03
100_75_50_2_4,24.57,286.59,48.02,58.13,2.65,0.03
100_75_50_2_5,21.39,190.29,564.57,184.58,1.44,0.03
100_75_50_2_6,25.66,394.08,421.26,188.82,1.82,0.03
100_75_50_2_7,25.87,311.37,58.02,92.84,1.92,0.03
100_75_50_2_8,18.77,171.0,451.46,569.47,1.62,0.03
100_75_50_2_9,24.63,281.26,249.3,177.81,1.72,0.03
10000_500_200_3_0,600.0,224.74,600.0,600.0,0.26,41.37
10000_500_200_3_1,600.0,356.37,600.0,600.0,600.0,40.93
10000_500_200_3_2,600.0,502.58,600.0,600.0,0.24,41.41
10000_500_200_3_3,600.0,0.02,600.0,600.0,0.26,41.49
10000_500_200_3_4,600.0,181.01,600.0,600.0,0.26,41.73
10000_500_200_3_5,600.0,453.32,600.0,600.0,0.27,41.33
10000_500_200_3_6,600.0,305.8,600.0,600.0,0.25,41.59
10000_500_200_3_7,600.0,551.24,600.0,600.0,0.26,41.94
10000_500_200_3_8,600.0,481.64,600.0,600.0,0.26,41.64
10000_500_200_3_9,600.0,42.94,600.0,600.0,0.28,41.07
1000_500_250_3_0,600.0,375.58,600.0,600.0,0.01,4.17
1000_500_250_3_1,600.0,467.87,600.0,600.0,0.01,4.25
1000_500_250_3_2,600.0,441.92,600.0,600.0,0.01,4.19
1000_500_250_3_3,600.0,164.45,600.0,600.0,0.01,4.36
1000_500_250_3_4,600.0,369.61,600.0,600.0,0.0,4.12
1000_500_250_3_5,600.0,436.35,600.0,600.0,0.01,4.17
1000_500_250_3_6,600.0,9.98,600.0,600.0,0.01,4.11
1000_500_250_3_7,600.0,530.15,600.0,600.0,0.01,4.44
1000_500_250_3_8,600.0,137.42,600.0,600.0,0.01,4.2
1000_500_250_3_9,600.0,417.69,600.0,600.0,0.01,4.16
500_250_100_3_0,505.36,373.39,600.0,302.75,450.35,0.9
500_250_100_3_1,502.77,53.25,600.0,565.42,566.06,0.88
500_250_100_3_2,480.78,292.35,600.0,441.74,133.6,0.88
500_250_100_3_3,515.42,44.89,600.0,464.04,203.26,0.89
500_250_100_3_4,498.28,106.98,600.0,232.9,234.31,0.89
500_250_100_3_5,511.41,205.51,600.0,103.34,232.96,0.88
500_250_100_3_6,523.69,545.5,510.9,600.0,337.62,0.87
500_250_100_3_7,479.67,294.47,600.0,373.45,450.76,0.88
500_250_100_3_8,494.1,400.88,600.0,600.0,516.56,0.88
500_250_100_3_9,475.21,445.8,600.0,413.8,564.33,0.88
100_75_50_3_0,39.59,283.66,527.19,272.62,1.38,0.08
100_75_50_3_1,40.54,143.31,408.08,453.13,15.91,0.05
100_75_50_3_2,42.07,75.5,151.18,588.53,2.0,0.05
100_75_50_3_3,42.18,294.54,153.64,154.17,25.61,0.05
100_75_50_3_4,40.78,594.0,190.66,41.47,2.21,0.05
100_75_50_3_5,43.21,447.12,554.95,93.63,1.94,0.05
100_75_50_3_6,39.91,346.23,478.03,64.92,30.03,0.05
100_75_50_3_7,43.15,589.32,405.14,123.09,18.38,0.05
100_75_50_3_8,37.31,10.58,56.13,327.49,2.92,0.05
100_75_50_3_9,32.52,2.12,468.93,390.58,21.68,0.05
10000_500_200_4_0,600.0,447.07,600.0,600.0,0.26,29.56
10000_500_200_4_1,600.0,461.06,600.0,600.0,0.27,28.98
10000_500_200_4_2,600.0,177.34,600.0,600.0,0.24,37.48
10000_500_200_4_3,600.0,458.78,600.0,600.0,0.22,31.97
10000_500_200_4_4,600.0,195.3,600.0,600.0,600.0,34.14
10000_500_200_4_5,600.0,408.93,600.0,600.0,0.24,38.44
10000_500_200_4_6,600.0,294.71,600.0,600.0,0.25,35.05
10000_500_200_4_7,600.0,105.18,600.0,600.0,12.65,35.58
10000_500_200_4_8,600.0,408.4,600.0,600.0,0.14,34.23
10000_500_200_4_9,600.0,290.44,600.0,600.0,0.14,36.64
1000_500_250_4_0,600.0,398.61,600.0,600.0,596.43,3.56
1000_500_250_4_1,546.76,345.67,600.0,600.0,582.88,3.28
1000_500_250_4_2,600.0,574.05,600.0,600.0,572.94,3.52
1000_500_250_4_3,593.87,158.38,600.0,600.0,576.51,3.19
1000_500_250_4_4,600.0,356.77,600.0,600.0,583.07,3.25
1000_500_250_4_5,559.83,580.8,600.0,600.0,600.0,3.09
1000_500_250_4_6,552.87,412.83,600.0,600.0,406.08,3.05
1000_500_250_4_7,572.58,190.06,600.0,600.0,365.53,3.14
1000_500_250_4_8,577.64,52.02,600.0,600.0,354.24,3.4
1000_500_250_4_9,572.64,448.93,600.0,600.0,0.0,3.21
500_250_100_4_0,181.75,467.61,600.0,567.16,368.34,0.6
500_250_100_4_1,177.46,136.11,600.0,371.78,588.58,0.57
500_250_100_4_2,180.84,242.91,353.1,503.42,573.98,0.59
500_250_100_4_3,172.79,174.71,600.0,600.0,195.69,0.57
500_250_100_4_4,194.29,247.56,600.0,600.0,434.59,0.59
500_250_100_4_5,179.31,121.84,225.47,489.62,484.65,0.57
500_250_100_4_6,177.28,36.08,600.0,431.72,414.45,0.63
500_250_100_4_7,170.04,340.79,600.0,510.4,599.72,0.58
500_250_100_4_8,198.35,71.43,600.0,240.98,551.07,0.64
500_250_100_4_9,172.6,318.23,600.0,433.02,570.22,0.68
100_75_50_4_0,16.04,306.76,283.37,420.42,1.97,0.05
100_75_50_4_1,16.23,395.19,17.21,457.9,2.45,0.04
100_75_50_4_2,14.1,482.16,184.21,391.18,2.23,0.03
100_75_50_4_3,16.02,415.4,417.24,12.05,1.88,0.03
100_75_50_4_4,15.37,118.35,379.17,463.78,0.78,0.04
100_75_50_4_5,16.06,3.21,575.02,454.12,1.79,0.04
100_75_50_4_6,14.21,478.28,481.65,224.59,2.05,0.03
100_75_50_4_7,14.34,237.28,51.08,306.17,2.81,0.03
100_75_50_4_8,17.08,333.52,279.78,120.15,2.62,0.03
100_75_50_4_9,15.46,129.16,222.77,70.81,1.14,0.03
10000_500_200_6_0,600.0,410.33,600.0,600.0,600.0,20.74
10000_500_200_6_1,600.0,227.9,600.0,600.0,600.0,20.83
10000_500_200_6_2,600.0,98.36,600.0,600.0,600.0,21.15
10000_500_200_6_3,600.0,160.98,600.0,600.0,600.0,20.82
10000_500_200_6_4,600.0,325.84,600.0,600.0,600.0,21.51
10000_500_200_6_5,600.0,99.75,600.0,600.0,600.0,21.93
10000_500_200_6_6,600.0,50.09,600.0,600.0,600.0,21.19
10000_500_200_6_7,600.0,61.27,600.0,600.0,600.0,20.98
10000_500_200_6_8,600.0,160.24,600.0,600.0,600.0,21.78
10000_500_200_6_9,600.0,90.38,600.0,600.0,600.0,21.01
1000_500_250_6_0,600.0,417.92,600.0,600.0,600.0,1.95
1000_500_250_6_1,600.0,495.73,600.0,600.0,600.0,1.9
1000_500_250_6_2,600.0,200.84,600.0,600.0,600.0,1.92
1000_500_250_6_3,600.0,113.08,600.0,600.0,577.97,2.0
1000_500_250_6_4,600.0,26.01,600.0,600.0,600.0,1.88
1000_500_250_6_5,600.0,47.15,600.0,600.0,600.0,1.89
1000_500_250_6_6,600.0,452.91,600.0,600.0,600.0,1.93
1000_500_250_6_7,600.0,307.36,600.0,600.0,600.0,1.89
1000_500_250_6_8,600.0,407.75,600.0,600.0,0.01,1.88
1000_500_250_6_9,600.0,358.76,600.0,600.0,600.0,1.91
500_250_100_6_0,266.96,63.39,600.0,349.76,600.0,0.46
500_250_100_6_1,257.6,255.21,600.0,575.36,552.89,0.43
500_250_100_6_2,278.52,357.94,600.0,489.12,529.09,0.45
500_250_100_6_3,261.09,584.24,600.0,521.02,600.0,0.44
500_250_100_6_4,263.78,20.98,600.0,488.97,555.64,0.46
500_250_100_6_5,273.67,579.19,600.0,485.46,593.55,0.46
500_250_100_6_6,282.76,388.25,600.0,600.0,600.0,0.45
500_250_100_6_7,269.07,114.28,600.0,211.52,599.91,0.44
500_250_100_6_8,263.61,120.08,600.0,369.17,600.0,0.44
500_250_100_6_9,543.76,426.16,600.0,203.36,579.7,0.45
100_75_50_6_0,25.28,364.76,362.17,100.83,5.69,0.04
100_75_50_6_1,26.39,393.82,431.81,510.97,12.2,0.03
100_75_50_6_2,18.84,491.63,589.56,494.44,14.67,0.03
100_75_50_6_3,25.57,139.26,503.83,536.83,12.27,0.03
100_75_50_6_4,24.91,297.58,92.61,74.33,8.65,0.03
100_75_50_6_5,361.94,404.63,152.47,169.21,7.21,0.04
100_75_50_6_6,25.99,185.71,218.21,409.49,15.36,0.03
100_75_50_6_7,26.48,322.08,584.25,409.73,7.99,0.03
100_75_50_6_8,26.4,231.5,548.36,430.75,21.45,0.03
100_75_50_6_9,417.39,216.23,390.55,160.03,9.19,0.03
10000_500_200_7_0,600.0,54.84,600.0,600.0,0.3,40.18
10000_500_200_7_1,600.0,155.92,600.0,600.0,0.27,40.76
10000_500_200_7_2,600.0,527.32,600.0,600.0,0.28,40.08
10000_500_200_7_3,600.0,230.7,600.0,600.0,0.29,40.44
10000_500_200_7_4,600.0,566.97,600.0,600.0,0.27,40.27
10000_500_200_7_5,600.0,144.15,600.0,600.0,0.27,40.36
10000_500_200_7_6,600.0,368.18,600.0,600.0,0.29,40.08
10000_500_200_7_7,600.0,551.36,600.0,600.0,0.27,40.31
10000_500_200_7_8,600.0,0.02,600.0,600.0,0.25,40.22
10000_500_200_7_9,600.0,62.46,600.0,600.0,0.3,40.05
1000_500_250_7_0,600.0,229.58,600.0,600.0,0.01,3.88
1000_500_250_7_1,600.0,0.0,600.0,600.0,0.01,3.81
1000_500_250_7_2,600.0,24.7,600.0,600.0,0.01,3.79
1000_500_250_7_3,600.0,298.34,600.0,600.0,0.01,3.81
1000_500_250_7_4,600.0,264.78,600.0,600.0,0.01,3.82
1000_500_250_7_5,600.0,596.52,600.0,600.0,0.01,3.8
1000_500_250_7_6,600.0,89.79,600.0,600.0,0.01,3.75
1000_500_250_7_7,600.0,581.3,600.0,600.0,0.0,3.79
1000_500_250_7_8,600.0,292.55,600.0,600.0,0.01,3.8
1000_500_250_7_9,600.0,99.05,600.0,600.0,0.01,3.85
500_250_100_7_0,529.31,384.97,600.0,600.0,0.0,0.85
500_250_100_7_1,507.78,313.13,600.0,600.0,0.0,0.82
500_250_100_7_2,488.51,487.06,600.0,600.0,0.0,0.82
500_250_100_7_3,549.25,445.13,600.0,600.0,0.0,0.83
500_250_100_7_4,483.09,21.71,600.0,600.0,0.0,0.82
500_250_100_7_5,521.64,341.67,600.0,600.0,0.0,0.83
500_250_100_7_6,501.62,124.22,600.0,600.0,0.0,0.82
500_250_100_7_7,485.04,344.56,600.0,600.0,524.94,0.83
500_250_100_7_8,478.06,130.66,600.0,600.0,0.0,0.8
500_250_100_7_9,522.82,154.87,600.0,600.0,0.0,0.82
100_75_50_7_0,36.52,188.61,159.2,144.25,58.67,0.05
100_75_50_7_1,40.79,542.37,401.7,443.85,81.84,0.04
100_75_50_7_2,35.43,347.52,433.64,110.04,47.48,0.04
100_75_50_7_3,42.28,498.84,533.02,479.56,42.32,0.04
100_75_50_7_4,42.81,340.66,91.9,304.65,72.03,0.04
100_75_50_7_5,44.04,118.35,401.53,356.4,30.8,0.04
100_75_50_7_6,43.48,298.16,455.06,319.88,61.52,0.05
100_75_50_7_7,42.7,329.14,445.71,278.28,26.25,0.04
100_75_50_7_8,41.24,344.17,148.02,126.28,40.87,0.04
100_75_50_7_9,44.25,75.81,172.12,400.11,84.64,0.04
10000_500_200_8_0,600.0,485.23,600.0,600.0,0.28,30.81
10000_500_200_8_1,600.0,433.38,600.0,600.0,0.26,29.35
10000_500_200_8_2,600.0,89.89,600.0,600.0,0.26,30.12
10000_500_200_8_3,600.0,103.02,600.0,600.0,0.26,28.62
10000_500_200_8_4,600.0,538.97,600.0,600.0,0.26,30.93
10000_500_200_8_5,600.0,46.76,600.0,600.0,0.25,26.7
10000_500_200_8_6,600.0,295.33,600.0,600.0,0.16,29.79
10000_500_200_8_7,600.0,214.1,600.0,600.0,0.25,29.26
10000_500_200_8_8,600.0,348.21,600.0,600.0,0.25,26.92
10000_500_200_8_9,600.0,287.68,600.0,600.0,0.26,28.68
1000_500_250_8_0,600.0,219.88,600.0,600.0,0.01,2.68
1000_500_250_8_1,600.0,531.31,600.0,600.0,0.01,2.54
1000_500_250_8_2,600.0,216.9,600.0,600.0,0.01,2.87
1000_500_250_8_3,600.0,113.1,600.0,600.0,0.01,2.74
1000_500_250_8_4,600.0,18.28,600.0,600.0,0.01,2.74
1000_500_250_8_5,600.0,321.51,600.0,600.0,0.01,2.56
1000_500_250_8_6,600.0,63.69,600.0,600.0,584.59,2.72
1000_500_250_8_7,600.0,498.26,600.0,600.0,0.01,2.68
1000_500_250_8_8,600.0,566.66,600.0,600.0,0.0,3.04
1000_500_250_8_9,600.0,107.64,600.0,600.0,0.01,3.02
500_250_100_8_0,253.2,557.99,600.0,600.0,378.18,0.54
500_250_100_8_1,259.95,252.28,600.0,535.44,521.43,0.52
500_250_100_8_2,271.4,450.77,600.0,400.3,525.46,0.54
500_250_100_8_3,245.98,39.35,600.0,539.13,428.63,0.51
500_250_100_8_4,262.89,73.59,600.0,600.0,600.0,0.56
500_250_100_8_5,288.77,288.61,600.0,600.0,327.87,0.52
500_250_100_8_6,246.39,19.02,600.0,600.0,498.17,0.53
500_250_100_8_7,415.63,420.81,600.0,600.0,339.26,0.54
500_250_100_8_8,284.79,408.84,600.0,600.0,584.6,0.55
500_250_100_8_9,244.45,244.17,600.0,600.0,511.67,0.51
100_75_50_8_0,25.32,2.31,368.95,108.99,2.39,0.04
100_75_50_8_1,26.69,291.74,391.37,180.27,11.44,0.03
100_75_50_8_2,26.55,333.91,404.72,141.17,4.75,0.04
100_75_50_8_3,22.1,325.74,150.47,37.53,2.54,0.03
100_75_50_8_4,25.76,85.1,10.8,257.07,6.48,0.04
100_75_50_8_5,25.05,165.24,303.16,534.82,12.11,0.03
100_75_50_8_6,25.64,166.14,560.38,92.0,4.2,0.03
100_75_50_8_7,26.82,261.65,261.91,63.96,10.41,0.04
100_75_50_8_8,40.45,477.54,567.43,143.61,15.16,0.03
100_75_50_8_9,25.98,366.02,412.22,40.33,13.47,0.03
10000_500_200_10_0,600.0,423.46,600.0,600.0,0.31,20.81
10000_500_200_10_1,600.0,557.75,600.0,600.0,0.2,21.25
10000_500_200_10_2,600.0,11.68,600.0,600.0,0.32,20.98
10000_500_200_10_3,600.0,211.73,600.0,600.0,600.0,21.24
10000_500_200_10_4,600.0,403.61,600.0,600.0,600.0,21.41
10000_500_200_10_5,600.0,464.41,600.0,600.0,0.31,20.99
10000_500_200_10_6,600.0,9.56,600.0,600.0,0.34,21.62
10000_500_200_10_7,600.0,176.61,600.0,600.0,600.0,21.29
10000_500_200_10_8,600.0,70.15,600.0,600.0,600.0,21.31
10000_500_200_10_9,600.0,119.64,600.0,600.0,0.32,21.17
1000_500_250_10_0,600.0,130.13,600.0,600.0,600.0,1.88
1000_500_250_10_1,600.0,592.02,600.0,600.0,460.46,1.97
1000_500_250_10_2,600.0,311.1,600.0,600.0,600.0,1.84
1000_500_250_10_3,600.0,24.59,600.0,600.0,0.01,1.86
1000_500_250_10_4,600.0,452.66,600.0,600.0,574.96,1.85
1000_500_250_10_5,600.0,517.38,600.0,600.0,588.41,1.88
1000_500_250_10_6,600.0,76.57,600.0,600.0,0.01,1.87
1000_500_250_10_7,600.0,365.78,600.0,600.0,600.0,1.86
1000_500_250_10_8,600.0,414.81,600.0,600.0,0.01,1.87
1000_500_250_10_9,600.0,351.23,600.0,600.0,0.0,1.88
500_250_100_10_0,273.22,293.56,600.0,499.76,539.79,0.46
500_250_100_10_1,255.31,74.86,600.0,410.79,600.0,0.44
500_250_100_10_2,258.0,20.95,600.0,421.84,563.14,0.44
500_250_100_10_3,266.59,289.32,600.0,251.42,271.9,0.43
500_250_100_10_4,243.13,296.91,600.0,220.53,600.0,0.45
500_250_100_10_5,266.99,545.91,600.0,600.0,578.57,0.45
500_250_100_10_6,255.92,528.38,600.0,317.09,600.0,0.44
500_250_100_10_7,259.96,158.09,600.0,282.54,523.33,0.46
500_250_100_10_8,249.98,15.14,600.0,172.84,531.46,0.45
500_250_100_10_9,262.47,512.22,600.0,399.15,406.26,0.44
100_75_50_10_0,25.33,149.11,313.34,247.31,14.59,0.03
100_75_50_10_1,24.95,226.85,521.45,187.53,15.36,0.02
100_75_50_10_2,24.24,460.19,23.7,330.93,10.11,0.03
100_75_50_10_3,24.61,245.4,446.94,467.19,16.58,0.03
100_75_50_10_4,19.12,583.95,382.97,389.19,7.0,0.02
100_75_50_10_5,23.36,252.62,216.43,183.17,11.05,0.03
100_75_50_10_6,26.07,83.88,332.32,403.23,16.9,0.03
100_75_50_10_7,24.08,485.08,234.84,486.9,8.46,0.03
100_75_50_10_8,23.39,599.84,319.95,240.05,6.28,0.03
100_75_50_10_9,24.29,438.4,512.52,371.48,6.32,0.03
10000_500_200_11_0,600.0,382.45,600.0,600.0,0.27,39.5
10000_500_200_11_1,600.0,348.3,600.0,600.0,0.27,39.94
10000_500_200_11_2,600.0,502.86,600.0,600.0,0.28,39.48
10000_500_200_11_3,600.0,229.55,600.0,600.0,0.27,38.9
10000_500_200_11_4,600.0,226.62,600.0,600.0,0.27,39.62
10000_500_200_11_5,600.0,368.84,600.0,600.0,0.27,39.36
10000_500_200_11_6,600.0,234.24,600.0,600.0,0.27,40.18
10000_500_200_11_7,600.0,125.01,600.0,600.0,0.27,39.66
10000_500_200_11_8,600.0,456.06,600.0,600.0,0.29,39.65
10000_500_200_11_9,600.0,326.61,600.0,600.0,0.27,39.77
1000_500_250_11_0,600.0,460.28,600.0,600.0,0.01,3.76
1000_500_250_11_1,600.0,432.58,600.0,600.0,0.01,3.68
1000_500_250_11_2,600.0,424.67,600.0,600.0,0.01,3.76
1000_500_250_11_3,600.0,444.97,600.0,600.0,0.01,3.76
1000_500_250_11_4,600.0,176.54,600.0,600.0,0.0,3.65
1000_500_250_11_5,600.0,586.56,600.0,600.0,0.01,3.68
1000_500_250_11_6,600.0,79.11,600.0,600.0,0.01,3.63
1000_500_250_11_7,600.0,494.5,600.0,600.0,0.01,3.74
1000_500_250_11_8,600.0,360.9,600.0,600.0,0.01,3.67
1000_500_250_11_9,600.0,561.65,600.0,600.0,0.0,3.73
500_250_100_11_0,523.53,142.89,600.0,600.0,0.0,0.85
500_250_100_11_1,496.0,194.52,600.0,600.0,0.0,0.83
500_250_100_11_2,518.09,325.52,600.0,600.0,0.0,0.83
500_250_100_11_3,506.23,304.99,600.0,600.0,0.0,0.83
500_250_100_11_4,513.02,57.69,600.0,600.0,0.0,0.84
500_250_100_11_5,531.92,180.09,600.0,600.0,0.0,0.84
500_250_100_11_6,468.26,27.22,600.0,600.0,0.0,0.85
500_250_100_11_7,537.29,10.48,600.0,600.0,0.0,0.84
500_250_100_11_8,525.67,503.52,600.0,600.0,0.0,0.84
500_250_100_11_9,530.58,298.83,600.0,600.0,0.0,0.85
100_75_50_11_0,45.28,484.85,205.66,219.26,287.11,0.06
100_75_50_11_1,42.12,59.25,565.03,475.64,310.2,0.04
100_75_50_11_2,107.5,43.02,392.97,178.03,286.11,0.04
100_75_50_11_3,36.89,378.61,107.32,203.73,85.6,0.04
100_75_50_11_4,42.33,238.35,365.12,433.9,82.6,0.05
100_75_50_11_5,33.43,563.14,130.39,343.25,97.89,0.04
100_75_50_11_6,44.57,13.35,502.51,152.92,115.23,0.04
100_75_50_11_7,37.94,379.83,435.19,175.11,371.98,0.04
100_75_50_11_8,43.17,82.59,268.26,600.0,209.93,0.05
100_75_50_11_9,41.73,242.9,330.93,412.06,125.08,0.04
10000_500_200_12_0,600.0,213.91,600.0,600.0,0.26,29.52
10000_500_200_12_1,600.0,529.0,600.0,600.0,0.26,29.91
10000_500_200_12_2,600.0,196.6,600.0,600.0,0.16,25.89
10000_500_200_12_3,600.0,389.59,600.0,600.0,0.26,26.0
10000_500_200_12_4,600.0,257.18,600.0,600.0,0.16,31.76
10000_500_200_12_5,600.0,214.59,600.0,600.0,0.16,30.09
10000_500_200_12_6,600.0,205.26,600.0,600.0,0.26,29.38
10000_500_200_12_7,600.0,576.05,600.0,600.0,0.27,25.58
10000_500_200_12_8,600.0,476.01,600.0,600.0,0.26,29.64
10000_500_200_12_9,600.0,85.92,600.0,600.0,0.27,26.84
1000_500_250_12_0,600.0,593.34,600.0,600.0,0.01,2.67
1000_500_250_12_1,600.0,275.46,600.0,600.0,0.01,2.69
1000_500_250_12_2,600.0,128.73,600.0,600.0,0.0,2.84
1000_500_250_12_3,600.0,523.52,600.0,600.0,0.01,2.44
1000_500_250_12_4,600.0,464.25,600.0,600.0,0.01,2.52
1000_500_250_12_5,600.0,420.34,600.0,600.0,0.01,2.48
1000_500_250_12_6,600.0,148.43,600.0,600.0,0.0,2.56
1000_500_250_12_7,600.0,56.73,600.0,600.0,0.01,2.45
1000_500_250_12_8,600.0,313.13,600.0,600.0,0.01,2.42
1000_500_250_12_9,600.0,188.41,600.0,600.0,0.01,2.52
500_250_100_12_0,244.66,408.86,600.0,600.0,589.78,0.51
500_250_100_12_1,265.66,365.58,600.0,600.0,590.49,0.49
500_250_100_12_2,272.39,174.03,600.0,600.0,573.28,0.54
500_250_100_12_3,269.74,123.79,600.0,600.0,600.0,0.52
500_250_100_12_4,267.82,74.49,600.0,600.0,590.7,0.51
500_250_100_12_5,279.17,124.8,600.0,600.0,556.4,0.51
500_250_100_12_6,276.13,441.31,600.0,600.0,409.7,0.51
500_250_100_12_7,266.74,208.96,600.0,600.0,548.64,0.53
500_250_100_12_8,259.18,272.4,600.0,600.0,558.47,0.53
500_250_100_12_9,267.51,361.58,600.0,600.0,589.41,0.53
100_75_50_12_0,24.46,587.28,208.1,125.29,4.43,0.03
100_75_50_12_1,17.64,262.87,264.22,258.17,6.62,0.03
100_75_50_12_2,25.59,381.69,113.82,287.29,6.27,0.03
100_75_50_12_3,24.74,477.0,71.37,188.14,10.64,0.03
100_75_50_12_4,17.43,506.0,288.97,236.26,7.79,0.03
100_75_50_12_5,24.66,503.51,275.9,556.51,9.46,0.03
100_75_50_12_6,24.42,185.17,310.31,28.84,6.14,0.03
100_75_50_12_7,23.89,45.92,255.77,589.41,4.47,0.03
100_75_50_12_8,23.88,146.42,458.37,418.62,8.43,0.04
100_75_50_12_9,17.18,212.81,392.86,299.47,9.05,0.04
10000_500_200_14_0,600.0,487.11,600.0,600.0,600.0,22.36
10000_500_200_14_1,600.0,147.54,600.0,600.0,600.0,22.22
10000_500_200_14_2,600.0,402.94,600.0,600.0,600.0,21.43
10000_500_200_14_3,600.0,236.01,600.0,600.0,600.0,22.03
10000_500_200_14_4,600.0,155.53,600.0,600.0,600.0,22.29
10000_500_200_14_5,600.0,102.31,600.0,600.0,600.0,21.93
10000_500_200_14_6,600.0,424.67,600.0,600.0,600.0,22.77
10000_500_200_14_7,600.0,168.34,600.0,600.0,600.0,22.98
10000_500_200_14_8,600.0,447.8,600.0,600.0,600.0,22.88
10000_500_200_14_9,600.0,420.1,600.0,600.0,600.0,22.86
1000_500_250_14_0,600.0,197.27,600.0,600.0,558.54,1.91
1000_500_250_14_1,600.0,496.71,600.0,600.0,541.92,1.91
1000_500_250_14_2,600.0,307.32,600.0,600.0,327.52,1.86
1000_500_250_14_3,600.0,352.24,600.0,600.0,292.56,1.88
1000_500_250_14_4,579.78,362.02,600.0,600.0,234.75,2.04
1000_500_250_14_5,600.0,580.86,600.0,600.0,459.97,1.93
1000_500_250_14_6,600.0,320.06,600.0,600.0,291.02,1.94
1000_500_250_14_7,600.0,273.03,600.0,600.0,600.0,1.84
1000_500_250_14_8,600.0,379.81,600.0,600.0,600.0,1.88
1000_500_250_14_9,600.0,423.7,600.0,600.0,466.71,1.88
500_250_100_14_0,214.48,366.24,600.0,291.63,594.11,0.47
500_250_100_14_1,186.57,528.84,600.0,557.8,600.0,0.44
500_250_100_14_2,217.57,364.61,191.87,463.72,244.94,0.44
500_250_100_14_3,202.4,60.56,600.0,131.39,579.2,0.43
500_250_100_14_4,213.41,87.72,600.0,357.44,600.0,0.43
500_250_100_14_5,198.93,516.19,600.0,142.33,600.0,0.44
500_250_100_14_6,191.15,448.63,489.08,306.35,600.0,0.43
500_250_100_14_7,228.99,403.1,600.0,497.46,600.0,0.44
500_250_100_14_8,201.36,516.06,600.0,129.65,363.09,0.45
500_250_100_14_9,217.57,229.38,600.0,600.0,600.0,0.47
100_75_50_14_0,21.46,548.1,7.97,163.47,7.79,0.03
100_75_50_14_1,18.31,132.84,96.23,346.46,3.55,0.03
100_75_50_14_2,16.16,378.31,127.42,350.73,2.84,0.03
100_75_50_14_3,21.76,68.74,195.27,150.69,14.4,0.03
100_75_50_14_4,21.39,393.93,441.1,81.39,7.27,0.03
100_75_50_14_5,22.17,486.69,521.46,314.08,3.36,0.03
100_75_50_14_6,21.65,307.73,588.63,407.85,7.2,0.03
100_75_50_14_7,21.78,457.69,590.94,276.0,8.59,0.03
100_75_50_14_8,21.7,304.73,292.86,198.07,9.19,0.03
100_75_50_14_9,22.27,389.71,342.27,408.04,0.66,0.03
10000_500_200_15_0,600.0,496.65,600.0,600.0,0.27,39.35
10000_500_200_15_1,600.0,270.55,600.0,600.0,0.26,40.09
10000_500_200_15_2,600.0,551.65,600.0,600.0,0.26,39.68
10000_500_200_15_3,600.0,56.83,600.0,600.0,0.29,40.91
10000_500_200_15_4,600.0,442.34,600.0,600.0,0.28,39.53
10000_500_200_15_5,600.0,485.71,600.0,600.0,0.26,39.69
10000_500_200_15_6,600.0,484.5,600.0,600.0,0.27,40.07
10000_500_200_15_7,600.0,355.32,600.0,600.0,0.27,39.94
10000_500_200_15_8,600.0,87.06,600.0,600.0,0.25,39.26
10000_500_200_15_9,600.0,297.59,600.0,600.0,0.26,39.38
1000_500_250_15_0,600.0,341.17,600.0,600.0,0.01,3.97
1000_500_250_15_1,600.0,555.75,600.0,600.0,0.01,3.83
1000_500_250_15_2,600.0,586.81,600.0,600.0,0.01,4.04
1000_500_250_15_3,600.0,167.46,600.0,600.0,0.0,3.79
1000_500_250_15_4,600.0,497.79,600.0,600.0,0.01,3.79
1000_500_250_15_5,600.0,42.42,600.0,600.0,0.01,3.91
1000_500_250_15_6,600.0,553.52,600.0,600.0,0.01,3.74
1000_500_250_15_7,600.0,562.31,600.0,600.0,0.01,3.81
1000_500_250_15_8,600.0,26.61,600.0,600.0,0.01,3.81
1000_500_250_15_9,600.0,248.59,600.0,600.0,0.01,3.81
500_250_100_15_0,342.88,107.92,434.62,530.55,556.78,0.84
500_250_100_15_1,329.4,128.46,486.87,600.0,578.51,0.81
500_250_100_15_2,329.61,82.51,412.76,428.39,519.14,0.82
500_250_100_15_3,338.35,105.39,600.0,600.0,599.89,0.84
500_250_100_15_4,332.22,546.42,600.0,600.0,530.34,0.82
500_250_100_15_5,300.42,3.18,600.0,600.0,599.52,0.82
500_250_100_15_6,305.5,548.38,600.0,600.0,309.66,0.82
500_250_100_15_7,325.42,173.81,560.97,600.0,559.07,0.83
500_250_100_15_8,323.41,468.81,600.0,600.0,594.27,0.83
500_250_100_15_9,288.86,175.07,600.0,600.0,536.7,0.81
100_75_50_15_0,28.19,586.89,46.28,444.6,3.12,0.05
100_75_50_15_1,31.32,257.54,490.89,107.36,1.84,0.04
100_75_50_15_2,29.39,108.04,50.83,40.56,19.61,0.05
100_75_50_15_3,31.75,45.46,107.98,334.97,2.39,0.04
100_75_50_15_4,21.51,214.68,366.7,164.04,3.7,0.05
100_75_50_15_5,30.82,227.87,279.8,119.17,15.0,0.05
100_75_50_15_6,31.25,228.55,328.03,136.82,8.69,0.05
100_75_50_15_7,31.91,410.64,206.41,522.27,19.19,0.04
100_75_50_15_8,32.41,194.27,174.22,200.35,14.42,0.04
100_75_50_15_9,32.05,290.33,577.66,35.24,22.67,0.04
10000_500_200_16_0,600.0,148.8,600.0,600.0,0.25,29.3
10000_500_200_16_1,600.0,184.41,600.0,600.0,0.26,32.9
10000_500_200_16_2,600.0,511.45,600.0,600.0,0.26,27.06
10000_500_200_16_3,600.0,572.8,600.0,600.0,0.26,28.22
10000_500_200_16_4,600.0,383.11,600.0,600.0,0.27,29.21
10000_500_200_16_5,600.0,552.93,600.0,600.0,0.26,29.02
10000_500_200_16_6,600.0,199.81,600.0,600.0,0.25,29.44
10000_500_200_16_7,600.0,522.84,600.0,600.0,0.27,28.59
10000_500_200_16_8,600.0,450.2,600.0,600.0,0.26,28.54
10000_500_200_16_9,600.0,273.07,600.0,600.0,0.26,28.04
1000_500_250_16_0,600.0,221.65,600.0,600.0,596.0,3.43
1000_500_250_16_1,600.0,386.7,600.0,600.0,600.0,3.18
1000_500_250_16_2,600.0,77.33,600.0,600.0,446.63,3.09
1000_500_250_16_3,600.0,540.2,600.0,600.0,0.0,3.09
1000_500_250_16_4,600.0,200.53,600.0,600.0,0.0,3.07
1000_500_250_16_5,600.0,262.76,600.0,600.0,512.35,3.11
1000_500_250_16_6,600.0,454.6,600.0,600.0,0.0,2.84
1000_500_250_16_7,600.0,599.64,600.0,600.0,0.0,3.63
1000_500_250_16_8,600.0,432.69,600.0,600.0,0.01,3.1
1000_500_250_16_9,600.0,279.85,600.0,600.0,585.23,3.45
500_250_100_16_0,208.69,558.7,600.0,512.42,577.35,0.55
500_250_100_16_1,412.44,579.98,600.0,494.55,538.75,0.54
500_250_100_16_2,206.27,416.68,600.0,252.05,559.5,0.55
500_250_100_16_3,209.64,225.29,600.0,376.6,592.41,0.55
500_250_100_16_4,215.47,171.23,600.0,362.06,591.04,0.53
500_250_100_16_5,204.12,488.45,600.0,507.47,575.61,0.54
500_250_100_16_6,202.75,221.33,600.0,386.78,586.5,0.52
500_250_100_16_7,207.89,531.1,600.0,331.81,579.45,0.57
500_250_100_16_8,205.84,270.97,600.0,369.34,554.48,0.54
500_250_100_16_9,212.32,245.27,600.0,388.86,582.59,0.55
100_75_50_16_0,20.92,334.28,398.87,494.3,7.57,0.03
100_75_50_16_1,22.77,231.05,410.1,349.8,12.56,0.03
100_75_50_16_2,22.02,147.21,91.37,147.79,4.25,0.03
100_75_50_16_3,22.94,118.2,239.46,546.6,1.12,0.03
100_75_50_16_4,17.9,93.08,78.78,106.93,9.04,0.03
100_75_50_16_5,21.25,557.56,32.73,558.96,9.88,0.03
100_75_50_16_6,23.5,4.77,115.33,327.25,3.42,0.03
100_75_50_16_7,22.97,581.19,81.65,154.17,5.82,0.03
100_75_50_16_8,22.23,5.48,595.71,352.45,10.58,0.03
100_75_50_16_9,22.15,447.23,178.27,473.83,6.35,0.04
10000_500_200_18_0,600.0,238.66,600.0,600.0,0.34,20.27
10000_500_200_18_1,600.0,36.29,600.0,600.0,600.0,20.23
10000_500_200_18_2,600.0,104.05,600.0,600.0,600.0,20.17
10000_500_200_18_3,600.0,590.84,600.0,600.0,600.0,20.02
10000_500_200_18_4,600.0,214.88,600.0,600.0,600.0,20.34
10000_500_200_18_5,600.0,336.58,600.0,600.0,600.0,20.49
10000_500_200_18_6,600.0,286.13,600.0,600.0,600.0,20.54
10000_500_200_18_7,600.0,538.22,600.0,600.0,600.0,20.3
10000_500_200_18_8,600.0,203.25,600.0,600.0,600.0,19.88
10000_500_200_18_9,600.0,462.82,600.0,600.0,0.2,20.24
1000_500_250_18_0,600.0,181.79,600.0,600.0,432.01,1.98
1000_500_250_18_1,600.0,99.71,600.0,600.0,600.0,1.83
1000_500_250_18_2,600.0,383.61,600.0,600.0,600.0,1.89
1000_500_250_18_3,600.0,6.62,600.0,600.0,600.0,1.83
1000_500_250_18_4,600.0,120.73,600.0,600.0,600.0,1.86
1000_500_250_18_5,600.0,500.41,600.0,600.0,600.0,1.92
1000_500_250_18_6,600.0,530.31,600.0,600.0,600.0,1.9
1000_500_250_18_7,600.0,249.49,600.0,600.0,600.0,1.87
1000_500_250_18_8,581.26,498.14,600.0,600.0,600.0,1.91
1000_500_250_18_9,600.0,358.95,600.0,600.0,600.0,1.89
500_250_100_18_0,195.18,307.95,600.0,175.46,594.75,0.46
500_250_100_18_1,221.57,138.89,600.0,215.98,580.59,0.44
500_250_100_18_2,214.52,541.78,600.0,592.94,600.0,0.44
500_250_100_18_3,228.28,506.1,600.0,316.99,595.8,0.45
500_250_100_18_4,192.78,157.42,600.0,210.06,600.0,0.44
500_250_100_18_5,210.86,281.83,600.0,202.12,597.08,0.45
500_250_100_18_6,220.84,234.42,600.0,231.4,600.0,0.45
500_250_100_18_7,216.79,252.13,600.0,242.25,593.48,0.44
500_250_100_18_8,209.72,386.82,600.0,202.93,600.0,0.45
500_250_100_18_9,220.51,87.29,600.0,417.92,599.34,0.44
100_75_50_18_0,23.61,535.12,85.73,479.7,9.55,0.05
100_75_50_18_1,19.35,297.42,260.99,232.24,3.28,0.03
100_75_50_18_2,16.19,575.74,376.07,575.17,15.5,0.03
100_75_50_18_3,21.24,431.02,358.94,50.75,13.0,0.03
100_75_50_18_4,20.72,194.28,59.82,335.95,8.8,0.03
100_75_50_18_5,22.0,537.47,573.06,528.18,10.8,0.03
100_75_50_18_6,20.11,582.5,42.23,378.85,14.4,0.03
100_75_50_18_7,21.97,307.43,227.8,180.77,6.95,0.04
100_75_50_18_8,22.43,110.17,278.41,314.59,11.22,0.03
100_75_50_18_9,22.69,391.04,411.69,337.19,5.95,0.03
10000_500_200_19_0,600.0,461.57,600.0,600.0,0.26,38.26
10000_500_200_19_1,600.0,141.47,600.0,600.0,0.24,38.64
10000_500_200_19_2,600.0,415.53,600.0,600.0,0.25,38.31
10000_500_200_19_3,600.0,390.56,600.0,600.0,0.27,39.01
10000_500_200_19_4,600.0,335.7,600.0,600.0,0.27,38.84
10000_500_200_19_5,600.0,117.15,600.0,600.0,0.28,38.27
10000_500_200_19_6,600.0,390.64,600.0,600.0,0.28,38.65
10000_500_200_19_7,600.0,375.77,600.0,600.0,0.27,38.3
10000_500_200_19_8,600.0,378.09,600.0,600.0,0.28,38.76
10000_500_200_19_9,600.0,0.01,600.0,600.0,0.16,38.73
1000_500_250_19_0,600.0,329.5,600.0,600.0,0.01,3.54
1000_500_250_19_1,600.0,9.74,600.0,600.0,0.01,3.62
1000_500_250_19_2,600.0,370.83,600.0,600.0,0.0,3.58
1000_500_250_19_3,600.0,403.64,600.0,600.0,0.01,3.57
1000_500_250_19_4,600.0,232.12,600.0,600.0,0.01,3.58
1000_500_250_19_5,600.0,171.55,600.0,600.0,0.01,3.55
1000_500_250_19_6,600.0,295.25,600.0,600.0,0.01,3.59
1000_500_250_19_7,600.0,587.06,600.0,600.0,0.01,3.56
1000_500_250_19_8,600.0,459.71,600.0,600.0,0.0,3.59
1000_500_250_19_9,600.0,10.59,600.0,600.0,0.0,3.59
500_250_100_19_0,362.0,419.12,600.0,177.07,588.24,0.82
500_250_100_19_1,348.3,432.92,600.0,600.0,600.0,0.82
500_250_100_19_2,340.93,185.35,600.0,600.0,0.0,0.77
500_250_100_19_3,358.16,465.08,600.0,600.0,0.0,0.78
500_250_100_19_4,346.1,152.87,600.0,600.0,257.87,0.78
500_250_100_19_5,339.16,420.25,600.0,600.0,0.0,0.78
500_250_100_19_6,344.58,168.13,600.0,600.0,0.0,0.77
500_250_100_19_7,337.06,104.85,600.0,600.0,600.0,0.76
500_250_100_19_8,343.63,269.33,600.0,600.0,0.0,0.78
500_250_100_19_9,345.48,355.7,600.0,600.0,0.0,0.77
100_75_50_19_0,32.75,1.84,307.85,493.52,31.38,0.05
100_75_50_19_1,22.05,309.43,243.67,481.57,27.88,0.04
100_75_50_19_2,33.71,100.34,366.26,385.47,49.14,0.04
100_75_50_19_3,31.42,218.66,227.22,487.0,46.89,0.04
100_75_50_19_4,33.4,534.29,469.29,362.3,35.88,0.05
100_75_50_19_5,29.12,499.69,221.12,431.34,78.9,0.04
100_75_50_19_6,31.39,65.75,600.0,586.59,45.55,0.04
100_75_50_19_7,31.42,46.66,509.63,120.41,41.7,0.04
100_75_50_19_8,28.39,160.34,188.7,326.13,34.36,0.05
100_75_50_19_9,31.22,337.17,261.34,145.81,33.42,0.04
10000_500_200_20_0,600.0,212.76,600.0,600.0,0.26,27.81
10000_500_200_20_1,600.0,437.41,600.0,600.0,0.16,28.83
10000_500_200_20_2,600.0,442.27,600.0,600.0,0.26,26.43
10000_500_200_20_3,600.0,262.17,600.0,600.0,0.26,26.62
10000_500_200_20_4,600.0,577.49,600.0,600.0,0.26,24.43
10000_500_200_20_5,600.0,6.96,600.0,600.0,0.26,25.75
10000_500_200_20_6,600.0,258.9,600.0,600.0,0.26,25.33
10000_500_200_20_7,600.0,587.81,600.0,600.0,0.25,28.34
10000_500_200_20_8,600.0,504.83,600.0,600.0,0.26,26.64
10000_500_200_20_9,600.0,518.15,600.0,600.0,0.25,26.35
1000_500_250_20_0,600.0,500.3,600.0,600.0,0.0,2.59
1000_500_250_20_1,600.0,416.11,600.0,600.0,0.01,2.54
1000_500_250_20_2,600.0,83.86,600.0,600.0,0.0,2.71
1000_500_250_20_3,600.0,264.63,600.0,600.0,0.0,2.52
1000_500_250_20_4,600.0,265.28,600.0,600.0,0.01,2.53
1000_500_250_20_5,600.0,522.2,600.0,600.0,0.0,2.3
1000_500_250_20_6,600.0,491.34,600.0,600.0,0.0,2.6
1000_500_250_20_7,600.0,545.2,600.0,600.0,0.0,2.78
1000_500_250_20_8,600.0,145.8,600.0,600.0,0.0,2.78
1000_500_250_20_9,600.0,500.26,600.0,600.0,0.0,2.64
500_250_100_20_0,212.19,472.46,600.0,520.47,600.0,0.51
500_250_100_20_1,224.43,453.79,600.0,600.0,569.27,0.56
500_250_100_20_2,195.72,174.9,600.0,600.0,600.0,0.55
500_250_100_20_3,194.32,147.87,600.0,600.0,396.14,0.47
500_250_100_20_4,209.26,249.0,600.0,600.0,594.57,0.49
500_250_100_20_5,209.65,564.17,600.0,600.0,600.0,0.51
500_250_100_20_6,443.1,326.01,600.0,600.0,596.82,0.52
500_250_100_20_7,207.06,522.5,600.0,600.0,600.0,0.52
500_250_100_20_8,194.0,407.52,600.0,600.0,383.6,0.49
500_250_100_20_9,217.42,133.33,600.0,600.0,567.6,0.53
100_75_50_20_0,16.46,482.55,225.62,199.39,2.73,0.05
100_75_50_20_1,21.78,46.39,285.35,555.98,5.49,0.03
100_75_50_20_2,21.79,342.05,425.6,306.59,7.73,0.03
100_75_50_20_3,16.32,253.26,286.74,406.2,8.72,0.03
100_75_50_20_4,273.72,414.06,255.18,392.74,12.25,0.04
100_75_50_20_5,22.45,475.32,58.63,326.93,6.71,0.02
100_75_50_20_6,23.82,275.23,326.02,539.41,18.21,0.03
100_75_50_20_7,22.67,364.14,442.3,419.68,2.43,0.03
100_75_50_20_8,22.17,264.77,60.63,447.46,6.06,0.03
100_75_50_20_9,16.16,269.08,284.53,299.29,14.72,0.03
10000_500_200_22_0,600.0,358.54,600.0,600.0,0.2,21.09
10000_500_200_22_1,600.0,125.79,600.0,600.0,0.32,21.28
10000_500_200_22_2,600.0,103.8,600.0,600.0,0.31,21.03
10000_500_200_22_3,600.0,96.38,600.0,600.0,0.31,21.3
10000_500_200_22_4,600.0,525.63,600.0,600.0,0.32,20.88
10000_500_200_22_5,600.0,393.85,600.0,600.0,0.32,20.84
10000_500_200_22_6,600.0,497.3,600.0,600.0,600.0,21.13
10000_500_200_22_7,600.0,396.77,600.0,600.0,0.32,20.86
10000_500_200_22_8,600.0,99.91,600.0,600.0,0.32,21.12
10000_500_200_22_9,600.0,541.53,600.0,600.0,0.21,20.82
1000_500_250_22_0,600.0,361.44,600.0,600.0,600.0,2.06
1000_500_250_22_1,600.0,476.99,600.0,600.0,0.01,1.89
1000_500_250_22_2,600.0,62.78,600.0,600.0,0.01,1.89
1000_500_250_22_3,600.0,90.69,600.0,600.0,0.01,1.89
1000_500_250_22_4,600.0,201.22,600.0,600.0,600.0,1.93
1000_500_250_22_5,600.0,587.68,600.0,600.0,600.0,1.92
1000_500_250_22_6,600.0,423.93,600.0,600.0,600.0,1.95
1000_500_250_22_7,600.0,280.72,600.0,600.0,0.01,1.93
1000_500_250_22_8,600.0,561.7,600.0,600.0,600.0,1.96
1000_500_250_22_9,600.0,595.88,600.0,600.0,600.0,1.88
500_250_100_22_0,208.75,23.56,600.0,539.64,600.0,0.47
500_250_100_22_1,214.92,327.07,600.0,371.37,596.75,0.45
500_250_100_22_2,221.83,465.58,600.0,463.57,597.12,0.46
500_250_100_22_3,207.74,474.43,600.0,328.56,577.16,0.44
500_250_100_22_4,211.77,219.82,600.0,410.97,600.0,0.46
500_250_100_22_5,215.29,492.5,600.0,137.12,583.66,0.54
500_250_100_22_6,222.69,577.26,600.0,131.25,590.85,0.44
500_250_100_22_7,215.6,94.75,600.0,597.68,600.0,0.45
500_250_100_22_8,224.08,281.57,600.0,249.36,524.39,0.45
500_250_100_22_9,221.52,111.52,600.0,600.0,523.63,0.44
100_75_50_22_0,22.27,204.27,32.24,445.91,10.99,0.04
100_75_50_22_1,22.01,286.55,65.15,346.5,6.78,0.03
100_75_50_22_2,23.52,48.87,446.94,281.01,13.89,0.03
100_75_50_22_3,22.09,264.77,503.74,114.76,8.12,0.03
100_75_50_22_4,22.68,148.51,17.9,21.18,8.55,0.03
100_75_50_22_5,22.58,476.04,509.65,196.56,7.8,0.03
100_75_50_22_6,21.48,481.1,306.75,452.32,4.8,0.04
100_75_50_22_7,22.26,487.66,558.34,62.94,8.28,0.03
100_75_50_22_8,21.69,598.09,78.87,7.59,7.79,0.03
100_75_50_22_9,21.29,83.94,411.67,74.99,10.42,0.03
10000_500_200_23_0,600.0,351.3,600.0,600.0,0.23,38.28
10000_500_200_23_1,600.0,584.24,600.0,600.0,0.27,38.58
10000_500_200_23_2,600.0,256.35,600.0,600.0,0.27,38.57
10000_500_200_23_3,600.0,138.74,600.0,600.0,0.28,38.3
10000_500_200_23_4,600.0,0.02,600.0,600.0,0.28,38.51
10000_500_200_23_5,600.0,591.9,600.0,600.0,0.27,38.35
10000_500_200_23_6,600.0,341.16,600.0,600.0,0.27,38.07
10000_500_200_23_7,600.0,478.85,600.0,600.0,0.27,38.09
10000_500_200_23_8,600.0,97.07,600.0,600.0,0.27,38.41
10000_500_200_23_9,600.0,167.79,600.0,600.0,0.32,38.7
1000_500_250_23_0,600.0,271.92,600.0,600.0,0.0,3.55
1000_500_250_23_1,600.0,24.94,600.0,600.0,0.01,3.47
1000_500_250_23_2,600.0,171.31,600.0,600.0,0.01,3.5
1000_500_250_23_3,600.0,326.36,600.0,600.0,0.01,3.48
1000_500_250_23_4,600.0,596.63,600.0,600.0,0.01,3.54
1000_500_250_23_5,600.0,131.82,600.0,600.0,0.01,3.48
1000_500_250_23_6,600.0,390.02,600.0,600.0,0.01,3.47
1000_500_250_23_7,600.0,136.61,600.0,600.0,0.0,3.46
1000_500_250_23_8,600.0,394.46,600.0,600.0,0.01,3.55
1000_500_250_23_9,600.0,154.46,600.0,600.0,0.01,3.49
500_250_100_23_0,361.66,349.78,600.0,600.0,0.0,0.8
500_250_100_23_1,353.26,118.5,600.0,600.0,0.0,0.78
500_250_100_23_2,325.93,421.14,600.0,600.0,0.0,0.79
500_250_100_23_3,368.61,470.53,600.0,600.0,0.0,0.79
500_250_100_23_4,365.94,80.5,600.0,600.0,0.0,0.78
500_250_100_23_5,359.22,384.71,600.0,600.0,0.0,0.79
500_250_100_23_6,354.58,132.18,600.0,600.0,0.0,0.79
500_250_100_23_7,359.2,417.46,600.0,600.0,0.0,0.79
500_250_100_23_8,369.46,539.83,600.0,600.0,296.61,0.79
500_250_100_23_9,347.28,240.57,600.0,600.0,600.0,0.78
100_75_50_23_0,32.87,505.48,487.35,513.41,72.06,0.06
100_75_50_23_1,34.56,217.9,447.69,461.93,71.31,0.04
100_75_50_23_2,33.43,337.16,541.52,560.13,84.69,0.05
100_75_50_23_3,31.94,29.6,302.13,128.15,70.71,0.04
100_75_50_23_4,31.87,114.63,600.0,105.66,97.35,0.04
100_75_50_23_5,33.53,128.22,87.56,417.73,98.81,0.04
100_75_50_23_6,33.47,18.31,392.11,296.07,87.53,0.04
100_75_50_23_7,33.38,518.8,600.0,104.71,107.94,0.04
100_75_50_23_8,33.39,153.15,223.24,526.79,209.98,0.05
100_75_50_23_9,32.17,153.18,600.0,313.98,90.48,0.04
10000_500_200_24_0,600.0,296.71,600.0,600.0,0.26,25.42
10000_500_200_24_1,600.0,124.34,600.0,600.0,0.25,24.31
10000_500_200_24_2,600.0,331.3,600.0,600.0,0.25,29.25
10000_500_200_24_3,600.0,547.41,600.0,600.0,0.2,25.31
10000_500_200_24_4,600.0,427.68,600.0,600.0,0.26,26.02
10000_500_200_24_5,600.0,157.38,600.0,600.0,0.16,24.68
10000_500_200_24_6,600.0,435.66,600.0,600.0,0.16,28.61
10000_500_200_24_7,600.0,451.65,600.0,600.0,0.27,27.17
10000_500_200_24_8,600.0,506.77,600.0,600.0,0.26,27.11
10000_500_200_24_9,600.0,222.56,600.0,600.0,0.26,27.51
1000_500_250_24_0,600.0,589.97,600.0,600.0,0.0,2.27
1000_500_250_24_1,600.0,381.06,600.0,600.0,0.01,2.25
1000_500_250_24_2,600.0,158.37,600.0,600.0,0.0,2.4
1000_500_250_24_3,600.0,16.36,600.0,600.0,0.0,2.47
1000_500_250_24_4,600.0,257.19,600.0,600.0,0.0,2.25
1000_500_250_24_5,600.0,417.29,600.0,600.0,0.0,2.46
1000_500_250_24_6,600.0,36.67,600.0,600.0,0.01,2.62
1000_500_250_24_7,600.0,149.7,600.0,600.0,0.0,2.46
1000_500_250_24_8,600.0,350.42,600.0,600.0,0.01,2.32
1000_500_250_24_9,600.0,155.31,600.0,600.0,0.0,2.5
500_250_100_24_0,203.3,268.08,600.0,600.0,463.09,0.52
500_250_100_24_1,215.91,475.14,600.0,600.0,573.75,0.49
500_250_100_24_2,209.12,140.62,600.0,600.0,571.15,0.51
500_250_100_24_3,215.99,191.8,600.0,531.76,600.0,0.49
500_250_100_24_4,220.61,137.5,600.0,600.0,587.94,0.49
500_250_100_24_5,214.02,430.5,600.0,600.0,583.24,0.48
500_250_100_24_6,202.03,136.87,600.0,600.0,594.5,0.49
500_250_100_24_7,216.82,526.39,600.0,600.0,553.88,0.5
500_250_100_24_8,204.24,281.95,600.0,600.0,325.37,0.47
500_250_100_24_9,212.73,213.36,600.0,600.0,594.76,0.47
100_75_50_24_0,22.41,41.93,277.28,2.64,7.25,0.04
100_75_50_24_1,21.47,74.89,453.89,103.21,8.25,0.03
100_75_50_24_2,20.76,100.68,108.33,188.17,4.77,0.03
100_75_50_24_3,14.94,395.01,503.14,33.41,6.59,0.03
100_75_50_24_4,32.02,462.91,415.44,478.93,8.62,0.03
100_75_50_24_5,21.76,66.93,237.21,430.49,4.26,0.03
100_75_50_24_6,22.34,104.31,434.32,244.66,4.11,0.03
100_75_50_24_7,499.52,542.09,360.93,50.56,7.09,0.03
100_75_50_24_8,17.57,439.68,234.63,256.04,11.57,0.03
100_75_50_24_9,23.45,97.05,341.33,221.34,4.03,0.03
10000_500_200_26_0,600.0,480.95,600.0,600.0,0.32,20.9
10000_500_200_26_1,600.0,471.1,600.0,600.0,0.33,20.91
10000_500_200_26_2,600.0,542.32,600.0,600.0,0.32,20.42
10000_500_200_26_3,600.0,272.45,600.0,600.0,0.31,20.94
10000_500_200_26_4,600.0,205.49,600.0,600.0,0.33,20.6
10000_500_200_26_5,600.0,514.77,600.0,600.0,0.34,20.62
10000_500_200_26_6,600.0,335.85,600.0,600.0,0.32,20.9
10000_500_200_26_7,600.0,428.01,600.0,600.0,0.2,20.78
10000_500_200_26_8,600.0,146.45,600.0,600.0,0.32,20.81
10000_500_200_26_9,600.0,468.62,600.0,600.0,0.32,20.89
1000_500_250_26_0,258.2,104.39,600.0,441.22,30.66,1.85
1000_500_250_26_1,267.93,32.43,196.29,351.78,0.0,1.84
1000_500_250_26_2,277.43,543.25,592.66,271.98,0.01,1.8
1000_500_250_26_3,276.79,154.53,600.0,362.39,0.01,1.82
1000_500_250_26_4,286.97,10.46,398.15,339.64,0.01,1.8
1000_500_250_26_5,262.4,67.92,207.81,36.7,0.01,1.87
1000_500_250_26_6,265.48,13.8,178.49,187.32,0.01,1.87
1000_500_250_26_7,257.39,525.97,228.55,436.64,30.88,1.78
1000_500_250_26_8,377.51,394.84,559.22,105.26,0.01,1.95
1000_500_250_26_9,268.86,384.25,600.0,50.3,32.56,1.82
500_250_100_26_0,101.79,488.93,448.71,508.46,6.79,0.45
500_250_100_26_1,96.25,234.15,119.72,303.6,0.0,0.44
500_250_100_26_2,99.03,25.45,479.68,444.32,0.0,0.44
500_250_100_26_3,105.87,156.68,135.88,586.86,0.0,0.44
500_250_100_26_4,104.47,74.26,251.57,594.6,0.0,0.44
500_250_100_26_5,101.85,276.09,83.18,547.91,4.26,0.42
500_250_100_26_6,105.77,553.3,306.67,248.65,0.0,0.43
500_250_100_26_7,116.44,318.01,421.75,52.11,0.0,0.44
500_250_100_26_8,98.82,522.87,551.22,186.34,0.0,0.43
500_250_100_26_9,97.38,427.27,231.4,166.56,3.06,0.43
100_75_50_26_0,16.31,455.37,295.26,452.57,0.08,0.05
100_75_50_26_1,16.4,228.67,65.57,541.09,0.0,0.03
100_75_50_26_2,16.41,359.99,591.14,559.26,0.0,0.03
100_75_50_26_3,16.33,294.41,59.13,341.43,0.0,0.03
100_75_50_26_4,13.94,496.38,224.7,351.26,0.0,0.03
100_75_50_26_5,16.74,293.42,277.21,533.51,0.0,0.03
100_75_50_26_6,15.02,159.1,405.18,404.71,0.0,0.03
100_75_50_26_7,11.72,168.21,38.43,530.21,0.0,0.03
100_75_50_26_8,14.23,186.88,401.86,447.42,0.0,0.03
100_75_50_26_9,16.29,427.16,116.62,182.68,0.0,0.03
10000_500_200_27_0,600.0,31.87,600.0,600.0,0.25,35.59
10000_500_200_27_1,600.0,77.86,600.0,600.0,0.27,35.37
10000_500_200_27_2,600.0,254.24,600.0,600.0,0.23,35.76
10000_500_200_27_3,600.0,96.74,600.0,600.0,0.27,35.96
10000_500_200_27_4,600.0,123.22,600.0,600.0,0.27,35.36
10000_500_200_27_5,600.0,469.21,600.0,600.0,0.27,35.22
10000_500_200_27_6,600.0,65.31,600.0,600.0,0.27,35.33
10000_500_200_27_7,600.0,281.47,600.0,600.0,0.16,35.62
10000_500_200_27_8,600.0,424.14,600.0,600.0,0.27,35.6
10000_500_200_27_9,600.0,410.31,600.0,600.0,0.25,35.9
1000_500_250_27_0,463.61,322.93,391.96,196.71,0.01,3.23
1000_500_250_27_1,319.16,404.82,381.03,415.83,0.01,3.19
1000_500_250_27_2,332.82,495.57,186.88,357.82,0.01,3.21
1000_500_250_27_3,330.82,465.75,193.91,532.47,0.0,3.19
1000_500_250_27_4,313.46,371.65,380.48,326.49,0.01,3.21
1000_500_250_27_5,331.93,317.32,204.79,456.97,0.01,3.22
1000_500_250_27_6,309.01,325.58,183.61,515.63,0.0,3.21
1000_500_250_27_7,478.51,179.28,519.24,104.91,0.01,3.23
1000_500_250_27_8,332.37,276.01,333.59,65.98,0.01,3.2
1000_500_250_27_9,313.82,596.71,600.0,374.91,0.01,3.29
500_250_100_27_0,107.6,407.39,121.92,140.3,0.0,0.73
500_250_100_27_1,105.69,86.59,412.39,273.35,0.0,0.71
500_250_100_27_2,112.4,300.86,206.08,22.87,0.0,0.71
500_250_100_27_3,116.72,63.56,67.24,599.53,0.0,0.71
500_250_100_27_4,102.57,375.82,600.0,561.92,0.0,0.7
500_250_100_27_5,97.94,328.04,600.0,98.08,0.0,0.7
500_250_100_27_6,109.12,75.17,140.65,481.9,0.0,0.71
500_250_100_27_7,103.89,107.01,98.0,565.88,0.0,0.7
500_250_100_27_8,116.06,115.77,209.97,373.8,0.0,0.71
500_250_100_27_9,114.71,496.97,103.63,121.73,0.0,0.71
100_75_50_27_0,19.73,571.98,453.95,174.34,0.0,0.06
100_75_50_27_1,19.29,1.08,61.96,13.69,0.0,0.04
100_75_50_27_2,18.75,322.08,309.98,443.08,0.0,0.06
100_75_50_27_3,17.03,230.45,104.48,19.01,0.0,0.04
100_75_50_27_4,17.79,345.77,110.76,19.37,0.0,0.03
100_75_50_27_5,106.8,497.05,93.81,283.21,0.0,0.04
100_75_50_27_6,14.85,157.4,159.13,20.29,0.0,0.04
100_75_50_27_7,19.14,469.53,65.5,7.05,0.0,0.03
100_75_50_27_8,19.57,208.14,369.79,454.16,0.0,0.04
100_75_50_27_9,16.66,250.01,116.3,220.5,0.0,0.04
10000_500_200_28_0,600.0,86.13,600.0,600.0,0.26,22.46
10000_500_200_28_1,600.0,171.87,600.0,600.0,0.26,22.41
10000_500_200_28_2,600.0,201.09,600.0,600.0,0.15,22.21
10000_500_200_28_3,600.0,43.51,600.0,600.0,0.25,24.25
10000_500_200_28_4,600.0,149.22,600.0,600.0,0.26,22.53
10000_500_200_28_5,600.0,235.56,600.0,600.0,0.28,22.7
10000_500_200_28_6,600.0,234.05,600.0,600.0,0.26,22.28
10000_500_200_28_7,600.0,551.5,600.0,600.0,0.16,23.28
10000_500_200_28_8,600.0,320.56,600.0,600.0,0.26,23.58
10000_500_200_28_9,600.0,217.19,600.0,600.0,0.16,22.8
1000_500_250_28_0,256.27,61.33,600.0,115.15,0.0,2.45
1000_500_250_28_1,276.81,130.62,451.83,600.0,26.9,2.52
1000_500_250_28_2,288.66,368.81,600.0,375.25,295.26,2.32
1000_500_250_28_3,292.47,231.1,215.38,556.96,0.0,2.28
1000_500_250_28_4,250.35,465.77,387.64,204.43,0.0,2.36
1000_500_250_28_5,289.69,476.79,600.0,305.36,21.33,2.44
1000_500_250_28_6,284.78,219.86,600.0,296.61,31.81,2.26
1000_500_250_28_7,291.17,130.52,600.0,600.0,31.74,2.4
1000_500_250_28_8,286.69,273.22,407.79,488.02,0.0,2.28
1000_500_250_28_9,288.8,184.48,600.0,295.47,0.0,2.16
500_250_100_28_0,88.06,544.09,269.81,228.31,4.0,0.51
500_250_100_28_1,104.69,396.19,463.4,194.42,37.4,0.52
500_250_100_28_2,102.39,366.14,429.66,72.29,0.0,0.46
500_250_100_28_3,105.07,175.47,102.52,309.48,0.0,0.48
500_250_100_28_4,102.39,78.05,279.77,272.94,0.0,0.5
500_250_100_28_5,105.97,167.74,154.36,117.0,0.0,0.49
500_250_100_28_6,98.77,226.75,127.84,548.38,0.0,0.48
500_250_100_28_7,103.42,392.57,160.01,26.62,0.0,0.48
500_250_100_28_8,107.72,522.25,159.88,284.89,0.0,0.48
500_250_100_28_9,104.34,280.28,486.43,476.68,0.0,0.45
100_75_50_28_0,16.16,166.57,5.0,538.86,0.0,0.04
100_75_50_28_1,15.61,156.79,34.15,3.61,0.0,0.03
100_75_50_28_2,16.55,291.49,457.04,182.5,0.52,0.03
100_75_50_28_3,16.37,446.29,404.44,539.43,0.0,0.03
100_75_50_28_4,12.45,420.58,176.03,580.87,0.6,0.03
100_75_50_28_5,16.82,95.3,66.44,116.14,0.0,0.03
100_75_50_28_6,14.31,497.15,206.28,471.9,0.0,0.03
100_75_50_28_7,17.3,5.66,43.84,344.24,0.0,0.03
100_75_50_28_8,15.98,372.99,305.38,476.76,0.06,0.04
100_75_50_28_9,17.49,462.44,416.75,570.63,0.0,0.03
10000_500_200_30_0,600.0,344.39,600.0,600.0,600.0,20.34
10000_500_200_30_1,600.0,235.53,600.0,600.0,600.0,19.82
10000_500_200_30_2,600.0,566.84,600.0,600.0,583.92,20.4
10000_500_200_30_3,600.0,0.01,600.0,600.0,600.0,20.27
10000_500_200_30_4,600.0,21.27,600.0,600.0,600.0,20.06
10000_500_200_30_5,600.0,168.45,600.0,600.0,600.0,20.24
10000_500_200_30_6,600.0,211.98,600.0,600.0,600.0,19.8
10000_500_200_30_7,600.0,458.55,600.0,600.0,499.24,20.16
10000_500_200_30_8,600.0,598.43,600.0,600.0,0.32,20.0
10000_500_200_30_9,600.0,156.64,600.0,600.0,600.0,20.37
1000_500_250_30_0,270.36,345.08,355.4,574.73,23.5,1.84
1000_500_250_30_1,293.23,291.38,288.98,173.07,46.01,1.84
1000_500_250_30_2,278.21,172.89,261.83,234.82,29.61,1.84
1000_500_250_30_3,283.3,453.36,475.02,450.66,16.76,1.87
1000_500_250_30_4,268.75,444.7,285.8,455.54,34.77,1.82
1000_500_250_30_5,272.65,240.84,459.89,507.55,32.62,1.84
1000_500_250_30_6,284.36,538.15,600.0,309.39,0.01,1.85
1000_500_250_30_7,272.23,31.88,600.0,298.75,92.38,1.83
1000_500_250_30_8,272.23,231.57,142.52,95.86,38.91,1.85
1000_500_250_30_9,276.48,390.42,493.94,600.0,40.43,1.82
500_250_100_30_0,91.28,346.23,139.34,290.36,78.08,0.45
500_250_100_30_1,87.45,316.34,500.61,441.0,4.26,0.43
500_250_100_30_2,103.34,401.45,433.87,581.5,4.26,0.44
500_250_100_30_3,102.51,51.31,594.36,37.62,4.83,0.43
500_250_100_30_4,103.41,341.93,539.43,571.39,2.15,0.44
500_250_100_30_5,101.82,227.0,464.72,226.99,3.02,0.43
500_250_100_30_6,91.5,391.93,268.74,543.58,7.57,0.43
500_250_100_30_7,101.75,563.6,228.76,62.26,4.66,0.43
500_250_100_30_8,102.83,237.01,30.04,555.08,13.3,0.44
500_250_100_30_9,100.25,466.59,154.98,66.25,3.18,0.43
100_75_50_30_0,14.65,230.26,367.37,530.09,0.92,0.04
100_75_50_30_1,16.89,400.2,389.64,89.23,0.3,0.03
100_75_50_30_2,15.46,563.51,368.1,587.9,0.09,0.03
100_75_50_30_3,15.9,549.39,6.71,216.39,0.04,0.03
100_75_50_30_4,17.47,359.9,71.3,92.94,0.11,0.04
100_75_50_30_5,16.15,14.84,178.59,205.84,0.07,0.03
100_75_50_30_6,15.75,348.21,256.59,181.48,0.0,0.02
100_75_50_30_7,16.15,551.95,346.11,204.54,0.63,0.03
100_75_50_30_8,16.43,405.45,19.27,70.89,0.36,0.03
100_75_50_30_9,16.77,28.68,22.36,52.86,0.07,0.03
10000_500_200_31_0,600.0,90.0,600.0,600.0,600.0,34.68
10000_500_200_31_1,600.0,567.5,600.0,600.0,600.0,34.96
10000_500_200_31_2,600.0,58.41,600.0,600.0,0.27,35.05
10000_500_200_31_3,600.0,136.96,600.0,600.0,0.27,34.93
10000_500_200_31_4,600.0,160.92,600.0,600.0,0.27,34.83
10000_500_200_31_5,600.0,185.2,600.0,600.0,0.27,34.91
10000_500_200_31_6,600.0,30.74,600.0,600.0,600.0,35.07
10000_500_200_31_7,600.0,513.03,600.0,600.0,600.0,34.59
10000_500_200_31_8,600.0,591.82,600.0,600.0,600.0,35.28
10000_500_200_31_9,600.0,290.88,600.0,600.0,600.0,35.08
1000_500_250_31_0,320.31,548.49,522.51,456.06,20.36,3.14
1000_500_250_31_1,322.8,452.94,198.41,423.5,0.01,3.1
1000_500_250_31_2,330.0,331.79,570.36,261.91,0.01,3.07
1000_500_250_31_3,295.39,477.59,159.65,92.97,0.01,3.1
1000_500_250_31_4,307.14,33.28,116.89,520.62,0.01,3.08
1000_500_250_31_5,314.36,36.04,267.02,122.92,23.24,3.11
1000_500_250_31_6,279.67,363.46,600.0,375.8,67.97,3.07
1000_500_250_31_7,309.47,370.9,600.0,234.73,22.79,3.09
1000_500_250_31_8,324.63,283.42,432.23,112.62,0.01,3.07
1000_500_250_31_9,322.54,286.47,129.07,389.35,44.61,3.06
500_250_100_31_0,112.74,590.11,243.25,93.11,0.0,0.69
500_250_100_31_1,94.13,59.21,534.05,543.89,3.13,0.67
500_250_100_31_2,112.34,76.3,499.26,421.88,0.0,0.68
500_250_100_31_3,111.05,301.27,245.43,151.32,6.93,0.68
500_250_100_31_4,110.15,246.95,62.58,46.59,0.0,0.68
500_250_100_31_5,110.3,129.93,337.32,469.09,0.0,0.68
500_250_100_31_6,110.13,53.9,30.03,30.51,4.62,0.68
500_250_100_31_7,338.86,222.06,394.86,301.71,0.0,0.68
500_250_100_31_8,108.77,581.36,430.72,189.1,3.38,0.68
500_250_100_31_9,104.84,312.29,204.39,404.72,0.0,0.68
100_75_50_31_0,15.25,191.63,0.15,0.15,0.09,0.05
100_75_50_31_1,17.95,121.59,0.37,0.19,0.07,0.04
100_75_50_31_2,16.81,68.42,1.65,0.68,0.04,0.04
100_75_50_31_3,19.37,326.77,6.21,1.61,0.0,0.04
100_75_50_31_4,19.21,125.06,12.35,5.5,0.0,0.04
100_75_50_31_5,18.36,240.79,11.52,1.96,0.0,0.04
100_75_50_31_6,19.34,25.46,0.44,0.26,0.04,0.04
100_75_50_31_7,18.9,72.88,0.93,0.42,0.04,0.04
100_75_50_31_8,19.03,3.02,12.56,8.8,0.07,0.04
100_75_50_31_9,18.12,13.44,1.01,0.38,0.0,0.04
10000_500_200_32_0,600.0,328.28,600.0,600.0,416.39,21.63
10000_500_200_32_1,600.0,272.33,600.0,600.0,600.0,21.8
10000_500_200_32_2,600.0,491.6,600.0,600.0,560.51,21.17
10000_500_200_32_3,600.0,161.74,600.0,600.0,597.22,21.55
10000_500_200_32_4,600.0,379.47,600.0,600.0,507.04,21.04
10000_500_200_32_5,600.0,140.89,600.0,600.0,600.0,20.79
10000_500_200_32_6,600.0,456.44,600.0,600.0,600.0,21.47
10000_500_200_32_7,600.0,502.45,600.0,600.0,423.86,21.56
10000_500_200_32_8,600.0,323.55,600.0,600.0,600.0,20.65
10000_500_200_32_9,600.0,105.57,600.0,600.0,600.0,20.86
1000_500_250_32_0,266.79,294.78,417.84,375.7,582.8,1.92
1000_500_250_32_1,281.03,118.16,600.0,303.87,585.65,2.09
1000_500_250_32_2,282.85,587.63,600.0,228.1,24.4,1.97
1000_500_250_32_3,280.7,530.98,600.0,326.26,24.84,2.0
1000_500_250_32_4,285.06,310.19,110.83,417.85,15.46,2.1
1000_500_250_32_5,293.97,581.74,499.27,381.01,0.01,2.14
1000_500_250_32_6,277.44,220.51,600.0,143.79,553.55,2.11
1000_500_250_32_7,282.94,339.23,387.15,454.93,15.27,2.12
1000_500_250_32_8,288.58,276.07,256.82,507.61,23.0,1.92
1000_500_250_32_9,298.17,347.14,237.4,351.69,150.5,1.93
500_250_100_32_0,100.34,459.73,158.93,96.35,20.75,0.46
500_250_100_32_1,82.87,94.97,246.02,356.95,2.79,0.44
500_250_100_32_2,95.99,489.62,245.43,234.34,28.61,0.45
500_250_100_32_3,104.16,458.95,370.44,265.45,3.83,0.44
500_250_100_32_4,106.9,277.79,437.62,91.0,2.59,0.47
500_250_100_32_5,93.1,31.19,558.74,125.04,33.7,0.45
500_250_100_32_6,97.86,480.64,599.73,150.1,3.93,0.46
500_250_100_32_7,103.25,252.53,424.28,223.6,3.1,0.46
500_250_100_32_8,95.27,482.7,600.0,113.05,180.68,0.43
500_250_100_32_9,100.5,338.24,600.0,221.41,2.28,0.45
100_75_50_32_0,16.45,58.2,390.09,399.91,0.0,0.04
100_75_50_32_1,187.25,59.08,290.15,105.78,0.41,0.02
100_75_50_32_2,14.25,263.08,113.3,3.21,0.63,0.03
100_75_50_32_3,16.38,90.45,257.76,10.61,0.17,0.03
100_75_50_32_4,16.56,82.26,69.99,352.62,0.36,0.03
100_75_50_32_5,16.99,38.12,0.71,0.27,0.03,0.04
100_75_50_32_6,13.7,35.1,211.35,249.86,1.08,0.03
100_75_50_32_7,16.64,215.56,229.39,92.25,0.81,0.03
100_75_50_32_8,15.7,340.76,39.56,4.35,0.55,0.03
100_75_50_32_9,13.91,2.57,370.0,12.54,0.05,0.04
10000_500_200_34_0,600.0,399.76,600.0,600.0,600.0,19.87
10000_500_200_34_1,600.0,580.19,600.0,600.0,600.0,20.32
10000_500_200_34_2,600.0,581.36,600.0,600.0,544.99,20.44
10000_500_200_34_3,600.0,497.97,600.0,600.0,600.0,19.93
10000_500_200_34_4,600.0,462.7,600.0,600.0,600.0,20.32
10000_500_200_34_5,600.0,491.22,600.0,600.0,600.0,20.21
10000_500_200_34_6,600.0,421.37,600.0,600.0,600.0,20.21
10000_500_200_34_7,600.0,282.66,600.0,600.0,380.55,20.12
10000_500_200_34_8,600.0,327.07,600.0,600.0,600.0,19.98
10000_500_200_34_9,600.0,270.75,600.0,600.0,600.0,20.27
1000_500_250_34_0,286.08,539.38,497.32,113.12,10.83,1.85
1000_500_250_34_1,277.23,361.82,600.0,214.69,31.0,1.85
1000_500_250_34_2,269.93,564.74,370.77,600.0,12.41,1.86
1000_500_250_34_3,274.85,581.86,331.23,484.86,271.22,1.84
1000_500_250_34_4,280.93,179.32,600.0,416.16,34.16,1.88
1000_500_250_34_5,300.04,431.8,448.66,349.94,300.2,1.87
1000_500_250_34_6,293.01,461.13,297.22,600.0,46.0,1.86
1000_500_250_34_7,286.2,56.81,600.0,361.81,73.58,1.85
1000_500_250_34_8,269.87,511.61,546.47,132.34,440.5,1.81
1000_500_250_34_9,286.9,305.32,322.01,171.16,29.44,1.83
500_250_100_34_0,86.87,577.93,568.81,202.77,2.66,0.43
500_250_100_34_1,97.04,205.49,65.91,33.38,9.59,0.43
500_250_100_34_2,103.09,372.12,403.5,81.43,2.69,0.43
500_250_100_34_3,100.07,174.1,159.16,554.21,2.86,0.44
500_250_100_34_4,99.5,47.79,150.85,223.97,8.9,0.43
500_250_100_34_5,102.42,10.35,330.07,246.09,121.71,0.43
500_250_100_34_6,102.91,345.62,534.09,588.96,18.06,0.43
500_250_100_34_7,82.61,172.44,472.66,119.07,10.79,0.43
500_250_100_34_8,101.28,125.58,285.77,522.35,3.09,0.45
500_250_100_34_9,92.55,404.87,485.84,163.25,26.54,0.43
100_75_50_34_0,15.4,239.73,254.63,225.95,0.78,0.05
100_75_50_34_1,16.7,493.63,221.67,61.5,0.39,0.04
100_75_50_34_2,16.58,36.77,38.68,522.19,1.16,0.03
100_75_50_34_3,15.46,55.0,323.63,261.75,0.18,0.03
100_75_50_34_4,16.47,112.87,579.41,439.44,0.16,0.03
100_75_50_34_5,15.56,73.36,443.73,175.74,0.75,0.03
100_75_50_34_6,15.4,37.69,185.52,569.05,0.43,0.04
100_75_50_34_7,16.77,403.42,295.18,144.21,0.12,0.03
100_75_50_34_8,16.52,64.54,352.99,446.78,0.06,0.03
100_75_50_34_9,16.42,25.4,219.74,403.56,0.03,0.02
10000_500_200_35_0,600.0,336.21,600.0,600.0,600.0,35.11
10000_500_200_35_1,600.0,431.7,600.0,600.0,0.18,34.62
10000_500_200_35_2,600.0,23.46,600.0,600.0,600.0,34.81
10000_500_200_35_3,600.0,14.72,600.0,600.0,600.0,34.87
10000_500_200_35_4,600.0,25.11,600.0,600.0,600.0,34.84
10000_500_200_35_5,600.0,85.65,600.0,600.0,0.27,34.69
10000_500_200_35_6,600.0,491.12,600.0,600.0,600.0,34.85
10000_500_200_35_7,600.0,174.64,600.0,600.0,0.27,34.85
10000_500_200_35_8,600.0,90.02,600.0,600.0,600.0,34.92
10000_500_200_35_9,600.0,388.78,600.0,600.0,600.0,34.88
1000_500_250_35_0,345.13,3.19,429.24,596.41,87.08,3.05
1000_500_250_35_1,322.7,213.61,446.77,295.35,14.94,3.11
1000_500_250_35_2,344.72,233.94,600.0,501.81,72.88,3.1
1000_500_250_35_3,326.38,270.04,415.72,600.0,0.01,3.09
1000_500_250_35_4,303.35,31.27,449.85,155.85,15.97,3.14
1000_500_250_35_5,322.07,235.26,74.4,368.5,0.01,3.05
1000_500_250_35_6,318.87,31.67,286.93,600.0,16.85,3.05
1000_500_250_35_7,319.11,484.91,79.36,511.37,0.01,3.09
1000_500_250_35_8,330.5,298.7,363.93,239.58,17.39,3.16
1000_500_250_35_9,320.97,42.47,563.29,295.21,0.01,3.11
500_250_100_35_0,111.76,224.85,518.62,300.4,0.0,0.71
500_250_100_35_1,103.43,411.0,514.97,560.06,2.04,0.68
500_250_100_35_2,105.6,505.83,261.83,502.95,2.32,0.67
500_250_100_35_3,112.75,124.47,16.58,6.41,0.0,0.69
500_250_100_35_4,110.01,53.47,394.26,531.61,0.0,0.69
500_250_100_35_5,113.23,35.13,360.64,325.69,0.0,0.68
500_250_100_35_6,105.42,137.75,374.83,502.77,0.0,0.68
500_250_100_35_7,108.71,107.89,568.26,476.47,0.0,0.75
500_250_100_35_8,111.85,520.16,204.18,349.61,0.0,0.67
500_250_100_35_9,104.67,330.01,179.76,383.14,0.0,0.67
100_75_50_35_0,15.67,26.07,42.11,4.8,0.48,0.05
100_75_50_35_1,18.9,0.97,0.76,0.09,0.3,0.04
100_75_50_35_2,384.32,1.44,24.59,0.34,0.45,0.04
100_75_50_35_3,15.79,13.95,5.87,0.11,0.51,0.03
100_75_50_35_4,18.54,6.41,38.04,13.38,0.47,0.04
100_75_50_35_5,15.33,10.25,7.57,7.81,0.0,0.03
100_75_50_35_6,18.54,14.12,5.17,11.99,0.49,0.04
100_75_50_35_7,14.96,57.5,24.49,59.5,0.47,0.04
100_75_50_35_8,18.62,35.03,0.11,0.02,0.0,0.04
100_75_50_35_9,17.62,20.11,76.25,9.23,0.49,0.04
10000_500_200_36_0,600.0,365.34,600.0,600.0,600.0,20.54
10000_500_200_36_1,600.0,465.38,600.0,600.0,600.0,21.32
10000_500_200_36_2,600.0,147.6,600.0,600.0,600.0,20.94
10000_500_200_36_3,600.0,270.52,600.0,600.0,548.93,20.74
10000_500_200_36_4,600.0,107.82,600.0,600.0,599.68,22.33
10000_500_200_36_5,600.0,123.6,600.0,600.0,431.35,20.95
10000_500_200_36_6,600.0,477.42,600.0,600.0,600.0,21.14
10000_500_200_36_7,600.0,65.84,600.0,600.0,0.25,21.08
10000_500_200_36_8,600.0,297.0,600.0,600.0,600.0,21.37
10000_500_200_36_9,600.0,488.52,600.0,600.0,517.5,20.93
1000_500_250_36_0,270.5,151.63,522.0,570.53,236.31,1.93
1000_500_250_36_1,253.66,299.62,600.0,544.55,26.86,1.93
1000_500_250_36_2,257.71,337.95,200.27,578.95,107.34,1.83
1000_500_250_36_3,282.87,432.97,484.83,519.36,42.92,1.92
1000_500_250_36_4,274.25,137.48,600.0,576.14,10.59,2.0
1000_500_250_36_5,274.9,328.99,484.37,380.43,598.54,1.92
1000_500_250_36_6,283.47,69.74,600.0,600.0,326.47,1.9
1000_500_250_36_7,284.55,483.85,353.75,82.92,349.42,1.88
1000_500_250_36_8,258.54,88.81,600.0,537.55,203.57,1.87
1000_500_250_36_9,285.35,86.2,600.0,574.61,598.05,1.9
500_250_100_36_0,91.81,342.58,222.21,494.92,58.77,0.46
500_250_100_36_1,93.86,167.8,262.27,62.15,49.34,0.44
500_250_100_36_2,91.96,500.18,268.58,59.19,1.93,0.45
500_250_100_36_3,97.98,567.97,94.08,333.22,0.0,0.45
500_250_100_36_4,96.79,19.87,92.64,450.0,0.0,0.43
500_250_100_36_5,86.56,248.02,188.62,545.57,1.65,0.45
500_250_100_36_6,101.93,194.75,600.0,293.89,141.77,0.44
500_250_100_36_7,104.55,559.91,376.63,588.25,162.79,0.43
500_250_100_36_8,98.16,539.22,374.41,501.46,28.49,0.45
500_250_100_36_9,99.67,541.15,203.8,222.59,86.47,0.44
100_75_50_36_0,70.59,19.85,82.47,6.26,0.21,0.03
100_75_50_36_1,15.5,5.15,15.66,18.36,0.88,0.03
100_75_50_36_2,14.55,0.32,80.87,33.28,0.0,0.05
100_75_50_36_3,15.26,43.2,287.58,92.36,0.39,0.03
100_75_50_36_4,14.38,1.51,4.02,1.59,0.26,0.03
100_75_50_36_5,16.46,0.95,45.61,47.53,0.34,0.03
100_75_50_36_6,13.95,2.77,8.12,0.31,0.76,0.03
100_75_50_36_7,16.7,441.78,4.25,0.46,0.63,0.03
100_75_50_36_8,16.2,64.34,4.84,1.32,0.49,0.03
100_75_50_36_9,15.91,5.95,164.32,5.68,0.25,0.03
