instances,iteracao,tempo_iteracao
10000_500_200_1_0,527,405.66
10000_500_200_1_1,558,329.4
10000_500_200_1_2,650,459.16
10000_500_200_1_3,786,569.58
10000_500_200_1_4,403,289.34
10000_500_200_1_5,632,485.01
10000_500_200_1_6,465,333.06
10000_500_200_1_7,293,204.15
10000_500_200_1_8,237,173.65
10000_500_200_1_9,473,351.14
1000_500_250_1_0,733,55.9
1000_500_250_1_1,1281,85.06
1000_500_250_1_2,1230,75.07
1000_500_250_1_3,1659,123.2
1000_500_250_1_4,537,38.2
1000_500_250_1_5,262,19.93
1000_500_250_1_6,1138,84.5
1000_500_250_1_7,1294,83.16
1000_500_250_1_8,940,66.45
1000_500_250_1_9,252,18.25
500_250_100_1_0,1717,26.39
500_250_100_1_1,164,2.99
500_250_100_1_2,1651,29.0
500_250_100_1_3,1076,19.72
500_250_100_1_4,1242,25.14
500_250_100_1_5,183,2.94
500_250_100_1_6,1484,23.99
500_250_100_1_7,174,2.74
500_250_100_1_8,1861,31.13
500_250_100_1_9,559,9.65
100_75_50_1_0,1262,2.73
100_75_50_1_1,497,0.82
100_75_50_1_2,109,0.17
100_75_50_1_3,991,1.52
100_75_50_1_4,799,1.53
100_75_50_1_5,1326,1.81
100_75_50_1_6,1499,2.08
100_75_50_1_7,1358,1.42
100_75_50_1_8,1181,1.77
100_75_50_1_9,657,0.6
10000_500_200_5_0,490,373.79
10000_500_200_5_1,437,318.24
10000_500_200_5_2,263,196.42
10000_500_200_5_3,714,455.7
10000_500_200_5_4,212,152.68
10000_500_200_5_5,376,247.57
10000_500_200_5_6,368,250.35
10000_500_200_5_7,525,344.64
10000_500_200_5_8,254,147.82
10000_500_200_5_9,360,270.46
1000_500_250_5_0,385,16.68
1000_500_250_5_1,26,1.13
1000_500_250_5_2,1465,53.69
1000_500_250_5_3,1775,76.41
1000_500_250_5_4,830,37.45
1000_500_250_5_5,1164,49.3
1000_500_250_5_6,1669,70.75
1000_500_250_5_7,1916,75.12
1000_500_250_5_8,69,3.06
1000_500_250_5_9,1009,31.81
500_250_100_5_0,302,3.36
500_250_100_5_1,176,1.29
500_250_100_5_2,1329,14.82
500_250_100_5_3,429,4.39
500_250_100_5_4,1389,13.84
500_250_100_5_5,1631,17.58
500_250_100_5_6,686,7.64
500_250_100_5_7,1004,11.93
500_250_100_5_8,1015,8.7
500_250_100_5_9,1261,16.81
100_75_50_5_0,802,1.09
100_75_50_5_1,383,0.6
100_75_50_5_2,1299,1.67
100_75_50_5_3,396,0.54
100_75_50_5_4,1323,2.14
100_75_50_5_5,99,0.12
100_75_50_5_6,637,0.81
100_75_50_5_7,1089,1.72
100_75_50_5_8,1959,1.77
100_75_50_5_9,277,0.4
10000_500_200_9_0,393,290.93
10000_500_200_9_1,31,16.77
10000_500_200_9_2,399,295.94
10000_500_200_9_3,191,142.22
10000_500_200_9_4,313,237.7
10000_500_200_9_5,366,275.23
10000_500_200_9_6,498,382.47
10000_500_200_9_7,725,573.03
10000_500_200_9_8,641,479.93
10000_500_200_9_9,374,286.74
1000_500_250_9_0,640,28.41
1000_500_250_9_1,1077,43.18
1000_500_250_9_2,996,43.25
1000_500_250_9_3,23,1.01
1000_500_250_9_4,954,49.09
1000_500_250_9_5,257,11.64
1000_500_250_9_6,48,2.35
1000_500_250_9_7,104,5.68
1000_500_250_9_8,1753,55.97
1000_500_250_9_9,1431,62.19
500_250_100_9_0,1255,14.91
500_250_100_9_1,221,2.52
500_250_100_9_2,363,4.32
500_250_100_9_3,1095,11.86
500_250_100_9_4,1993,18.89
500_250_100_9_5,671,7.42
500_250_100_9_6,1010,12.47
500_250_100_9_7,602,7.1
500_250_100_9_8,1656,20.67
500_250_100_9_9,674,9.35
100_75_50_9_0,501,0.52
100_75_50_9_1,210,0.32
100_75_50_9_2,1095,1.12
100_75_50_9_3,1446,1.72
100_75_50_9_4,108,0.14
100_75_50_9_5,651,0.61
100_75_50_9_6,1614,1.71
100_75_50_9_7,1646,2.76
100_75_50_9_8,205,0.22
100_75_50_9_9,655,0.81
10000_500_200_13_0,527,371.78
10000_500_200_13_1,558,425.02
10000_500_200_13_2,650,485.3
10000_500_200_13_3,786,574.58
10000_500_200_13_4,403,302.06
10000_500_200_13_5,805,560.54
10000_500_200_13_6,465,348.69
10000_500_200_13_7,293,232.22
10000_500_200_13_8,237,184.0
10000_500_200_13_9,473,372.19
1000_500_250_13_0,733,63.41
1000_500_250_13_1,1281,88.6
1000_500_250_13_2,1230,93.62
1000_500_250_13_3,1659,131.87
1000_500_250_13_4,537,40.39
1000_500_250_13_5,262,19.62
1000_500_250_13_6,1138,79.95
1000_500_250_13_7,1294,83.56
1000_500_250_13_8,940,68.62
1000_500_250_13_9,252,18.79
500_250_100_13_0,1717,24.99
500_250_100_13_1,164,2.93
500_250_100_13_2,1651,28.53
500_250_100_13_3,1076,19.93
500_250_100_13_4,1242,22.2
500_250_100_13_5,183,2.88
500_250_100_13_6,1484,21.49
500_250_100_13_7,174,1.7
500_250_100_13_8,1861,28.21
500_250_100_13_9,559,9.47
100_75_50_13_0,1262,2.52
100_75_50_13_1,497,0.81
100_75_50_13_2,109,0.16
100_75_50_13_3,991,1.62
100_75_50_13_4,799,1.46
100_75_50_13_5,1326,1.14
100_75_50_13_6,1499,1.24
100_75_50_13_7,1358,1.87
100_75_50_13_8,1181,1.67
100_75_50_13_9,657,0.87
10000_500_200_17_0,490,312.13
10000_500_200_17_1,437,334.59
10000_500_200_17_2,263,189.7
10000_500_200_17_3,714,545.53
10000_500_200_17_4,212,125.92
10000_500_200_17_5,376,279.01
10000_500_200_17_6,368,251.81
10000_500_200_17_7,525,373.41
10000_500_200_17_8,254,155.76
10000_500_200_17_9,360,277.02
1000_500_250_17_0,385,17.81
1000_500_250_17_1,26,1.15
1000_500_250_17_2,1465,67.56
1000_500_250_17_3,1775,53.36
1000_500_250_17_4,830,23.19
1000_500_250_17_5,1164,30.32
1000_500_250_17_6,1669,75.23
1000_500_250_17_7,1916,87.46
1000_500_250_17_8,69,3.14
1000_500_250_17_9,1009,41.45
500_250_100_17_0,302,3.5
500_250_100_17_1,176,2.1
500_250_100_17_2,1329,15.4
500_250_100_17_3,429,4.96
500_250_100_17_4,1389,13.47
500_250_100_17_5,1631,17.64
500_250_100_17_6,686,7.68
500_250_100_17_7,1004,11.23
500_250_100_17_8,1015,10.28
500_250_100_17_9,1261,17.47
100_75_50_17_0,802,1.07
100_75_50_17_1,383,0.53
100_75_50_17_2,1299,1.66
100_75_50_17_3,396,0.53
100_75_50_17_4,1323,2.1
100_75_50_17_5,99,0.12
100_75_50_17_6,637,0.81
100_75_50_17_7,1089,1.62
100_75_50_17_8,1959,2.58
100_75_50_17_9,277,0.25
10000_500_200_21_0,393,274.98
10000_500_200_21_1,31,24.53
10000_500_200_21_2,813,597.69
10000_500_200_21_3,191,147.14
10000_500_200_21_4,313,228.87
10000_500_200_21_5,366,271.99
10000_500_200_21_6,498,373.9
10000_500_200_21_7,725,589.51
10000_500_200_21_8,641,479.35
10000_500_200_21_9,374,309.16
1000_500_250_21_0,640,29.48
1000_500_250_21_1,1077,38.78
1000_500_250_21_2,996,46.48
1000_500_250_21_3,23,1.0
1000_500_250_21_4,954,33.05
1000_500_250_21_5,257,11.77
1000_500_250_21_6,48,2.3
1000_500_250_21_7,104,4.46
1000_500_250_21_8,1753,73.69
1000_500_250_21_9,1431,64.77
500_250_100_21_0,1255,10.24
500_250_100_21_1,221,2.46
500_250_100_21_2,363,4.2
500_250_100_21_3,1095,7.76
500_250_100_21_4,1993,16.55
500_250_100_21_5,671,7.35
500_250_100_21_6,1010,12.37
500_250_100_21_7,602,6.94
500_250_100_21_8,1656,20.9
500_250_100_21_9,674,8.86
100_75_50_21_0,501,0.53
100_75_50_21_1,210,0.32
100_75_50_21_2,1095,1.11
100_75_50_21_3,1446,1.29
100_75_50_21_4,108,0.15
100_75_50_21_5,651,0.63
100_75_50_21_6,1614,1.67
100_75_50_21_7,1646,1.67
100_75_50_21_8,205,0.21
100_75_50_21_9,655,0.84
10000_500_200_25_0,527,353.09
10000_500_200_25_1,558,403.84
10000_500_200_25_2,650,500.84
10000_500_200_25_3,59,44.03
10000_500_200_25_4,403,290.19
10000_500_200_25_5,805,588.68
10000_500_200_25_6,465,365.29
10000_500_200_25_7,293,232.07
10000_500_200_25_8,237,184.19
10000_500_200_25_9,473,376.37
1000_500_250_25_0,733,62.26
1000_500_250_25_1,1281,87.22
1000_500_250_25_2,1230,73.57
1000_500_250_25_3,1659,130.38
1000_500_250_25_4,537,43.07
1000_500_250_25_5,262,11.21
1000_500_250_25_6,1138,64.57
1000_500_250_25_7,1294,88.57
1000_500_250_25_8,940,69.43
1000_500_250_25_9,252,20.25
500_250_100_25_0,1717,26.22
500_250_100_25_1,164,2.9
500_250_100_25_2,1651,30.83
500_250_100_25_3,1076,21.62
500_250_100_25_4,1242,24.37
500_250_100_25_5,183,2.97
500_250_100_25_6,1484,24.94
500_250_100_25_7,174,2.75
500_250_100_25_8,1861,31.26
500_250_100_25_9,559,7.76
100_75_50_25_0,1262,2.62
100_75_50_25_1,497,0.79
100_75_50_25_2,109,0.17
100_75_50_25_3,991,1.65
100_75_50_25_4,799,1.43
100_75_50_25_5,1326,1.8
100_75_50_25_6,1499,1.25
100_75_50_25_7,1358,2.21
100_75_50_25_8,1181,1.73
100_75_50_25_9,657,0.77
10000_500_200_29_0,490,383.47
10000_500_200_29_1,437,330.4
10000_500_200_29_2,263,197.93
10000_500_200_29_3,714,540.39
10000_500_200_29_4,212,163.27
10000_500_200_29_5,376,252.45
10000_500_200_29_6,368,240.74
10000_500_200_29_7,525,407.62
10000_500_200_29_8,254,186.51
10000_500_200_29_9,360,282.67
1000_500_250_29_0,385,16.16
1000_500_250_29_1,26,1.12
1000_500_250_29_2,1465,65.6
1000_500_250_29_3,1775,78.43
1000_500_250_29_4,830,40.14
1000_500_250_29_5,1164,47.94
1000_500_250_29_6,1669,71.82
1000_500_250_29_7,1916,65.71
1000_500_250_29_8,69,3.16
1000_500_250_29_9,1009,39.86
500_250_100_29_0,302,3.54
500_250_100_29_1,176,1.38
500_250_100_29_2,1329,11.92
500_250_100_29_3,429,4.89
500_250_100_29_4,1389,15.89
500_250_100_29_5,1631,18.08
500_250_100_29_6,686,8.08
500_250_100_29_7,1004,13.63
500_250_100_29_8,1015,12.23
500_250_100_29_9,1261,15.35
100_75_50_29_0,802,1.07
100_75_50_29_1,383,0.6
100_75_50_29_2,1299,1.74
100_75_50_29_3,396,0.58
100_75_50_29_4,1323,2.07
100_75_50_29_5,99,0.12
100_75_50_29_6,637,0.84
100_75_50_29_7,1089,1.65
100_75_50_29_8,1959,2.77
100_75_50_29_9,277,0.39
10000_500_200_33_0,393,281.81
10000_500_200_33_1,31,26.81
10000_500_200_33_2,399,316.27
10000_500_200_33_3,191,154.03
10000_500_200_33_4,313,255.78
10000_500_200_33_5,366,288.27
10000_500_200_33_6,498,325.66
10000_500_200_33_7,725,592.65
10000_500_200_33_8,641,516.42
10000_500_200_33_9,374,287.28
1000_500_250_33_0,640,31.45
1000_500_250_33_1,1077,32.47
1000_500_250_33_2,996,46.35
1000_500_250_33_3,23,1.01
1000_500_250_33_4,954,49.68
1000_500_250_33_5,257,11.75
1000_500_250_33_6,48,1.38
1000_500_250_33_7,104,4.98
1000_500_250_33_8,1753,73.86
1000_500_250_33_9,1431,64.0
500_250_100_33_0,1255,14.38
500_250_100_33_1,221,2.33
500_250_100_33_2,363,4.15
500_250_100_33_3,1095,11.83
500_250_100_33_4,1993,17.71
500_250_100_33_5,671,6.05
500_250_100_33_6,1010,12.22
500_250_100_33_7,602,5.85
500_250_100_33_8,1656,20.48
500_250_100_33_9,674,10.34
100_75_50_33_0,501,0.51
100_75_50_33_1,210,0.32
100_75_50_33_2,1095,1.09
100_75_50_33_3,1446,1.72
100_75_50_33_4,108,0.14
100_75_50_33_5,651,0.63
100_75_50_33_6,1614,1.01
100_75_50_33_7,1646,2.73
100_75_50_33_8,205,0.21
100_75_50_33_9,655,0.81
600_20000_DI_49,1593,241.08
Falkenauer_u120_10,997,1.02
N4W4B1R4,1546,4.43
N2C3W4_G,1602,1.4
Falkenauer_t120_06,15,0.04
csAA250_1,948,145.86
N1W2B2R0,507,0.3
csBB250_5,478,85.25
N4W1B2R3,316,28.5
N4W1B1R4,804,14.56
801_40000_NR_39,915,367.29
N4C3W1_Q,1732,17.65
801_40000_NR_2,700,253.93
N3W3B3R5,27,0.08
N4W2B1R6,1806,9.45
N3W1B1R6,1047,7.22
csBB125_19,137,4.09
201_2500_NR_3,1440,13.21
N3C3W1_J,149,0.37
Hard28_BPP144,442,6.98
csBA250_19,521,54.52
csAA500_5,413,271.84
csBB250_6,1752,239.18
402_10000_NR_38,1813,119.49
Schwerin2_BPP82,51,0.03
600_20000_NR_31,114,23.88
N1W2B2R6,434,0.26
N3W1B2R4,121,2.96
600_20000_DI_5,746,146.02
1002_80000_NR_2,565,470.47
N4C2W4_B,1591,8.98
N4C3W4_A,807,2.28
N1C2W4_C,633,0.13
N1W2B3R3,317,0.23
N2W4B2R7,57,0.05
801_40000_NR_1,522,237.72
402_10000_DI_42,1761,72.25
N2W4B2R0,45,0.05
Hard28_BPP766,1683,6.99
HARD2,0,0.0
csAB250_12,498,101.68
402_10000_NR_23,413,26.49
N2W2B3R4,349,0.52
201_2500_DI_1,1350,12.2
N2W2B3R3,868,1.18
Schwerin2_BPP78,2,0.0
801_40000_NR_38,293,140.6
Schwerin2_BPP92,495,0.32
402_10000_NR_34,1745,111.63
csAA125_10,614,17.46
N2C2W2_I,1582,1.91
csAA125_3,1239,36.93
N1W4B2R4,29,0.01
1002_80000_DI_29,550,537.76
N3C3W4_Q,387,0.58
N1C3W2_E,1103,0.47
1002_80000_DI_4,17,13.24
N3C3W4_S,26,0.03
csBA125_5,1790,54.03
Falkenauer_u250_05,1570,3.92
N4W4B3R2,22,0.21
402_10000_DI_34,140,8.67
N2C2W1_E,951,1.22
402_10000_DI_7,886,48.23
csAB500_3,284,362.48
N1W4B3R6,8,0.0
Waescher_TEST0065,747,0.26
N3C3W4_I,1524,2.68
N4C3W4_G,199,1.04
N1C3W2_N,1585,0.69
HARD1,0,0.0
201_2500_DI_29,1595,15.68
N2W4B3R7,36,0.02
N3C2W4_C,17,0.03
csBA500_18,312,127.77
402_10000_NR_24,152,7.86
N3C2W4_S,1311,2.57
Falkenauer_t249_03,11,0.12
N2W1B2R8,547,3.23
600_20000_DI_6,312,60.74
600_20000_NR_48,1708,301.37
N2C3W2_G,145,0.18
N2W1B2R3,237,1.63
csBA250_12,1901,222.9
N4C3W1_S,731,6.31
1002_80000_NR_17,522,471.6
N1C1W4_H,217,0.06
N2W3B2R3,42,0.05
N1C2W2_H,10,0.0
N2W2B2R0,381,0.58
N4C2W4_I,1854,9.63
N1C3W2_H,254,0.1
csBB125_12,982,39.26
N4W1B2R2,470,35.0
801_40000_DI_22,1185,545.01
N4W3B1R8,379,1.57
600_20000_NR_0,1296,261.03
csAB250_9,1025,210.92
201_2500_NR_37,714,7.45
csBA125_7,1379,30.12
Schwerin2_BPP58,130,0.08
Schwerin2_BPP75,555,0.24
201_2500_NR_20,774,6.95
801_40000_DI_10,358,175.8
N2W1B2R4,584,3.51
201_2500_DI_23,1762,15.5
N1W3B2R1,3,0.0
N4C1W1_M,297,3.45
1002_80000_NR_15,440,406.56
Falkenauer_t249_05,1096,7.65
Waescher_TEST0084,1818,1.15
Falkenauer_t249_12,1877,16.31
N3W2B2R3,944,5.21
HARD7,0,0.0
201_2500_NR_29,425,2.4
csAA500_7,441,426.66
N1C3W4_L,1202,0.22
N1C3W4_N,41,0.02
801_40000_NR_12,114,56.33
600_20000_DI_0,1435,286.2
Schwerin1_BPP26,572,0.31
Schwerin2_BPP87,42,0.02
N1C3W1_K,90,0.03
csBA125_18,43,0.8
Hard28_BPP119,648,9.06
Schwerin2_BPP7,221,0.21
N4C2W4_N,649,3.85
N3C3W2_E,145,0.15
csAA250_3,1010,111.15
402_10000_DI_37,818,51.74
Falkenauer_u500_15,685,2.07
N2W2B1R9,582,0.63
1002_80000_NR_42,268,278.55
N2W3B1R9,624,0.41
N1C2W1_C,675,0.33
Hard28_BPP716,837,10.11
csAA250_9,469,69.3
N2C1W1_N,691,1.08
N1W1B1R4,1597,1.1
Schwerin1_BPP36,279,0.18
csBB125_2,1200,36.22
N3W3B1R2,1852,2.89
N1W4B1R9,278,0.05
N4C1W2_M,738,7.16
N1C1W1_N,19,0.01
Schwerin1_BPP16,655,0.26
N4W3B3R5,463,6.4
N4W2B3R2,364,13.47
N1C1W2_E,331,0.07
N4C2W4_J,475,2.95
N3C3W2_C,90,0.15
Schwerin2_BPP36,1989,1.03
N3W3B3R2,6,0.02
N3C2W2_H,1424,3.23
csAA250_20,991,179.47
N3C1W2_S,905,2.47
N1C2W1_J,1744,2.0
1002_80000_DI_20,265,255.84
Falkenauer_t120_10,39,0.1
N2C1W4_F,381,0.26
N2W2B1R5,1486,1.47
801_40000_DI_38,1370,598.29
Schwerin2_BPP57,930,0.6
Schwerin2_BPP71,52,0.03
N4C2W2_G,1233,9.1
Schwerin2_BPP54,1681,0.87
402_10000_NR_29,201,13.5
N4C3W2_B,1108,6.3
N4W4B1R9,158,0.27
N4C3W1_T,984,5.73
Schwerin1_BPP53,738,0.29
N3C1W1_A,14,0.07
csAA500_9,178,213.78
1002_80000_DI_28,198,168.59
N1C3W1_R,101,0.04
N1C1W2_Q,1523,0.51
N1C3W1_E,2,0.0
N1C1W4_Q,220,0.06
N2W2B2R1,127,0.3
600_20000_DI_12,552,103.12
N4W3B2R8,1555,15.29
N3W4B3R7,14,0.02
N1C1W1_S,237,0.12
csAB500_2,301,256.31
402_10000_NR_48,551,21.64
201_2500_DI_44,1567,14.56
Waescher_TEST0095,1116,0.85
csBA125_6,1643,56.78
201_2500_NR_24,1280,11.43
600_20000_DI_3,1563,299.07
201_2500_DI_33,1406,13.91
600_20000_DI_34,571,106.56
Hard28_BPP485,1843,22.5
csAB125_13,1956,64.3
N4W2B2R9,1690,30.86
600_20000_DI_47,7,1.66
Schwerin2_BPP83,1558,1.11
1002_80000_DI_34,68,64.14
N3C1W1_G,999,5.33
Falkenauer_t501_07,278,8.87
N1C1W4_R,94,0.06
N3W4B2R0,24,0.03
N2C3W4_S,106,0.13
N2C2W4_Q,1944,3.35
801_40000_NR_32,1065,493.83
402_10000_NR_49,1023,65.03
N4W2B3R9,1550,42.45
N1C1W1_R,1475,0.44
N4C2W4_A,563,2.87
402_10000_DI_14,1419,93.57
N4W2B1R4,1829,7.49
Falkenauer_u500_10,1630,10.05
N3W4B2R9,7,0.02
Falkenauer_t60_18,1,0.0
N3C1W4_D,1249,2.18
402_10000_NR_15,669,34.88
N3C2W1_I,323,1.35
csAA125_4,1327,53.49
N4W3B1R0,1888,6.94
csAB125_1,1046,55.98
N3C3W4_D,728,1.02
1002_80000_NR_41,1,1.13
Falkenauer_u120_12,1565,2.0
csAA500_11,433,419.74
N1C1W1_E,667,0.36
csAB125_3,1985,85.11
Falkenauer_t249_14,0,0.0
Waescher_TEST0055A,810,0.53
600_20000_DI_35,890,171.21
N4W4B2R5,1498,12.21
N4C2W4_D,1532,9.5
N4C1W2_E,128,0.96
N1C3W2_K,1913,0.56
N2C2W1_D,816,0.68
402_10000_DI_46,1656,96.27
N2C1W4_K,670,0.77
Hard28_BPP785,1564,9.03
N1C2W1_O,592,0.15
N1W3B3R2,4,0.0
N4C3W1_C,235,1.84
1002_80000_NR_5,332,349.31
csAA250_17,1793,314.5
Schwerin2_BPP64,626,0.32
N4C3W2_G,1856,10.9
N2W4B3R4,17,0.01
1002_80000_DI_31,440,436.51
csAB125_11,999,38.01
Schwerin1_BPP12,350,0.13
N2C1W2_E,1982,3.79
1002_80000_DI_38,587,502.52
Schwerin1_BPP8,364,0.18
N3C3W4_R,863,0.82
N4C2W2_O,1027,9.79
N4W4B1R6,1093,2.31
Hard28_BPP40,373,2.61
N3W2B1R4,1393,1.5
N3W3B1R6,1811,2.3
1002_80000_NR_13,525,463.61
Falkenauer_u1000_09,816,14.07
Schwerin2_BPP93,52,0.02
Hard28_BPP181,1434,11.32
Schwerin1_BPP17,1075,0.32
Falkenauer_t501_14,40,1.34
N4C2W4_S,526,2.9
N1C1W2_G,325,0.17
1002_80000_DI_9,649,496.59
Falkenauer_u1000_03,1357,24.94
Falkenauer_u250_17,1432,3.82
N3C3W1_C,737,1.93
1002_80000_NR_25,249,250.0
N4C1W2_H,1220,10.63
N2C3W2_Q,297,0.33
600_20000_DI_25,898,184.36
csBA250_9,1155,122.86
N4W4B1R1,966,2.01
N2W4B1R5,256,0.15
N1C2W1_T,1485,0.6
N2C1W4_S,799,1.08
N1C1W2_H,263,0.1
Schwerin2_BPP86,1555,0.95
N3C1W4_K,483,0.51
Schwerin1_BPP71,237,0.09
N4C2W1_E,156,2.43
801_40000_NR_19,1171,496.19
N4W2B1R3,220,1.33
N2C1W4_M,1417,1.19
Schwerin2_BPP21,2,0.0
N3W4B1R9,392,0.4
N4W2B2R0,17,0.33
N2C1W2_I,679,1.09
Schwerin2_BPP70,1844,0.69
801_40000_NR_33,305,160.12
600_20000_DI_22,335,74.87
N3C3W2_P,1120,1.9
Waescher_TEST0054,901,0.48
801_40000_DI_48,1180,551.84
N2C3W4_A,172,0.11
801_40000_NR_25,941,488.46
Falkenauer_u500_07,1835,6.61
N1C3W4_R,562,0.18
600_20000_DI_40,1409,271.64
csAB500_7,222,225.73
N3W3B1R8,1957,2.98
N1C2W2_R,1788,0.82
csBB125_4,194,3.01
1002_80000_DI_3,591,337.79
1002_80000_NR_48,269,262.61
402_10000_NR_6,1509,78.0
N3C1W1_L,203,0.73
801_40000_NR_7,222,112.54
N3C1W1_H,109,0.47
Schwerin2_BPP32,231,0.14
N4C3W4_D,1888,7.3
N2C3W2_I,605,0.74
201_2500_NR_23,888,9.04
Falkenauer_u1000_16,692,9.67
N2W3B3R2,19,0.02
N3C2W2_M,1361,4.15
N2C1W2_L,940,1.17
HARD9,0,0.0
1002_80000_NR_9,511,470.55
N2C1W4_J,1259,1.51
Schwerin1_BPP39,15,0.01
Schwerin1_BPP80,583,0.21
N2C2W4_M,1276,1.57
402_10000_NR_13,622,33.83
N3W1B2R2,1698,35.21
N3C1W2_A,1989,7.06
Falkenauer_u1000_11,341,3.19
csBB250_13,590,68.27
Schwerin1_BPP59,896,0.35
csAA250_16,929,144.06
402_10000_DI_47,1205,75.44
csBA125_9,1279,39.41
N1C2W4_F,1873,0.84
N3W3B2R7,13,0.05
N4W2B2R6,754,14.55
N2W1B1R3,1927,4.68
N2C1W4_P,1574,0.64
Hard28_BPP640,1990,22.49
801_40000_NR_15,485,236.73
Falkenauer_t60_17,0,0.0
801_40000_NR_6,1178,370.54
N4W1B3R0,1986,112.99
N3C1W4_J,1310,2.21
csBA500_6,804,345.67
Schwerin1_BPP84,82,0.04
N4W1B2R1,1756,178.92
N2C3W2_K,594,0.61
1002_80000_DI_39,41,43.16
csAB500_15,398,453.19
N1C2W2_Q,844,0.45
801_40000_DI_14,120,61.44
1002_80000_NR_28,551,503.83
N4C1W2_C,20,0.1
Schwerin2_BPP60,657,0.44
Schwerin1_BPP24,1411,0.65
Falkenauer_t249_17,1576,17.21
N1C2W1_P,351,0.11
N3C2W2_F,71,0.21
Falkenauer_t120_16,0,0.0
N3C3W4_T,35,0.05
Schwerin1_BPP100,151,0.07
Schwerin2_BPP96,1657,0.57
801_40000_NR_43,538,250.85
Schwerin2_BPP73,1736,0.89
N2C2W1_S,88,0.14
N2C3W2_P,524,0.81
N3C3W2_T,520,1.12
402_10000_DI_26,863,50.1
201_2500_NR_17,1444,14.12
N1C2W4_R,1168,0.44
402_10000_NR_11,289,18.5
csAA250_13,1153,165.15
N1C2W4_O,271,0.1
801_40000_DI_44,489,236.27
N2C3W2_B,1259,1.32
N2W1B2R9,1276,5.97
csBB125_18,1182,53.07
Falkenauer_u1000_14,94,1.55
600_20000_NR_32,1677,328.74
N4C3W1_J,1483,11.19
N1C3W4_K,257,0.1
N1C1W2_I,363,0.17
600_20000_DI_48,1929,361.64
N1W1B2R9,334,0.15
csBB125_17,108,4.42
N1C3W4_B,143,0.05
N1C3W4_P,266,0.06
N4W3B3R8,76,1.03
N3C2W1_N,744,2.64
N4W3B2R6,808,9.56
N2C1W1_O,870,1.19
N2C3W1_N,0,0.0
N4C1W2_P,1477,16.07
N4C2W4_E,1386,5.03
Falkenauer_t60_03,0,0.0
N4W4B3R7,1,0.01
Schwerin1_BPP49,1098,0.45
Schwerin1_BPP68,957,0.35
N2C2W2_E,108,0.17
N4C3W1_H,1490,12.16
N1C1W2_B,111,0.04
N3C2W2_D,1848,6.0
1002_80000_DI_12,407,379.61
N2C1W4_D,301,0.48
402_10000_DI_20,1942,116.19
801_40000_NR_29,1330,359.35
600_20000_DI_2,740,155.51
Falkenauer_t60_07,1,0.0
csBA125_13,1076,14.52
N2C2W1_C,1633,2.09
N4C1W4_H,387,1.78
N3C2W2_I,259,0.82
Schwerin2_BPP98,1072,0.48
N2W3B2R7,125,0.18
N4W4B3R3,15,0.13
N1C1W1_O,939,0.62
csBB250_18,510,65.74
201_2500_NR_6,367,3.01
csBA250_14,1638,107.55
Schwerin1_BPP73,466,0.14
N1C1W4_C,833,0.41
Falkenauer_u120_17,905,1.03
N1W1B1R8,1593,1.8
Schwerin2_BPP4,1546,0.73
csAB125_16,62,2.99
csBB125_8,84,2.93
1002_80000_DI_11,588,566.56
1002_80000_DI_42,124,110.83
csAB500_10,258,351.02
N3C1W2_F,733,2.61
N3C2W1_S,1647,5.5
Schwerin1_BPP66,1609,0.71
Falkenauer_u1000_04,1608,23.54
N1W1B3R0,897,0.62
N2C2W2_B,161,0.25
N1C3W2_J,57,0.02
N2C3W4_B,562,0.66
N3C2W1_O,1972,6.83
600_20000_NR_27,1697,291.03
1002_80000_DI_23,54,57.07
N4C1W2_B,904,9.31
N2C1W2_D,1856,6.8
402_10000_DI_23,413,24.96
N3C1W4_Q,17,0.03
N4W4B2R9,1728,13.16
1002_80000_DI_13,538,493.62
600_20000_NR_28,1202,237.86
201_2500_DI_10,311,3.0
Falkenauer_u250_16,1538,4.05
Schwerin2_BPP89,577,0.3
csBA250_10,1045,90.88
N3W3B1R4,1469,2.23
N2C1W2_T,961,1.71
1002_80000_NR_23,359,307.67
402_10000_NR_4,1880,122.94
N4C2W1_F,21,0.17
801_40000_DI_16,716,329.14
N1C1W2_D,639,0.21
N4W2B3R3,1862,66.43
csBB250_4,23,4.07
Schwerin2_BPP43,1679,0.59
N1W1B3R9,664,0.5
402_10000_DI_10,1592,109.77
csBA125_2,830,26.49
Falkenauer_t60_13,3,0.0
N4W4B1R5,503,0.96
N2C3W1_E,49,0.05
1002_80000_NR_43,458,384.57
1002_80000_NR_19,444,436.58
N2W4B1R2,1401,0.61
N4C3W1_K,535,4.46
csBA500_9,414,157.02
N3W1B3R5,490,4.1
Waescher_TEST0022,232,0.07
N3C3W1_T,1477,4.06
Hard28_BPP195,375,3.29
Schwerin1_BPP94,341,0.15
1002_80000_DI_7,177,169.23
201_2500_NR_9,1172,11.6
801_40000_DI_43,959,483.22
N3C1W4_P,423,0.53
N1W3B3R5,69,0.02
N3C2W4_Q,1753,4.13
N1C1W1_G,887,0.32
N1W3B1R4,3,0.0
N4W1B1R1,926,15.76
csAB500_6,101,88.04
402_10000_DI_24,1892,114.6
csBA250_7,1195,91.96
N4C3W4_L,620,3.13
Falkenauer_u120_09,228,0.2
402_10000_DI_19,1979,124.12
N3W4B3R5,13,0.03
csAA500_6,176,116.07
Falkenauer_u1000_02,848,16.0
N3W2B3R0,1171,7.24
N4W3B1R3,1649,6.62
Waescher_TEST0055B,233,0.38
N4W1B3R6,1550,83.02
801_40000_DI_31,46,23.77
csBA500_15,660,380.8
N4C2W4_T,1276,5.16
801_40000_NR_45,1224,595.28
Schwerin2_BPP22,49,0.03
Falkenauer_t120_01,24,0.06
Falkenauer_u1000_10,599,10.71
N3W2B1R3,475,0.93
csBA250_17,553,47.56
N2W2B1R7,1673,1.8
1002_80000_DI_36,263,284.6
N4C1W4_A,1608,10.17
N4W2B1R0,298,1.99
N3W1B3R3,97,0.98
csBB500_4,463,359.04
N4C3W4_E,440,1.86
N2C2W1_Q,1726,3.3
N4W4B1R2,1166,1.98
N4C2W4_H,184,0.7
Schwerin1_BPP32,194,0.07
Schwerin2_BPP8,374,0.16
N2W4B1R1,545,0.21
csAA500_20,396,392.96
N3C3W1_G,58,0.13
N1W1B2R2,908,1.29
N1W3B2R7,1,0.0
N2C2W2_N,1895,1.76
N4C1W1_D,1814,16.83
csAA125_9,320,9.67
201_2500_NR_13,1046,10.56
201_2500_DI_28,1932,17.18
1002_80000_NR_35,306,267.94
Falkenauer_u250_11,1427,3.43
N3C3W4_M,382,0.6
N2C2W2_A,1428,1.86
402_10000_NR_44,491,33.04
N3W4B3R0,8,0.02
csBA125_1,942,22.59
Schwerin2_BPP12,194,0.13
N1C3W2_D,1147,0.53
N1W1B2R4,942,1.09
600_20000_NR_41,945,191.27
N4C2W4_L,475,2.95
N2C1W1_T,1055,2.04
402_10000_DI_33,1749,122.33
csBA125_19,890,22.14
600_20000_DI_28,1313,256.47
Falkenauer_t501_16,15,0.52
N2C3W4_K,219,0.21
Schwerin1_BPP10,1142,0.43
801_40000_NR_18,263,130.86
N2C2W1_L,864,0.93
N1C1W1_F,462,0.22
N3W3B3R9,25,0.11
Schwerin2_BPP46,1591,1.0
201_2500_DI_39,1357,12.29
csBB500_11,511,573.55
N2W1B3R6,594,1.2
N2W1B3R8,1118,2.51
N2W1B3R9,1039,1.76
N1C3W1_G,44,0.01
N3C2W4_T,1218,2.49
1002_80000_DI_14,146,134.01
N4C2W2_C,790,5.57
N3C2W4_H,1204,2.83
N1W4B3R3,5,0.0
N3W3B1R5,258,0.4
csAA125_1,1905,45.47
Schwerin1_BPP5,9,0.0
N4C2W2_E,392,3.27
N2C3W4_C,1070,1.03
N2W3B1R3,308,0.19
N4C1W4_L,1539,5.74
csBB250_11,840,159.71
N4W4B2R0,1026,6.03
Schwerin2_BPP74,311,0.14
csAB125_18,1162,46.37
N2W4B2R3,14,0.01
N2W3B2R4,33,0.04
N1C1W2_O,146,0.05
N1C2W2_A,329,0.1
Schwerin1_BPP99,236,0.11
Schwerin1_BPP27,99,0.07
N1C3W4_H,174,0.11
N4W4B2R2,198,1.34
801_40000_DI_15,1050,460.33
N3W2B3R6,989,6.19
Schwerin1_BPP75,804,0.37
N1W4B1R7,414,0.06
N3W4B1R1,64,0.06
Falkenauer_u250_01,507,1.18
N2W3B2R9,202,0.31
N3C2W2_A,33,0.1
N4W2B1R2,885,3.32
N2C1W1_P,370,0.72
N4C3W4_T,703,2.19
Falkenauer_u120_00,688,0.93
N4W1B2R8,111,9.58
Schwerin2_BPP24,546,0.2
N2C1W2_N,1332,2.27
N4W1B3R7,1696,86.39
N2C3W2_R,730,0.61
N1W1B3R8,699,0.29
N2W1B3R3,436,0.9
N2C3W2_T,1273,1.76
N4C2W4_K,1386,8.82
N4C2W1_M,1680,24.56
1002_80000_NR_38,457,430.82
N3C1W1_R,1403,6.24
N2W4B1R3,1002,0.44
N4C3W4_O,1002,5.11
N4C1W2_O,778,6.2
Falkenauer_u120_03,936,1.05
Waescher_TEST0068,1810,0.66
N1C3W4_T,278,0.07
N2C1W1_B,1190,1.49
801_40000_DI_46,1017,529.63
N3C1W4_R,1905,3.18
N4C1W2_I,646,4.84
N2W3B3R3,43,0.03
N3C3W4_B,710,1.22
N1C1W2_S,74,0.04
Falkenauer_u120_01,307,0.38
201_2500_NR_47,1447,8.62
Falkenauer_u500_00,1265,6.01
N3W1B3R9,1122,12.37
Hard28_BPP13,1537,14.5
201_2500_NR_16,90,0.82
1002_80000_DI_37,192,200.45
N1C1W1_A,312,0.15
201_2500_DI_40,40,0.36
201_2500_NR_18,740,5.79
N4C1W1_I,925,7.75
Schwerin2_BPP20,983,0.63
HARD0,1515,31.18
1002_80000_NR_47,418,414.12
801_40000_NR_3,153,77.76
csBA250_20,888,143.83
N2C1W1_Q,1981,2.51
600_20000_DI_27,445,76.24
201_2500_NR_14,1703,15.63
201_2500_NR_19,640,6.43
N2C2W1_T,1730,1.96
Schwerin2_BPP16,99,0.05
201_2500_DI_6,285,2.95
N3C2W2_S,58,0.14
N4W2B2R2,1572,23.85
201_2500_DI_25,528,3.87
402_10000_DI_48,551,20.46
Schwerin2_BPP52,1791,0.88
N2W1B3R0,90,0.23
N3C3W1_R,1582,3.57
N3C3W1_H,740,1.98
N3W1B1R5,1882,14.32
N3C3W4_N,245,0.39
N2W2B1R0,1818,1.5
201_2500_DI_41,1168,10.58
N3C3W1_S,358,0.8
N4W3B3R1,155,2.02
csBB250_12,702,131.08
402_10000_NR_16,1482,95.2
Schwerin2_BPP30,459,0.25
600_20000_DI_21,1306,249.8
csBB250_17,980,165.42
csBB250_20,1270,226.48
N3W2B2R5,147,0.73
Schwerin2_BPP69,205,0.11
N3W2B2R0,1114,4.11
Schwerin1_BPP58,567,0.19
HARD4,0,0.0
N3C3W2_S,1586,3.08
Schwerin2_BPP63,207,0.11
N3W4B2R7,215,0.41
Falkenauer_u250_15,312,0.82
csAB250_10,752,157.54
N1C2W4_E,1590,0.57
csAA125_19,1074,51.93
Schwerin1_BPP61,5,0.0
N4C3W4_F,1810,7.42
N4C2W1_N,1109,15.13
402_10000_NR_14,1998,134.43
N3C2W1_A,588,2.35
N1W4B1R6,2,0.0
N2W4B3R1,24,0.02
N1W3B2R0,840,0.39
N2C3W2_O,72,0.09
Schwerin1_BPP28,134,0.07
N4C1W1_O,1318,17.36
N1W1B1R1,438,0.3
N4C3W1_B,87,0.47
N3C2W2_L,1355,3.52
600_20000_NR_21,1548,169.67
801_40000_DI_49,892,392.12
csBB250_8,1378,272.59
1002_80000_DI_21,590,599.99
N2C2W4_C,1788,3.5
N4W4B3R6,3,0.03
N3C3W2_L,1238,2.4
N3C3W4_J,1500,2.21
N1W4B2R7,20,0.0
N3C1W2_O,919,2.79
csBA500_14,416,174.41
N3C1W1_Q,113,0.45
N2W3B1R0,200,0.13
Falkenauer_u120_19,31,0.04
N1C1W4_F,403,0.13
N3W3B1R1,799,0.98
Falkenauer_t249_02,1489,15.05
N2C2W4_B,139,0.15
N4W3B2R9,313,3.32
N1W3B1R7,58,0.01
N2W4B1R7,283,0.16
N1C1W2_N,571,0.36
N3C1W2_K,582,1.48
Falkenauer_u500_05,1770,10.15
N2C1W2_G,43,0.06
N4C1W4_G,1908,8.76
Schwerin2_BPP6,3,0.0
201_2500_NR_31,423,2.56
1002_80000_DI_15,439,381.31
402_10000_NR_36,1092,64.64
N2C3W2_C,448,0.38
N3W4B3R2,26,0.06
N1C3W1_F,217,0.11
N2W4B2R2,10,0.01
600_20000_NR_35,764,146.47
N3W1B1R9,1411,7.39
Schwerin1_BPP92,948,0.32
N2W1B1R6,78,0.17
N3C3W2_M,354,0.62
csBB500_18,13,17.76
csBA250_8,1088,73.41
N4C3W1_D,652,4.36
201_2500_NR_39,933,8.46
201_2500_DI_42,1245,12.42
201_2500_NR_5,1156,8.06
N1W1B3R1,722,0.61
N3W3B2R2,127,0.54
N3C1W1_E,287,1.2
N4W4B2R6,1802,14.49
N1W1B1R7,1955,2.24
N4C1W1_B,1377,18.37
Falkenauer_u500_14,1338,7.06
201_2500_NR_27,1934,17.41
Schwerin2_BPP51,1187,0.51
N3W3B2R9,106,0.44
N3C3W4_K,1641,3.0
201_2500_NR_41,260,2.5
N3W1B3R4,1741,23.05
N4W1B2R4,1007,97.78
201_2500_NR_33,1591,15.86
csBA500_11,706,229.39
csBB125_6,950,28.57
N2C1W4_G,1389,0.76
N3W3B3R0,93,0.37
600_20000_DI_42,946,139.7
N4W1B3R2,894,51.48
N2W1B2R7,1587,5.19
Schwerin2_BPP97,61,0.05
csBB500_16,367,476.21
Schwerin1_BPP35,55,0.02
N4W4B2R4,454,3.67
N1C1W1_Q,120,0.06
801_40000_DI_9,681,348.52
N1W2B2R5,154,0.09
Schwerin1_BPP30,156,0.08
N3W4B2R2,5,0.01
Schwerin2_BPP11,720,0.25
Schwerin1_BPP11,230,0.1
N2W1B1R7,352,0.65
HARD3,310,4.44
N4W1B3R3,54,1.73
N2C1W2_P,335,0.62
801_40000_NR_28,194,99.02
N1W2B1R5,234,0.05
801_40000_NR_0,406,199.72
N4C3W2_P,1151,7.53
N1C2W4_Q,1075,0.3
801_40000_NR_11,639,220.04
801_40000_DI_11,408,196.83
Falkenauer_t249_15,257,1.56
1002_80000_DI_1,583,562.8
N1C2W2_D,1977,0.74
Hard28_BPP742,1721,14.65
N4C1W4_Q,575,2.56
N2C3W2_H,1593,1.41
N2C1W1_H,726,1.18
csAA250_2,1456,229.11
N2W4B2R6,19,0.02
801_40000_NR_42,681,185.05
N3W4B1R6,425,0.37
402_10000_NR_37,1420,89.51
Falkenauer_u500_11,608,3.29
N2W2B2R4,190,0.4
N4C2W1_A,919,10.58
N1W4B3R5,15,0.01
N4W4B3R0,302,2.95
N2W3B1R6,942,0.44
csAB250_6,1971,233.84
1002_80000_NR_40,132,129.77
N4C1W4_B,188,0.72
801_40000_DI_34,81,35.73
N1C3W4_J,16,0.01
N2C3W1_I,219,0.21
N4W4B2R8,1401,10.29
Falkenauer_u250_02,1869,4.67
N2W1B2R1,225,0.61
N1C1W2_J,1058,0.49
Falkenauer_u1000_12,264,4.19
600_20000_NR_44,1422,281.12
1002_80000_DI_0,135,138.68
csBA250_6,1740,192.39
1002_80000_DI_41,482,490.75
Schwerin2_BPP29,35,0.02
N2C1W2_S,6,0.01
Hard28_BPP419,1073,15.42
Schwerin2_BPP37,261,0.2
N2C1W2_A,847,1.66
csBA500_1,733,349.05
N2C3W4_P,690,0.64
402_10000_NR_9,1406,79.14
Falkenauer_t249_18,53,0.51
Falkenauer_t501_03,8,0.18
Falkenauer_u250_12,598,1.44
Schwerin2_BPP88,1131,0.71
N4W4B1R3,39,0.08
402_10000_NR_0,968,61.11
N4C1W1_A,1035,14.17
N2C3W4_D,1253,1.51
N3C2W2_N,1020,2.52
N4W2B3R1,1703,61.69
N2W3B2R0,330,0.36
N1C3W4_O,0,0.0
801_40000_DI_19,768,338.98
N2C3W4_I,617,0.55
N1W4B3R0,2,0.0
N3C1W1_O,1043,2.66
402_10000_DI_1,1952,123.69
N3C1W4_L,1936,2.76
N2W4B3R3,68,0.07
N1W4B1R4,57,0.0
csBB125_20,1630,62.7
Waescher_TEST0075,0,0.0
Falkenauer_u500_12,632,3.28
csAA250_6,655,88.86
csAB250_8,1501,392.87
N4W3B1R1,454,1.97
600_20000_DI_9,968,209.55
Schwerin2_BPP48,256,0.12
N4C3W2_A,41,0.27
N4C2W4_G,563,3.28
Falkenauer_u120_18,1018,1.11
1002_80000_DI_22,106,106.08
402_10000_NR_45,1156,75.95
Schwerin2_BPP67,435,0.22
Hard28_BPP900,1495,23.68
N3W1B1R3,1106,7.47
N4W1B1R2,745,13.79
csBA500_17,334,148.16
Falkenauer_t120_08,4,0.01
N4W3B2R7,941,9.0
N3C1W4_H,909,1.5
402_10000_DI_38,1737,107.33
N2C2W1_F,1311,2.3
N1C1W1_L,1374,0.79
201_2500_NR_30,1843,10.83
N4C1W4_T,726,2.84
csAB500_12,559,394.25
Schwerin1_BPP42,14,0.01
N2W2B3R6,87,0.12
N4W1B3R4,44,2.78
600_20000_NR_36,663,134.23
csBA125_8,543,15.81
Falkenauer_t120_15,3,0.01
N3W4B3R6,21,0.07
Schwerin2_BPP23,1190,0.81
201_2500_DI_47,700,4.18
N3W1B1R8,1604,12.39
N2C1W2_K,1071,2.24
N3C1W4_C,372,0.81
N2C2W1_G,104,0.21
N4C2W1_R,364,3.84
N3W2B2R7,85,0.51
N4C3W4_H,1347,4.98
N3C3W1_D,223,0.48
1002_80000_DI_44,527,440.55
Falkenauer_t60_04,2,0.0
N4C2W2_A,1781,12.98
1002_80000_NR_3,411,341.31
N1W1B1R3,199,0.09
N1C2W1_B,191,0.1
N3C3W2_D,72,0.12
N4C3W2_I,462,2.39
N1C3W2_L,484,0.21
Falkenauer_t120_17,0,0.0
402_10000_NR_26,54,3.37
Schwerin1_BPP64,802,0.26
1002_80000_NR_0,436,404.1
Schwerin2_BPP61,30,0.01
Schwerin2_BPP65,330,0.21
N3C1W4_G,1028,1.27
N3C3W1_O,1190,2.59
600_20000_DI_45,954,181.39
N2C2W1_P,77,0.13
N1C1W1_I,698,0.4
N3C1W2_G,898,2.34
N4C1W2_L,756,5.83
1002_80000_DI_47,519,540.63
N3C1W4_O,56,0.08
N3C3W1_E,1129,1.81
csAB250_5,1028,178.31
N4C1W1_T,1422,17.16
Schwerin2_BPP28,1661,0.98
801_40000_NR_5,1207,569.27
N1C2W4_J,26,0.01
N4C3W1_P,540,4.32
N4W4B3R5,50,0.42
N3C1W4_F,1658,2.62
Schwerin1_BPP55,930,0.48
N3W3B3R7,38,0.14
csBB500_3,612,571.7
N4C1W2_A,757,6.39
csAA250_7,1141,153.01
N4C2W1_P,725,8.39
csBA500_19,1192,424.57
801_40000_DI_40,183,95.0
Falkenauer_t249_08,38,0.4
801_40000_DI_0,356,173.38
402_10000_NR_1,1543,95.23
402_10000_DI_12,1880,112.79
N1C3W2_M,1728,0.92
N3W4B1R4,607,0.55
N3C2W1_K,1202,3.52
201_2500_DI_18,1396,12.84
Schwerin1_BPP23,132,0.03
N1C2W2_P,93,0.04
N3W1B2R7,311,6.48
N2W4B3R2,25,0.02
801_40000_NR_27,917,388.04
csBA500_10,458,192.63
N2W2B1R6,106,0.12
N3C1W1_D,1775,8.0
402_10000_DI_3,613,40.65
Falkenauer_t501_13,85,3.05
1002_80000_DI_19,537,581.41
Hard28_BPP14,580,3.82
N2W3B2R1,57,0.09
Schwerin1_BPP38,35,0.01
201_2500_NR_26,199,1.84
csBA250_3,1666,162.24
N1C2W4_M,170,0.04
N2C3W2_E,854,0.86
N2C2W2_S,914,1.47
402_10000_DI_2,1812,105.14
600_20000_DI_38,1706,362.24
N2C2W1_H,410,0.66
1002_80000_DI_43,165,146.58
801_40000_DI_18,552,273.52
Falkenauer_u250_03,482,1.23
Schwerin2_BPP56,1140,0.34
N1C2W4_H,789,0.28
Falkenauer_u500_16,1810,9.39
801_40000_NR_16,623,327.81
N2C1W4_I,1853,2.42
600_20000_NR_12,485,100.66
N2W2B3R7,78,0.12
Falkenauer_t501_05,72,2.13
N3C3W2_N,1445,2.68
1002_80000_NR_46,504,527.95
csAB125_9,885,38.65
N4C3W2_S,968,5.24
600_20000_DI_11,860,181.84
Falkenauer_t249_00,2,0.02
N2W4B3R0,27,0.02
600_20000_NR_14,1394,301.87
csAB250_2,1815,406.54
Schwerin2_BPP13,13,0.01
Schwerin1_BPP2,607,0.22
N4C1W1_E,840,13.11
N2W3B2R5,119,0.14
N4W2B3R7,1636,49.35
N2C1W4_C,681,0.69
N3W1B3R6,1343,13.39
csAB500_1,95,97.03
801_40000_NR_44,34,15.79
N1C3W2_Q,1794,0.85
N4C3W4_Q,1758,8.01
Schwerin1_BPP72,662,0.22
1002_80000_NR_39,508,510.29
801_40000_DI_36,937,408.55
N1W2B2R3,1101,0.49
csBA125_10,995,22.98
Schwerin1_BPP81,367,0.09
csBA500_12,389,149.91
Schwerin1_BPP65,1978,0.99
N2C2W4_T,1762,2.42
csAB250_15,117,27.65
N4C3W2_R,1759,8.46
Falkenauer_t60_15,0,0.0
csBA250_1,1782,180.73
801_40000_NR_9,661,325.22
1002_80000_DI_5,585,577.06
N3C3W2_Q,1299,2.22
N2W3B1R7,1466,0.86
Schwerin2_BPP95,798,0.49
N1C3W2_A,1377,0.52
N2C1W1_E,464,0.86
N2W1B2R0,328,1.85
N3C1W1_B,764,3.62
N2C1W1_J,310,0.7
600_20000_DI_19,1675,310.17
N2W3B3R9,6,0.01
201_2500_NR_35,188,1.57
1002_80000_NR_49,276,202.44
csBB125_3,849,21.23
N2C3W1_F,257,0.32
402_10000_NR_32,1585,100.01
N3W4B2R5,33,0.07
Falkenauer_u250_14,1089,2.76
N1C3W1_J,9,0.0
N3C2W1_Q,20,0.07
201_2500_DI_15,1585,12.53
N3W4B2R3,138,0.31
N3C3W4_P,444,0.71
N1C2W4_K,674,0.37
N4W4B2R1,137,1.05
Falkenauer_u120_08,1225,1.35
N4W4B2R3,583,4.83
N2W4B3R6,3,0.0
N1W1B2R0,484,0.54
N4C2W4_F,280,2.03
N1C2W4_T,550,0.2
N3W2B1R0,311,0.61
N4C1W2_F,115,0.84
N2C2W4_L,322,0.29
N2C1W4_R,560,0.87
Schwerin2_BPP5,108,0.06
N3C2W2_K,88,0.24
N4C3W4_C,1880,9.42
Schwerin1_BPP83,24,0.01
Schwerin1_BPP19,33,0.01
N4W3B3R4,143,2.41
1002_80000_NR_21,216,225.58
801_40000_DI_20,817,419.56
N3C1W4_I,615,1.04
csAA250_5,1382,164.68
N3C1W1_K,1911,8.32
Falkenauer_u500_13,616,3.46
N3C2W1_G,456,1.8
Falkenauer_t501_17,515,16.8
201_2500_DI_13,1663,8.92
N3C1W2_P,446,1.28
N4C3W4_I,739,4.47
N3C1W2_J,1537,3.43
N4W3B1R7,1071,3.55
Waescher_TEST0044,759,0.4
1002_80000_NR_30,278,263.07
402_10000_NR_30,1015,57.4
N4C2W4_R,1911,9.21
600_20000_NR_26,1207,237.02
N1C1W4_L,332,0.17
Schwerin1_BPP87,39,0.01
N2C3W1_Q,475,0.86
N2C1W1_R,845,1.56
N2C2W4_G,927,0.55
Schwerin1_BPP57,72,0.03
csAB125_4,197,8.63
csBA500_13,1618,557.92
201_2500_DI_45,513,4.99
N1W4B3R2,65,0.02
Falkenauer_u250_04,753,1.8
1002_80000_DI_24,110,114.43
N2C2W1_I,1407,2.19
N3W4B1R3,310,0.3
N4C1W2_D,831,6.33
1002_80000_NR_10,251,241.6
csAA500_15,397,223.85
N1C1W4_A,52,0.02
Falkenauer_u250_09,1014,2.5
402_10000_NR_10,1599,106.69
N3W4B1R8,428,0.46
801_40000_NR_36,987,380.73
600_20000_NR_47,1544,329.99
csAA125_15,1702,42.19
N3C2W4_E,480,0.91
N4C1W4_C,1663,7.09
N2C1W2_Q,1960,3.15
201_2500_DI_5,1151,11.16
N4W1B1R7,1141,25.22
N4C3W4_J,266,1.14
N3C1W1_M,886,3.39
N1C2W2_T,1409,0.5
N1W3B1R3,1886,0.52
csBB500_13,87,129.04
801_40000_DI_41,640,294.56
Schwerin1_BPP88,223,0.07
Schwerin2_BPP39,750,0.4
Schwerin2_BPP85,1234,0.59
N1W4B3R8,18,0.0
201_2500_DI_32,842,8.67
N4W2B1R7,945,5.17
201_2500_DI_43,1795,14.81
402_10000_DI_11,86,5.35
Schwerin1_BPP7,1,0.0
600_20000_NR_37,788,132.45
Schwerin1_BPP96,1530,0.55
N2C3W1_S,1082,1.78
N3C2W1_L,1806,6.4
csBA500_3,857,358.39
402_10000_NR_25,187,7.83
csBA125_15,278,6.79
N4W1B2R0,1120,96.74
801_40000_DI_35,188,100.11
201_2500_NR_0,1507,13.91
Falkenauer_u1000_07,1260,12.35
csBB500_6,475,545.97
N1W3B3R1,114,0.04
N4W3B2R1,930,10.91
N1C2W4_D,1679,0.54
201_2500_NR_7,1443,12.29
N2C1W4_O,61,0.08
N4C1W2_S,831,3.38
Hard28_BPP175,1066,17.27
N3C2W2_B,603,1.6
Schwerin1_BPP48,441,0.23
Falkenauer_t249_09,93,0.99
csAB500_9,426,489.17
1002_80000_DI_48,453,328.59
201_2500_DI_26,409,3.78
csAA125_7,1987,78.13
801_40000_NR_37,1039,551.12
801_40000_DI_1,649,328.42
N1C2W4_B,57,0.02
Falkenauer_t120_03,2,0.01
N1W1B2R3,1191,1.16
N1C2W1_E,75,0.02
N3W2B1R7,1881,2.62
N1W1B2R6,874,1.05
402_10000_NR_42,721,46.68
N4C3W1_I,1844,16.05
Falkenauer_u500_04,476,2.58
N1W2B1R8,1667,0.21
201_2500_NR_22,1753,16.08
Falkenauer_t120_02,37,0.11
N4C3W2_T,147,0.86
N2C2W2_O,434,0.71
Falkenauer_t249_13,320,3.28
N4W4B3R9,60,0.55
N4C1W1_L,109,0.91
Schwerin1_BPP6,129,0.09
600_20000_DI_43,524,95.64
N3W2B1R8,943,1.87
Schwerin2_BPP34,217,0.1
csBA125_3,608,14.68
csAA500_13,290,244.83
N3C3W1_Q,442,1.3
csBB250_2,729,137.15
N3W4B2R6,250,0.5
N1C1W1_T,46,0.03
csAA500_12,139,108.96
csAB500_17,57,87.87
N3C2W4_M,1270,2.31
csBB125_1,1625,69.24
N3C3W1_A,1465,3.81
N4C2W2_I,581,4.05
N1C2W4_I,118,0.05
csAB125_5,1687,95.99
N3C3W2_I,1846,2.93
402_10000_DI_41,906,37.12
201_2500_DI_48,416,2.76
N3W1B1R0,867,6.2
N2C3W4_F,1473,1.7
600_20000_NR_42,1091,227.12
N2C1W2_O,83,0.13
N4C1W1_S,858,11.81
Schwerin2_BPP53,680,0.36
N2C2W2_D,739,0.97
N1C3W1_I,1595,0.62
Falkenauer_u500_06,239,1.84
600_20000_DI_41,201,43.14
Schwerin2_BPP19,1930,1.47
201_2500_DI_46,809,5.85
N1W3B2R5,14,0.01
csAB125_10,1318,69.84
csBB500_5,325,308.86
csAB250_11,223,50.57
402_10000_DI_27,1901,127.27
N3C3W2_O,968,1.77
N4C2W1_J,157,1.13
N2W2B2R2,200,0.27
402_10000_NR_41,956,56.9
1002_80000_NR_32,154,91.04
N4C3W1_E,801,6.54
N2W1B2R5,627,3.91
N4C2W2_F,1333,10.39
N1W3B1R6,852,0.25
N4C2W2_B,339,1.38
1002_80000_NR_34,359,164.71
N4W2B3R0,221,6.77
402_10000_DI_22,245,13.95
csAA125_12,1957,80.67
801_40000_DI_17,1168,504.73
csAB250_3,1066,243.83
201_2500_DI_37,670,3.83
Falkenauer_u250_19,193,0.52
N1C2W1_I,12,0.01
Schwerin1_BPP51,225,0.09
Schwerin2_BPP80,1848,1.2
csAB250_14,1071,180.3
600_20000_NR_30,838,98.43
Schwerin1_BPP43,43,0.01
N4W3B2R2,808,8.74
Schwerin1_BPP13,19,0.01
N3W1B3R7,1819,14.68
Schwerin1_BPP46,287,0.14
Falkenauer_u120_11,11,0.01
N2W1B3R5,1468,3.7
csAA125_8,1908,65.8
HARD6,0,0.0
Schwerin1_BPP25,379,0.18
csBA500_4,911,320.82
N1C2W4_G,976,0.37
Schwerin1_BPP50,510,0.19
N1C2W1_L,1134,0.69
N2C2W4_F,987,1.48
N3C3W4_H,562,0.75
N1W3B3R6,21,0.01
Schwerin1_BPP78,33,0.01
Falkenauer_u250_08,1322,3.08
csAB125_19,788,26.14
Hard28_BPP781,443,6.15
801_40000_DI_8,440,228.27
N3C2W4_K,1537,3.39
csBA250_2,1758,168.03
402_10000_NR_21,527,30.95
Schwerin2_BPP27,1858,1.35
N4C3W1_G,1052,6.04
csBB125_9,1389,41.27
N2C3W1_M,404,0.41
600_20000_DI_37,1995,360.82
201_2500_DI_24,1,0.01
N1C2W4_N,1061,0.35
Schwerin1_BPP20,1079,0.51
201_2500_DI_4,1076,10.68
N2C3W1_P,105,0.07
N4C1W4_P,610,2.69
csAB125_8,1457,63.41
N2C1W2_C,32,0.06
402_10000_DI_0,1371,51.97
N2C3W4_M,461,0.42
N2W2B3R0,480,0.83
N3C1W2_I,1863,4.68
csAB250_1,1993,425.59
Schwerin2_BPP77,824,0.45
csBB250_10,1544,312.85
N3W2B1R6,338,0.74
Schwerin1_BPP41,8,0.0
Falkenauer_t249_11,152,0.96
N2W2B2R5,229,0.49
csAA500_17,607,381.02
N4C1W2_T,1257,11.35
N4W2B3R4,337,10.52
Falkenauer_t501_08,11,0.36
N2C3W4_O,1515,1.33
N4W3B1R2,1276,5.42
csAB250_20,1581,374.56
N4W4B1R0,921,1.5
N4C2W2_K,16,0.11
201_2500_DI_36,684,6.68
N3C2W1_B,305,1.21
N4C3W2_Q,960,3.73
N1W3B1R1,42,0.01
HARD8,0,0.0
N3C3W1_N,1790,4.56
Falkenauer_u500_03,480,2.91
N3W2B3R3,1409,7.92
Falkenauer_t120_14,7,0.03
402_10000_DI_25,1325,91.44
Falkenauer_u120_05,91,0.08
csAA500_14,196,188.26
1002_80000_DI_16,155,138.43
801_40000_NR_35,256,130.24
N4C2W2_D,759,7.8
402_10000_DI_32,1311,77.52
Falkenauer_t249_10,1114,10.6
N2C3W1_O,649,0.71
Falkenauer_u1000_06,261,3.75
201_2500_NR_40,619,4.36
N4W3B1R5,1357,5.78
N2C2W1_A,1914,2.28
N2C2W2_F,815,1.37
N1W2B2R9,535,0.5
201_2500_NR_28,1084,10.36
N2C3W4_E,1044,1.08
201_2500_DI_31,0,0.0
N4W1B3R9,322,15.82
N3C2W4_J,1251,3.81
N3C1W2_Q,69,0.19
csBB500_12,83,58.53
N1W3B3R9,39,0.01
N1W2B1R9,309,0.08
N3W2B3R8,120,0.53
801_40000_NR_40,1102,570.3
N2C3W4_N,1024,0.86
201_2500_NR_32,1050,10.53
Schwerin2_BPP38,369,0.22
csAA250_12,1277,154.69
csBB500_9,316,231.81
600_20000_DI_31,1236,243.03
N4C2W1_Q,1431,15.68
801_40000_NR_24,1209,531.69
Waescher_TEST0030,665,0.75
N4C3W4_B,602,2.68
N3C3W4_A,1702,2.83
Schwerin1_BPP69,270,0.11
801_40000_DI_33,1018,470.13
600_20000_DI_46,1095,205.67
N1W4B2R1,0,0.0
Schwerin1_BPP15,1068,0.38
N1C1W4_B,104,0.04
csBB125_11,1910,87.92
N1C2W2_I,217,0.09
801_40000_DI_21,398,206.3
402_10000_NR_7,287,16.94
N4C3W4_P,992,4.54
201_2500_NR_15,1197,10.32
Schwerin1_BPP54,34,0.01
1002_80000_DI_26,528,533.99
Falkenauer_t120_19,2,0.01
201_2500_NR_34,1043,9.68
N1C2W4_A,1289,0.49
N4W3B3R3,301,2.63
N3C3W4_E,1704,3.18
600_20000_DI_30,1036,209.99
201_2500_NR_45,1862,15.37
N1C3W4_I,206,0.05
csBA125_11,1803,40.24
N4C3W1_F,1604,13.26
N2C3W2_J,70,0.09
801_40000_DI_5,1519,577.91
csAA125_18,550,19.12
N3W2B1R1,1273,2.38
N2C1W2_H,215,0.32
N4W3B1R9,1439,3.22
Schwerin1_BPP29,18,0.01
N2W2B3R9,145,0.24
N3C2W2_P,1911,5.94
N4W1B1R8,181,3.08
Schwerin2_BPP49,20,0.01
N2C1W1_I,743,1.29
N1C2W2_E,604,0.27
Falkenauer_u250_00,1735,4.4
600_20000_NR_16,1063,167.33
Falkenauer_t60_11,0,0.0
402_10000_NR_5,444,25.56
Falkenauer_t120_07,21,0.05
N1C3W1_A,28,0.01
N1W2B1R7,62,0.04
Falkenauer_t501_02,411,15.94
1002_80000_NR_29,406,387.11
N1C3W2_R,316,0.11
201_2500_DI_0,1394,14.2
csAB500_18,329,360.54
402_10000_NR_43,827,27.73
201_2500_NR_2,1045,11.3
Schwerin2_BPP33,369,0.2
Falkenauer_u1000_13,1564,24.43
N3C1W2_B,1473,4.54
N3W1B2R9,612,11.93
402_10000_NR_8,312,20.63
N3C1W4_T,227,0.41
1002_80000_NR_31,92,63.8
N4C3W2_K,1072,6.3
402_10000_DI_16,1849,119.86
csBB250_19,1477,358.89
Schwerin1_BPP4,213,0.08
N1W1B1R9,645,0.59
N2C2W4_R,626,0.68
N1W2B1R2,237,0.06
csBB500_10,218,163.14
N2W3B1R8,1577,1.12
N3W1B2R8,40,0.8
1002_80000_NR_11,111,116.47
csBA250_5,290,41.96
201_2500_NR_49,1743,18.19
N1C3W1_B,108,0.03
N3C1W4_N,881,0.96
N2C3W1_L,1089,1.21
801_40000_DI_37,1104,518.0
N2C1W4_E,600,0.64
N1C2W1_N,1023,0.37
N3C3W2_G,704,1.56
Falkenauer_u120_02,1705,1.24
201_2500_DI_21,1722,15.68
Falkenauer_t120_11,16,0.06
csAA125_20,1637,65.69
Falkenauer_t120_12,0,0.0
600_20000_DI_36,1349,282.13
N4C2W4_M,1176,8.88
csAA250_18,1985,276.41
N1W3B2R3,15,0.01
201_2500_NR_1,614,6.28
N3C2W4_P,687,1.8
N2C2W1_O,434,1.03
N3W3B2R5,269,1.09
N2C2W4_J,60,0.06
402_10000_NR_3,891,56.28
N1C2W1_G,679,0.2
Hard28_BPP178,1649,23.16
N1W4B2R3,4,0.0
csAA500_16,113,109.45
N3C2W4_B,1887,2.33
Schwerin2_BPP66,1694,0.69
N2W1B1R8,760,1.55
N3W1B3R1,1927,18.57
N1C1W4_N,826,0.51
N3W2B1R9,429,0.78
201_2500_DI_22,778,7.35
201_2500_DI_12,1350,10.19
801_40000_NR_48,1170,598.68
N4C2W4_P,280,1.16
N2W1B3R4,738,1.78
1002_80000_NR_4,8,7.91
600_20000_NR_10,507,69.58
N3C3W4_F,839,1.09
N2C2W4_D,234,0.31
N4C1W4_R,478,2.49
N3W2B3R9,801,4.32
N3W1B2R1,572,13.28
801_40000_DI_42,714,319.21
N3W2B2R9,280,1.88
N4C1W4_J,1539,5.85
402_10000_DI_21,1199,58.39
Falkenauer_u120_04,804,1.05
Schwerin1_BPP21,15,0.01
N2C1W1_D,122,0.2
N1W4B2R5,0,0.0
N1C1W2_R,553,0.3
1002_80000_NR_7,320,318.59
N3W2B3R1,283,1.9
csAA250_14,211,30.98
N2C3W4_R,78,0.07
Falkenauer_t501_04,11,0.21
Falkenauer_t501_15,801,25.65
1002_80000_DI_10,180,177.04
N4W1B3R5,62,2.99
N4C3W2_H,464,2.86
N4C2W1_B,1903,21.79
N4W1B1R0,1520,27.03
N2W2B1R4,1303,1.21
Schwerin1_BPP79,10,0.01
csAA250_15,960,152.34
801_40000_NR_13,88,34.56
csAA250_8,674,121.98
N3W3B1R3,1574,2.6
N2C3W1_R,209,0.22
1002_80000_DI_6,523,457.38
N4C3W2_O,610,3.76
Waescher_TEST0082,806,0.61
801_40000_DI_47,872,382.08
N2W2B1R8,1326,1.08
N1C2W4_P,34,0.01
402_10000_NR_35,1714,89.22
N2W1B1R9,1426,2.55
201_2500_DI_7,1887,18.74
N3C3W1_B,170,0.46
201_2500_NR_38,1311,13.47
N3W2B3R5,64,0.42
csAA500_8,658,565.79
N3W2B2R4,279,0.95
N3W2B3R2,957,5.7
600_20000_DI_20,626,131.38
N1C2W1_A,122,0.06
N1C2W4_S,233,0.08
csBB125_5,969,34.7
N3W3B3R8,12,0.05
Falkenauer_u250_06,1989,5.25
N3C1W2_N,373,1.3
Schwerin2_BPP18,47,0.04
csAB125_20,950,44.73
402_10000_DI_31,1203,59.2
N4W1B3R1,1979,108.78
N2W2B1R2,942,0.89
N2C1W4_N,65,0.1
N1C1W1_J,74,0.03
N3W4B3R3,8,0.01
Schwerin1_BPP86,4,0.0
Falkenauer_u500_09,1439,7.72
N3W4B2R8,17,0.05
402_10000_DI_28,1659,85.61
N2C2W2_H,224,0.46
Falkenauer_t60_10,0,0.0
N3C2W2_C,572,1.47
801_40000_NR_31,46,23.48
Falkenauer_t60_09,0,0.0
Waescher_TEST0014,471,0.36
N4W3B2R3,287,3.51
N4C2W1_I,183,1.46
1002_80000_NR_8,365,379.95
N4C3W1_O,536,4.55
Schwerin1_BPP44,1410,0.83
N3C1W4_B,1675,2.65
csBB500_2,304,444.62
N4C1W4_M,859,4.17
N1C3W4_F,255,0.06
Schwerin2_BPP1,27,0.01
N4C1W4_S,1383,6.76
Falkenauer_t120_09,124,0.29
N2W2B1R1,1216,0.75
1002_80000_DI_8,687,583.91
Schwerin2_BPP59,713,0.42
N1W3B2R2,52,0.02
600_20000_NR_45,384,78.02
N2W1B1R4,1985,5.28
N1W4B3R4,21,0.01
N1W4B1R1,481,0.06
N1W1B2R8,1596,1.32
801_40000_NR_10,367,180.3
N1C1W4_D,73,0.04
csAB250_17,493,97.82
Schwerin2_BPP81,903,0.41
N3W3B3R3,53,0.19
N1W3B1R0,125,0.03
N1W2B1R4,1101,0.31
csBA125_12,1723,39.71
801_40000_DI_13,430,226.27
N2C2W1_R,1817,2.45
N1C2W2_K,258,0.11
N1W4B3R7,3,0.0
N4C1W4_D,1995,8.07
600_20000_NR_7,1173,231.41
Falkenauer_u1000_08,84,1.29
N2C2W2_Q,22,0.03
N2C3W1_J,393,0.49
402_10000_NR_28,962,41.04
N3C3W4_C,1691,2.63
N3W1B2R3,88,1.33
N3C1W2_C,526,1.95
N1C1W2_F,1017,0.42
801_40000_DI_2,1216,544.2
N1W2B3R4,93,0.02
N1C1W4_T,152,0.07
Falkenauer_u120_14,1790,2.58
N4W4B1R7,500,1.08
N4W3B1R6,692,2.49
1002_80000_NR_36,25,28.67
N3W2B2R6,769,3.93
402_10000_NR_33,818,57.8
N4C3W2_L,1321,8.52
Schwerin2_BPP3,1947,1.06
N3C1W2_M,687,2.1
801_40000_NR_21,30,16.32
N1C1W4_O,116,0.03
N2W2B3R1,1560,1.89
N3W2B2R2,1121,6.33
N4W1B2R5,1895,168.29
Falkenauer_u1000_18,719,13.4
600_20000_NR_13,618,73.86
N1C2W1_H,1991,1.22
N3C3W2_H,245,0.48
N2C2W2_K,770,1.22
Falkenauer_u1000_17,1522,28.58
N3C2W4_L,1157,2.62
N4W3B2R4,1694,17.73
Schwerin1_BPP31,1877,1.07
201_2500_DI_2,160,1.75
N1C1W1_K,621,0.45
N2W3B3R5,84,0.1
N2C2W2_P,1768,2.76
201_2500_DI_8,771,7.56
csBA250_11,440,45.68
Hard28_BPP709,250,1.43
1002_80000_NR_16,169,160.2
Schwerin1_BPP40,819,0.35
801_40000_DI_24,12,4.17
N1C1W4_M,451,0.17
N3W3B3R4,23,0.09
csAA500_10,602,438.21
csAA125_6,757,28.09
801_40000_DI_28,573,289.59
Schwerin1_BPP97,1507,0.56
402_10000_NR_31,1456,81.39
N2W4B1R9,1499,0.63
Schwerin2_BPP79,665,0.39
N1C3W2_I,1560,0.61
402_10000_DI_36,955,62.01
N3W3B2R0,32,0.18
N2W1B1R1,1495,3.62
Schwerin1_BPP1,944,0.4
N4W1B2R7,571,50.1
N4C1W4_I,3,0.01
600_20000_NR_20,1885,385.26
1002_80000_NR_22,16,16.0
N3C3W2_A,1302,2.57
csBB125_15,372,10.88
N1W1B1R5,1098,0.37
N3W4B3R8,10,0.02
N1W4B1R2,5,0.0
N3C1W4_M,487,0.59
csBA250_4,776,54.44
csAA500_2,194,106.18
N4W4B1R8,306,0.63
N3W1B1R2,203,1.4
201_2500_DI_16,1855,15.97
Schwerin2_BPP91,1596,0.79
Schwerin1_BPP93,984,0.4
csBB125_10,1326,46.65
csAA125_14,1929,78.59
N2C2W2_L,169,0.21
N1W2B3R0,229,0.08
N4W3B3R0,163,1.33
N1C2W1_R,680,0.42
csBB250_1,1806,270.71
Schwerin1_BPP14,980,0.42
Schwerin2_BPP72,23,0.01
N1C3W1_L,72,0.02
600_20000_NR_25,1059,194.17
N3C3W1_M,1277,4.37
N1W3B3R8,10,0.0
Falkenauer_t501_12,4,0.13
Schwerin1_BPP95,534,0.26
N1C2W1_M,271,0.13
N1W1B1R2,1061,0.84
N4C1W1_G,1247,16.45
N1W4B3R9,3,0.0
N2W2B3R8,16,0.03
N2C2W2_T,982,1.2
Hard28_BPP47,166,1.84
201_2500_DI_9,1913,18.34
201_2500_DI_27,470,4.13
600_20000_NR_18,1042,201.98
801_40000_NR_8,27,14.25
N2C1W1_G,592,1.4
600_20000_DI_4,1227,240.31
Schwerin2_BPP41,260,0.11
N2C3W1_G,202,0.21
402_10000_DI_39,1402,87.56
N1C3W4_S,1357,0.51
402_10000_DI_30,346,21.43
N2W3B3R6,9,0.01
Falkenauer_t249_04,4,0.04
1002_80000_NR_26,299,282.14
Schwerin2_BPP90,231,0.12
N3W3B3R1,4,0.02
N1C3W4_M,563,0.19
N3C3W2_R,968,1.88
N2C1W4_T,1662,1.25
N4C3W4_S,769,2.43
600_20000_DI_39,605,94.41
N2C3W1_A,56,0.05
N3C3W4_L,703,1.28
N4C3W1_N,703,6.02
N2C2W2_G,46,0.06
N1C1W1_C,117,0.04
N1W2B2R2,182,0.14
1002_80000_DI_35,376,349.31
N2W4B2R4,14,0.01
N2W3B3R7,16,0.02
Schwerin1_BPP62,1664,0.64
801_40000_DI_25,18,10.13
N1C3W1_T,1463,0.48
csBA250_13,130,11.1
N1C2W2_C,741,0.49
N4C2W1_H,234,3.22
N3C2W2_T,1305,2.96
600_20000_DI_8,358,65.54
801_40000_DI_12,1077,506.22
N3W1B3R2,555,4.77
N1W2B3R8,1834,0.63
csBB250_7,915,141.78
N1C3W1_N,385,0.15
csAA500_4,105,73.7
N3W3B2R3,182,0.49
N1W1B3R2,1642,1.01
N3C2W1_R,34,0.13
N1C1W4_P,947,0.41
N2C2W2_M,1784,2.55
N1W4B1R8,1944,0.37
N3C1W4_A,187,0.33
N1C1W1_P,624,0.27
csAB125_7,1388,28.03
402_10000_DI_15,488,34.25
N4C2W2_S,142,0.98
N3W3B2R4,380,1.79
Waescher_TEST0097,0,0.0
Falkenauer_t501_06,97,3.59
Falkenauer_t501_01,811,23.58
600_20000_NR_1,362,71.72
Falkenauer_t60_01,0,0.0
Waescher_TEST0058,741,0.3
csBB250_9,352,72.66
N4C1W1_N,1729,23.85
N1C2W2_J,1437,0.53
N2C2W1_B,58,0.12
201_2500_DI_14,1145,11.0
N2W4B1R8,2,0.0
N1W1B2R7,1687,1.74
600_20000_NR_34,494,96.33
N1C3W2_S,1780,0.66
Falkenauer_u500_02,1338,7.77
1002_80000_DI_45,650,599.91
N3C2W2_O,909,3.24
Falkenauer_u500_19,375,2.42
600_20000_NR_9,50,10.56
N4C2W2_H,141,0.97
Falkenauer_u1000_00,1316,17.77
N2C3W1_B,151,0.19
N4W1B2R9,1133,92.24
N3W3B2R1,27,0.14
N2C1W2_J,500,0.63
Schwerin2_BPP55,1357,0.91
N1W3B2R9,7,0.0
N3W3B1R7,1809,2.73
N1C1W1_M,504,0.49
N2W3B3R8,45,0.07
N2C3W4_H,24,0.03
N1W2B2R4,729,0.55
600_20000_NR_2,885,134.71
csAB125_14,1840,77.29
Falkenauer_t249_06,29,0.18
N1C1W4_I,1563,0.34
201_2500_DI_35,965,8.5
N4W4B3R4,54,0.52
N4C1W2_N,283,2.2
N1W2B1R6,681,0.2
Hard28_BPP832,476,3.64
N4C2W2_T,1335,9.16
N3W1B2R0,275,6.27
801_40000_DI_4,1085,570.61
Schwerin2_BPP76,613,0.4
N2W3B3R0,119,0.15
N2C2W4_O,1735,1.65
801_40000_DI_30,72,35.32
N2C2W4_S,1141,0.82
N4C2W2_N,1629,11.87
csAB500_19,193,158.71
csBB125_14,429,17.9
csAA125_16,1319,46.66
1002_80000_DI_27,97,94.93
801_40000_NR_30,1279,508.27
Falkenauer_u500_01,514,2.96
N2C2W4_H,858,1.17
201_2500_NR_25,912,8.63
Schwerin1_BPP76,35,0.02
N3C2W4_F,790,1.72
N3C2W2_E,1142,4.13
csAB250_19,1052,207.17
N1W2B3R1,1530,0.81
Schwerin1_BPP47,256,0.08
402_10000_NR_39,1897,73.19
600_20000_NR_11,749,106.62
N1W3B2R4,45,0.02
N4W2B2R7,519,9.4
N4C2W2_P,702,5.32
N3C2W1_F,1917,7.52
csBB500_15,251,311.32
201_2500_DI_49,788,7.15
csBA500_16,643,259.57
N2C1W4_L,1650,2.09
N1W3B1R2,19,0.0
N4C1W2_R,115,1.05
402_10000_NR_40,1781,89.74
N1C2W2_S,492,0.14
N4C1W4_O,947,3.47
N2C2W2_C,1490,1.42
N4C3W2_D,426,2.69
N2C3W2_L,33,0.04
N4C3W1_A,1708,14.86
N3C3W1_L,1900,4.97
N2W2B2R3,831,1.47
N2C1W2_B,366,0.46
N3C1W2_D,4,0.02
N2W2B2R7,832,2.18
N3W4B1R0,1696,1.64
600_20000_NR_23,487,99.69
N1W1B1R6,296,0.2
N1C1W2_M,1494,0.38
Schwerin1_BPP34,543,0.37
N2W4B2R9,35,0.02
Falkenauer_u500_18,292,1.48
N2C1W4_Q,443,0.48
N3C2W1_J,1951,9.03
csBB500_1,270,269.85
Falkenauer_t60_06,1,0.0
Schwerin1_BPP56,38,0.01
N3C2W1_H,542,2.16
N2C2W1_N,407,0.7
600_20000_NR_39,358,76.3
Falkenauer_t60_16,3,0.0
N1W1B3R5,1681,0.98
N2W4B2R8,64,0.05
Schwerin1_BPP85,1841,0.7
600_20000_NR_8,1917,330.57
csAA250_4,1531,292.45
1002_80000_DI_32,226,198.27
N3C1W1_C,923,3.53
N4C1W1_P,253,3.52
csBB500_17,410,445.72
402_10000_DI_44,1060,75.1
N3C1W1_S,172,0.6
Schwerin1_BPP45,598,0.25
N4C2W1_K,1503,19.53
600_20000_DI_44,1770,336.38
csBB500_7,122,145.0
Falkenauer_t501_09,711,25.08
402_10000_NR_22,1730,94.94
N1C3W1_D,10,0.0
N4C3W2_J,1420,9.36
N2C3W1_D,168,0.24
600_20000_DI_24,1617,324.86
Falkenauer_t120_05,2,0.01
N4C2W4_Q,11,0.04
N2C3W1_H,450,0.51
Falkenauer_u500_17,1007,5.44
N3W3B2R8,79,0.35
N4C2W2_J,458,2.3
csAB125_17,1724,82.02
N2W1B1R2,681,1.23
N3C2W4_N,401,0.81
N4C2W1_O,649,7.8
N1W1B3R4,194,0.16
N4C1W2_J,201,1.82
Schwerin1_BPP22,392,0.19
N2C1W4_A,1794,2.0
Falkenauer_u120_13,869,1.3
N2C1W1_L,1039,1.92
Falkenauer_u1000_01,506,5.59
N4C2W2_L,1898,13.46
N3C3W1_K,1202,2.56
Schwerin1_BPP70,241,0.11
N3C2W1_D,623,2.15
N4C3W2_C,270,1.46
N2W1B1R0,925,1.89
csAA125_2,1715,62.14
402_10000_NR_2,25,1.65
N4C2W1_G,863,11.99
N1C3W4_E,1191,0.23
600_20000_NR_40,518,99.08
N2C3W2_M,623,0.67
N2C3W1_K,1208,1.34
402_10000_NR_17,24,0.93
402_10000_DI_8,1354,55.41
N1C2W2_O,55,0.03
N1C1W4_K,598,0.3
Waescher_TEST0049,1983,0.85
Schwerin2_BPP68,746,0.54
N2C2W4_N,437,0.36
600_20000_NR_49,1432,269.82
402_10000_DI_43,1209,62.15
N3C3W2_J,869,1.07
Schwerin1_BPP63,1322,0.62
801_40000_NR_20,967,504.85
N1C1W4_J,121,0.04
N2W3B2R6,69,0.07
N2W4B2R1,14,0.01
801_40000_NR_26,488,227.62
HARD5,1125,22.43
Falkenauer_u250_13,285,0.68
N4W2B2R5,1957,34.5
N4C2W1_C,1074,13.77
N3W1B1R7,1556,8.21
N4W2B2R3,60,1.13
402_10000_DI_9,1076,56.63
N2C1W4_B,1108,0.81
N1W3B1R5,83,0.02
N2W1B3R7,1788,3.18
N1W1B1R0,91,0.07
csBA500_7,726,380.92
csAB500_5,360,473.75
Falkenauer_t60_14,0,0.0
N1C3W2_C,1126,0.72
Falkenauer_u250_10,198,0.49
Schwerin2_BPP17,537,0.29
N4C3W4_R,1593,9.22
N2W2B2R8,56,0.07
N4C3W1_M,1597,13.63
N4W2B2R4,1737,40.56
402_10000_DI_49,1820,114.68
Falkenauer_u250_18,1680,3.62
600_20000_DI_29,1566,310.08
N4W4B3R8,52,0.42
402_10000_DI_17,1317,58.06
N4C2W4_C,870,3.65
N1W2B3R6,1017,0.49
N4C2W1_D,385,4.08
N1W3B3R3,37,0.01
N3C2W4_R,989,2.93
N2W3B1R2,304,0.23
N2W3B1R5,80,0.05
N4W1B2R6,1073,81.75
201_2500_NR_11,1497,14.53
csBA500_2,75,28.14
N4C1W2_Q,804,6.59
Falkenauer_u120_06,1348,1.45
N3C1W2_H,431,1.12
N2W1B1R5,1608,2.68
N1W4B3R1,12,0.0
N3W4B1R7,326,0.34
801_40000_NR_49,968,479.42
Falkenauer_t501_18,1968,66.46
1002_80000_DI_17,422,418.58
Falkenauer_u120_15,1188,2.0
csAB500_20,436,516.43
N4W1B1R3,684,12.15
N2C3W2_N,361,0.41
N2C1W1_C,1261,1.38
Falkenauer_t501_10,568,19.33
N1W4B2R2,22,0.01
N3C2W1_C,175,0.59
csAA125_5,1647,52.92
N3C3W1_I,911,2.39
N4W3B2R5,1838,18.32
N1C3W4_D,1191,0.55
N1W2B2R8,22,0.01
N1C1W2_T,429,0.26
402_10000_NR_12,1585,87.11
N2W2B1R3,1048,0.59
600_20000_DI_14,871,156.48
1002_80000_NR_14,209,204.55
N3C2W1_E,963,2.98
N3W1B3R0,148,1.45
1002_80000_DI_33,221,222.15
Schwerin2_BPP42,1108,0.58
N2C1W1_F,564,0.88
Schwerin1_BPP82,97,0.04
N4C2W2_Q,609,4.63
N1W3B1R9,155,0.04
402_10000_NR_46,648,25.46
N2W4B1R0,1027,0.5
csAA125_17,1679,76.76
N3C2W2_G,1666,3.8
N1C3W2_O,385,0.14
N3W3B1R0,1367,1.85
N3W4B3R9,11,0.02
Hard28_BPP561,1846,23.38
600_20000_NR_46,252,52.24
N4C2W2_M,344,2.7
csBB500_20,271,278.28
N3W4B2R4,89,0.19
N4W2B3R5,761,29.62
csAA500_18,719,560.81
Falkenauer_t249_16,225,2.15
Falkenauer_t60_08,49,0.04
N3C3W2_K,1751,3.86
N2C3W4_J,896,0.8
csAA250_11,1567,200.75
600_20000_DI_18,819,118.79
csBB500_8,324,358.61
csBB125_16,793,17.98
csAB500_16,376,374.19
Hard28_BPP60,1505,12.17
N1W2B3R7,876,0.34
N1C3W1_S,160,0.05
Schwerin2_BPP25,1544,0.77
Schwerin2_BPP94,487,0.3
N1C1W1_B,1783,0.87
N1W4B1R0,6,0.0
Hard28_BPP359,1506,17.63
Falkenauer_t60_19,2,0.0
Schwerin2_BPP9,445,0.27
1002_80000_DI_40,628,460.6
Falkenauer_t501_11,8,0.18
N3W3B1R9,468,0.41
csAA125_13,837,31.83
N4W3B3R2,1128,16.2
N4C3W2_M,1272,4.06
csBB125_7,266,8.01
Falkenauer_t249_07,1,0.01
201_2500_NR_12,1309,11.64
600_20000_NR_22,1801,396.78
N4W2B3R6,1603,36.01
N4C3W2_N,416,2.13
N3C2W4_I,1295,1.68
1002_80000_NR_44,191,176.8
801_40000_NR_17,436,194.35
801_40000_NR_47,517,228.01
N3W4B3R1,29,0.07
N3W2B2R1,133,1.0
600_20000_NR_38,11,2.26
csBB125_13,684,15.38
N2W2B2R6,753,2.01
N1W1B3R7,553,0.33
Falkenauer_t249_01,3,0.02
1002_80000_DI_49,601,335.27
1002_80000_NR_45,14,13.06
801_40000_DI_45,750,347.5
201_2500_DI_19,621,6.2
Schwerin1_BPP89,37,0.02
N2W1B2R2,795,4.45
csBA250_16,385,34.61
Schwerin2_BPP84,181,0.09
201_2500_NR_48,1670,14.7
N1W3B2R8,10,0.01
csBA500_8,509,207.07
600_20000_NR_43,71,13.44
600_20000_DI_15,295,58.3
N2C1W4_H,428,0.42
csAB250_16,754,163.19
N3W3B3R6,40,0.16
402_10000_DI_13,1244,54.54
Falkenauer_t60_12,0,0.0
N3W2B1R2,1661,3.4
600_20000_NR_17,664,115.63
1002_80000_NR_6,467,431.05
N2W4B2R5,14,0.01
N3W2B1R5,87,0.09
201_2500_DI_3,12,0.13
N1W2B3R2,851,0.4
N1C3W1_O,131,0.04
1002_80000_DI_2,507,515.22
N4W3B3R6,583,8.23
N1C2W2_N,344,0.18
N1W4B2R0,26,0.01
Falkenauer_u500_08,613,3.6
N2W3B2R8,281,0.3
801_40000_DI_39,793,387.24
N3W2B3R4,1711,10.76
N3W4B1R2,837,0.85
csBB250_14,260,42.75
N1C3W2_T,939,0.39
N4C3W4_K,1859,7.35
201_2500_NR_46,537,4.92
1002_80000_NR_12,43,41.67
N4C3W4_N,239,1.14
N3W2B2R8,314,1.71
N2C3W1_C,788,1.04
402_10000_NR_19,741,33.2
N2C2W4_I,204,0.21
Schwerin1_BPP77,670,0.28
N2W3B2R2,159,0.26
N2C1W2_R,1799,1.93
N4C1W4_F,5,0.01
Falkenauer_t501_00,268,9.18
csBA125_16,476,15.68
N1W2B2R7,215,0.15
Falkenauer_t120_13,0,0.0
N2C1W1_S,333,0.4
N4C2W1_T,181,2.27
Schwerin2_BPP14,232,0.11
N3C2W1_M,670,2.32
600_20000_DI_33,284,58.79
csBB250_3,610,63.45
N1C2W1_Q,1994,0.91
N4W2B2R1,129,2.73
N1C1W4_G,1175,0.47
201_2500_NR_43,924,8.02
801_40000_DI_3,1009,495.52
N2W2B2R9,102,0.24
N2W4B1R4,1097,0.47
N4W2B2R8,1470,34.42
N3C1W2_T,460,1.37
801_40000_NR_22,277,127.03
csAA500_3,163,159.1
N3C3W4_O,15,0.03
N2W4B1R6,642,0.29
N1C2W2_F,731,0.39
csAB250_7,757,93.68
801_40000_NR_41,946,402.94
N4C1W1_K,296,3.97
801_40000_DI_6,563,296.16
N1C2W1_K,617,0.27
N4C1W1_J,279,3.56
N3C2W1_P,1892,8.15
N3W1B1R1,653,2.98
csBB250_16,511,87.02
N4C2W1_S,1549,19.16
Schwerin2_BPP31,1730,0.8
N3W1B3R8,1533,14.42
N1C2W1_F,16,0.01
N2W1B2R6,512,3.4
N1W2B1R1,666,0.17
Schwerin2_BPP10,1365,0.71
N2C3W2_A,251,0.23
402_10000_DI_6,1195,73.12
801_40000_NR_14,189,77.86
N4C1W1_C,162,1.74
Hard28_BPP645,640,4.14
N1W1B2R1,1899,1.11
Falkenauer_u1000_15,529,8.56
402_10000_NR_18,1008,61.73
600_20000_NR_6,1680,279.04
Falkenauer_t60_05,2,0.0
csBB250_15,1049,141.03
N2C1W1_K,255,0.43
201_2500_DI_11,1155,11.37
N1W4B2R6,66,0.02
N3C2W2_Q,824,2.37
N2W4B3R5,13,0.01
201_2500_NR_10,209,2.1
N2C3W2_S,696,0.77
N1C2W2_L,849,0.43
N1C1W2_P,712,0.34
N4W1B3R8,1535,87.99
N2W3B3R4,34,0.04
N4W2B3R8,771,18.23
N4W4B3R1,238,2.13
csAB125_6,929,31.43
N4C3W4_M,268,1.41
N3C2W4_D,537,1.13
1002_80000_NR_33,349,342.55
N1C3W2_P,110,0.04
Falkenauer_u120_16,83,0.08
201_2500_DI_20,199,1.82
Schwerin1_BPP91,35,0.02
Falkenauer_t60_02,24,0.02
N4C3W2_F,1434,9.75
N1C1W1_D,1076,0.66
Schwerin2_BPP35,1378,0.92
600_20000_NR_4,1118,245.91
801_40000_DI_29,743,309.64
N2C2W4_A,773,0.6
N3C1W2_R,1304,2.4
402_10000_DI_45,820,51.49
Schwerin2_BPP15,41,0.02
csAA250_10,1435,230.62
N3C1W1_F,1108,4.47
N3W4B1R5,1890,1.91
Schwerin1_BPP18,442,0.18
N3C1W1_J,1214,5.41
201_2500_DI_17,1071,11.08
N4C1W2_G,1513,13.79
csBB500_19,218,242.81
N1C1W2_L,144,0.07
201_2500_NR_36,1308,11.91
402_10000_NR_47,919,61.16
N1C1W2_K,1127,0.81
Schwerin2_BPP47,379,0.2
402_10000_DI_29,806,53.58
1002_80000_NR_1,462,426.99
N4C1W4_E,743,2.03
csBA125_14,432,13.46
1002_80000_DI_46,462,441.71
N2W3B3R1,25,0.02
N4W4B2R7,872,7.93
1002_80000_NR_20,551,561.88
N2C3W1_T,1166,1.42
801_40000_DI_32,1145,574.26
N4W3B3R7,104,0.88
N1C1W2_A,1970,0.43
N1W2B1R0,601,0.21
N2W2B3R2,828,1.69
N3C2W4_A,245,0.6
N1W1B2R5,1806,2.07
N4C1W1_H,421,5.07
N1W2B3R5,1195,0.52
csAB125_2,1286,42.28
N1C3W4_A,23,0.01
csAB250_18,1503,273.89
N4W2B1R5,719,2.76
N4C2W2_R,365,2.84
Schwerin1_BPP52,1245,0.74
N1W4B1R5,60,0.01
N2W4B3R8,4,0.0
N2C3W2_F,1053,0.95
N4W2B1R8,1829,9.75
801_40000_DI_26,1236,547.98
N1C3W2_G,492,0.11
Schwerin1_BPP9,666,0.27
Schwerin1_BPP74,1514,0.55
N2C2W2_R,72,0.11
Falkenauer_t120_04,0,0.0
N3C1W2_E,1545,6.82
N1C1W4_E,289,0.1
402_10000_DI_5,1319,67.56
N3W1B2R6,1290,24.14
Schwerin1_BPP3,342,0.14
N2C1W2_M,66,0.12
N2W3B1R1,29,0.02
N1C3W1_Q,1890,1.11
Schwerin2_BPP45,1617,1.04
csBA500_20,1157,497.55
600_20000_NR_3,1634,270.44
N3C2W1_T,433,1.55
N4W1B1R6,31,0.53
N3C3W1_F,714,2.14
801_40000_DI_7,631,299.16
1002_80000_NR_24,268,252.96
201_2500_NR_21,721,6.67
Schwerin1_BPP67,313,0.15
Schwerin2_BPP99,928,0.54
N2W4B3R9,2,0.0
Schwerin1_BPP60,42,0.02
N2C3W4_T,860,0.85
N3C3W1_P,684,1.49
N4C2W4_O,184,1.21
402_10000_DI_18,1001,64.34
N1C3W1_C,151,0.05
csAA125_11,357,8.3
Schwerin1_BPP98,244,0.16
N1W3B3R7,21,0.01
Schwerin1_BPP33,691,0.35
N2C2W4_P,1566,1.19
600_20000_NR_5,1937,394.92
Schwerin2_BPP50,890,0.44
csAB500_11,593,411.82
600_20000_DI_23,120,14.56
csAB250_4,1630,368.27
N3C3W2_F,375,0.83
N1C2W2_M,351,0.15
N1C1W2_C,252,0.1
N4C1W2_K,1739,16.83
1002_80000_NR_18,229,239.81
801_40000_NR_4,451,219.67
N1W4B2R9,1,0.0
201_2500_DI_34,140,1.34
csBA125_4,118,3.65
402_10000_DI_40,573,20.99
201_2500_NR_42,245,2.45
N3W2B3R7,413,2.79
600_20000_DI_26,219,45.26
csAB250_13,1723,375.85
N2C1W2_F,607,0.68
N1W4B2R8,9,0.0
600_20000_NR_19,758,142.96
N3W1B2R5,1624,26.28
1002_80000_NR_37,152,153.22
N4C1W1_F,337,5.24
N2C2W1_K,1601,2.21
N4W2B1R1,1444,6.94
csAB500_14,27,29.4
402_10000_NR_20,511,30.44
N2C1W1_M,660,0.96
Schwerin2_BPP40,471,0.28
Schwerin2_BPP62,405,0.19
Hard28_BPP360,1306,9.28
201_2500_NR_8,1535,13.94
N2C3W4_L,1279,1.44
N3C1W4_S,1065,1.09
N2W1B3R2,265,0.64
402_10000_DI_4,746,49.2
N3W4B2R1,42,0.11
N1C3W2_B,798,0.4
N4C3W1_L,134,1.13
N3C3W2_B,1903,3.51
N4C3W1_R,920,4.92
N3C3W4_G,73,0.11
Schwerin2_BPP100,911,0.32
Falkenauer_u250_07,101,0.29
N1C3W4_Q,812,0.36
Hard28_BPP814,1715,20.79
N1C3W1_P,48,0.02
600_20000_DI_1,1579,305.1
Falkenauer_t60_00,0,0.0
Schwerin2_BPP44,191,0.11
402_10000_NR_27,891,37.97
csAB500_4,452,326.87
N4W1B1R9,493,8.39
csBA125_20,414,7.63
1002_80000_DI_25,553,523.19
600_20000_NR_15,570,115.29
csBB500_14,10,10.43
N4W3B1R4,488,2.21
N2W2B3R5,114,0.13
N1C2W1_D,504,0.22
N1C3W2_F,0,0.0
600_20000_NR_29,1923,319.28
801_40000_DI_27,425,212.33
N3C2W2_R,264,0.78
N3C1W2_L,738,3.19
csBA250_15,1419,182.01
N2C2W1_J,706,1.15
N1C3W4_C,185,0.08
csAB125_15,1687,44.62
N3W4B3R4,11,0.03
1002_80000_NR_27,152,155.87
N2W1B3R1,84,0.18
N4C2W1_L,1355,16.37
csBA250_18,1777,151.71
N3C1W4_E,324,0.43
N4C3W2_E,631,2.02
N2C3W4_Q,220,0.24
801_40000_NR_46,250,122.68
N4C1W1_R,180,2.23
N1C3W4_G,736,0.31
N2C2W1_M,18,0.03
N4W3B2R0,1400,17.62
801_40000_DI_23,16,7.65
Schwerin1_BPP90,18,0.01
402_10000_DI_35,1554,104.83
N4W2B1R9,767,3.75
N1W4B1R3,1774,0.38
201_2500_DI_30,650,4.9
csBA500_5,1006,484.64
N3C2W4_G,247,0.57
Falkenauer_u1000_19,1824,30.03
csAB500_13,240,307.5
N3C2W4_O,791,1.61
801_40000_NR_34,896,417.35
1002_80000_DI_30,344,324.14
csAB500_8,415,428.41
N1C3W1_M,800,0.19
N1C2W2_B,1037,0.59
201_2500_NR_44,532,3.05
600_20000_NR_33,1807,359.25
N4C1W4_K,388,1.84
N4C1W4_N,1074,4.4
N1W3B3R4,31,0.01
Falkenauer_t249_19,134,1.15
201_2500_DI_38,1584,13.3
600_20000_DI_10,120,25.02
600_20000_DI_16,451,92.81
600_20000_DI_32,1932,398.66
N2C3W2_D,939,1.02
N1C2W4_L,677,0.31
N2C2W4_E,823,0.78
N1W2B1R3,1800,0.47
N2C1W1_A,1452,1.99
N1C1W4_S,1089,0.5
Waescher_TEST0005,880,1.0
N4W3B3R9,469,6.76
csAA500_1,758,471.38
Falkenauer_t120_18,0,0.0
N2C2W2_J,1371,1.07
N4W1B1R5,842,17.59
Hard28_BPP531,1594,24.38
N3C1W1_T,1191,4.82
Schwerin2_BPP26,250,0.11
N1C3W1_H,1171,0.47
N3C1W1_N,643,2.02
N3C1W1_I,1878,8.23
N3C1W1_P,111,0.4
201_2500_NR_4,1076,10.26
csBA125_17,1541,45.13
N1C1W1_H,1037,0.82
N1W2B3R9,434,0.2
N1C2W2_G,1906,0.83
N1C2W1_S,276,0.12
Falkenauer_u120_07,1193,1.47
N4C1W1_Q,1911,28.37
Falkenauer_u1000_05,668,6.33
csAA500_19,138,129.06
N1W3B1R8,69,0.02
Falkenauer_t501_19,29,0.85
N3C2W2_J,874,2.6
N3W3B2R6,1031,4.88
csAB125_12,109,2.74
1002_80000_DI_18,477,487.85
600_20000_DI_17,418,80.92
N2W3B1R4,145,0.1
N3W1B1R4,1096,5.13
N1W3B2R6,71,0.04
N2C2W4_K,240,0.34
Schwerin2_BPP2,1677,1.06
csAA250_19,374,63.17
600_20000_DI_13,939,196.83
Falkenauer_t120_00,70,0.18
N1W2B2R1,422,0.23
N1W1B3R3,1018,0.57
600_20000_DI_7,1416,253.15
N1W1B3R6,653,0.36
600_20000_NR_24,1391,269.19
N1W3B3R0,50,0.02
801_40000_NR_23,671,257.56
Schwerin1_BPP37,1682,0.79
