Generation 1 of 300
100000.00
TIMEOUT
Number of iterations = 1
Best Solution was found in iteration = 1
Time to find the best solution = 2235.98
Best solution found has objective value = 100000.00
Time = 2235.98
