Generation 1 of 300
25000.00
Generation 2 of 300
25000.00
Generation 3 of 300
25000.00
Generation 4 of 300
25000.00
Generation 5 of 300
25000.00
Generation 6 of 300
25000.00
Generation 7 of 300
25000.00
Generation 8 of 300
25000.00
TIMEOUT
Number of iterations = 8
Best Solution was found in iteration = 1
Time to find the best solution = 146.50
Best solution found has objective value = 25000.00
Time = 644.74
