Generation 1 of 300
3511800.00
Generation 2 of 300
3511800.00
Generation 3 of 300
3511800.00
Generation 4 of 300
3511800.00
Generation 5 of 300
3511800.00
Generation 6 of 300
3511800.00
Generation 7 of 300
3511800.00
Generation 8 of 300
3511800.00
Generation 9 of 300
3511800.00
Generation 10 of 300
3511800.00
Generation 11 of 300
3511800.00
Generation 12 of 300
3511800.00
Generation 13 of 300
3511800.00
Generation 14 of 300
3511800.00
Generation 15 of 300
3511800.00
Generation 16 of 300
3511800.00
Generation 17 of 300
3511800.00
Generation 18 of 300
3511800.00
Generation 19 of 300
3511800.00
Generation 20 of 300
3511800.00
TIMEOUT
Number of iterations = 20
Best Solution was found in iteration = 1
Time to find the best solution = 62.31
Best solution found has objective value = 3511800.00
Time = 628.61
