Generation 1 of 300
673986565.00
Generation 2 of 300
673986565.00
Generation 3 of 300
673986565.00
TIMEOUT
Number of iterations = 3
Best Solution was found in iteration = 1
Time to find the best solution = 362.96
Best solution found has objective value = 673986565.00
Time = 743.81
