Generation 1 of 300
6045.00
Generation 2 of 300
6045.00
Generation 3 of 300
6045.00
Generation 4 of 300
6045.00
Generation 5 of 300
6045.00
Generation 6 of 300
6045.00
Generation 7 of 300
6045.00
Generation 8 of 300
6045.00
Generation 9 of 300
6045.00
Generation 10 of 300
6045.00
Generation 11 of 300
6045.00
Generation 12 of 300
6045.00
Generation 13 of 300
6045.00
Generation 14 of 300
6045.00
Generation 15 of 300
6045.00
Generation 16 of 300
6045.00
Generation 17 of 300
6045.00
Generation 18 of 300
6045.00
Generation 19 of 300
6045.00
Generation 20 of 300
6045.00
Generation 21 of 300
6045.00
Generation 22 of 300
6045.00
Generation 23 of 300
6045.00
Generation 24 of 300
6045.00
Generation 25 of 300
6045.00
Generation 26 of 300
6045.00
Generation 27 of 300
6045.00
Generation 28 of 300
6045.00
Generation 29 of 300
6045.00
Generation 30 of 300
6045.00
Generation 31 of 300
6045.00
Generation 32 of 300
6045.00
Generation 33 of 300
6045.00
Generation 34 of 300
6045.00
Generation 35 of 300
6045.00
Generation 36 of 300
6045.00
Generation 37 of 300
6045.00
Generation 38 of 300
6045.00
Generation 39 of 300
6045.00
Generation 40 of 300
6045.00
Generation 41 of 300
6045.00
Generation 42 of 300
6045.00
Generation 43 of 300
6045.00
Generation 44 of 300
6045.00
Generation 45 of 300
6045.00
Generation 46 of 300
6045.00
Generation 47 of 300
6045.00
Generation 48 of 300
6045.00
Generation 49 of 300
6045.00
Generation 50 of 300
6045.00
Generation 51 of 300
6045.00
Generation 52 of 300
6045.00
Generation 53 of 300
6045.00
Generation 54 of 300
6045.00
Generation 55 of 300
6045.00
Generation 56 of 300
6045.00
Generation 57 of 300
6045.00
Generation 58 of 300
6045.00
Generation 59 of 300
6045.00
Generation 60 of 300
6045.00
Generation 61 of 300
6045.00
Generation 62 of 300
6045.00
Generation 63 of 300
6045.00
Generation 64 of 300
6045.00
Generation 65 of 300
6045.00
Generation 66 of 300
6045.00
Generation 67 of 300
6045.00
Generation 68 of 300
6045.00
Generation 69 of 300
6045.00
Generation 70 of 300
6045.00
Generation 71 of 300
6045.00
Generation 72 of 300
6045.00
Generation 73 of 300
6045.00
Generation 74 of 300
6045.00
Generation 75 of 300
6045.00
Generation 76 of 300
6045.00
Generation 77 of 300
6045.00
Generation 78 of 300
6045.00
Generation 79 of 300
6045.00
Generation 80 of 300
6045.00
Generation 81 of 300
6045.00
Generation 82 of 300
6045.00
Generation 83 of 300
6045.00
Generation 84 of 300
6045.00
Generation 85 of 300
6045.00
Generation 86 of 300
6045.00
Generation 87 of 300
6045.00
Generation 88 of 300
6045.00
Generation 89 of 300
6045.00
Generation 90 of 300
6045.00
Generation 91 of 300
6045.00
Generation 92 of 300
6051.00
Generation 93 of 300
6051.00
Generation 94 of 300
6051.00
Generation 95 of 300
6051.00
Generation 96 of 300
6051.00
Generation 97 of 300
6051.00
Generation 98 of 300
6051.00
Generation 99 of 300
6051.00
Generation 100 of 300
6051.00
Generation 101 of 300
6051.00
Generation 102 of 300
6051.00
Generation 103 of 300
6051.00
Generation 104 of 300
6051.00
Generation 105 of 300
6051.00
Generation 106 of 300
6051.00
Generation 107 of 300
6051.00
Generation 108 of 300
6051.00
Generation 109 of 300
6051.00
Generation 110 of 300
6051.00
Generation 111 of 300
6051.00
Generation 112 of 300
6051.00
Generation 113 of 300
6051.00
Generation 114 of 300
6051.00
Generation 115 of 300
6051.00
Generation 116 of 300
6051.00
Generation 117 of 300
6051.00
Generation 118 of 300
6051.00
Generation 119 of 300
6051.00
Generation 120 of 300
6051.00
Generation 121 of 300
6051.00
Generation 122 of 300
6051.00
Generation 123 of 300
6051.00
Generation 124 of 300
6051.00
Generation 125 of 300
6051.00
Generation 126 of 300
6051.00
Generation 127 of 300
6051.00
Generation 128 of 300
6051.00
Generation 129 of 300
6051.00
Generation 130 of 300
6051.00
Generation 131 of 300
6051.00
Generation 132 of 300
6051.00
Generation 133 of 300
6051.00
Generation 134 of 300
6051.00
Generation 135 of 300
6051.00
Generation 136 of 300
6051.00
Generation 137 of 300
6051.00
Generation 138 of 300
6051.00
Generation 139 of 300
6051.00
Generation 140 of 300
6051.00
Generation 141 of 300
6051.00
Generation 142 of 300
6051.00
Generation 143 of 300
6051.00
Generation 144 of 300
6051.00
Generation 145 of 300
6051.00
Generation 146 of 300
6051.00
Generation 147 of 300
6051.00
Generation 148 of 300
6051.00
Generation 149 of 300
6051.00
Generation 150 of 300
6051.00
Generation 151 of 300
6051.00
Generation 152 of 300
6051.00
Generation 153 of 300
6051.00
Generation 154 of 300
6051.00
Generation 155 of 300
6051.00
Generation 156 of 300
6051.00
Generation 157 of 300
6051.00
Generation 158 of 300
6051.00
Generation 159 of 300
6051.00
Generation 160 of 300
6051.00
Generation 161 of 300
6051.00
Generation 162 of 300
6051.00
Generation 163 of 300
6051.00
Generation 164 of 300
6051.00
Generation 165 of 300
6051.00
Generation 166 of 300
6051.00
Generation 167 of 300
6051.00
Generation 168 of 300
6051.00
Generation 169 of 300
6051.00
Generation 170 of 300
6051.00
Generation 171 of 300
6051.00
Generation 172 of 300
6051.00
Generation 173 of 300
6051.00
Generation 174 of 300
6051.00
Generation 175 of 300
6051.00
Generation 176 of 300
6051.00
Generation 177 of 300
6051.00
Generation 178 of 300
6051.00
Generation 179 of 300
6051.00
Generation 180 of 300
6051.00
Generation 181 of 300
6051.00
Generation 182 of 300
6051.00
Generation 183 of 300
6051.00
Generation 184 of 300
6051.00
Generation 185 of 300
6051.00
Generation 186 of 300
6051.00
Generation 187 of 300
6051.00
Generation 188 of 300
6051.00
Generation 189 of 300
6051.00
Generation 190 of 300
6051.00
Generation 191 of 300
6051.00
Generation 192 of 300
6051.00
Generation 193 of 300
6051.00
Generation 194 of 300
6051.00
Generation 195 of 300
6051.00
Generation 196 of 300
6051.00
Generation 197 of 300
6051.00
Generation 198 of 300
6051.00
Generation 199 of 300
6051.00
Generation 200 of 300
6051.00
Generation 201 of 300
6051.00
Generation 202 of 300
6051.00
Generation 203 of 300
6051.00
Generation 204 of 300
6051.00
Generation 205 of 300
6051.00
Generation 206 of 300
6051.00
Generation 207 of 300
6051.00
Generation 208 of 300
6051.00
Generation 209 of 300
6051.00
Generation 210 of 300
6051.00
Generation 211 of 300
6051.00
Generation 212 of 300
6051.00
Generation 213 of 300
6051.00
Generation 214 of 300
6051.00
Generation 215 of 300
6051.00
Generation 216 of 300
6051.00
Generation 217 of 300
6051.00
Generation 218 of 300
6051.00
Generation 219 of 300
6051.00
Generation 220 of 300
6051.00
Generation 221 of 300
6051.00
Generation 222 of 300
6051.00
Generation 223 of 300
6051.00
Generation 224 of 300
6051.00
Generation 225 of 300
6051.00
Generation 226 of 300
6051.00
Generation 227 of 300
6051.00
Generation 228 of 300
6051.00
Generation 229 of 300
6051.00
Generation 230 of 300
6051.00
Generation 231 of 300
6051.00
Generation 232 of 300
6051.00
Generation 233 of 300
6051.00
Generation 234 of 300
6051.00
Generation 235 of 300
6051.00
Generation 236 of 300
6051.00
Generation 237 of 300
6051.00
Generation 238 of 300
6051.00
Generation 239 of 300
6051.00
Generation 240 of 300
6051.00
Generation 241 of 300
6051.00
Generation 242 of 300
6051.00
Generation 243 of 300
6051.00
Generation 244 of 300
6051.00
Generation 245 of 300
6051.00
Generation 246 of 300
6051.00
Generation 247 of 300
6051.00
Generation 248 of 300
6051.00
TIMEOUT
Number of iterations = 248
Best Solution was found in iteration = 92
Time to find the best solution = 230.50
Best solution found has objective value = 6051.00
Time = 601.91
