Generation 1 of 300
15426.00
Generation 2 of 300
15426.00
Generation 3 of 300
15426.00
Generation 4 of 300
15426.00
Generation 5 of 300
15426.00
Generation 6 of 300
15426.00
Generation 7 of 300
15426.00
Generation 8 of 300
15426.00
Generation 9 of 300
15426.00
Generation 10 of 300
15426.00
Generation 11 of 300
15426.00
Generation 12 of 300
15426.00
Generation 13 of 300
15426.00
Generation 14 of 300
15426.00
Generation 15 of 300
15426.00
Generation 16 of 300
15426.00
Generation 17 of 300
15426.00
Generation 18 of 300
15426.00
Generation 19 of 300
15426.00
Generation 20 of 300
15426.00
Generation 21 of 300
15426.00
Generation 22 of 300
15426.00
Generation 23 of 300
15426.00
Generation 24 of 300
15426.00
Generation 25 of 300
15426.00
Generation 26 of 300
15426.00
Generation 27 of 300
15426.00
Generation 28 of 300
15426.00
Generation 29 of 300
15426.00
Generation 30 of 300
15426.00
Generation 31 of 300
15426.00
Generation 32 of 300
15426.00
Generation 33 of 300
15426.00
Generation 34 of 300
15426.00
Generation 35 of 300
15426.00
Generation 36 of 300
15426.00
Generation 37 of 300
15426.00
Generation 38 of 300
15426.00
Generation 39 of 300
15426.00
Generation 40 of 300
15426.00
Generation 41 of 300
15426.00
Generation 42 of 300
15426.00
Generation 43 of 300
15426.00
Generation 44 of 300
15426.00
Generation 45 of 300
15426.00
Generation 46 of 300
15426.00
Generation 47 of 300
15426.00
Generation 48 of 300
15426.00
Generation 49 of 300
15426.00
Generation 50 of 300
15426.00
Generation 51 of 300
15426.00
Generation 52 of 300
15426.00
Generation 53 of 300
15426.00
Generation 54 of 300
15426.00
Generation 55 of 300
15426.00
Generation 56 of 300
15426.00
Generation 57 of 300
15426.00
Generation 58 of 300
15426.00
Generation 59 of 300
15426.00
Generation 60 of 300
15426.00
Generation 61 of 300
15426.00
Generation 62 of 300
15426.00
Generation 63 of 300
15426.00
Generation 64 of 300
15426.00
Generation 65 of 300
15426.00
Generation 66 of 300
15426.00
Generation 67 of 300
15426.00
Generation 68 of 300
15426.00
Generation 69 of 300
15426.00
Generation 70 of 300
15426.00
Generation 71 of 300
15426.00
Generation 72 of 300
15426.00
Generation 73 of 300
15426.00
Generation 74 of 300
15426.00
Generation 75 of 300
15426.00
Generation 76 of 300
15426.00
Generation 77 of 300
15426.00
Generation 78 of 300
15426.00
Generation 79 of 300
15426.00
Generation 80 of 300
15426.00
Generation 81 of 300
15426.00
Generation 82 of 300
15426.00
Generation 83 of 300
15426.00
Generation 84 of 300
15426.00
Generation 85 of 300
15426.00
Generation 86 of 300
15426.00
Generation 87 of 300
15426.00
Generation 88 of 300
15426.00
Generation 89 of 300
15426.00
Generation 90 of 300
15426.00
TIMEOUT
Number of iterations = 90
Best Solution was found in iteration = 1
Time to find the best solution = 11.66
Best solution found has objective value = 15426.00
Time = 603.89
