# 2021-03-29 16:22:20 -03: Estimating execution time using 2% of 604800 = 12096
# 2021-03-29 19:44:41 -03: Estimated execution time is 22.899358490566 based on 106 configurations and 5 instances. Used time: 12136.66, remaining time: 592663.34, remaining budget (experiments): 25881
# 2021-03-29 19:44:41 -03: Initialization
# Elitist race
# Elitist new instances: 1
# Elitist limit: 2
# nbIterations: 2
# minNbSurvival: 2
# nbParameters: 1
# seed: 910531315
# confidence level: 0.95
# budget: 25881
# time budget: 592663.34
# mu: 5
# deterministic: FALSE

# 2021-03-29 19:44:41 -03: Iteration 1 of 2
# experimentsUsedSoFar: 530
# timeUsed: 12136.66
# boundEstimate: 22.899358490566
# remainingBudget: 25881
# currentBudget: 12940
# nbConfigurations: 1024
# Markers:
     x No test is performed.
     c Configurations are discarded only due to capping.
     - The test is performed and some configurations are discarded.
     = The test is performed but no configuration is discarded.
     ! The test is performed and configurations could be discarded but elite configurations are preserved.
     . All alive configurations are elite and nothing is discarded

+-+-----------+-----------+-----------+---------------+-----------+--------+-----+----+------+
| |   Instance|      Alive|       Best|      Mean best| Exp so far|  W time|  rho|KenW|  Qvar|
+-+-----------+-----------+-----------+---------------+-----------+--------+-----+----+------+
|x|          4|       1024|         27|   -139877.0000|        918|00:23:25|   NA|  NA|    NA|
|x|          2|       1024|         27|   -1468303.000|       1836|20:12:24|+0.49|0.75|0.6533|
|x|          3|       1024|         27|   -987107.0000|       2754|04:09:38|-0.30|0.13|1.3044|
|x|          5|       1024|         14|   -707065.0000|       3672|05:06:49|-0.21|0.09|1.1824|
|=|          1|       1024|         27|   -599021.6000|       4590|00:15:51|-0.15|0.08|1.1679|
|=|          6|       1024|         14|   -476978.1667|       5614|04:40:48|-0.09|0.09|1.0915|
|=|          7|       1024|         14|   -410339.5714|       6638|00:18:54|-0.06|0.10|1.0721|
+-+-----------+-----------+-----------+---------------+-----------+--------+-----+----+------+
Best-so-far configuration:          14    mean value:    -410339.5714
Description of the best-so-far configuration:
   .ID. alpha .PARENT.
14   14   0.3       NA

# 2021-03-31 06:52:35 -03: Elite configurations (first number is the configuration ID; listed from best to worst according to the sum of ranks):
   alpha
14   0.3
17   0.3
# 2021-03-31 06:52:35 -03: Iteration 2 of 2
# experimentsUsedSoFar: 7168
# timeUsed: 138565.84
# boundEstimate: 19.331171875
# remainingBudget: 24118
# currentBudget: 24118
# nbConfigurations: 1024
# Markers:
     x No test is performed.
     c Configurations are discarded only due to capping.
     - The test is performed and some configurations are discarded.
     = The test is performed but no configuration is discarded.
     ! The test is performed and configurations could be discarded but elite configurations are preserved.
     . All alive configurations are elite and nothing is discarded

+-+-----------+-----------+-----------+---------------+-----------+--------+-----+----+------+
| |   Instance|      Alive|       Best|      Mean best| Exp so far|  W time|  rho|KenW|  Qvar|
+-+-----------+-----------+-----------+---------------+-----------+--------+-----+----+------+
|x|          8|       1024|       1046|   -10800605.00|       1024|02:42:51|   NA|  NA|    NA|
|x|          2|       1024|       1046|   -6719514.000|       2046|07:35:12|+0.00|0.50|0.4995|
|x|          7|       1024|       1046|   -4483178.667|       3068|00:08:43|+0.00|0.33|0.3330|
|x|          3|       1024|       1046|   -3368632.000|       4090|03:45:20|+0.00|0.25|0.2498|
|=|          4|       1024|       1046|   -2722875.000|       5112|00:18:57|+0.00|0.20|0.1998|
|=|          5|       1024|       1046|   -2273228.833|       6134|04:50:06|+0.00|0.17|0.1665|
|=|          1|       1024|       1046|   -1949711.857|       7156|00:08:52|+0.00|0.14|0.1427|
|=|          6|       1024|       1046|   -1709122.750|       8178|03:44:39|+0.00|0.12|0.1249|
|=|          9|       1024|       1046|   -1521997.889|       9202|03:43:38|+0.00|0.11|0.1110|
+-+-----------+-----------+-----------+---------------+-----------+--------+-----+----+------+
Best-so-far configuration:        1046    mean value:    -1521997.889
Description of the best-so-far configuration:
     .ID. alpha .PARENT.
1046 1046   0.3       14

# 2021-04-08 09:51:05 -03: Elite configurations (first number is the configuration ID; listed from best to worst according to the sum of ranks):
     alpha
1046   0.3
1122   0.3
# 2021-04-08 09:51:05 -03: Stopped because budget is exhausted
# Iteration: 3
# nbIterations: 2
# experimentsUsedSoFar: 16370
# timeUsed: 840403.7
# remainingBudget: -4589
# currentBudget: 24118
# number of elites: 2
# nbConfigurations: 1024
     .ID. alpha .PARENT. .ALIVE. .RANK.  .WEIGHT.
1046 1046   0.3       14    TRUE   4101 0.6666667
1122 1122   0.3       14    TRUE   4103 0.3333333
