TIMEOUT
TIMEOUT
TIMEOUT
iteration 0 sol 99977.00
Calls to change | Calls removed by BIT 
4032759 | 2062593
Calls to add | Calls removed by BIT 
19579 | 18192
Number of iterations = 1
Best Solution was found in iteration = 0
Time used by neighbor | Times each neighbor was used | Improvements
N_1 = 0.01 | 1 | 0
N_2 = 0.00 | 0 | 0
N_3 = 0.00 | 0 | 0
N_4 = 0.00 | 0 | 0
N_5 = 0.00 | 0 | 0
Time to find the best solution = 9951.53
Solution = 99977.00
Time = 9951.53
