TIMEOUT
TIMEOUT
TIMEOUT
iteration 0 sol 591223.00
Calls to change | Calls removed by BIT 
0 | 0
Calls to add | Calls removed by BIT 
1000 | 365
Number of iterations = 1
Best Solution was found in iteration = 0
Time used by neighbor | Times each neighbor was used | Improvements
N_1 = 14.81 | 1 | 0
N_2 = 0.00 | 0 | 0
N_3 = 0.00 | 0 | 0
N_4 = 0.00 | 0 | 0
N_5 = 0.00 | 0 | 0
Time to find the best solution = 613.81
Solution = 591223.00
Time = 613.81
