solucao atual 92496.00
solucao atual 92496.00
solucao atual 92496.00
solucao atual 92496.00
solucao atual 92496.00
solucao atual 92496.00
solucao atual 92496.00
solucao atual 92496.00
solucao atual 92496.00
solucao atual 92496.00
iteration 0 sol 92496.00
solucao atual 91170.00
solucao atual 91170.00
solucao atual 91170.00
solucao atual 91170.00
solucao atual 91170.00
solucao atual 91170.00
solucao atual 91170.00
solucao atual 91170.00
solucao atual 91170.00
solucao atual 91170.00
iteration 1 sol 91170.00
solucao atual 93724.00
solucao atual 93724.00
solucao atual 93724.00
solucao atual 93724.00
solucao atual 93724.00
solucao atual 93724.00
solucao atual 93724.00
solucao atual 93724.00
solucao atual 93724.00
solucao atual 93724.00
iteration 2 sol 93724.00
TIMEOUT
TIMEOUT
TIMEOUT
iteration 3 sol 95243.00
Calls to change | Calls removed by BIT 
2362879 | 1228190
Calls to add | Calls removed by BIT 
38463 | 3524
Number of iterations = 4
Best Solution was found in iteration = 3
Time used by neighbor | Times each neighbor was used | Improvements
N_1 = 0.01 | 7 | 0
N_2 = 0.00 | 6 | 0
N_3 = 0.00 | 6 | 0
N_4 = 0.00 | 6 | 0
N_5 = 100.26 | 6 | 0
Time to find the best solution = 610.53
Solution = 95243.00
Time = 610.53
