solucao atual 45611.00
solucao atual 45611.00
solucao atual 45611.00
solucao atual 45611.00
solucao atual 45611.00
solucao atual 45611.00
solucao atual 45611.00
solucao atual 45611.00
solucao atual 45611.00
solucao atual 45611.00
iteration 0 sol 45611.00
solucao atual 44670.00
solucao atual 44670.00
solucao atual 44670.00
solucao atual 44670.00
solucao atual 44670.00
solucao atual 44670.00
solucao atual 44670.00
solucao atual 44670.00
solucao atual 44670.00
solucao atual 44670.00
iteration 1 sol 44670.00
solucao atual 45346.00
solucao atual 45346.00
solucao atual 45346.00
solucao atual 45346.00
solucao atual 45346.00
solucao atual 45346.00
solucao atual 45346.00
solucao atual 45346.00
solucao atual 45346.00
solucao atual 45346.00
iteration 2 sol 45346.00
solucao atual 45350.00
TIMEOUT
TIMEOUT
TIMEOUT
iteration 3 sol 45350.00
Calls to change | Calls removed by BIT 
2188880 | 2188880
Calls to add | Calls removed by BIT 
39668 | 0
Number of iterations = 4
Best Solution was found in iteration = 0
Time used by neighbor | Times each neighbor was used | Improvements
N_1 = 0.02 | 7 | 0
N_2 = 0.03 | 7 | 0
N_3 = 0.00 | 6 | 0
N_4 = 0.01 | 6 | 0
N_5 = 97.51 | 6 | 0
Time to find the best solution = 193.91
Solution = 45611.00
Time = 612.14
