solucao atual 124054.00
solucao atual 124054.00
solucao atual 124054.00
solucao atual 124054.00
TIMEOUT
TIMEOUT
iteration 0 sol 124054.00
Calls to change | Calls removed by BIT 
2183436 | 1041918
Calls to add | Calls removed by BIT 
10735 | 2168
Number of iterations = 1
Best Solution was found in iteration = 0
Time used by neighbor | Times each neighbor was used | Improvements
N_1 = 1.20 | 2 | 1
N_2 = 0.03 | 1 | 0
N_3 = 0.00 | 1 | 0
N_4 = 0.00 | 1 | 0
N_5 = 60.11 | 1 | 0
Time to find the best solution = 614.76
Solution = 124054.00
Time = 614.76
