solucao atual 45358.00
solucao atual 45358.00
solucao atual 45358.00
solucao atual 45358.00
solucao atual 45358.00
solucao atual 45358.00
solucao atual 45358.00
solucao atual 45358.00
solucao atual 45358.00
solucao atual 45358.00
iteration 0 sol 45358.00
solucao atual 45484.00
solucao atual 45484.00
solucao atual 45484.00
solucao atual 45484.00
solucao atual 45484.00
solucao atual 45484.00
solucao atual 45484.00
solucao atual 45484.00
solucao atual 45484.00
solucao atual 45484.00
iteration 1 sol 45484.00
solucao atual 45306.00
solucao atual 45306.00
solucao atual 45306.00
solucao atual 45306.00
solucao atual 45306.00
solucao atual 45306.00
solucao atual 45306.00
solucao atual 45306.00
solucao atual 45306.00
solucao atual 45306.00
iteration 2 sol 45306.00
solucao atual 45192.00
solucao atual 45192.00
TIMEOUT
TIMEOUT
TIMEOUT
iteration 3 sol 45192.00
Calls to change | Calls removed by BIT 
2312661 | 2312661
Calls to add | Calls removed by BIT 
40531 | 0
Number of iterations = 4
Best Solution was found in iteration = 1
Time used by neighbor | Times each neighbor was used | Improvements
N_1 = 0.02 | 7 | 0
N_2 = 0.02 | 7 | 0
N_3 = 0.00 | 7 | 0
N_4 = 0.01 | 6 | 0
N_5 = 89.24 | 6 | 0
Time to find the best solution = 381.03
Solution = 45484.00
Time = 613.72
