solucao atual 47671.00
solucao atual 47671.00
solucao atual 47671.00
solucao atual 47671.00
solucao atual 47671.00
solucao atual 47671.00
solucao atual 47671.00
solucao atual 47671.00
solucao atual 47671.00
solucao atual 47671.00
iteration 0 sol 47671.00
solucao atual 45805.00
solucao atual 45805.00
solucao atual 45805.00
solucao atual 45805.00
solucao atual 45805.00
solucao atual 45805.00
solucao atual 45805.00
solucao atual 45805.00
solucao atual 45805.00
solucao atual 45805.00
iteration 1 sol 45805.00
solucao atual 47317.00
solucao atual 47317.00
solucao atual 47317.00
solucao atual 47317.00
solucao atual 47317.00
solucao atual 47317.00
solucao atual 47317.00
solucao atual 47317.00
solucao atual 47317.00
solucao atual 47317.00
iteration 2 sol 47317.00
solucao atual 45464.00
solucao atual 45464.00
solucao atual 45464.00
solucao atual 45464.00
solucao atual 45464.00
solucao atual 45464.00
solucao atual 45464.00
solucao atual 45464.00
solucao atual 45464.00
solucao atual 45464.00
iteration 3 sol 45464.00
solucao atual 46342.00
solucao atual 46342.00
solucao atual 46342.00
solucao atual 46342.00
solucao atual 46342.00
solucao atual 46342.00
solucao atual 46342.00
solucao atual 46342.00
solucao atual 46342.00
solucao atual 46342.00
iteration 4 sol 46342.00
solucao atual 46562.00
solucao atual 46562.00
solucao atual 46562.00
solucao atual 46562.00
solucao atual 46562.00
solucao atual 46562.00
solucao atual 46562.00
solucao atual 46562.00
solucao atual 46562.00
solucao atual 46562.00
iteration 5 sol 46562.00
solucao atual 46214.00
solucao atual 46214.00
solucao atual 46214.00
solucao atual 46214.00
solucao atual 46214.00
solucao atual 46214.00
solucao atual 46214.00
solucao atual 46214.00
solucao atual 46214.00
solucao atual 46214.00
iteration 6 sol 46214.00
solucao atual 47392.00
TIMEOUT
TIMEOUT
TIMEOUT
iteration 7 sol 47392.00
Calls to change | Calls removed by BIT 
1679220 | 1520136
Calls to add | Calls removed by BIT 
419458 | 0
Number of iterations = 8
Best Solution was found in iteration = 0
Time used by neighbor | Times each neighbor was used | Improvements
N_1 = 0.04 | 21 | 6
N_2 = 0.05 | 15 | 0
N_3 = 0.00 | 14 | 0
N_4 = 0.03 | 14 | 0
N_5 = 82.58 | 14 | 0
Time to find the best solution = 79.36
Solution = 47671.00
Time = 601.97
