solucao atual 27372.00
solucao atual 27372.00
solucao atual 27372.00
solucao atual 27372.00
solucao atual 27372.00
solucao atual 27372.00
solucao atual 27372.00
solucao atual 27457.00
solucao atual 27457.00
solucao atual 27457.00
solucao atual 27457.00
solucao atual 27457.00
solucao atual 27457.00
solucao atual 27457.00
solucao atual 27457.00
solucao atual 27457.00
solucao atual 27457.00
solucao atual 27457.00
solucao atual 27457.00
solucao atual 27457.00
solucao atual 27457.00
solucao atual 27457.00
solucao atual 27457.00
solucao atual 27457.00
solucao atual 27457.00
solucao atual 27457.00
solucao atual 28091.00
solucao atual 28091.00
solucao atual 28091.00
solucao atual 28091.00
solucao atual 28091.00
solucao atual 28091.00
solucao atual 28091.00
solucao atual 28091.00
solucao atual 28091.00
solucao atual 28091.00
solucao atual 28091.00
solucao atual 28091.00
solucao atual 28091.00
solucao atual 28091.00
solucao atual 28091.00
solucao atual 28091.00
solucao atual 28091.00
solucao atual 28091.00
solucao atual 28091.00
solucao atual 28091.00
solucao atual 28091.00
solucao atual 28091.00
solucao atual 28091.00
solucao atual 28091.00
solucao atual 28091.00
solucao atual 28091.00
solucao atual 28091.00
solucao atual 28091.00
solucao atual 28091.00
solucao atual 28091.00
solucao atual 28091.00
solucao atual 28091.00
solucao atual 28091.00
solucao atual 28091.00
solucao atual 28091.00
solucao atual 28091.00
solucao atual 28091.00
solucao atual 28091.00
solucao atual 28091.00
solucao atual 28091.00
solucao atual 28091.00
solucao atual 28091.00
iteration 0 sol 28091.00
solucao atual 27374.00
solucao atual 27374.00
solucao atual 27374.00
solucao atual 27374.00
solucao atual 27374.00
solucao atual 27506.00
solucao atual 27506.00
solucao atual 27506.00
solucao atual 27506.00
solucao atual 27506.00
solucao atual 27506.00
solucao atual 27506.00
solucao atual 27506.00
solucao atual 27506.00
solucao atual 27506.00
solucao atual 27506.00
solucao atual 27506.00
solucao atual 27631.00
solucao atual 27631.00
solucao atual 27631.00
solucao atual 27631.00
solucao atual 27631.00
solucao atual 27631.00
solucao atual 27631.00
solucao atual 27631.00
solucao atual 27631.00
solucao atual 27631.00
solucao atual 27631.00
solucao atual 27631.00
solucao atual 27631.00
solucao atual 27631.00
solucao atual 28354.00
solucao atual 28354.00
solucao atual 28354.00
solucao atual 28354.00
solucao atual 28354.00
solucao atual 28354.00
solucao atual 28354.00
solucao atual 28424.00
solucao atual 28424.00
solucao atual 28424.00
solucao atual 28424.00
solucao atual 28424.00
solucao atual 28424.00
solucao atual 28424.00
solucao atual 28424.00
solucao atual 28424.00
solucao atual 28424.00
solucao atual 28424.00
solucao atual 28424.00
solucao atual 28424.00
solucao atual 28424.00
solucao atual 28424.00
solucao atual 28424.00
solucao atual 28424.00
solucao atual 28424.00
solucao atual 28424.00
solucao atual 28424.00
solucao atual 28424.00
solucao atual 28424.00
solucao atual 28424.00
solucao atual 28424.00
solucao atual 28424.00
solucao atual 28424.00
solucao atual 28424.00
solucao atual 28424.00
solucao atual 28424.00
solucao atual 28424.00
solucao atual 28424.00
solucao atual 28424.00
solucao atual 28424.00
solucao atual 28424.00
solucao atual 28424.00
solucao atual 28424.00
solucao atual 28424.00
solucao atual 28424.00
solucao atual 28424.00
solucao atual 28424.00
solucao atual 28424.00
iteration 1 sol 28424.00
solucao atual 27283.00
solucao atual 27283.00
solucao atual 27283.00
solucao atual 27283.00
solucao atual 27283.00
solucao atual 27283.00
solucao atual 27699.00
solucao atual 27699.00
solucao atual 27699.00
solucao atual 27699.00
solucao atual 27699.00
solucao atual 27699.00
solucao atual 27699.00
solucao atual 27699.00
solucao atual 27699.00
solucao atual 27699.00
solucao atual 27699.00
solucao atual 27699.00
solucao atual 27699.00
solucao atual 27699.00
solucao atual 27699.00
solucao atual 27699.00
solucao atual 27699.00
solucao atual 27699.00
solucao atual 27699.00
solucao atual 27699.00
solucao atual 27699.00
solucao atual 27699.00
solucao atual 27699.00
solucao atual 27699.00
solucao atual 27699.00
solucao atual 27699.00
solucao atual 27699.00
solucao atual 27699.00
iteration 2 sol 27699.00
solucao atual 27784.00
solucao atual 27784.00
solucao atual 27784.00
solucao atual 27784.00
solucao atual 27784.00
solucao atual 27784.00
solucao atual 27784.00
solucao atual 27784.00
solucao atual 27784.00
solucao atual 27784.00
solucao atual 27949.00
solucao atual 27949.00
solucao atual 27949.00
solucao atual 27949.00
solucao atual 27949.00
solucao atual 27949.00
solucao atual 27949.00
solucao atual 27949.00
solucao atual 27949.00
solucao atual 27949.00
solucao atual 27949.00
solucao atual 27949.00
solucao atual 27949.00
solucao atual 27949.00
solucao atual 28068.00
solucao atual 28068.00
solucao atual 28068.00
solucao atual 28068.00
solucao atual 28068.00
solucao atual 28068.00
solucao atual 28068.00
solucao atual 28068.00
solucao atual 28068.00
solucao atual 28068.00
solucao atual 28068.00
solucao atual 28068.00
solucao atual 28068.00
solucao atual 28068.00
solucao atual 28068.00
solucao atual 28068.00
solucao atual 28068.00
solucao atual 28068.00
solucao atual 28068.00
solucao atual 28068.00
solucao atual 28068.00
solucao atual 28068.00
solucao atual 28068.00
solucao atual 28068.00
solucao atual 28068.00
solucao atual 28068.00
solucao atual 28068.00
solucao atual 28068.00
solucao atual 28068.00
solucao atual 28068.00
solucao atual 28068.00
solucao atual 28068.00
solucao atual 28068.00
solucao atual 28068.00
solucao atual 28068.00
solucao atual 28068.00
solucao atual 28068.00
solucao atual 28122.00
solucao atual 28122.00
solucao atual 28122.00
solucao atual 28122.00
solucao atual 28122.00
solucao atual 28122.00
solucao atual 28122.00
solucao atual 28122.00
solucao atual 28122.00
solucao atual 28122.00
solucao atual 28122.00
solucao atual 28122.00
solucao atual 28122.00
solucao atual 28122.00
solucao atual 28122.00
solucao atual 28122.00
solucao atual 28122.00
solucao atual 28122.00
solucao atual 28122.00
solucao atual 28122.00
solucao atual 28122.00
solucao atual 28122.00
solucao atual 28122.00
solucao atual 28122.00
solucao atual 28122.00
solucao atual 28122.00
solucao atual 28122.00
solucao atual 28122.00
solucao atual 28122.00
solucao atual 28122.00
solucao atual 28122.00
solucao atual 28122.00
solucao atual 28122.00
solucao atual 28122.00
solucao atual 28122.00
solucao atual 28122.00
solucao atual 28122.00
solucao atual 28122.00
solucao atual 28122.00
solucao atual 28122.00
solucao atual 28122.00
solucao atual 28122.00
solucao atual 28122.00
solucao atual 28122.00
solucao atual 28122.00
solucao atual 28122.00
solucao atual 28122.00
solucao atual 28122.00
solucao atual 28122.00
solucao atual 28122.00
solucao atual 28122.00
iteration 3 sol 28122.00
solucao atual 27675.00
solucao atual 27675.00
solucao atual 27675.00
solucao atual 27675.00
solucao atual 27675.00
solucao atual 27675.00
solucao atual 27675.00
solucao atual 27675.00
solucao atual 27675.00
solucao atual 27675.00
solucao atual 27851.00
solucao atual 27851.00
solucao atual 27851.00
solucao atual 27851.00
solucao atual 27851.00
solucao atual 27851.00
solucao atual 27851.00
solucao atual 27851.00
solucao atual 27851.00
solucao atual 27851.00
solucao atual 27851.00
solucao atual 27851.00
solucao atual 27893.00
solucao atual 27893.00
solucao atual 27893.00
solucao atual 27893.00
solucao atual 27893.00
solucao atual 27893.00
solucao atual 27893.00
solucao atual 27893.00
solucao atual 27893.00
solucao atual 27893.00
solucao atual 27893.00
solucao atual 27893.00
solucao atual 27893.00
solucao atual 27965.00
solucao atual 27965.00
solucao atual 27965.00
solucao atual 27965.00
solucao atual 27965.00
solucao atual 27965.00
solucao atual 27965.00
solucao atual 27965.00
solucao atual 27965.00
solucao atual 27965.00
solucao atual 27965.00
solucao atual 27965.00
solucao atual 27965.00
solucao atual 27965.00
solucao atual 28073.00
solucao atual 28073.00
solucao atual 28073.00
solucao atual 28073.00
solucao atual 28073.00
solucao atual 28073.00
solucao atual 28073.00
solucao atual 28145.00
solucao atual 28145.00
solucao atual 28145.00
solucao atual 28145.00
solucao atual 28145.00
solucao atual 28145.00
solucao atual 28145.00
solucao atual 28145.00
solucao atual 28145.00
solucao atual 28145.00
solucao atual 28145.00
solucao atual 28145.00
solucao atual 28145.00
solucao atual 28145.00
solucao atual 28145.00
solucao atual 28145.00
solucao atual 28145.00
solucao atual 28145.00
solucao atual 28145.00
solucao atual 28145.00
solucao atual 28145.00
solucao atual 28145.00
solucao atual 28145.00
solucao atual 28145.00
solucao atual 28145.00
solucao atual 28145.00
solucao atual 28145.00
solucao atual 28145.00
solucao atual 28145.00
solucao atual 28145.00
solucao atual 28145.00
solucao atual 28145.00
solucao atual 28145.00
solucao atual 28145.00
solucao atual 28145.00
solucao atual 28145.00
solucao atual 28145.00
solucao atual 28199.00
solucao atual 28199.00
solucao atual 28199.00
solucao atual 28199.00
solucao atual 28199.00
solucao atual 28199.00
solucao atual 28199.00
solucao atual 28199.00
solucao atual 28199.00
solucao atual 28199.00
solucao atual 28199.00
solucao atual 28199.00
solucao atual 28199.00
solucao atual 28199.00
solucao atual 28199.00
solucao atual 28199.00
solucao atual 28199.00
solucao atual 28199.00
solucao atual 28199.00
solucao atual 28199.00
solucao atual 28199.00
solucao atual 28199.00
solucao atual 28199.00
solucao atual 28199.00
solucao atual 28199.00
solucao atual 28199.00
solucao atual 28199.00
solucao atual 28199.00
solucao atual 28199.00
solucao atual 28199.00
solucao atual 28199.00
solucao atual 28199.00
solucao atual 28199.00
solucao atual 28199.00
solucao atual 28199.00
solucao atual 28199.00
solucao atual 28199.00
solucao atual 28199.00
solucao atual 28199.00
solucao atual 28199.00
solucao atual 28199.00
solucao atual 28199.00
iteration 4 sol 28199.00
solucao atual 27701.00
solucao atual 27701.00
solucao atual 27701.00
solucao atual 27701.00
solucao atual 27701.00
solucao atual 27701.00
solucao atual 28192.00
solucao atual 28192.00
solucao atual 28192.00
solucao atual 28192.00
solucao atual 28192.00
solucao atual 28192.00
solucao atual 28192.00
solucao atual 28192.00
solucao atual 28192.00
solucao atual 28192.00
solucao atual 28192.00
solucao atual 28192.00
solucao atual 28192.00
solucao atual 28192.00
solucao atual 28721.00
solucao atual 28721.00
solucao atual 28721.00
solucao atual 28721.00
solucao atual 28721.00
solucao atual 28721.00
solucao atual 28721.00
solucao atual 28721.00
solucao atual 28721.00
solucao atual 28721.00
solucao atual 28721.00
solucao atual 28721.00
solucao atual 28721.00
solucao atual 28721.00
solucao atual 28721.00
solucao atual 28721.00
solucao atual 28721.00
solucao atual 28721.00
solucao atual 28721.00
solucao atual 28721.00
solucao atual 28721.00
solucao atual 28721.00
solucao atual 28721.00
solucao atual 28721.00
solucao atual 28721.00
solucao atual 28721.00
solucao atual 28721.00
solucao atual 28721.00
solucao atual 28791.00
solucao atual 28791.00
solucao atual 28791.00
solucao atual 28791.00
solucao atual 28791.00
solucao atual 28791.00
solucao atual 28791.00
solucao atual 28791.00
solucao atual 28791.00
solucao atual 28791.00
solucao atual 28791.00
solucao atual 28791.00
solucao atual 28791.00
solucao atual 28791.00
solucao atual 28791.00
solucao atual 28791.00
solucao atual 28791.00
solucao atual 28791.00
solucao atual 28791.00
solucao atual 28791.00
solucao atual 28791.00
solucao atual 28791.00
solucao atual 28791.00
solucao atual 28791.00
solucao atual 28791.00
solucao atual 28791.00
solucao atual 28791.00
solucao atual 28791.00
solucao atual 28791.00
solucao atual 28791.00
solucao atual 28791.00
solucao atual 28791.00
solucao atual 28791.00
solucao atual 28791.00
solucao atual 28791.00
solucao atual 28791.00
solucao atual 28791.00
solucao atual 28791.00
solucao atual 28791.00
solucao atual 28791.00
solucao atual 28791.00
solucao atual 28791.00
iteration 5 sol 28791.00
solucao atual 27385.00
solucao atual 27385.00
solucao atual 27385.00
solucao atual 27385.00
solucao atual 27385.00
solucao atual 27385.00
solucao atual 27385.00
solucao atual 27385.00
solucao atual 27385.00
solucao atual 27385.00
solucao atual 27385.00
solucao atual 27385.00
solucao atual 27385.00
solucao atual 27385.00
solucao atual 27547.00
solucao atual 27547.00
solucao atual 27547.00
solucao atual 27547.00
solucao atual 27547.00
solucao atual 27551.00
solucao atual 27551.00
solucao atual 27551.00
solucao atual 27551.00
solucao atual 27551.00
solucao atual 27551.00
solucao atual 27551.00
solucao atual 27551.00
solucao atual 27551.00
solucao atual 27551.00
solucao atual 27629.00
solucao atual 27629.00
solucao atual 27629.00
solucao atual 27629.00
solucao atual 27629.00
solucao atual 27629.00
solucao atual 27629.00
solucao atual 27629.00
solucao atual 27629.00
solucao atual 27629.00
solucao atual 27640.00
solucao atual 27640.00
solucao atual 27640.00
solucao atual 27640.00
solucao atual 27640.00
solucao atual 27640.00
solucao atual 27640.00
solucao atual 27640.00
solucao atual 27640.00
solucao atual 27640.00
solucao atual 27640.00
solucao atual 27640.00
solucao atual 27640.00
solucao atual 27640.00
solucao atual 27645.00
solucao atual 27645.00
solucao atual 27645.00
solucao atual 27645.00
solucao atual 27645.00
solucao atual 27645.00
solucao atual 27645.00
solucao atual 27645.00
solucao atual 27645.00
solucao atual 27645.00
solucao atual 27645.00
solucao atual 27645.00
solucao atual 27645.00
solucao atual 27645.00
solucao atual 27645.00
solucao atual 27645.00
solucao atual 27645.00
solucao atual 27645.00
solucao atual 27645.00
solucao atual 27645.00
solucao atual 27645.00
solucao atual 27645.00
solucao atual 27645.00
solucao atual 27645.00
solucao atual 27645.00
solucao atual 27645.00
solucao atual 27645.00
solucao atual 27645.00
iteration 6 sol 27645.00
solucao atual 27577.00
solucao atual 27577.00
solucao atual 27577.00
solucao atual 27577.00
solucao atual 27577.00
solucao atual 27577.00
solucao atual 27577.00
solucao atual 27577.00
solucao atual 27577.00
solucao atual 27577.00
solucao atual 27577.00
solucao atual 27577.00
solucao atual 27577.00
solucao atual 27577.00
solucao atual 27577.00
solucao atual 27577.00
solucao atual 27577.00
solucao atual 27577.00
solucao atual 27577.00
solucao atual 27577.00
solucao atual 27577.00
solucao atual 27577.00
solucao atual 27577.00
solucao atual 27784.00
solucao atual 27784.00
solucao atual 27784.00
solucao atual 27784.00
solucao atual 27784.00
solucao atual 27784.00
solucao atual 27784.00
solucao atual 27784.00
solucao atual 27784.00
solucao atual 27784.00
solucao atual 27784.00
solucao atual 27784.00
solucao atual 27784.00
solucao atual 27784.00
solucao atual 27830.00
solucao atual 27830.00
solucao atual 27830.00
solucao atual 27830.00
solucao atual 27830.00
solucao atual 27830.00
solucao atual 27853.00
solucao atual 27853.00
solucao atual 27853.00
solucao atual 27853.00
solucao atual 27853.00
solucao atual 28448.00
solucao atual 28448.00
solucao atual 28448.00
solucao atual 28448.00
solucao atual 28448.00
solucao atual 28448.00
solucao atual 28448.00
solucao atual 28448.00
solucao atual 28448.00
solucao atual 28448.00
solucao atual 28448.00
solucao atual 28448.00
solucao atual 28448.00
solucao atual 28448.00
solucao atual 28448.00
solucao atual 28448.00
solucao atual 28448.00
solucao atual 28448.00
solucao atual 28448.00
solucao atual 28448.00
solucao atual 28448.00
solucao atual 28448.00
solucao atual 28448.00
solucao atual 28448.00
solucao atual 28448.00
solucao atual 28448.00
solucao atual 28448.00
solucao atual 28448.00
solucao atual 28541.00
solucao atual 28541.00
solucao atual 28541.00
solucao atual 28541.00
solucao atual 28541.00
solucao atual 28541.00
solucao atual 28541.00
solucao atual 28541.00
solucao atual 28541.00
solucao atual 28541.00
solucao atual 28541.00
solucao atual 28541.00
solucao atual 28541.00
solucao atual 28541.00
solucao atual 28541.00
solucao atual 28541.00
solucao atual 28541.00
solucao atual 28541.00
solucao atual 28541.00
solucao atual 28541.00
solucao atual 28541.00
solucao atual 28541.00
solucao atual 28541.00
solucao atual 28541.00
solucao atual 28541.00
solucao atual 28541.00
solucao atual 28541.00
solucao atual 28541.00
solucao atual 28541.00
solucao atual 28541.00
solucao atual 28541.00
solucao atual 28541.00
solucao atual 28541.00
solucao atual 28541.00
solucao atual 28541.00
solucao atual 28541.00
solucao atual 28541.00
solucao atual 28541.00
solucao atual 28541.00
solucao atual 28564.00
solucao atual 28564.00
solucao atual 28564.00
solucao atual 28564.00
solucao atual 28564.00
solucao atual 28564.00
solucao atual 28564.00
solucao atual 28564.00
solucao atual 28564.00
solucao atual 28564.00
solucao atual 28564.00
solucao atual 28564.00
solucao atual 28564.00
solucao atual 28564.00
solucao atual 28564.00
solucao atual 28564.00
solucao atual 28564.00
solucao atual 28564.00
solucao atual 28564.00
solucao atual 28564.00
solucao atual 28564.00
solucao atual 28564.00
solucao atual 28564.00
solucao atual 28564.00
solucao atual 28564.00
solucao atual 28564.00
solucao atual 28564.00
solucao atual 28634.00
solucao atual 28634.00
solucao atual 28634.00
solucao atual 28634.00
solucao atual 28634.00
solucao atual 28634.00
solucao atual 28634.00
solucao atual 28634.00
solucao atual 28634.00
solucao atual 28634.00
solucao atual 28634.00
solucao atual 28634.00
solucao atual 28634.00
solucao atual 28634.00
solucao atual 28634.00
solucao atual 28634.00
solucao atual 28634.00
solucao atual 28634.00
solucao atual 28634.00
solucao atual 28634.00
solucao atual 28634.00
solucao atual 28634.00
solucao atual 28634.00
solucao atual 28634.00
solucao atual 28634.00
solucao atual 28634.00
solucao atual 28634.00
solucao atual 28634.00
solucao atual 28634.00
solucao atual 28634.00
solucao atual 28634.00
solucao atual 28634.00
solucao atual 28634.00
solucao atual 28634.00
solucao atual 28634.00
solucao atual 28634.00
solucao atual 28634.00
solucao atual 28634.00
solucao atual 28634.00
solucao atual 28634.00
iteration 7 sol 28634.00
solucao atual 27548.00
solucao atual 27548.00
solucao atual 27548.00
solucao atual 27548.00
solucao atual 27548.00
solucao atual 27548.00
solucao atual 27548.00
solucao atual 27548.00
solucao atual 27548.00
solucao atual 27548.00
solucao atual 27548.00
solucao atual 27548.00
solucao atual 27548.00
solucao atual 27548.00
solucao atual 27548.00
solucao atual 27548.00
solucao atual 27548.00
solucao atual 27548.00
solucao atual 27548.00
solucao atual 27548.00
solucao atual 27548.00
solucao atual 27548.00
solucao atual 27548.00
solucao atual 27548.00
solucao atual 27548.00
solucao atual 27548.00
solucao atual 27548.00
solucao atual 27548.00
solucao atual 27548.00
solucao atual 27548.00
solucao atual 27548.00
solucao atual 27548.00
solucao atual 27548.00
iteration 8 sol 27548.00
solucao atual 27300.00
solucao atual 27300.00
solucao atual 27300.00
solucao atual 27300.00
solucao atual 27300.00
solucao atual 27709.00
solucao atual 27709.00
solucao atual 27709.00
solucao atual 27709.00
solucao atual 27709.00
solucao atual 27709.00
solucao atual 27782.00
solucao atual 27782.00
solucao atual 27782.00
solucao atual 27782.00
solucao atual 27782.00
solucao atual 27782.00
solucao atual 27969.00
solucao atual 27969.00
solucao atual 27969.00
solucao atual 27969.00
solucao atual 27969.00
solucao atual 27969.00
solucao atual 27969.00
solucao atual 27969.00
solucao atual 27969.00
solucao atual 27969.00
solucao atual 27969.00
solucao atual 27969.00
solucao atual 27969.00
solucao atual 27969.00
solucao atual 28131.00
solucao atual 28131.00
solucao atual 28131.00
solucao atual 28131.00
solucao atual 28131.00
solucao atual 28131.00
solucao atual 28131.00
solucao atual 28131.00
solucao atual 28131.00
solucao atual 28131.00
solucao atual 28131.00
solucao atual 28177.00
solucao atual 28177.00
solucao atual 28177.00
solucao atual 28177.00
solucao atual 28177.00
solucao atual 28177.00
solucao atual 28177.00
solucao atual 28177.00
solucao atual 28177.00
solucao atual 28177.00
solucao atual 28177.00
solucao atual 28177.00
solucao atual 28177.00
solucao atual 28177.00
solucao atual 28177.00
solucao atual 28177.00
solucao atual 28177.00
solucao atual 28177.00
solucao atual 28177.00
solucao atual 28177.00
solucao atual 28177.00
solucao atual 28177.00
solucao atual 28177.00
solucao atual 28177.00
solucao atual 28177.00
solucao atual 28177.00
solucao atual 28177.00
solucao atual 28177.00
solucao atual 28177.00
solucao atual 28177.00
solucao atual 28177.00
solucao atual 28177.00
solucao atual 28177.00
solucao atual 28177.00
solucao atual 28177.00
solucao atual 28177.00
solucao atual 28177.00
solucao atual 28177.00
solucao atual 28177.00
solucao atual 28177.00
solucao atual 28177.00
iteration 9 sol 28177.00
solucao atual 27438.00
solucao atual 27438.00
solucao atual 27438.00
solucao atual 27438.00
solucao atual 27438.00
solucao atual 27438.00
solucao atual 27438.00
solucao atual 27438.00
solucao atual 27581.00
solucao atual 27581.00
solucao atual 27581.00
solucao atual 27581.00
solucao atual 27581.00
solucao atual 27581.00
solucao atual 27581.00
solucao atual 27581.00
solucao atual 27581.00
solucao atual 27581.00
solucao atual 27581.00
solucao atual 27581.00
solucao atual 27581.00
solucao atual 27581.00
solucao atual 27689.00
solucao atual 27689.00
solucao atual 27689.00
solucao atual 27689.00
solucao atual 27689.00
solucao atual 28023.00
solucao atual 28023.00
solucao atual 28023.00
solucao atual 28023.00
solucao atual 28023.00
solucao atual 28023.00
solucao atual 28023.00
solucao atual 28023.00
solucao atual 28023.00
solucao atual 28023.00
solucao atual 28023.00
solucao atual 28023.00
solucao atual 28023.00
solucao atual 28023.00
solucao atual 28023.00
solucao atual 28023.00
solucao atual 28023.00
solucao atual 28023.00
solucao atual 28023.00
solucao atual 28023.00
solucao atual 28023.00
solucao atual 28023.00
solucao atual 28023.00
solucao atual 28023.00
solucao atual 28023.00
solucao atual 28023.00
solucao atual 28023.00
solucao atual 28023.00
solucao atual 28114.00
solucao atual 28114.00
solucao atual 28114.00
solucao atual 28114.00
solucao atual 28114.00
solucao atual 28114.00
solucao atual 28114.00
solucao atual 28114.00
solucao atual 28114.00
solucao atual 28114.00
solucao atual 28114.00
solucao atual 28114.00
solucao atual 28114.00
solucao atual 28114.00
solucao atual 28114.00
solucao atual 28114.00
solucao atual 28114.00
solucao atual 28114.00
solucao atual 28114.00
solucao atual 28114.00
solucao atual 28114.00
solucao atual 28114.00
solucao atual 28114.00
solucao atual 28114.00
solucao atual 28114.00
solucao atual 28114.00
solucao atual 28114.00
solucao atual 28114.00
solucao atual 28114.00
solucao atual 28114.00
solucao atual 28114.00
solucao atual 28114.00
solucao atual 28114.00
solucao atual 28114.00
solucao atual 28114.00
solucao atual 28114.00
solucao atual 28114.00
solucao atual 28114.00
solucao atual 28114.00
solucao atual 28114.00
iteration 10 sol 28114.00
solucao atual 27213.00
solucao atual 27213.00
solucao atual 27213.00
solucao atual 27213.00
solucao atual 27213.00
solucao atual 27445.00
solucao atual 27445.00
solucao atual 27445.00
solucao atual 27445.00
solucao atual 27445.00
solucao atual 27445.00
solucao atual 27445.00
solucao atual 27445.00
solucao atual 27445.00
solucao atual 27445.00
solucao atual 27445.00
solucao atual 27445.00
solucao atual 27445.00
solucao atual 27445.00
solucao atual 27445.00
solucao atual 27445.00
solucao atual 27445.00
solucao atual 27445.00
solucao atual 27445.00
solucao atual 27445.00
solucao atual 27573.00
solucao atual 27573.00
solucao atual 27573.00
solucao atual 27573.00
solucao atual 27573.00
solucao atual 27573.00
solucao atual 27573.00
solucao atual 27573.00
solucao atual 27573.00
solucao atual 27573.00
solucao atual 27573.00
solucao atual 27630.00
solucao atual 27630.00
solucao atual 27630.00
solucao atual 27630.00
solucao atual 27630.00
solucao atual 27630.00
solucao atual 27630.00
solucao atual 27630.00
solucao atual 27630.00
solucao atual 27630.00
solucao atual 27630.00
solucao atual 27630.00
solucao atual 27630.00
solucao atual 27630.00
solucao atual 27630.00
solucao atual 27630.00
solucao atual 27630.00
solucao atual 27630.00
solucao atual 27630.00
solucao atual 27630.00
solucao atual 27630.00
solucao atual 27630.00
solucao atual 27630.00
solucao atual 27630.00
solucao atual 27630.00
solucao atual 27630.00
solucao atual 27630.00
solucao atual 27630.00
solucao atual 27630.00
solucao atual 27630.00
solucao atual 27630.00
solucao atual 27630.00
solucao atual 27630.00
solucao atual 27630.00
solucao atual 27630.00
solucao atual 27630.00
solucao atual 27630.00
solucao atual 27630.00
solucao atual 27630.00
solucao atual 27630.00
solucao atual 27630.00
solucao atual 27630.00
iteration 11 sol 27630.00
solucao atual 27184.00
solucao atual 27184.00
solucao atual 27184.00
solucao atual 27184.00
solucao atual 27184.00
solucao atual 27184.00
solucao atual 27184.00
solucao atual 27184.00
solucao atual 27184.00
solucao atual 27184.00
solucao atual 27184.00
solucao atual 27184.00
solucao atual 27227.00
solucao atual 27227.00
solucao atual 27227.00
solucao atual 27227.00
solucao atual 27227.00
solucao atual 27227.00
solucao atual 27227.00
solucao atual 27383.00
solucao atual 27383.00
solucao atual 27383.00
solucao atual 27383.00
solucao atual 27383.00
solucao atual 27383.00
solucao atual 27383.00
solucao atual 27383.00
solucao atual 27383.00
solucao atual 27383.00
solucao atual 27383.00
solucao atual 27383.00
solucao atual 27383.00
solucao atual 27383.00
solucao atual 27383.00
solucao atual 27383.00
solucao atual 27383.00
solucao atual 27383.00
solucao atual 27383.00
solucao atual 27383.00
solucao atual 27383.00
solucao atual 27383.00
solucao atual 27383.00
solucao atual 27383.00
solucao atual 27383.00
solucao atual 27383.00
solucao atual 27383.00
solucao atual 27383.00
solucao atual 27413.00
solucao atual 27413.00
solucao atual 27413.00
solucao atual 27413.00
solucao atual 27413.00
solucao atual 27413.00
solucao atual 27413.00
solucao atual 27427.00
solucao atual 27427.00
solucao atual 27427.00
solucao atual 27427.00
solucao atual 27427.00
solucao atual 27427.00
solucao atual 27427.00
solucao atual 27427.00
solucao atual 27427.00
solucao atual 27427.00
solucao atual 27497.00
solucao atual 27497.00
solucao atual 27497.00
solucao atual 27497.00
solucao atual 27497.00
solucao atual 27497.00
solucao atual 27497.00
solucao atual 27497.00
solucao atual 27497.00
solucao atual 27497.00
solucao atual 27497.00
solucao atual 27497.00
solucao atual 27497.00
solucao atual 27497.00
solucao atual 27497.00
solucao atual 27497.00
solucao atual 27497.00
solucao atual 27497.00
solucao atual 27497.00
solucao atual 27497.00
solucao atual 27497.00
solucao atual 27497.00
solucao atual 27497.00
solucao atual 27497.00
solucao atual 27497.00
solucao atual 27497.00
solucao atual 27497.00
solucao atual 27497.00
solucao atual 27497.00
solucao atual 27497.00
solucao atual 27497.00
solucao atual 27497.00
solucao atual 27497.00
solucao atual 27497.00
solucao atual 27497.00
solucao atual 27497.00
solucao atual 27497.00
solucao atual 27497.00
solucao atual 27497.00
solucao atual 27497.00
solucao atual 27497.00
solucao atual 27497.00
solucao atual 27497.00
solucao atual 27497.00
solucao atual 27750.00
solucao atual 27750.00
solucao atual 27750.00
solucao atual 27750.00
solucao atual 27750.00
solucao atual 27928.00
solucao atual 27928.00
solucao atual 27928.00
solucao atual 27928.00
solucao atual 27928.00
solucao atual 27928.00
solucao atual 27928.00
solucao atual 28014.00
solucao atual 28014.00
solucao atual 28014.00
solucao atual 28014.00
solucao atual 28014.00
solucao atual 28014.00
solucao atual 28014.00
solucao atual 28014.00
solucao atual 28014.00
solucao atual 28014.00
solucao atual 28014.00
solucao atual 28014.00
solucao atual 28014.00
solucao atual 28014.00
solucao atual 28014.00
solucao atual 28014.00
solucao atual 28014.00
solucao atual 28014.00
solucao atual 28014.00
solucao atual 28014.00
solucao atual 28014.00
solucao atual 28014.00
solucao atual 28014.00
solucao atual 28014.00
solucao atual 28014.00
solucao atual 28014.00
solucao atual 28014.00
solucao atual 28014.00
solucao atual 28084.00
solucao atual 28084.00
solucao atual 28084.00
solucao atual 28084.00
solucao atual 28084.00
solucao atual 28084.00
solucao atual 28084.00
solucao atual 28084.00
solucao atual 28084.00
solucao atual 28084.00
solucao atual 28084.00
solucao atual 28084.00
solucao atual 28084.00
solucao atual 28084.00
solucao atual 28084.00
solucao atual 28084.00
solucao atual 28084.00
solucao atual 28084.00
solucao atual 28084.00
solucao atual 28084.00
solucao atual 28084.00
solucao atual 28084.00
solucao atual 28084.00
solucao atual 28084.00
solucao atual 28084.00
solucao atual 28084.00
solucao atual 28084.00
solucao atual 28084.00
solucao atual 28084.00
solucao atual 28084.00
solucao atual 28084.00
solucao atual 28084.00
solucao atual 28084.00
solucao atual 28084.00
solucao atual 28084.00
solucao atual 28084.00
solucao atual 28084.00
solucao atual 28084.00
solucao atual 28084.00
solucao atual 28084.00
solucao atual 28084.00
iteration 12 sol 28084.00
solucao atual 27509.00
solucao atual 27509.00
solucao atual 27509.00
solucao atual 27509.00
solucao atual 27509.00
solucao atual 27509.00
solucao atual 27509.00
solucao atual 27509.00
solucao atual 27509.00
solucao atual 27663.00
solucao atual 27663.00
solucao atual 27663.00
solucao atual 27663.00
solucao atual 27663.00
solucao atual 27663.00
solucao atual 27663.00
solucao atual 27663.00
solucao atual 27663.00
solucao atual 27663.00
solucao atual 27663.00
solucao atual 27663.00
solucao atual 27663.00
solucao atual 27663.00
solucao atual 27674.00
solucao atual 27674.00
solucao atual 27674.00
solucao atual 27674.00
solucao atual 27674.00
solucao atual 27674.00
solucao atual 28085.00
solucao atual 28085.00
solucao atual 28085.00
solucao atual 28085.00
solucao atual 28085.00
solucao atual 28085.00
solucao atual 28085.00
solucao atual 28085.00
solucao atual 28085.00
solucao atual 28085.00
solucao atual 28085.00
solucao atual 28085.00
solucao atual 28085.00
solucao atual 28085.00
solucao atual 28085.00
solucao atual 28085.00
solucao atual 28085.00
solucao atual 28085.00
solucao atual 28085.00
solucao atual 28085.00
solucao atual 28085.00
solucao atual 28085.00
solucao atual 28085.00
solucao atual 28085.00
solucao atual 28085.00
solucao atual 28085.00
solucao atual 28085.00
solucao atual 28085.00
solucao atual 28085.00
solucao atual 28085.00
solucao atual 28085.00
solucao atual 28085.00
solucao atual 28085.00
solucao atual 28085.00
solucao atual 28085.00
solucao atual 28085.00
solucao atual 28085.00
solucao atual 28085.00
solucao atual 28085.00
solucao atual 28085.00
solucao atual 28085.00
solucao atual 28085.00
iteration 13 sol 28085.00
solucao atual 27326.00
solucao atual 27326.00
solucao atual 27326.00
solucao atual 27326.00
solucao atual 27326.00
solucao atual 27503.00
solucao atual 27503.00
solucao atual 27503.00
solucao atual 27503.00
solucao atual 27503.00
solucao atual 27503.00
solucao atual 27503.00
solucao atual 27503.00
solucao atual 27703.00
solucao atual 27703.00
solucao atual 27703.00
solucao atual 27703.00
solucao atual 27703.00
solucao atual 27703.00
solucao atual 27703.00
solucao atual 27703.00
solucao atual 27703.00
solucao atual 27703.00
solucao atual 27703.00
solucao atual 27703.00
solucao atual 27703.00
solucao atual 27703.00
solucao atual 27931.00
solucao atual 27931.00
solucao atual 27931.00
solucao atual 27931.00
solucao atual 27931.00
solucao atual 27931.00
solucao atual 27931.00
solucao atual 27931.00
solucao atual 27972.00
solucao atual 27972.00
solucao atual 27972.00
solucao atual 27972.00
solucao atual 27972.00
solucao atual 27972.00
solucao atual 27972.00
solucao atual 27980.00
solucao atual 27980.00
solucao atual 27980.00
solucao atual 27980.00
solucao atual 27980.00
solucao atual 27980.00
solucao atual 27980.00
solucao atual 27980.00
solucao atual 27980.00
solucao atual 27980.00
solucao atual 27980.00
solucao atual 27980.00
solucao atual 27980.00
solucao atual 27980.00
solucao atual 27980.00
solucao atual 27980.00
solucao atual 27980.00
solucao atual 27980.00
solucao atual 27980.00
solucao atual 27980.00
solucao atual 27980.00
solucao atual 27980.00
solucao atual 27980.00
solucao atual 27980.00
solucao atual 27980.00
solucao atual 27980.00
solucao atual 27980.00
solucao atual 27980.00
solucao atual 27980.00
solucao atual 27980.00
solucao atual 27980.00
solucao atual 27980.00
solucao atual 27980.00
solucao atual 27980.00
solucao atual 27980.00
solucao atual 27980.00
solucao atual 27980.00
solucao atual 27980.00
solucao atual 27980.00
solucao atual 27980.00
iteration 14 sol 27980.00
solucao atual 27596.00
solucao atual 27596.00
solucao atual 27596.00
solucao atual 27596.00
solucao atual 27596.00
solucao atual 27596.00
solucao atual 27596.00
solucao atual 27596.00
solucao atual 27596.00
solucao atual 27670.00
solucao atual 27670.00
solucao atual 27670.00
solucao atual 27670.00
solucao atual 27670.00
solucao atual 27670.00
solucao atual 27670.00
solucao atual 27670.00
solucao atual 27670.00
solucao atual 27670.00
solucao atual 27670.00
solucao atual 27670.00
solucao atual 27670.00
solucao atual 27670.00
solucao atual 27724.00
solucao atual 27724.00
solucao atual 27724.00
solucao atual 27724.00
solucao atual 27724.00
solucao atual 27724.00
solucao atual 27724.00
solucao atual 27724.00
solucao atual 27724.00
solucao atual 27724.00
solucao atual 28094.00
solucao atual 28094.00
solucao atual 28094.00
solucao atual 28094.00
solucao atual 28094.00
solucao atual 28094.00
solucao atual 28094.00
solucao atual 28094.00
solucao atual 28094.00
solucao atual 28094.00
solucao atual 28094.00
solucao atual 28094.00
solucao atual 28094.00
solucao atual 28094.00
solucao atual 28094.00
solucao atual 28094.00
solucao atual 28094.00
solucao atual 28094.00
solucao atual 28094.00
solucao atual 28094.00
solucao atual 28094.00
solucao atual 28094.00
solucao atual 28094.00
solucao atual 28094.00
solucao atual 28094.00
solucao atual 28094.00
solucao atual 28094.00
solucao atual 28094.00
solucao atual 28094.00
solucao atual 28094.00
solucao atual 28094.00
solucao atual 28094.00
solucao atual 28094.00
solucao atual 28094.00
solucao atual 28094.00
solucao atual 28094.00
solucao atual 28094.00
solucao atual 28094.00
solucao atual 28094.00
solucao atual 28094.00
solucao atual 28094.00
solucao atual 28094.00
iteration 15 sol 28094.00
solucao atual 27439.00
solucao atual 27439.00
solucao atual 27439.00
solucao atual 27439.00
solucao atual 27439.00
solucao atual 27439.00
solucao atual 27476.00
solucao atual 27476.00
solucao atual 27476.00
solucao atual 27476.00
solucao atual 27476.00
solucao atual 27476.00
solucao atual 27708.00
solucao atual 27708.00
solucao atual 27708.00
solucao atual 27708.00
solucao atual 27708.00
solucao atual 27708.00
solucao atual 27708.00
solucao atual 27708.00
solucao atual 27708.00
solucao atual 27708.00
solucao atual 27708.00
solucao atual 27708.00
solucao atual 27708.00
solucao atual 27708.00
solucao atual 28471.00
solucao atual 28471.00
solucao atual 28471.00
solucao atual 28471.00
solucao atual 28471.00
solucao atual 28471.00
solucao atual 28471.00
solucao atual 28471.00
solucao atual 28471.00
solucao atual 28471.00
solucao atual 28471.00
solucao atual 28471.00
solucao atual 28471.00
solucao atual 28471.00
solucao atual 28471.00
solucao atual 28471.00
solucao atual 28471.00
solucao atual 28471.00
solucao atual 28471.00
solucao atual 28471.00
solucao atual 28471.00
solucao atual 28471.00
solucao atual 28471.00
solucao atual 28471.00
solucao atual 28471.00
solucao atual 28471.00
solucao atual 28471.00
solucao atual 28471.00
solucao atual 28471.00
solucao atual 28525.00
solucao atual 28525.00
solucao atual 28525.00
solucao atual 28525.00
solucao atual 28525.00
solucao atual 28525.00
solucao atual 28525.00
solucao atual 28525.00
solucao atual 28525.00
solucao atual 28525.00
solucao atual 28525.00
solucao atual 28525.00
solucao atual 28525.00
solucao atual 28525.00
solucao atual 28525.00
solucao atual 28525.00
solucao atual 28525.00
solucao atual 28525.00
solucao atual 28525.00
solucao atual 28525.00
solucao atual 28525.00
solucao atual 28525.00
solucao atual 28525.00
solucao atual 28525.00
solucao atual 28707.00
solucao atual 28707.00
solucao atual 28707.00
solucao atual 28707.00
solucao atual 28707.00
solucao atual 28707.00
solucao atual 28707.00
solucao atual 28707.00
solucao atual 28707.00
solucao atual 28707.00
solucao atual 28707.00
solucao atual 28707.00
solucao atual 28707.00
solucao atual 28707.00
solucao atual 28707.00
solucao atual 28707.00
solucao atual 28707.00
solucao atual 28707.00
solucao atual 28707.00
solucao atual 28707.00
solucao atual 28707.00
solucao atual 28707.00
solucao atual 28707.00
solucao atual 28707.00
solucao atual 28707.00
solucao atual 28707.00
solucao atual 28707.00
solucao atual 28798.00
solucao atual 28798.00
solucao atual 28798.00
solucao atual 28798.00
solucao atual 28798.00
solucao atual 28798.00
solucao atual 28817.00
solucao atual 28817.00
solucao atual 28817.00
solucao atual 28817.00
solucao atual 28817.00
solucao atual 28817.00
solucao atual 28817.00
solucao atual 28817.00
solucao atual 28817.00
solucao atual 28817.00
solucao atual 28858.00
solucao atual 28858.00
solucao atual 28858.00
solucao atual 28858.00
solucao atual 28858.00
solucao atual 28858.00
solucao atual 28858.00
solucao atual 28858.00
solucao atual 28859.00
solucao atual 28859.00
solucao atual 28859.00
solucao atual 28859.00
solucao atual 28859.00
solucao atual 28859.00
solucao atual 28859.00
solucao atual 28859.00
solucao atual 28859.00
solucao atual 28859.00
solucao atual 28859.00
solucao atual 28859.00
solucao atual 28859.00
solucao atual 28859.00
solucao atual 28859.00
solucao atual 28859.00
solucao atual 28859.00
solucao atual 28859.00
solucao atual 28859.00
solucao atual 28859.00
solucao atual 28859.00
solucao atual 28859.00
solucao atual 28859.00
solucao atual 28859.00
solucao atual 28859.00
solucao atual 28859.00
solucao atual 28859.00
solucao atual 28859.00
solucao atual 28859.00
solucao atual 28859.00
solucao atual 28859.00
solucao atual 28859.00
solucao atual 28859.00
solucao atual 28859.00
solucao atual 28859.00
solucao atual 28859.00
solucao atual 28859.00
solucao atual 28859.00
solucao atual 28859.00
solucao atual 28859.00
iteration 16 sol 28859.00
solucao atual 27140.00
solucao atual 27140.00
solucao atual 27140.00
solucao atual 27140.00
solucao atual 27140.00
solucao atual 27140.00
solucao atual 27140.00
solucao atual 27140.00
solucao atual 27140.00
solucao atual 27140.00
solucao atual 27140.00
solucao atual 27140.00
solucao atual 27140.00
solucao atual 27140.00
solucao atual 27140.00
solucao atual 27140.00
solucao atual 27140.00
solucao atual 27140.00
solucao atual 27140.00
solucao atual 27140.00
solucao atual 27140.00
solucao atual 27316.00
solucao atual 27316.00
solucao atual 27316.00
solucao atual 27316.00
solucao atual 27316.00
solucao atual 27316.00
solucao atual 27316.00
solucao atual 27316.00
solucao atual 27316.00
solucao atual 27316.00
solucao atual 27372.00
solucao atual 27372.00
solucao atual 27372.00
solucao atual 27372.00
solucao atual 27372.00
solucao atual 27372.00
solucao atual 27372.00
solucao atual 27372.00
solucao atual 27575.00
solucao atual 27575.00
solucao atual 27575.00
solucao atual 27575.00
solucao atual 27575.00
solucao atual 27575.00
solucao atual 27575.00
solucao atual 27575.00
solucao atual 27575.00
solucao atual 27575.00
solucao atual 27575.00
solucao atual 27575.00
solucao atual 27575.00
solucao atual 27575.00
solucao atual 27662.00
solucao atual 27662.00
solucao atual 27662.00
solucao atual 27662.00
solucao atual 27662.00
solucao atual 27662.00
solucao atual 27662.00
solucao atual 27708.00
solucao atual 27708.00
solucao atual 27708.00
solucao atual 27708.00
solucao atual 27708.00
solucao atual 27825.00
solucao atual 27825.00
solucao atual 27825.00
solucao atual 27825.00
solucao atual 27825.00
solucao atual 27825.00
solucao atual 27825.00
solucao atual 27825.00
solucao atual 27825.00
solucao atual 27825.00
solucao atual 27825.00
solucao atual 27825.00
solucao atual 27825.00
solucao atual 27825.00
solucao atual 27825.00
solucao atual 27825.00
solucao atual 27908.00
solucao atual 27908.00
solucao atual 27908.00
solucao atual 27908.00
solucao atual 27908.00
solucao atual 27908.00
solucao atual 27908.00
solucao atual 27908.00
solucao atual 27908.00
solucao atual 27908.00
solucao atual 27908.00
solucao atual 27908.00
solucao atual 27908.00
solucao atual 27908.00
solucao atual 27908.00
solucao atual 27908.00
solucao atual 27908.00
solucao atual 27908.00
solucao atual 27908.00
solucao atual 27908.00
solucao atual 27908.00
solucao atual 27908.00
solucao atual 27908.00
solucao atual 27908.00
solucao atual 27908.00
solucao atual 27908.00
solucao atual 27908.00
solucao atual 27908.00
solucao atual 27908.00
solucao atual 27908.00
solucao atual 27908.00
solucao atual 27908.00
solucao atual 27908.00
solucao atual 27908.00
solucao atual 27908.00
solucao atual 27908.00
solucao atual 27908.00
solucao atual 27908.00
solucao atual 27908.00
solucao atual 27908.00
solucao atual 27908.00
iteration 17 sol 27908.00
solucao atual 27304.00
solucao atual 27304.00
solucao atual 27304.00
solucao atual 27304.00
solucao atual 27304.00
solucao atual 27304.00
solucao atual 27359.00
solucao atual 27359.00
solucao atual 27359.00
solucao atual 27359.00
solucao atual 27359.00
solucao atual 27359.00
solucao atual 27359.00
solucao atual 27359.00
solucao atual 27359.00
solucao atual 27359.00
solucao atual 27359.00
solucao atual 27359.00
solucao atual 27459.00
solucao atual 27459.00
solucao atual 27459.00
solucao atual 27459.00
solucao atual 27459.00
solucao atual 27490.00
solucao atual 27490.00
solucao atual 27490.00
solucao atual 27490.00
solucao atual 27490.00
solucao atual 27490.00
solucao atual 27490.00
solucao atual 27490.00
solucao atual 27490.00
solucao atual 27490.00
solucao atual 27490.00
solucao atual 27490.00
solucao atual 27490.00
solucao atual 27490.00
solucao atual 27752.00
solucao atual 27752.00
solucao atual 27752.00
solucao atual 27752.00
solucao atual 27752.00
solucao atual 27752.00
solucao atual 27752.00
solucao atual 27752.00
solucao atual 27752.00
solucao atual 27752.00
solucao atual 27752.00
solucao atual 27752.00
solucao atual 27752.00
solucao atual 27752.00
solucao atual 27752.00
solucao atual 27752.00
solucao atual 27752.00
solucao atual 27752.00
solucao atual 27752.00
solucao atual 27752.00
solucao atual 27752.00
solucao atual 27752.00
solucao atual 27795.00
solucao atual 27795.00
solucao atual 27795.00
solucao atual 27795.00
solucao atual 27795.00
solucao atual 27795.00
solucao atual 27795.00
solucao atual 27795.00
solucao atual 27795.00
solucao atual 27795.00
solucao atual 27795.00
solucao atual 27795.00
solucao atual 27795.00
solucao atual 27795.00
solucao atual 27886.00
solucao atual 27886.00
solucao atual 27886.00
solucao atual 27886.00
solucao atual 27886.00
solucao atual 27886.00
solucao atual 27886.00
solucao atual 27886.00
solucao atual 27886.00
solucao atual 27886.00
solucao atual 28154.00
solucao atual 28154.00
solucao atual 28154.00
solucao atual 28154.00
solucao atual 28154.00
solucao atual 28154.00
solucao atual 28154.00
solucao atual 28154.00
solucao atual 28154.00
solucao atual 28154.00
solucao atual 28154.00
solucao atual 28154.00
solucao atual 28154.00
solucao atual 28154.00
solucao atual 28154.00
solucao atual 28154.00
solucao atual 28154.00
solucao atual 28154.00
solucao atual 28154.00
solucao atual 28154.00
solucao atual 28154.00
solucao atual 28154.00
solucao atual 28154.00
solucao atual 28154.00
solucao atual 28154.00
solucao atual 28154.00
solucao atual 28154.00
solucao atual 28154.00
solucao atual 28154.00
solucao atual 28154.00
solucao atual 28154.00
solucao atual 28154.00
solucao atual 28154.00
solucao atual 28154.00
solucao atual 28154.00
solucao atual 28154.00
solucao atual 28154.00
solucao atual 28154.00
solucao atual 28154.00
solucao atual 28154.00
solucao atual 28154.00
solucao atual 28154.00
iteration 18 sol 28154.00
solucao atual 26963.00
solucao atual 26963.00
solucao atual 26963.00
solucao atual 26963.00
solucao atual 26963.00
solucao atual 27023.00
solucao atual 27023.00
solucao atual 27023.00
solucao atual 27023.00
solucao atual 27023.00
solucao atual 27023.00
solucao atual 27023.00
solucao atual 27023.00
solucao atual 27023.00
solucao atual 27023.00
solucao atual 27023.00
solucao atual 27023.00
solucao atual 27023.00
solucao atual 27023.00
solucao atual 27182.00
solucao atual 27182.00
solucao atual 27182.00
solucao atual 27182.00
solucao atual 27182.00
solucao atual 27274.00
solucao atual 27274.00
solucao atual 27274.00
solucao atual 27274.00
solucao atual 27274.00
solucao atual 27274.00
solucao atual 27341.00
solucao atual 27341.00
solucao atual 27341.00
solucao atual 27341.00
solucao atual 27341.00
solucao atual 27341.00
solucao atual 27341.00
solucao atual 27341.00
solucao atual 27341.00
solucao atual 27341.00
solucao atual 27362.00
solucao atual 27362.00
solucao atual 27362.00
solucao atual 27362.00
solucao atual 27362.00
solucao atual 27362.00
solucao atual 27362.00
solucao atual 27362.00
solucao atual 27362.00
solucao atual 27362.00
solucao atual 27362.00
solucao atual 27362.00
solucao atual 27362.00
solucao atual 27362.00
solucao atual 27362.00
solucao atual 27362.00
solucao atual 27362.00
solucao atual 27362.00
solucao atual 27362.00
solucao atual 27362.00
solucao atual 27362.00
solucao atual 27362.00
solucao atual 27362.00
solucao atual 27362.00
solucao atual 27362.00
solucao atual 27362.00
solucao atual 27362.00
solucao atual 27362.00
solucao atual 27362.00
solucao atual 27362.00
solucao atual 27362.00
solucao atual 27362.00
solucao atual 27362.00
solucao atual 27362.00
solucao atual 27362.00
solucao atual 27362.00
solucao atual 27362.00
solucao atual 27362.00
solucao atual 27362.00
solucao atual 27362.00
solucao atual 27362.00
solucao atual 27362.00
solucao atual 27362.00
solucao atual 27362.00
solucao atual 27362.00
solucao atual 27362.00
solucao atual 27362.00
solucao atual 27362.00
solucao atual 27362.00
solucao atual 27362.00
solucao atual 27362.00
iteration 19 sol 27362.00
solucao atual 27710.00
solucao atual 27710.00
solucao atual 27710.00
solucao atual 27710.00
solucao atual 27710.00
solucao atual 27710.00
solucao atual 27710.00
solucao atual 27954.00
solucao atual 27954.00
solucao atual 27954.00
solucao atual 27954.00
solucao atual 27954.00
solucao atual 27954.00
solucao atual 27954.00
solucao atual 27954.00
solucao atual 27954.00
solucao atual 27954.00
solucao atual 27954.00
solucao atual 27954.00
solucao atual 27954.00
solucao atual 27954.00
solucao atual 27954.00
solucao atual 27954.00
solucao atual 27954.00
solucao atual 27954.00
solucao atual 27954.00
solucao atual 27954.00
solucao atual 27954.00
solucao atual 27954.00
solucao atual 27954.00
solucao atual 27954.00
solucao atual 27954.00
solucao atual 27954.00
solucao atual 27954.00
solucao atual 27954.00
solucao atual 27954.00
solucao atual 27954.00
solucao atual 27954.00
solucao atual 27954.00
solucao atual 28069.00
solucao atual 28069.00
solucao atual 28069.00
solucao atual 28069.00
solucao atual 28069.00
solucao atual 28069.00
solucao atual 28069.00
solucao atual 28069.00
solucao atual 28306.00
solucao atual 28306.00
solucao atual 28306.00
solucao atual 28306.00
solucao atual 28306.00
solucao atual 28306.00
solucao atual 28306.00
solucao atual 28306.00
solucao atual 28306.00
solucao atual 28306.00
solucao atual 28306.00
solucao atual 28306.00
solucao atual 28306.00
solucao atual 28306.00
solucao atual 28306.00
solucao atual 28306.00
solucao atual 28306.00
solucao atual 28306.00
solucao atual 28306.00
solucao atual 28306.00
solucao atual 28306.00
solucao atual 28306.00
solucao atual 28306.00
solucao atual 28306.00
solucao atual 28306.00
solucao atual 28306.00
solucao atual 28306.00
solucao atual 28306.00
solucao atual 28397.00
solucao atual 28397.00
solucao atual 28397.00
solucao atual 28397.00
solucao atual 28397.00
solucao atual 28397.00
solucao atual 28397.00
solucao atual 28397.00
solucao atual 28397.00
solucao atual 28397.00
solucao atual 28397.00
solucao atual 28397.00
solucao atual 28397.00
solucao atual 28414.00
solucao atual 28414.00
solucao atual 28414.00
solucao atual 28414.00
solucao atual 28414.00
solucao atual 28414.00
solucao atual 28414.00
solucao atual 28414.00
solucao atual 28414.00
solucao atual 28414.00
solucao atual 28414.00
solucao atual 28414.00
solucao atual 28414.00
solucao atual 28414.00
solucao atual 28414.00
solucao atual 28414.00
solucao atual 28414.00
solucao atual 28414.00
solucao atual 28414.00
solucao atual 28414.00
solucao atual 28414.00
solucao atual 28414.00
solucao atual 28414.00
solucao atual 28414.00
solucao atual 28414.00
solucao atual 28414.00
solucao atual 28414.00
solucao atual 28414.00
solucao atual 28414.00
solucao atual 28414.00
solucao atual 28414.00
solucao atual 28414.00
solucao atual 28414.00
solucao atual 28414.00
solucao atual 28414.00
solucao atual 28414.00
solucao atual 28414.00
solucao atual 28414.00
solucao atual 28414.00
solucao atual 28414.00
iteration 20 sol 28414.00
solucao atual 27847.00
solucao atual 27847.00
solucao atual 27847.00
solucao atual 27847.00
solucao atual 27847.00
solucao atual 27979.00
solucao atual 27979.00
solucao atual 27979.00
solucao atual 27979.00
solucao atual 27979.00
solucao atual 27979.00
solucao atual 27979.00
solucao atual 27979.00
solucao atual 27979.00
solucao atual 27979.00
solucao atual 27979.00
solucao atual 27979.00
solucao atual 27979.00
solucao atual 27979.00
solucao atual 28033.00
solucao atual 28033.00
solucao atual 28033.00
solucao atual 28033.00
solucao atual 28033.00
solucao atual 28033.00
solucao atual 28033.00
solucao atual 28033.00
solucao atual 28033.00
solucao atual 28033.00
solucao atual 28433.00
solucao atual 28433.00
solucao atual 28433.00
solucao atual 28433.00
solucao atual 28433.00
solucao atual 28433.00
solucao atual 28433.00
solucao atual 28433.00
solucao atual 28433.00
solucao atual 28433.00
solucao atual 28433.00
solucao atual 28433.00
solucao atual 28433.00
solucao atual 28433.00
solucao atual 28433.00
solucao atual 28433.00
solucao atual 28433.00
solucao atual 28433.00
solucao atual 28433.00
solucao atual 28433.00
solucao atual 28433.00
solucao atual 28433.00
solucao atual 28433.00
solucao atual 28433.00
solucao atual 28433.00
solucao atual 28433.00
solucao atual 28433.00
solucao atual 28433.00
solucao atual 28444.00
solucao atual 28444.00
solucao atual 28444.00
solucao atual 28444.00
solucao atual 28444.00
solucao atual 28444.00
solucao atual 28444.00
solucao atual 28444.00
solucao atual 28444.00
solucao atual 28444.00
solucao atual 28444.00
solucao atual 28444.00
solucao atual 28444.00
solucao atual 28444.00
solucao atual 28444.00
solucao atual 28444.00
solucao atual 28444.00
solucao atual 28444.00
solucao atual 28444.00
solucao atual 28444.00
solucao atual 28444.00
solucao atual 28444.00
solucao atual 28444.00
solucao atual 28444.00
solucao atual 28444.00
solucao atual 28444.00
solucao atual 28444.00
solucao atual 28444.00
solucao atual 28444.00
solucao atual 28444.00
solucao atual 28444.00
solucao atual 28444.00
solucao atual 28444.00
solucao atual 28444.00
solucao atual 28444.00
solucao atual 28444.00
solucao atual 28444.00
solucao atual 28444.00
solucao atual 28444.00
iteration 21 sol 28444.00
solucao atual 27295.00
solucao atual 27295.00
solucao atual 27295.00
solucao atual 27295.00
solucao atual 27295.00
solucao atual 27295.00
solucao atual 27295.00
solucao atual 27295.00
solucao atual 27295.00
solucao atual 27295.00
solucao atual 27295.00
solucao atual 27295.00
solucao atual 27295.00
solucao atual 27295.00
solucao atual 27295.00
solucao atual 27295.00
solucao atual 27295.00
solucao atual 27295.00
solucao atual 27295.00
solucao atual 27786.00
solucao atual 27786.00
solucao atual 27786.00
solucao atual 27786.00
solucao atual 27786.00
solucao atual 27786.00
solucao atual 27786.00
solucao atual 27786.00
solucao atual 27786.00
solucao atual 27786.00
solucao atual 27786.00
solucao atual 27786.00
solucao atual 27786.00
solucao atual 27786.00
solucao atual 27786.00
solucao atual 27786.00
solucao atual 27786.00
solucao atual 27786.00
solucao atual 27786.00
solucao atual 27786.00
solucao atual 27786.00
solucao atual 27786.00
solucao atual 27786.00
solucao atual 27786.00
solucao atual 27786.00
solucao atual 27786.00
solucao atual 27786.00
solucao atual 27786.00
solucao atual 27877.00
solucao atual 27877.00
solucao atual 27877.00
solucao atual 27877.00
solucao atual 27877.00
solucao atual 27877.00
solucao atual 27877.00
solucao atual 27968.00
solucao atual 27968.00
solucao atual 27968.00
solucao atual 27968.00
solucao atual 27968.00
solucao atual 27968.00
solucao atual 27968.00
solucao atual 27968.00
solucao atual 27968.00
solucao atual 27968.00
solucao atual 27968.00
solucao atual 27968.00
solucao atual 27968.00
solucao atual 27968.00
solucao atual 27968.00
solucao atual 27968.00
solucao atual 27968.00
solucao atual 27968.00
solucao atual 27968.00
solucao atual 27968.00
solucao atual 27968.00
solucao atual 27968.00
solucao atual 27968.00
solucao atual 27968.00
solucao atual 27968.00
solucao atual 27968.00
solucao atual 27968.00
solucao atual 27968.00
solucao atual 27968.00
solucao atual 27968.00
solucao atual 27968.00
solucao atual 27968.00
solucao atual 27968.00
solucao atual 27968.00
solucao atual 27968.00
solucao atual 27968.00
solucao atual 27968.00
solucao atual 27968.00
solucao atual 27968.00
solucao atual 27968.00
solucao atual 27968.00
iteration 22 sol 27968.00
solucao atual 27531.00
solucao atual 27531.00
solucao atual 27531.00
solucao atual 27531.00
solucao atual 27531.00
solucao atual 27540.00
solucao atual 27540.00
solucao atual 27540.00
solucao atual 27540.00
solucao atual 27540.00
solucao atual 27540.00
solucao atual 27540.00
solucao atual 27540.00
solucao atual 27540.00
solucao atual 27540.00
solucao atual 27540.00
solucao atual 27540.00
solucao atual 27603.00
solucao atual 27603.00
solucao atual 27603.00
solucao atual 27603.00
solucao atual 27603.00
solucao atual 27603.00
solucao atual 27603.00
solucao atual 27603.00
solucao atual 27603.00
solucao atual 27603.00
solucao atual 27603.00
solucao atual 27603.00
solucao atual 27603.00
solucao atual 27603.00
solucao atual 27783.00
solucao atual 27783.00
solucao atual 27783.00
solucao atual 27783.00
solucao atual 27783.00
solucao atual 27783.00
solucao atual 27783.00
solucao atual 27783.00
solucao atual 27783.00
solucao atual 27943.00
solucao atual 27943.00
solucao atual 27943.00
solucao atual 27943.00
solucao atual 27943.00
solucao atual 27943.00
solucao atual 27943.00
solucao atual 27943.00
solucao atual 27943.00
solucao atual 27943.00
solucao atual 27943.00
solucao atual 27943.00
solucao atual 27943.00
solucao atual 27943.00
solucao atual 27943.00
solucao atual 27943.00
solucao atual 27943.00
solucao atual 27943.00
solucao atual 27943.00
solucao atual 27943.00
solucao atual 27943.00
solucao atual 27943.00
solucao atual 27943.00
solucao atual 27943.00
solucao atual 27943.00
solucao atual 27943.00
solucao atual 27943.00
solucao atual 27943.00
solucao atual 27943.00
solucao atual 27943.00
solucao atual 27943.00
solucao atual 27943.00
solucao atual 27943.00
solucao atual 27943.00
solucao atual 27943.00
solucao atual 27943.00
solucao atual 27943.00
solucao atual 27943.00
solucao atual 27943.00
solucao atual 27943.00
iteration 23 sol 27943.00
solucao atual 26602.00
solucao atual 26602.00
solucao atual 26602.00
solucao atual 26602.00
solucao atual 26602.00
solucao atual 26636.00
solucao atual 26636.00
solucao atual 26636.00
solucao atual 26636.00
solucao atual 26636.00
solucao atual 26636.00
solucao atual 26636.00
solucao atual 26636.00
solucao atual 26636.00
solucao atual 26636.00
solucao atual 26636.00
solucao atual 26636.00
solucao atual 26660.00
solucao atual 26660.00
solucao atual 26660.00
solucao atual 26660.00
solucao atual 26660.00
solucao atual 26660.00
solucao atual 26660.00
solucao atual 26660.00
solucao atual 26660.00
solucao atual 26660.00
solucao atual 26660.00
solucao atual 26660.00
solucao atual 26660.00
solucao atual 26660.00
solucao atual 26660.00
solucao atual 26660.00
solucao atual 26660.00
solucao atual 26660.00
solucao atual 26660.00
solucao atual 26660.00
solucao atual 26660.00
solucao atual 26660.00
solucao atual 26996.00
solucao atual 26996.00
solucao atual 26996.00
solucao atual 26996.00
solucao atual 26996.00
solucao atual 26996.00
solucao atual 26996.00
solucao atual 27068.00
solucao atual 27068.00
solucao atual 27068.00
solucao atual 27068.00
solucao atual 27068.00
solucao atual 27068.00
solucao atual 27279.00
solucao atual 27279.00
solucao atual 27279.00
solucao atual 27279.00
solucao atual 27279.00
solucao atual 27279.00
solucao atual 27279.00
solucao atual 27279.00
solucao atual 27279.00
solucao atual 27279.00
solucao atual 27279.00
solucao atual 27281.00
solucao atual 27281.00
solucao atual 27281.00
solucao atual 27281.00
solucao atual 27281.00
solucao atual 27281.00
solucao atual 27281.00
solucao atual 27281.00
solucao atual 27281.00
solucao atual 27281.00
solucao atual 27281.00
solucao atual 27281.00
solucao atual 27281.00
solucao atual 27281.00
solucao atual 27343.00
solucao atual 27343.00
solucao atual 27343.00
solucao atual 27343.00
solucao atual 27343.00
solucao atual 27343.00
solucao atual 27343.00
solucao atual 27343.00
solucao atual 27343.00
solucao atual 27343.00
solucao atual 27343.00
solucao atual 27343.00
solucao atual 27343.00
solucao atual 27389.00
solucao atual 27389.00
solucao atual 27389.00
solucao atual 27389.00
solucao atual 27389.00
solucao atual 27389.00
solucao atual 27389.00
solucao atual 27389.00
solucao atual 27389.00
solucao atual 27415.00
solucao atual 27415.00
solucao atual 27415.00
solucao atual 27415.00
solucao atual 27415.00
solucao atual 27415.00
solucao atual 27415.00
solucao atual 27484.00
solucao atual 27484.00
solucao atual 27484.00
solucao atual 27484.00
solucao atual 27484.00
solucao atual 27484.00
solucao atual 27484.00
solucao atual 27484.00
solucao atual 27484.00
solucao atual 27484.00
solucao atual 27484.00
solucao atual 27484.00
solucao atual 27484.00
solucao atual 27484.00
solucao atual 27517.00
solucao atual 27517.00
solucao atual 27517.00
solucao atual 27517.00
solucao atual 27517.00
solucao atual 27517.00
solucao atual 27517.00
solucao atual 27517.00
solucao atual 27517.00
solucao atual 27517.00
solucao atual 27517.00
solucao atual 27517.00
solucao atual 27517.00
solucao atual 27543.00
solucao atual 27543.00
solucao atual 27543.00
solucao atual 27543.00
solucao atual 27543.00
solucao atual 27543.00
solucao atual 27543.00
solucao atual 27543.00
solucao atual 27543.00
solucao atual 27543.00
solucao atual 27543.00
solucao atual 27543.00
solucao atual 27543.00
solucao atual 27543.00
solucao atual 27543.00
solucao atual 27553.00
solucao atual 27553.00
solucao atual 27553.00
solucao atual 27553.00
solucao atual 27553.00
solucao atual 27553.00
solucao atual 27553.00
solucao atual 27553.00
solucao atual 27553.00
solucao atual 27553.00
solucao atual 27553.00
solucao atual 27553.00
solucao atual 27553.00
solucao atual 27553.00
solucao atual 27553.00
solucao atual 27553.00
solucao atual 27553.00
solucao atual 27553.00
solucao atual 27553.00
solucao atual 27553.00
solucao atual 27553.00
solucao atual 27553.00
solucao atual 27553.00
solucao atual 27553.00
solucao atual 27553.00
solucao atual 27553.00
solucao atual 27553.00
solucao atual 27553.00
solucao atual 27553.00
solucao atual 27553.00
solucao atual 27553.00
solucao atual 27553.00
solucao atual 27553.00
solucao atual 27553.00
solucao atual 27553.00
solucao atual 27553.00
solucao atual 27553.00
solucao atual 27553.00
solucao atual 27553.00
solucao atual 27553.00
solucao atual 27553.00
solucao atual 27553.00
iteration 24 sol 27553.00
solucao atual 27686.00
solucao atual 27686.00
solucao atual 27686.00
solucao atual 27686.00
solucao atual 27686.00
solucao atual 27686.00
solucao atual 27686.00
solucao atual 27686.00
solucao atual 27686.00
solucao atual 27686.00
solucao atual 27686.00
solucao atual 27686.00
solucao atual 27686.00
solucao atual 27686.00
solucao atual 27686.00
solucao atual 27686.00
solucao atual 27686.00
solucao atual 27686.00
solucao atual 27686.00
solucao atual 27686.00
solucao atual 27686.00
solucao atual 27686.00
solucao atual 27686.00
solucao atual 27686.00
solucao atual 27686.00
solucao atual 27686.00
solucao atual 27686.00
solucao atual 27686.00
iteration 25 sol 27686.00
solucao atual 27342.00
solucao atual 27342.00
solucao atual 27342.00
solucao atual 27342.00
solucao atual 27342.00
solucao atual 27342.00
solucao atual 27342.00
solucao atual 27342.00
solucao atual 27368.00
solucao atual 27368.00
solucao atual 27368.00
solucao atual 27368.00
solucao atual 27368.00
solucao atual 27368.00
solucao atual 27368.00
solucao atual 27368.00
solucao atual 27368.00
solucao atual 27368.00
solucao atual 27368.00
solucao atual 27368.00
solucao atual 27368.00
solucao atual 27368.00
solucao atual 27379.00
solucao atual 27379.00
solucao atual 27379.00
solucao atual 27379.00
solucao atual 27379.00
solucao atual 27379.00
solucao atual 27379.00
solucao atual 27379.00
solucao atual 27379.00
solucao atual 27454.00
solucao atual 27454.00
solucao atual 27454.00
solucao atual 27454.00
solucao atual 27454.00
solucao atual 27475.00
solucao atual 27475.00
solucao atual 27475.00
solucao atual 27475.00
solucao atual 27475.00
solucao atual 27475.00
solucao atual 27475.00
solucao atual 27475.00
solucao atual 27475.00
solucao atual 27475.00
solucao atual 27475.00
solucao atual 27475.00
solucao atual 27475.00
solucao atual 27475.00
solucao atual 27475.00
solucao atual 27475.00
solucao atual 27475.00
solucao atual 27475.00
solucao atual 27475.00
solucao atual 27475.00
solucao atual 27475.00
solucao atual 27475.00
solucao atual 27475.00
solucao atual 27475.00
solucao atual 27475.00
solucao atual 27475.00
solucao atual 27475.00
solucao atual 27475.00
solucao atual 27475.00
solucao atual 27475.00
solucao atual 27475.00
solucao atual 27475.00
solucao atual 27475.00
solucao atual 27475.00
solucao atual 27475.00
solucao atual 27475.00
solucao atual 27475.00
solucao atual 27475.00
solucao atual 27486.00
solucao atual 27486.00
solucao atual 27486.00
solucao atual 27486.00
solucao atual 27486.00
solucao atual 27486.00
solucao atual 27486.00
solucao atual 27486.00
solucao atual 27486.00
solucao atual 27486.00
solucao atual 27486.00
solucao atual 27486.00
solucao atual 27486.00
solucao atual 27486.00
solucao atual 27486.00
solucao atual 27486.00
solucao atual 27486.00
solucao atual 27486.00
solucao atual 27486.00
solucao atual 27486.00
solucao atual 27486.00
solucao atual 27486.00
solucao atual 27486.00
solucao atual 27486.00
solucao atual 27486.00
solucao atual 27486.00
solucao atual 27486.00
solucao atual 27486.00
solucao atual 27486.00
solucao atual 27486.00
solucao atual 27486.00
solucao atual 27486.00
solucao atual 27486.00
solucao atual 27486.00
solucao atual 27486.00
solucao atual 27486.00
solucao atual 27486.00
solucao atual 27826.00
solucao atual 27826.00
solucao atual 27826.00
solucao atual 27826.00
solucao atual 27826.00
solucao atual 27826.00
solucao atual 27826.00
solucao atual 27826.00
solucao atual 27826.00
solucao atual 27826.00
solucao atual 27826.00
solucao atual 27826.00
solucao atual 27826.00
solucao atual 27826.00
solucao atual 27826.00
solucao atual 27826.00
solucao atual 27826.00
solucao atual 27826.00
solucao atual 27826.00
solucao atual 27826.00
solucao atual 27826.00
solucao atual 27826.00
solucao atual 27826.00
solucao atual 27826.00
solucao atual 27826.00
solucao atual 27826.00
solucao atual 27826.00
solucao atual 27826.00
solucao atual 27826.00
solucao atual 27826.00
solucao atual 27826.00
solucao atual 27826.00
solucao atual 27826.00
solucao atual 27826.00
solucao atual 27826.00
solucao atual 27826.00
solucao atual 27826.00
solucao atual 27826.00
solucao atual 27826.00
solucao atual 27826.00
solucao atual 27826.00
solucao atual 27826.00
iteration 26 sol 27826.00
solucao atual 27023.00
solucao atual 27023.00
solucao atual 27023.00
solucao atual 27023.00
solucao atual 27023.00
solucao atual 27023.00
solucao atual 27023.00
solucao atual 27500.00
solucao atual 27500.00
solucao atual 27500.00
solucao atual 27500.00
solucao atual 27500.00
solucao atual 27500.00
solucao atual 27500.00
solucao atual 27500.00
solucao atual 27500.00
solucao atual 27500.00
solucao atual 27500.00
solucao atual 27500.00
solucao atual 27500.00
solucao atual 27500.00
solucao atual 27582.00
solucao atual 27582.00
solucao atual 27582.00
solucao atual 27582.00
solucao atual 27582.00
solucao atual 27582.00
solucao atual 27582.00
solucao atual 27582.00
solucao atual 27582.00
solucao atual 27582.00
solucao atual 27582.00
solucao atual 27582.00
solucao atual 27582.00
solucao atual 27582.00
solucao atual 27582.00
solucao atual 27582.00
solucao atual 27582.00
solucao atual 27582.00
solucao atual 27582.00
solucao atual 27582.00
solucao atual 27582.00
solucao atual 27582.00
solucao atual 27681.00
solucao atual 27681.00
solucao atual 27681.00
solucao atual 27681.00
solucao atual 27681.00
solucao atual 27718.00
solucao atual 27718.00
solucao atual 27718.00
solucao atual 27718.00
solucao atual 27718.00
solucao atual 27718.00
solucao atual 27718.00
solucao atual 27718.00
solucao atual 27718.00
solucao atual 27718.00
solucao atual 27718.00
solucao atual 27718.00
solucao atual 27718.00
solucao atual 27718.00
solucao atual 27718.00
solucao atual 27718.00
solucao atual 27718.00
solucao atual 27718.00
solucao atual 27718.00
solucao atual 28073.00
solucao atual 28073.00
solucao atual 28073.00
solucao atual 28073.00
solucao atual 28073.00
solucao atual 28073.00
solucao atual 28073.00
solucao atual 28073.00
solucao atual 28073.00
solucao atual 28073.00
solucao atual 28073.00
solucao atual 28073.00
solucao atual 28073.00
solucao atual 28073.00
solucao atual 28073.00
solucao atual 28073.00
solucao atual 28073.00
solucao atual 28073.00
solucao atual 28073.00
solucao atual 28073.00
solucao atual 28073.00
solucao atual 28073.00
solucao atual 28073.00
solucao atual 28073.00
solucao atual 28073.00
solucao atual 28073.00
solucao atual 28073.00
solucao atual 28073.00
solucao atual 28073.00
solucao atual 28073.00
solucao atual 28073.00
solucao atual 28073.00
solucao atual 28073.00
solucao atual 28073.00
solucao atual 28073.00
solucao atual 28073.00
solucao atual 28073.00
solucao atual 28073.00
solucao atual 28073.00
solucao atual 28073.00
solucao atual 28073.00
solucao atual 28073.00
solucao atual 28073.00
solucao atual 28073.00
solucao atual 28073.00
solucao atual 28073.00
solucao atual 28073.00
solucao atual 28073.00
solucao atual 28098.00
solucao atual 28098.00
solucao atual 28098.00
solucao atual 28098.00
solucao atual 28098.00
solucao atual 28098.00
solucao atual 28098.00
solucao atual 28098.00
solucao atual 28098.00
solucao atual 28098.00
solucao atual 28098.00
solucao atual 28098.00
solucao atual 28098.00
solucao atual 28098.00
solucao atual 28098.00
solucao atual 28098.00
solucao atual 28098.00
solucao atual 28098.00
solucao atual 28098.00
solucao atual 28098.00
solucao atual 28098.00
solucao atual 28098.00
solucao atual 28098.00
solucao atual 28098.00
solucao atual 28098.00
solucao atual 28098.00
solucao atual 28098.00
solucao atual 28098.00
solucao atual 28098.00
solucao atual 28098.00
solucao atual 28098.00
solucao atual 28098.00
solucao atual 28098.00
solucao atual 28098.00
solucao atual 28098.00
solucao atual 28098.00
solucao atual 28098.00
solucao atual 28098.00
solucao atual 28098.00
solucao atual 28098.00
iteration 27 sol 28098.00
solucao atual 27067.00
solucao atual 27067.00
solucao atual 27067.00
solucao atual 27067.00
solucao atual 27067.00
solucao atual 27067.00
solucao atual 27067.00
solucao atual 27190.00
solucao atual 27190.00
solucao atual 27190.00
solucao atual 27190.00
solucao atual 27190.00
solucao atual 27190.00
solucao atual 27190.00
solucao atual 27190.00
solucao atual 27190.00
solucao atual 27190.00
solucao atual 27190.00
solucao atual 27190.00
solucao atual 27190.00
solucao atual 27190.00
solucao atual 27190.00
solucao atual 27190.00
solucao atual 27190.00
solucao atual 27268.00
solucao atual 27268.00
solucao atual 27268.00
solucao atual 27268.00
solucao atual 27268.00
solucao atual 27268.00
solucao atual 27268.00
solucao atual 27268.00
solucao atual 27268.00
solucao atual 27268.00
solucao atual 27268.00
solucao atual 27268.00
solucao atual 27268.00
solucao atual 27268.00
solucao atual 27475.00
solucao atual 27475.00
solucao atual 27475.00
solucao atual 27475.00
solucao atual 27475.00
solucao atual 27475.00
solucao atual 27475.00
solucao atual 27703.00
solucao atual 27703.00
solucao atual 27703.00
solucao atual 27703.00
solucao atual 27703.00
solucao atual 27703.00
solucao atual 27703.00
solucao atual 27703.00
solucao atual 27703.00
solucao atual 27703.00
solucao atual 27703.00
solucao atual 27703.00
solucao atual 27703.00
solucao atual 27703.00
solucao atual 27703.00
solucao atual 27703.00
solucao atual 27703.00
solucao atual 27703.00
solucao atual 27703.00
solucao atual 27703.00
solucao atual 27703.00
solucao atual 27703.00
solucao atual 27703.00
solucao atual 27703.00
solucao atual 27703.00
solucao atual 27703.00
solucao atual 27703.00
solucao atual 27703.00
solucao atual 27794.00
solucao atual 27794.00
solucao atual 27794.00
solucao atual 27794.00
solucao atual 27794.00
solucao atual 27794.00
solucao atual 27794.00
solucao atual 27794.00
solucao atual 27794.00
solucao atual 27794.00
solucao atual 27794.00
solucao atual 27794.00
solucao atual 27794.00
solucao atual 27794.00
solucao atual 27794.00
solucao atual 27794.00
solucao atual 27794.00
solucao atual 27794.00
solucao atual 27794.00
solucao atual 27794.00
solucao atual 27794.00
solucao atual 27794.00
solucao atual 27794.00
solucao atual 27794.00
solucao atual 27794.00
solucao atual 27794.00
solucao atual 27794.00
solucao atual 27794.00
solucao atual 27794.00
solucao atual 27794.00
solucao atual 27794.00
solucao atual 27794.00
solucao atual 27794.00
solucao atual 27794.00
solucao atual 27794.00
solucao atual 27794.00
solucao atual 27794.00
solucao atual 27794.00
solucao atual 27794.00
solucao atual 27794.00
solucao atual 27794.00
solucao atual 27794.00
solucao atual 27794.00
solucao atual 27794.00
solucao atual 27794.00
solucao atual 27794.00
solucao atual 27794.00
solucao atual 27794.00
solucao atual 27794.00
solucao atual 27794.00
solucao atual 27794.00
solucao atual 27794.00
iteration 28 sol 27794.00
solucao atual 27249.00
solucao atual 27249.00
solucao atual 27249.00
solucao atual 27249.00
solucao atual 27249.00
solucao atual 27249.00
solucao atual 27249.00
solucao atual 27249.00
solucao atual 27249.00
solucao atual 27249.00
solucao atual 27249.00
solucao atual 27249.00
solucao atual 27249.00
solucao atual 27307.00
solucao atual 27307.00
solucao atual 27307.00
solucao atual 27307.00
solucao atual 27307.00
solucao atual 27307.00
solucao atual 27307.00
solucao atual 27307.00
solucao atual 27307.00
solucao atual 27307.00
solucao atual 27307.00
solucao atual 27307.00
solucao atual 27307.00
solucao atual 27307.00
solucao atual 27492.00
solucao atual 27492.00
solucao atual 27492.00
solucao atual 27492.00
solucao atual 27492.00
solucao atual 27492.00
solucao atual 27492.00
solucao atual 27492.00
solucao atual 27492.00
solucao atual 27518.00
solucao atual 27518.00
solucao atual 27518.00
solucao atual 27518.00
solucao atual 27518.00
solucao atual 27518.00
solucao atual 27518.00
solucao atual 27518.00
solucao atual 27518.00
solucao atual 27518.00
solucao atual 27518.00
solucao atual 27518.00
solucao atual 27518.00
solucao atual 27518.00
solucao atual 27518.00
solucao atual 27518.00
solucao atual 27518.00
solucao atual 27518.00
solucao atual 27518.00
solucao atual 27518.00
solucao atual 27518.00
solucao atual 27518.00
solucao atual 27518.00
solucao atual 27518.00
solucao atual 27518.00
solucao atual 27518.00
solucao atual 27518.00
solucao atual 27518.00
solucao atual 27518.00
solucao atual 27518.00
solucao atual 27518.00
solucao atual 27518.00
solucao atual 27518.00
solucao atual 27518.00
solucao atual 27518.00
solucao atual 27518.00
solucao atual 27518.00
solucao atual 27518.00
solucao atual 27518.00
solucao atual 27518.00
iteration 29 sol 27518.00
solucao atual 27152.00
solucao atual 27152.00
solucao atual 27152.00
solucao atual 27152.00
solucao atual 27152.00
solucao atual 27152.00
solucao atual 27152.00
solucao atual 27152.00
solucao atual 27152.00
solucao atual 27152.00
solucao atual 27278.00
solucao atual 27278.00
solucao atual 27278.00
solucao atual 27278.00
solucao atual 27278.00
solucao atual 27278.00
solucao atual 27278.00
solucao atual 27278.00
solucao atual 27278.00
solucao atual 27278.00
solucao atual 27278.00
solucao atual 27278.00
solucao atual 27278.00
solucao atual 27278.00
solucao atual 27278.00
solucao atual 27278.00
solucao atual 27278.00
solucao atual 27278.00
solucao atual 27278.00
solucao atual 27440.00
solucao atual 27440.00
solucao atual 27440.00
solucao atual 27440.00
solucao atual 27440.00
solucao atual 27440.00
solucao atual 27759.00
solucao atual 27759.00
solucao atual 27759.00
solucao atual 27759.00
solucao atual 27759.00
solucao atual 27759.00
solucao atual 27851.00
solucao atual 27851.00
solucao atual 27851.00
solucao atual 27851.00
solucao atual 27851.00
solucao atual 27851.00
solucao atual 27851.00
solucao atual 27851.00
solucao atual 27851.00
solucao atual 27851.00
solucao atual 27851.00
solucao atual 27851.00
solucao atual 27851.00
solucao atual 27851.00
solucao atual 27851.00
solucao atual 27851.00
solucao atual 27851.00
solucao atual 27851.00
solucao atual 27851.00
solucao atual 27851.00
solucao atual 27851.00
solucao atual 27851.00
solucao atual 27851.00
solucao atual 27851.00
solucao atual 27851.00
solucao atual 27851.00
solucao atual 27851.00
solucao atual 27851.00
solucao atual 27851.00
solucao atual 27851.00
solucao atual 27851.00
solucao atual 27851.00
solucao atual 27851.00
solucao atual 27851.00
solucao atual 27851.00
solucao atual 27851.00
solucao atual 27851.00
solucao atual 27851.00
solucao atual 27851.00
solucao atual 27851.00
solucao atual 27851.00
solucao atual 27921.00
solucao atual 27921.00
solucao atual 27921.00
solucao atual 27921.00
solucao atual 27921.00
solucao atual 27921.00
solucao atual 27921.00
solucao atual 27921.00
solucao atual 27921.00
solucao atual 27921.00
solucao atual 27921.00
solucao atual 27921.00
solucao atual 27921.00
solucao atual 27921.00
solucao atual 27921.00
solucao atual 27921.00
solucao atual 27921.00
solucao atual 27921.00
solucao atual 27921.00
solucao atual 27921.00
solucao atual 27921.00
solucao atual 27921.00
solucao atual 27921.00
solucao atual 27921.00
solucao atual 27921.00
solucao atual 27921.00
solucao atual 27921.00
solucao atual 27921.00
solucao atual 27921.00
solucao atual 27921.00
solucao atual 27921.00
solucao atual 27921.00
solucao atual 27921.00
solucao atual 27921.00
solucao atual 27921.00
solucao atual 27921.00
solucao atual 27921.00
solucao atual 27921.00
solucao atual 27921.00
solucao atual 27921.00
solucao atual 27921.00
iteration 30 sol 27921.00
solucao atual 27530.00
solucao atual 27530.00
solucao atual 27530.00
solucao atual 27530.00
solucao atual 27530.00
solucao atual 27706.00
solucao atual 27706.00
solucao atual 27706.00
solucao atual 27706.00
solucao atual 27706.00
solucao atual 27706.00
solucao atual 27706.00
solucao atual 27706.00
solucao atual 27706.00
solucao atual 27706.00
solucao atual 27706.00
solucao atual 27764.00
solucao atual 27764.00
solucao atual 27764.00
solucao atual 27764.00
solucao atual 27764.00
solucao atual 27871.00
solucao atual 27871.00
solucao atual 27871.00
solucao atual 27871.00
solucao atual 27871.00
solucao atual 27871.00
solucao atual 27871.00
solucao atual 27871.00
solucao atual 27871.00
solucao atual 27871.00
solucao atual 27871.00
solucao atual 27871.00
solucao atual 27871.00
solucao atual 27871.00
solucao atual 27871.00
solucao atual 27871.00
solucao atual 27871.00
solucao atual 27871.00
solucao atual 27871.00
solucao atual 27871.00
solucao atual 27871.00
solucao atual 27871.00
solucao atual 27871.00
solucao atual 28227.00
solucao atual 28227.00
solucao atual 28227.00
solucao atual 28227.00
solucao atual 28227.00
solucao atual 28510.00
solucao atual 28510.00
solucao atual 28510.00
solucao atual 28510.00
solucao atual 28510.00
solucao atual 28510.00
solucao atual 28510.00
solucao atual 28510.00
solucao atual 28510.00
solucao atual 28510.00
solucao atual 28510.00
solucao atual 28559.00
solucao atual 28559.00
solucao atual 28559.00
solucao atual 28559.00
solucao atual 28559.00
solucao atual 28559.00
solucao atual 28559.00
solucao atual 28559.00
solucao atual 28559.00
solucao atual 28559.00
solucao atual 28559.00
solucao atual 28559.00
solucao atual 28559.00
solucao atual 28559.00
solucao atual 28559.00
solucao atual 28559.00
solucao atual 28559.00
solucao atual 28559.00
solucao atual 28559.00
solucao atual 28559.00
solucao atual 28559.00
solucao atual 28559.00
solucao atual 28559.00
solucao atual 28559.00
solucao atual 28559.00
solucao atual 28559.00
solucao atual 28559.00
solucao atual 28559.00
solucao atual 28559.00
solucao atual 28559.00
solucao atual 28559.00
solucao atual 28559.00
solucao atual 28559.00
solucao atual 28559.00
solucao atual 28559.00
solucao atual 28559.00
solucao atual 28559.00
solucao atual 28559.00
solucao atual 28559.00
solucao atual 28559.00
solucao atual 28559.00
solucao atual 28559.00
solucao atual 28559.00
solucao atual 28559.00
solucao atual 28559.00
solucao atual 28559.00
solucao atual 28559.00
solucao atual 28559.00
solucao atual 28582.00
solucao atual 28582.00
solucao atual 28582.00
solucao atual 28582.00
solucao atual 28582.00
solucao atual 28582.00
solucao atual 28582.00
solucao atual 28582.00
solucao atual 28582.00
solucao atual 28582.00
solucao atual 28582.00
solucao atual 28582.00
solucao atual 28607.00
solucao atual 28607.00
solucao atual 28607.00
solucao atual 28607.00
solucao atual 28607.00
solucao atual 28607.00
solucao atual 28607.00
solucao atual 28607.00
solucao atual 28607.00
solucao atual 28607.00
solucao atual 28607.00
solucao atual 28607.00
solucao atual 28607.00
solucao atual 28607.00
solucao atual 28607.00
solucao atual 28607.00
solucao atual 28607.00
solucao atual 28607.00
solucao atual 28607.00
solucao atual 28607.00
solucao atual 28607.00
solucao atual 28607.00
solucao atual 28607.00
solucao atual 28607.00
solucao atual 28607.00
solucao atual 28607.00
solucao atual 28607.00
TIMEOUT
TIMEOUT
TIMEOUT
iteration 31 sol 28607.00
Calls to change | Calls removed by BIT 
12745116 | 5002580
Calls to add | Calls removed by BIT 
2364555 | 273496
Number of iterations = 32
Best Solution was found in iteration = 16
Time used by neighbor | Times each neighbor was used | Improvements
N_1 = 2.55 | 471 | 165
N_2 = 0.13 | 306 | 0
N_3 = 0.01 | 306 | 0
N_4 = 0.02 | 306 | 0
N_5 = 24.49 | 306 | 137
Time to find the best solution = 284.53
Solution = 28859.00
Time = 600.02
