solucao atual 22896.00
solucao atual 22896.00
solucao atual 22896.00
solucao atual 22896.00
solucao atual 22896.00
solucao atual 22896.00
solucao atual 22896.00
solucao atual 22896.00
solucao atual 22896.00
solucao atual 22896.00
iteration 0 sol 22896.00
solucao atual 22973.00
solucao atual 22973.00
solucao atual 22973.00
solucao atual 22973.00
solucao atual 22973.00
solucao atual 22973.00
solucao atual 22973.00
solucao atual 22973.00
solucao atual 22973.00
solucao atual 22973.00
iteration 1 sol 22973.00
solucao atual 22953.00
solucao atual 22953.00
solucao atual 22953.00
solucao atual 22953.00
solucao atual 22953.00
solucao atual 22953.00
solucao atual 22953.00
solucao atual 22953.00
solucao atual 22953.00
solucao atual 22953.00
iteration 2 sol 22953.00
solucao atual 22726.00
solucao atual 22726.00
solucao atual 22726.00
solucao atual 22726.00
solucao atual 22726.00
solucao atual 22726.00
solucao atual 22726.00
solucao atual 22726.00
solucao atual 22726.00
solucao atual 22726.00
iteration 3 sol 22726.00
solucao atual 22580.00
solucao atual 22580.00
solucao atual 22580.00
solucao atual 22580.00
solucao atual 22580.00
solucao atual 22580.00
solucao atual 22580.00
solucao atual 22580.00
solucao atual 22580.00
solucao atual 22580.00
iteration 4 sol 22580.00
solucao atual 22727.00
solucao atual 22727.00
solucao atual 22727.00
solucao atual 22727.00
solucao atual 22727.00
solucao atual 22727.00
solucao atual 22727.00
solucao atual 22727.00
solucao atual 22727.00
solucao atual 22727.00
iteration 5 sol 22727.00
solucao atual 22288.00
solucao atual 22288.00
solucao atual 22288.00
solucao atual 22288.00
solucao atual 22288.00
solucao atual 22288.00
solucao atual 22288.00
solucao atual 22288.00
solucao atual 22288.00
solucao atual 22288.00
iteration 6 sol 22288.00
solucao atual 22962.00
solucao atual 22962.00
solucao atual 22962.00
solucao atual 22962.00
solucao atual 22962.00
solucao atual 22962.00
solucao atual 22962.00
solucao atual 22962.00
solucao atual 22962.00
solucao atual 22962.00
iteration 7 sol 22962.00
solucao atual 22735.00
solucao atual 22735.00
solucao atual 22735.00
solucao atual 22735.00
solucao atual 22735.00
solucao atual 22735.00
solucao atual 22735.00
solucao atual 22735.00
solucao atual 22735.00
solucao atual 22735.00
iteration 8 sol 22735.00
solucao atual 22910.00
solucao atual 22910.00
solucao atual 22910.00
solucao atual 22910.00
solucao atual 22910.00
solucao atual 22910.00
solucao atual 22910.00
solucao atual 22910.00
solucao atual 22910.00
solucao atual 22910.00
iteration 9 sol 22910.00
solucao atual 22662.00
solucao atual 22662.00
solucao atual 22662.00
solucao atual 22662.00
solucao atual 22662.00
solucao atual 22662.00
solucao atual 22662.00
solucao atual 22662.00
solucao atual 22662.00
solucao atual 22662.00
iteration 10 sol 22662.00
solucao atual 22230.00
solucao atual 22230.00
solucao atual 22230.00
solucao atual 22230.00
solucao atual 22230.00
solucao atual 22230.00
solucao atual 22230.00
solucao atual 22230.00
solucao atual 22230.00
solucao atual 22230.00
iteration 11 sol 22230.00
solucao atual 23037.00
solucao atual 23037.00
solucao atual 23037.00
solucao atual 23037.00
solucao atual 23037.00
solucao atual 23037.00
solucao atual 23037.00
solucao atual 23037.00
solucao atual 23037.00
solucao atual 23037.00
iteration 12 sol 23037.00
solucao atual 22418.00
solucao atual 22418.00
solucao atual 22418.00
solucao atual 22418.00
solucao atual 22418.00
solucao atual 22418.00
solucao atual 22418.00
solucao atual 22418.00
solucao atual 22418.00
solucao atual 22418.00
iteration 13 sol 22418.00
solucao atual 22994.00
solucao atual 22994.00
solucao atual 22994.00
solucao atual 22994.00
solucao atual 22994.00
solucao atual 22994.00
solucao atual 22994.00
solucao atual 22994.00
solucao atual 22994.00
solucao atual 22994.00
iteration 14 sol 22994.00
solucao atual 22505.00
solucao atual 22505.00
solucao atual 22505.00
solucao atual 22505.00
solucao atual 22505.00
solucao atual 22505.00
solucao atual 22505.00
solucao atual 22505.00
solucao atual 22505.00
solucao atual 22505.00
iteration 15 sol 22505.00
solucao atual 22452.00
solucao atual 22452.00
solucao atual 22452.00
solucao atual 22452.00
solucao atual 22452.00
solucao atual 22452.00
solucao atual 22452.00
solucao atual 22452.00
solucao atual 22452.00
solucao atual 22452.00
iteration 16 sol 22452.00
solucao atual 22362.00
solucao atual 22362.00
solucao atual 22362.00
solucao atual 22362.00
solucao atual 22362.00
solucao atual 22362.00
solucao atual 22362.00
solucao atual 22362.00
solucao atual 22362.00
solucao atual 22362.00
iteration 17 sol 22362.00
solucao atual 23089.00
solucao atual 23089.00
solucao atual 23089.00
solucao atual 23089.00
solucao atual 23089.00
solucao atual 23089.00
solucao atual 23089.00
solucao atual 23089.00
solucao atual 23089.00
solucao atual 23089.00
iteration 18 sol 23089.00
solucao atual 22251.00
solucao atual 22251.00
solucao atual 22251.00
solucao atual 22251.00
solucao atual 22251.00
solucao atual 22251.00
solucao atual 22251.00
solucao atual 22251.00
solucao atual 22251.00
solucao atual 22251.00
iteration 19 sol 22251.00
solucao atual 22447.00
solucao atual 22447.00
solucao atual 22447.00
solucao atual 22447.00
solucao atual 22447.00
solucao atual 22447.00
solucao atual 22447.00
solucao atual 22447.00
solucao atual 22447.00
solucao atual 22447.00
iteration 20 sol 22447.00
solucao atual 23065.00
solucao atual 23065.00
solucao atual 23065.00
solucao atual 23065.00
solucao atual 23065.00
solucao atual 23065.00
solucao atual 23065.00
solucao atual 23065.00
solucao atual 23065.00
solucao atual 23065.00
iteration 21 sol 23065.00
solucao atual 23092.00
solucao atual 23092.00
solucao atual 23092.00
solucao atual 23092.00
solucao atual 23092.00
solucao atual 23092.00
solucao atual 23092.00
solucao atual 23092.00
solucao atual 23092.00
solucao atual 23092.00
iteration 22 sol 23092.00
solucao atual 22384.00
solucao atual 22384.00
solucao atual 22384.00
solucao atual 22384.00
solucao atual 22384.00
solucao atual 22384.00
solucao atual 22384.00
solucao atual 22384.00
solucao atual 22384.00
solucao atual 22384.00
iteration 23 sol 22384.00
solucao atual 23141.00
solucao atual 23141.00
solucao atual 23141.00
solucao atual 23141.00
solucao atual 23141.00
solucao atual 23141.00
solucao atual 23141.00
solucao atual 23141.00
solucao atual 23141.00
solucao atual 23141.00
iteration 24 sol 23141.00
solucao atual 23000.00
solucao atual 23000.00
solucao atual 23000.00
solucao atual 23000.00
solucao atual 23000.00
solucao atual 23000.00
solucao atual 23000.00
solucao atual 23000.00
solucao atual 23000.00
solucao atual 23000.00
iteration 25 sol 23000.00
solucao atual 22872.00
solucao atual 22872.00
solucao atual 22872.00
solucao atual 22872.00
solucao atual 22872.00
solucao atual 22872.00
solucao atual 22872.00
solucao atual 22872.00
solucao atual 22872.00
solucao atual 22872.00
iteration 26 sol 22872.00
solucao atual 23174.00
solucao atual 23174.00
solucao atual 23174.00
solucao atual 23174.00
TIMEOUT
TIMEOUT
TIMEOUT
iteration 27 sol 23174.00
Calls to change | Calls removed by BIT 
4871238 | 4871238
Calls to add | Calls removed by BIT 
168602 | 0
Number of iterations = 28
Best Solution was found in iteration = 27
Time used by neighbor | Times each neighbor was used | Improvements
N_1 = 0.03 | 55 | 0
N_2 = 0.05 | 55 | 0
N_3 = 0.00 | 55 | 0
N_4 = 0.03 | 55 | 0
N_5 = 100.09 | 55 | 0
Time to find the best solution = 600.94
Solution = 23174.00
Time = 600.94
