solucao atual 148184.00
solucao atual 148184.00
solucao atual 148184.00
solucao atual 148184.00
solucao atual 148184.00
solucao atual 148184.00
solucao atual 148184.00
solucao atual 148184.00
solucao atual 148184.00
solucao atual 148184.00
solucao atual 148184.00
solucao atual 148184.00
solucao atual 148184.00
solucao atual 148184.00
solucao atual 148495.00
solucao atual 148495.00
solucao atual 148495.00
solucao atual 148495.00
solucao atual 148495.00
solucao atual 148495.00
solucao atual 148495.00
solucao atual 148495.00
solucao atual 148495.00
solucao atual 148495.00
solucao atual 148495.00
solucao atual 148495.00
solucao atual 148495.00
solucao atual 148495.00
solucao atual 148495.00
solucao atual 148495.00
solucao atual 148495.00
solucao atual 148495.00
solucao atual 148495.00
solucao atual 148495.00
solucao atual 148495.00
solucao atual 148495.00
solucao atual 148495.00
solucao atual 148495.00
solucao atual 148495.00
solucao atual 148495.00
solucao atual 148495.00
solucao atual 148495.00
solucao atual 148512.00
solucao atual 148512.00
solucao atual 148512.00
solucao atual 148512.00
solucao atual 148512.00
solucao atual 148512.00
solucao atual 148512.00
solucao atual 148512.00
solucao atual 148512.00
solucao atual 148512.00
solucao atual 148512.00
solucao atual 148512.00
solucao atual 148512.00
solucao atual 148512.00
solucao atual 148512.00
solucao atual 148512.00
solucao atual 148512.00
solucao atual 148512.00
solucao atual 148512.00
TIMEOUT
TIMEOUT
TIMEOUT
iteration 0 sol 148512.00
Calls to change | Calls removed by BIT 
4825287 | 2255722
Calls to add | Calls removed by BIT 
244086 | 7982
Number of iterations = 1
Best Solution was found in iteration = 0
Time used by neighbor | Times each neighbor was used | Improvements
N_1 = 1.54 | 10 | 5
N_2 = 0.03 | 5 | 0
N_3 = 0.00 | 5 | 0
N_4 = 0.00 | 5 | 0
N_5 = 22.62 | 5 | 0
Time to find the best solution = 604.18
Solution = 148512.00
Time = 604.18
