instances,GRASP,Hybrid-GA,LSMF,MFAP2,PLI,VNS,brkga,brkga-TAQ,localSearch
10000_500_200_1,83167.4,84943.05,56525.0,81818.45,84821.5,80483.95,84911.6,83320.4,79421.45
10000_500_200_2,83354.4,84422.0,16796.0,84994.9,84988.95,84218.0,84002.1,83878.9,83389.25
10000_500_200_3,98235.0,98627.0,24402.0,99972.0,98035.0,98745.0,99214.0,98000.0,97943.0
1000_250_125_1,26143.45,26562.5,17637.5,26555.7,26553.15,25709.95,26559.1,26356.8,26236.95
1000_250_125_2,25880.8,25902.05,20893.85,26560.8,26559.95,26528.5,26201.2,25611.3,25526.35
1000_250_125_3,30729.0,31143.0,28622.0,31248.0,31230.0,31241.0,31053.0,31245.0,29904.0
1000_500_250_1,105097.4,106223.65,106223.65,105501.15,106239.8,102146.2,106188.0,105697.0,104962.25
1000_500_250_2,104344.3,105724.7,20893.0,106069.8,106071.5,105671.15,105038.0,104800.0,103749.3
1000_500_250_3,123435.0,124908.0,24302.0,124992.0,123906.0,123847.0,124307.0,124339.0,123057.0
100_50_40_1,1700.0,1688.1,1082.9,1700.0,1700.0,1700.0,1700.0,1669.4,1672.8
100_50_40_2,1598.0,1603.95,1549.55,1700.0,1700.0,1662.6,1699.15,1564.85,1497.7
100_50_40_3,1975.0,1938.0,1896.0,2000.0,2000.0,1934.0,2000.0,1970.0,1768.0
100_75_50_1,3187.5,3152.65,2075.7,3186.65,3187.5,3155.2,3187.5,3136.5,2989.45
100_75_50_2,3027.7,3018.35,2392.75,3175.6,3176.45,3131.4,3164.55,3054.9,2842.4
100_75_50_3,3671.0,3566.0,3561.0,3750.0,3734.0,3648.0,3750.0,3621.0,3317.0
200_100_50_1,4244.9,4250.0,2805.0,4250.0,4250.0,4088.5,4250.0,4175.2,4098.7
200_100_50_2,4111.45,4125.9,3304.8,4249.15,4244.9,4185.4,4248.3,4103.8,3912.55
200_100_50_3,4902.0,4827.0,4790.0,4964.0,4971.0,4867.0,5000.0,4872.0,4683.0
200_50_40_1,1700.0,1673.65,1105.0,1700.0,1700.0,1678.75,1700.0,1666.85,1611.6
200_50_40_2,1594.6,1607.35,1523.2,1700.0,1700.0,1661.75,1699.15,1553.8,1529.15
200_50_40_3,1974.0,1950.0,1560.0,2000.0,2000.0,1978.0,2000.0,1973.0,1722.0
400_100_50_1,4229.6,4250.0,2805.0,4250.0,4250.0,4080.0,4250.0,4174.35,4176.9
400_100_50_2,4112.3,4097.0,3264.0,4248.3,4239.8,4188.8,4237.25,4146.3,3904.9
400_100_50_3,4900.0,4902.0,4793.0,4959.0,4983.0,4815.0,5000.0,4900.0,4631.0
400_150_75_1,9412.05,9562.5,6375.0,9561.65,9561.65,8889.3,9562.5,9326.2,9401.85
400_150_75_2,9232.7,9387.4,8233.95,9562.5,9560.8,9508.1,9562.5,9080.55,8615.6
400_150_75_3,11028.0,11200.0,11200.0,11243.0,11222.0,11128.0,11250.0,11241.0,10661.0
400_200_100_1,16748.4,17000.0,15708.0,16978.75,16999.15,16042.05,17000.0,16717.8,15996.15
400_200_100_2,16517.2,16790.05,6876.5,16999.15,16998.3,16929.45,16725.4,16402.5,16342.1
400_200_100_3,19604.0,19634.0,9728.0,20000.0,19947.0,19886.0,20000.0,19258.0,19067.0
500_125_50_1,5268.3,5312.5,3506.25,5311.65,5312.5,4910.45,5312.5,5213.05,5185.0
500_125_50_2,5131.45,5224.95,4148.0,5310.8,5310.8,5247.9,5300.6,5160.35,4948.7
500_125_50_3,6110.0,6048.0,5958.0,6236.0,6227.0,5943.0,6250.0,6116.0,5985.0
500_250_100_1,20943.15,21250.0,21037.5,21208.35,21244.05,20414.45,21250.0,20860.7,20763.8
500_250_100_2,20594.65,21074.9,8670.0,21247.45,21245.75,21200.7,20905.7,20587.0,20118.65
500_250_100_3,24449.0,24467.0,12150.0,24997.0,24958.0,24893.0,24995.0,23912.0,24000.0
10000_500_200_4,748147.0,242946.0,25249.0,766609.0,766614.0,750528.0,507088.0,755545.0,755216.0
1000_500_250_4,532978.0,292286.0,27166.0,540059.0,540045.0,525309.0,358327.0,535816.0,535109.0
1000_250_125_4,195753.0,86177.0,38048.0,198880.0,198913.0,197129.0,148952.0,195276.0,193451.0
500_250_100_4,129247.0,69516.0,9459.0,132396.0,132391.0,131726.0,100987.0,129321.0,129114.0
500_125_50_4,42258.0,20224.0,4671.0,43299.0,43297.0,42404.0,35811.0,41588.0,40001.0
400_200_100_4,100907.0,54965.0,17866.0,102948.0,102944.0,102301.0,78014.0,100460.0,99172.0
400_150_75_4,63971.0,31271.0,14956.0,65928.0,65948.0,64720.0,51411.0,64037.0,62850.0
400_100_50_4,32933.0,17440.0,5261.0,33879.0,33879.0,33131.0,27440.0,32815.0,31006.0
200_100_50_4,32775.0,17750.0,9953.0,33833.0,33833.0,33180.0,25588.0,32362.0,30870.0
200_50_40_4,13082.0,10249.0,1474.0,14048.0,14048.0,13602.0,12798.0,13445.0,12904.0
100_75_50_4,20828.0,12868.0,3918.0,19334.0,19334.0,18229.0,15067.0,18262.0,17944.0
100_50_40_4,11476.0,8962.0,1854.0,11814.0,11814.0,11098.0,9181.0,11208.0,10602.0
10000_500_200_5,3359873.0,1004287.0,290015.0,3429637.0,3429592.0,3358165.0,1291720.0,3414420.0,3367413.0
1000_500_250_5,1082854.0,1098219.0,25824.0,1113626.0,1113636.0,1079640.0,385553.0,1112090.0,1080161.0
1000_250_125_5,599021.0,325883.0,37612.0,613948.0,613959.0,596715.0,359284.0,608794.0,599081.0
500_250_100_5,398094.0,274967.0,11053.0,407713.0,407716.0,394493.0,198672.0,403035.0,397230.0
500_125_50_5,184652.0,84452.0,17560.0,189641.0,189636.0,183086.0,119739.0,186631.0,184015.0
400_200_100_5,320431.0,218502.0,10195.0,330169.0,330183.0,318361.0,159662.0,325274.0,319327.0
400_150_75_5,234300.0,136232.0,14402.0,240244.0,240250.0,232099.0,145548.0,235920.0,234552.0
400_100_50_5,146334.0,69674.0,15282.0,151316.0,151322.0,146114.0,96257.0,147830.0,145967.0
200_100_50_5,104834.0,62994.0,2885.0,108055.0,108061.0,104029.0,65362.0,104640.0,104633.0
200_50_40_5,60949.0,30899.0,5881.0,62942.0,62938.0,60543.0,40757.0,59484.0,60046.0
100_75_50_5,67543.0,50457.0,3025.0,69156.0,69153.0,67673.0,40916.0,66975.0,67246.0
100_50_40_5,48991.0,31095.0,1943.0,50470.0,50470.0,47503.0,30846.0,47073.0,47976.0
10000_500_200_6,83118.95,85000.0,56525.0,81400.25,84325.1,82183.95,84856.3,83320.4,79919.55
1000_500_250_6,104793.1,106148.85,97429.55,106051.1,106215.15,102033.15,106204.0,105616.0,103590.35
1000_250_125_6,26247.15,26562.5,17637.5,26550.6,26544.65,25856.15,26562.5,26356.8,25463.45
500_250_100_6,20850.5,21250.0,21250.0,21225.35,21250.0,20525.8,21250.0,20872.6,20398.3
500_125_50_6,5276.8,5312.5,3506.25,5312.5,5312.5,5190.95,5312.5,5213.9,5169.7
400_200_100_6,16762.85,16982.15,16982.15,16979.6,17000.0,15986.8,17000.0,16728.0,16320.0
400_150_75_6,9361.05,9562.5,6375.0,9557.4,9562.5,9114.55,9562.5,9324.5,9282.85
400_100_50_6,4228.75,4250.0,2805.0,4249.15,4250.0,3674.55,4250.0,4172.65,4101.25
200_100_50_6,4214.3,4250.0,2805.0,4250.0,4250.0,3852.2,4250.0,4174.35,4209.2
200_50_40_6,1683.85,1681.3,1105.0,1700.0,1700.0,1683.85,1700.0,1665.15,1666.0
100_75_50_6,3181.55,3187.5,2103.75,3187.5,3187.5,3071.05,3187.5,3136.5,3099.1
100_50_40_6,1700.0,1683.85,994.5,1700.0,1700.0,1684.7,1700.0,1666.85,1580.15
10000_500_200_7,82311.45,84658.3,56525.0,82803.6,84235.85,83366.3,84770.5,83308.5,78677.7
1000_500_250_7,104238.9,105125.45,76440.5,105681.35,106217.7,103586.1,106167.0,105516.0,102022.95
1000_250_125_7,26052.5,26096.7,17355.3,26531.05,26559.1,25205.05,26555.7,26243.8,24467.25
500_250_100_7,20532.6,20914.25,14627.65,21220.25,21235.55,20461.2,21228.8,20774.8,20103.35
500_125_50_7,5119.55,5142.5,3408.5,5311.65,5312.5,4925.75,5312.5,5192.65,4737.05
400_200_100_7,16455.15,16506.15,10939.5,16950.7,16999.15,16398.2,16999.2,16660.0,15882.25
400_150_75_7,9417.15,9368.7,6273.85,9561.65,9562.5,8903.75,9559.1,9259.05,9185.1
400_100_50_7,4090.2,4151.4,2720.85,4250.0,4250.0,4153.95,4250.0,4161.6,3935.5
200_100_50_7,4082.55,4070.65,2733.6,4240.65,4248.3,4048.55,4247.45,4145.45,3987.35
200_50_40_7,1626.9,1655.8,994.5,1699.15,1700.0,1600.55,1700.0,1662.6,1565.7
100_75_50_7,3031.95,3154.35,2022.15,3172.2,3173.9,3042.15,3173.9,3086.35,2877.25
100_50_40_7,1639.65,1645.6,972.4,1699.15,1699.15,1606.5,1698.3,1649.0,1412.7
10000_500_200_8,98432.0,99799.0,66234.0,100000.0,99998.0,97492.0,99980.0,100000.0,95304.0
1000_500_250_8,123459.0,122245.0,97367.0,124146.0,123626.0,123740.0,124989.0,120826.0,120067.0
1000_250_125_8,30655.0,31123.0,20648.0,31163.0,31195.0,30011.0,31250.0,31250.0,29722.0
500_250_100_8,24710.0,24836.0,22374.0,24934.0,24805.0,24357.0,25000.0,24985.0,23511.0
500_125_50_8,6183.0,6182.0,4125.0,6250.0,6221.0,5999.0,6250.0,6250.0,5932.0
400_200_100_8,19705.0,19811.0,19734.0,19867.0,19847.0,19568.0,20000.0,19968.0,18788.0
400_150_75_8,11080.0,11100.0,7450.0,11250.0,11212.0,10923.0,11250.0,11250.0,10637.0
400_100_50_8,4917.0,4915.0,3228.0,4999.0,4989.0,4771.0,5000.0,4999.0,4559.0
200_100_50_8,4939.0,4967.0,3267.0,4999.0,4994.0,4932.0,5000.0,4997.0,4763.0
200_50_40_8,1970.0,1952.0,1170.0,2000.0,1996.0,1851.0,2000.0,2000.0,1875.0
100_75_50_8,3685.0,3644.0,2451.0,3750.0,3734.0,3671.0,3750.0,3727.0,3419.0
100_50_40_8,1975.0,1962.0,1222.0,2000.0,1998.0,1789.0,2000.0,2000.0,1858.0
10000_500_200_9,96005.0,65703.0,22238.0,120127.0,126458.0,107989.0,103036.0,115249.0,118160.0
1000_500_250_9,92204.0,60906.0,47565.0,99207.0,99387.0,91537.0,94126.0,92774.0,92521.0
1000_250_125_9,51973.0,34236.0,18175.0,58895.0,59370.0,58719.0,52563.0,54384.0,54092.0
500_250_100_9,49540.0,32518.0,16493.0,52830.0,53229.0,51740.0,49151.0,49240.0,49469.0
500_125_50_9,27550.0,18258.0,7310.0,32683.0,32683.0,28666.0,27551.0,31146.0,29342.0
400_200_100_9,38988.0,26707.0,9880.0,41047.0,41047.0,35457.0,38214.0,38123.0,37211.0
400_150_75_9,31470.0,21877.0,7537.0,34678.0,34694.0,33797.0,30561.0,31133.0,32440.0
400_100_50_9,22699.0,14813.0,4571.0,25233.0,25233.0,23529.0,21779.0,23902.0,22363.0
200_100_50_9,20628.0,15091.0,4966.0,21897.0,21897.0,21022.0,19661.0,20038.0,19650.0
200_50_40_9,11390.0,8669.0,2202.0,12150.0,12150.0,9684.0,10486.0,11587.0,10097.0
100_75_50_9,14714.0,11859.0,3722.0,15090.0,15090.0,14056.0,13897.0,12968.0,12908.0
100_50_40_9,9394.0,7920.0,3881.0,9945.0,9945.0,8940.0,9238.0,9528.0,8506.0
10000_500_200_10,95894.0,61050.0,26549.0,120369.0,129116.0,92499.0,99805.0,113668.0,108631.0
1000_500_250_10,90580.0,57219.0,47301.0,99464.0,99260.0,96439.0,92679.0,91043.0,90250.0
1000_250_125_10,48750.0,34002.0,13917.0,55151.0,55151.0,53093.0,49341.0,48164.0,48917.0
500_250_100_10,47139.0,33743.0,12311.0,52896.0,52957.0,51434.0,48337.0,47032.0,47507.0
500_125_50_10,28986.0,18481.0,5385.0,33126.0,33127.0,32440.0,28430.0,31703.0,27237.0
400_200_100_10,38274.0,26782.0,12280.0,42339.0,42339.0,41042.0,38292.0,37644.0,37944.0
400_150_75_10,28526.0,20290.0,10291.0,30998.0,30998.0,29475.0,29024.0,28131.0,27145.0
400_100_50_10,21650.0,14926.0,5349.0,24350.0,24350.0,18680.0,21411.0,21875.0,20769.0
200_100_50_10,20311.0,14676.0,4144.0,22906.0,22906.0,21073.0,20098.0,20630.0,19703.0
200_50_40_10,11210.0,8446.0,2100.0,12143.0,12143.0,9661.0,10985.0,11283.0,10701.0
100_75_50_10,16184.0,11687.0,2758.0,17044.0,17044.0,16169.0,14334.0,15846.0,14658.0
100_50_40_10,10920.0,8443.0,5450.0,11243.0,11243.0,10509.0,9638.0,10059.0,10138.0
