instances,GRASP,GRASP-Tabu,GRASP-VNS,Hybrid-GA,VNS
10000_500_200_2_0,95715.0,95715.0,95715.0,99928.0,95715.0
10000_500_200_2_1,95715.0,95715.0,95715.0,99928.0,95715.0
10000_500_200_2_2,95715.0,95715.0,95715.0,99928.0,95715.0
10000_500_200_2_3,95715.0,95715.0,95715.0,99928.0,95715.0
10000_500_200_2_4,95715.0,95715.0,95715.0,99928.0,95715.0
10000_500_200_2_5,95715.0,95715.0,95715.0,99928.0,95715.0
10000_500_200_2_6,95715.0,95715.0,95715.0,99928.0,95715.0
10000_500_200_2_7,95715.0,95715.0,95715.0,99928.0,95715.0
10000_500_200_2_8,95715.0,95715.0,95715.0,99928.0,95715.0
10000_500_200_2_9,95715.0,95715.0,95715.0,99928.0,95715.0
1000_500_250_2_0,119287.0,114930.0,116189.0,123496.0,114930.0
1000_500_250_2_1,119287.0,114930.0,116189.0,123496.0,114930.0
1000_500_250_2_2,119287.0,114930.0,116189.0,123496.0,114930.0
1000_500_250_2_3,119287.0,114930.0,116189.0,123496.0,114930.0
1000_500_250_2_4,119287.0,114930.0,116189.0,123496.0,114930.0
1000_500_250_2_5,119287.0,114930.0,116189.0,123496.0,114930.0
1000_500_250_2_6,119287.0,114930.0,116189.0,123496.0,114930.0
1000_500_250_2_7,119287.0,114930.0,116189.0,123496.0,114930.0
1000_500_250_2_8,119287.0,114930.0,116189.0,123496.0,114930.0
1000_500_250_2_9,119287.0,114930.0,116189.0,123496.0,114930.0
500_250_100_2_0,24030.0,23705.0,23911.0,24585.0,23440.0
500_250_100_2_1,24030.0,23705.0,23911.0,24585.0,23440.0
500_250_100_2_2,24030.0,23705.0,23911.0,24585.0,23440.0
500_250_100_2_3,24030.0,23705.0,23911.0,24585.0,23440.0
500_250_100_2_4,24030.0,23705.0,23911.0,24585.0,23440.0
500_250_100_2_5,24030.0,23705.0,23911.0,24585.0,23440.0
500_250_100_2_6,24030.0,23705.0,23911.0,24585.0,23440.0
500_250_100_2_7,24030.0,23705.0,23911.0,24585.0,23440.0
500_250_100_2_8,24030.0,23705.0,23911.0,24585.0,23440.0
500_250_100_2_9,24030.0,23705.0,23911.0,24585.0,23440.0
100_75_50_2_0,3564.0,3572.0,3572.0,3579.0,3411.0
100_75_50_2_1,3564.0,3572.0,3572.0,3583.0,3411.0
100_75_50_2_2,3564.0,3572.0,3572.0,3565.0,3411.0
100_75_50_2_3,3564.0,3572.0,3572.0,3576.0,3411.0
100_75_50_2_4,3564.0,3572.0,3572.0,3601.0,3411.0
100_75_50_2_5,3564.0,3572.0,3572.0,3593.0,3411.0
100_75_50_2_6,3564.0,3572.0,3572.0,3585.0,3411.0
100_75_50_2_7,3564.0,3572.0,3572.0,3591.0,3411.0
100_75_50_2_8,3564.0,3572.0,3572.0,3594.0,3411.0
100_75_50_2_9,3564.0,3572.0,3572.0,3568.0,3411.0
10000_500_200_3_0,93172.0,94645.0,100789.0,60807.0,103421.0
10000_500_200_3_1,93172.0,94645.0,100789.0,59373.0,103421.0
10000_500_200_3_2,93172.0,94645.0,100789.0,59536.0,103421.0
10000_500_200_3_3,93172.0,94645.0,100789.0,61506.0,103421.0
10000_500_200_3_4,93172.0,94645.0,100789.0,61467.0,103421.0
10000_500_200_3_5,93172.0,94645.0,100789.0,59812.0,103421.0
10000_500_200_3_6,93172.0,94645.0,100789.0,60225.0,103421.0
10000_500_200_3_7,93172.0,94645.0,100789.0,59939.0,103421.0
10000_500_200_3_8,93172.0,94645.0,100789.0,60290.0,103421.0
10000_500_200_3_9,93172.0,94645.0,100789.0,60044.0,103421.0
1000_500_250_3_0,87823.0,86375.0,87269.0,59065.0,87268.0
1000_500_250_3_1,87823.0,86375.0,87269.0,59185.0,87268.0
1000_500_250_3_2,87823.0,86375.0,87269.0,59545.0,87268.0
1000_500_250_3_3,87823.0,86375.0,87269.0,59063.0,87268.0
1000_500_250_3_4,87823.0,86375.0,87269.0,59020.0,87268.0
1000_500_250_3_5,87823.0,86375.0,87269.0,59812.0,87268.0
1000_500_250_3_6,87823.0,86375.0,87269.0,59957.0,87268.0
1000_500_250_3_7,87823.0,86375.0,87269.0,58348.0,87268.0
1000_500_250_3_8,87823.0,86375.0,87269.0,58921.0,87268.0
1000_500_250_3_9,87823.0,86375.0,87269.0,59737.0,87268.0
500_250_100_3_0,44967.0,44007.0,43947.0,30639.0,44076.0
500_250_100_3_1,44967.0,44007.0,43947.0,31940.0,44076.0
500_250_100_3_2,44967.0,44007.0,43947.0,30865.0,44076.0
500_250_100_3_3,44967.0,44007.0,43947.0,31448.0,44076.0
500_250_100_3_4,44967.0,44007.0,43947.0,32058.0,44076.0
500_250_100_3_5,44967.0,44007.0,43947.0,31514.0,44076.0
500_250_100_3_6,44967.0,44007.0,43947.0,30680.0,44076.0
500_250_100_3_7,44967.0,44007.0,43947.0,30425.0,44076.0
500_250_100_3_8,44967.0,44007.0,43947.0,31973.0,44076.0
500_250_100_3_9,44967.0,44007.0,43947.0,30248.0,44076.0
100_75_50_3_0,13450.0,13269.0,13323.0,11211.0,12675.0
100_75_50_3_1,13450.0,13269.0,13323.0,10956.0,12675.0
100_75_50_3_2,13450.0,13269.0,13323.0,10607.0,12675.0
100_75_50_3_3,13450.0,13269.0,13323.0,11050.0,12675.0
100_75_50_3_4,13450.0,13269.0,13323.0,10292.0,12675.0
100_75_50_3_5,13450.0,13269.0,13323.0,10759.0,12675.0
100_75_50_3_6,13450.0,13269.0,13323.0,10475.0,12675.0
100_75_50_3_7,13450.0,13269.0,13323.0,10238.0,12675.0
100_75_50_3_8,13450.0,13269.0,13323.0,10167.0,12675.0
100_75_50_3_9,13450.0,13269.0,13323.0,10587.0,12675.0
10000_500_200_4_0,95621.0,97787.0,104292.0,60643.0,103905.0
10000_500_200_4_1,95621.0,97787.0,104292.0,60139.0,103905.0
10000_500_200_4_2,94689.0,95252.0,98841.0,60514.0,99806.0
10000_500_200_4_3,94689.0,95252.0,98841.0,59636.0,99806.0
10000_500_200_4_4,94689.0,95252.0,98841.0,59318.0,99806.0
10000_500_200_4_5,94689.0,95252.0,98841.0,58052.0,99806.0
10000_500_200_4_6,94689.0,95252.0,98841.0,59087.0,99806.0
10000_500_200_4_7,94689.0,95252.0,98841.0,59668.0,99806.0
10000_500_200_4_8,94689.0,95252.0,98841.0,59793.0,99806.0
10000_500_200_4_9,94689.0,95252.0,98841.0,59503.0,99806.0
1000_500_250_4_0,86958.0,86040.0,85776.0,58300.0,86150.0
1000_500_250_4_1,86958.0,86040.0,85776.0,57572.0,86528.0
1000_500_250_4_2,86958.0,86040.0,85776.0,57311.0,86150.0
1000_500_250_4_3,86958.0,86040.0,85776.0,57494.0,86150.0
1000_500_250_4_4,86958.0,86040.0,85776.0,57549.0,86150.0
1000_500_250_4_5,86958.0,86040.0,85776.0,57543.0,86150.0
1000_500_250_4_6,86958.0,86040.0,85776.0,57919.0,86150.0
1000_500_250_4_7,86958.0,86040.0,85776.0,56896.0,86150.0
1000_500_250_4_8,86958.0,86040.0,85776.0,58274.0,86528.0
1000_500_250_4_9,86958.0,86040.0,85776.0,57232.0,86528.0
500_250_100_4_0,44377.0,43890.0,44133.0,30439.0,43839.0
500_250_100_4_1,44377.0,43890.0,44133.0,30139.0,43839.0
500_250_100_4_2,44377.0,43890.0,44133.0,30765.0,43839.0
500_250_100_4_3,44377.0,43890.0,44133.0,30536.0,43839.0
500_250_100_4_4,44377.0,43890.0,44133.0,30008.0,43839.0
500_250_100_4_5,44377.0,43890.0,44133.0,31125.0,43839.0
500_250_100_4_6,44377.0,43890.0,44133.0,30989.0,43839.0
500_250_100_4_7,44377.0,43890.0,44133.0,30225.0,43839.0
500_250_100_4_8,44377.0,43890.0,44133.0,30531.0,43839.0
500_250_100_4_9,44377.0,43890.0,44133.0,31371.0,43839.0
100_75_50_4_0,12508.0,12472.0,12263.0,9977.0,11767.0
100_75_50_4_1,12508.0,12472.0,12263.0,10287.0,11767.0
100_75_50_4_2,12508.0,12472.0,12263.0,10277.0,11767.0
100_75_50_4_3,12508.0,12472.0,12263.0,9907.0,11767.0
100_75_50_4_4,12508.0,12472.0,12263.0,10311.0,11767.0
100_75_50_4_5,12508.0,12472.0,12263.0,10464.0,11767.0
100_75_50_4_6,12508.0,12472.0,12263.0,10041.0,11767.0
100_75_50_4_7,12508.0,12472.0,12263.0,10035.0,11767.0
100_75_50_4_8,12508.0,12472.0,12263.0,10583.0,11767.0
100_75_50_4_9,12508.0,12472.0,12263.0,9985.0,11767.0
10000_500_200_6_0,96021.0,91330.0,90761.0,99575.0,90761.0
10000_500_200_6_1,96021.0,91330.0,90761.0,99575.0,90761.0
10000_500_200_6_2,96021.0,91330.0,90761.0,99575.0,90761.0
10000_500_200_6_3,96021.0,91330.0,90761.0,99575.0,90761.0
10000_500_200_6_4,96021.0,91330.0,90761.0,99575.0,90761.0
10000_500_200_6_5,96021.0,91330.0,90761.0,99575.0,90761.0
10000_500_200_6_6,96021.0,91330.0,90761.0,99575.0,90761.0
10000_500_200_6_7,96021.0,91330.0,90761.0,99575.0,90761.0
10000_500_200_6_8,96021.0,91330.0,90761.0,99575.0,90761.0
10000_500_200_6_9,96021.0,91330.0,90761.0,99575.0,90761.0
1000_500_250_6_0,119123.0,118385.0,116872.0,121852.0,122189.0
1000_500_250_6_1,119123.0,118385.0,116872.0,121852.0,122189.0
1000_500_250_6_2,119123.0,118385.0,116872.0,121852.0,122189.0
1000_500_250_6_3,119123.0,118473.0,116872.0,121852.0,122189.0
1000_500_250_6_4,119123.0,118385.0,116872.0,121852.0,115103.0
1000_500_250_6_5,119123.0,118215.0,116872.0,121852.0,115103.0
1000_500_250_6_6,119123.0,117826.0,116872.0,121852.0,115103.0
1000_500_250_6_7,119468.0,115505.0,114981.0,122861.0,113250.0
1000_500_250_6_8,119468.0,115505.0,114897.0,122861.0,113250.0
1000_500_250_6_9,119468.0,115505.0,114897.0,122861.0,113250.0
500_250_100_6_0,23878.0,24154.0,23558.0,24771.0,24431.0
500_250_100_6_1,23878.0,24154.0,23558.0,24771.0,24431.0
500_250_100_6_2,23878.0,24154.0,23558.0,24771.0,24431.0
500_250_100_6_3,23878.0,24154.0,23558.0,24771.0,24431.0
500_250_100_6_4,23878.0,24154.0,23558.0,24771.0,24431.0
500_250_100_6_5,23878.0,24154.0,23558.0,24771.0,24431.0
500_250_100_6_6,23878.0,24154.0,23558.0,24771.0,24431.0
500_250_100_6_7,23878.0,24154.0,23558.0,24771.0,24431.0
500_250_100_6_8,23878.0,24154.0,23558.0,24771.0,24431.0
500_250_100_6_9,23878.0,24154.0,23558.0,24771.0,24431.0
100_75_50_6_0,3605.0,3622.0,3625.0,3627.0,3412.0
100_75_50_6_1,3605.0,3622.0,3625.0,3578.0,3412.0
100_75_50_6_2,3605.0,3622.0,3625.0,3587.0,3412.0
100_75_50_6_3,3605.0,3622.0,3625.0,3546.0,3412.0
100_75_50_6_4,3605.0,3622.0,3625.0,3604.0,3412.0
100_75_50_6_5,3605.0,3622.0,3625.0,3560.0,3412.0
100_75_50_6_6,3605.0,3622.0,3625.0,3528.0,3412.0
100_75_50_6_7,3605.0,3622.0,3625.0,3586.0,3412.0
100_75_50_6_8,3605.0,3622.0,3625.0,3632.0,3412.0
100_75_50_6_9,3605.0,3622.0,3625.0,3592.0,3412.0
10000_500_200_7_0,95359.0,95524.0,106267.0,63647.0,113065.0
10000_500_200_7_1,95359.0,95524.0,106267.0,63704.0,113065.0
10000_500_200_7_2,95359.0,95524.0,106267.0,65412.0,113065.0
10000_500_200_7_3,95359.0,95524.0,106267.0,63545.0,113065.0
10000_500_200_7_4,95359.0,95524.0,106267.0,62829.0,113065.0
10000_500_200_7_5,95359.0,95524.0,106267.0,65110.0,113065.0
10000_500_200_7_6,95359.0,95524.0,106267.0,64025.0,113065.0
10000_500_200_7_7,95359.0,95524.0,106267.0,62335.0,113065.0
10000_500_200_7_8,95359.0,95524.0,106267.0,67241.0,113065.0
10000_500_200_7_9,95359.0,95524.0,106267.0,63420.0,113065.0
1000_500_250_7_0,90881.0,91780.0,89981.0,61981.0,89245.0
1000_500_250_7_1,90881.0,91780.0,89981.0,61703.0,89245.0
1000_500_250_7_2,90881.0,91780.0,89981.0,64606.0,89245.0
1000_500_250_7_3,90881.0,91780.0,89981.0,61537.0,89245.0
1000_500_250_7_4,90881.0,91780.0,89981.0,63587.0,89245.0
1000_500_250_7_5,90881.0,91780.0,89981.0,62954.0,89245.0
1000_500_250_7_6,90881.0,91780.0,89981.0,62006.0,89245.0
1000_500_250_7_7,90881.0,91780.0,89981.0,60681.0,89245.0
1000_500_250_7_8,90881.0,91780.0,89981.0,62098.0,89245.0
1000_500_250_7_9,90881.0,91780.0,89981.0,61317.0,89245.0
500_250_100_7_0,47218.0,47194.0,46855.0,35643.0,46606.0
500_250_100_7_1,47218.0,47194.0,46855.0,34268.0,46606.0
500_250_100_7_2,47218.0,47194.0,46855.0,35199.0,46606.0
500_250_100_7_3,47218.0,47194.0,46855.0,35075.0,46606.0
500_250_100_7_4,47218.0,47194.0,46855.0,33923.0,46606.0
500_250_100_7_5,47218.0,47194.0,46855.0,35745.0,46606.0
500_250_100_7_6,47218.0,47194.0,46855.0,34865.0,46606.0
500_250_100_7_7,47218.0,47194.0,46855.0,34935.0,46606.0
500_250_100_7_8,47218.0,47194.0,46855.0,35200.0,46606.0
500_250_100_7_9,47218.0,47194.0,46855.0,34651.0,46606.0
100_75_50_7_0,14533.0,15046.0,14665.0,11869.0,14344.0
100_75_50_7_1,14533.0,15046.0,14665.0,12525.0,14344.0
100_75_50_7_2,14533.0,15046.0,14665.0,12422.0,14344.0
100_75_50_7_3,14533.0,15046.0,14665.0,11807.0,14344.0
100_75_50_7_4,14533.0,15046.0,14665.0,12562.0,14344.0
100_75_50_7_5,14533.0,15046.0,14665.0,12268.0,14344.0
100_75_50_7_6,14533.0,15046.0,14665.0,11847.0,14344.0
100_75_50_7_7,14533.0,15046.0,14665.0,12679.0,14344.0
100_75_50_7_8,14533.0,15046.0,14665.0,12311.0,14344.0
100_75_50_7_9,14533.0,15046.0,14665.0,12072.0,14344.0
10000_500_200_8_0,94925.0,98109.0,98956.0,63101.0,106652.0
10000_500_200_8_1,94925.0,98109.0,98956.0,65000.0,106652.0
10000_500_200_8_2,94925.0,98109.0,98956.0,62578.0,106652.0
10000_500_200_8_3,94925.0,98109.0,98956.0,63619.0,106652.0
10000_500_200_8_4,94925.0,98109.0,98956.0,63845.0,106652.0
10000_500_200_8_5,95761.0,96470.0,103830.0,63006.0,110485.0
10000_500_200_8_6,95761.0,96470.0,103830.0,62969.0,110485.0
10000_500_200_8_7,95761.0,96470.0,103830.0,63245.0,110485.0
10000_500_200_8_8,95761.0,96470.0,103830.0,62688.0,110485.0
10000_500_200_8_9,95761.0,96470.0,103830.0,64259.0,110485.0
1000_500_250_8_0,90595.0,89933.0,89712.0,61147.0,90223.0
1000_500_250_8_1,90595.0,89780.0,89712.0,61284.0,90223.0
1000_500_250_8_2,90595.0,89599.0,89712.0,60815.0,90223.0
1000_500_250_8_3,90595.0,89933.0,89712.0,61336.0,90223.0
1000_500_250_8_4,90595.0,89599.0,89712.0,61806.0,90223.0
1000_500_250_8_5,90595.0,89599.0,89712.0,61185.0,90223.0
1000_500_250_8_6,90595.0,89599.0,89712.0,61467.0,90223.0
1000_500_250_8_7,90595.0,89933.0,89712.0,59943.0,90223.0
1000_500_250_8_8,90595.0,89599.0,89712.0,59493.0,90223.0
1000_500_250_8_9,90595.0,89780.0,89712.0,58798.0,90223.0
500_250_100_8_0,46363.0,46714.0,45476.0,33024.0,46836.0
500_250_100_8_1,46363.0,46544.0,45476.0,33093.0,46836.0
500_250_100_8_2,46363.0,46282.0,45476.0,34079.0,46836.0
500_250_100_8_3,46363.0,46606.0,45476.0,32989.0,46836.0
500_250_100_8_4,46363.0,46714.0,45476.0,32934.0,46836.0
500_250_100_8_5,46363.0,46412.0,45476.0,32767.0,46836.0
500_250_100_8_6,46363.0,46282.0,45476.0,34415.0,46836.0
500_250_100_8_7,46363.0,46714.0,45476.0,32765.0,46836.0
500_250_100_8_8,46363.0,46714.0,45476.0,32675.0,46836.0
500_250_100_8_9,46363.0,46282.0,45476.0,33197.0,46836.0
100_75_50_8_0,12275.0,12340.0,12306.0,10420.0,11991.0
100_75_50_8_1,12275.0,12340.0,12306.0,10588.0,11991.0
100_75_50_8_2,12275.0,12340.0,12306.0,10388.0,11991.0
100_75_50_8_3,12275.0,12340.0,12306.0,10856.0,11991.0
100_75_50_8_4,12275.0,12340.0,12306.0,10340.0,11991.0
100_75_50_8_5,12275.0,12340.0,12306.0,10365.0,11991.0
100_75_50_8_6,12275.0,12340.0,12306.0,10317.0,11991.0
100_75_50_8_7,12275.0,12340.0,12306.0,10366.0,11991.0
100_75_50_8_8,12275.0,12340.0,12306.0,10230.0,11991.0
100_75_50_8_9,12275.0,12340.0,12306.0,10593.0,11991.0
10000_500_200_10_0,95326.0,91817.0,90481.0,97987.0,90481.0
10000_500_200_10_1,95326.0,91817.0,90481.0,97987.0,90481.0
10000_500_200_10_2,95326.0,91817.0,90481.0,97987.0,90481.0
10000_500_200_10_3,95326.0,91817.0,90481.0,97987.0,90481.0
10000_500_200_10_4,95326.0,91817.0,90481.0,97987.0,90481.0
10000_500_200_10_5,95326.0,91817.0,90481.0,97987.0,90481.0
10000_500_200_10_6,95326.0,91817.0,90481.0,97987.0,90481.0
10000_500_200_10_7,95326.0,91885.0,90481.0,97987.0,90481.0
10000_500_200_10_8,95326.0,91817.0,90481.0,97987.0,90481.0
10000_500_200_10_9,95326.0,91817.0,90481.0,97987.0,90481.0
1000_500_250_10_0,119437.0,120855.0,116514.0,122545.0,121008.0
1000_500_250_10_1,119437.0,120855.0,116514.0,122545.0,121008.0
1000_500_250_10_2,119437.0,120855.0,116514.0,122545.0,121008.0
1000_500_250_10_3,119437.0,120855.0,116514.0,122545.0,121008.0
1000_500_250_10_4,119437.0,120855.0,116514.0,122545.0,121008.0
1000_500_250_10_5,119437.0,120855.0,116514.0,122545.0,121008.0
1000_500_250_10_6,119437.0,120855.0,116514.0,122545.0,121008.0
1000_500_250_10_7,119437.0,120855.0,116514.0,122545.0,121008.0
1000_500_250_10_8,119437.0,120855.0,116514.0,122545.0,121008.0
1000_500_250_10_9,119437.0,120855.0,116514.0,122545.0,121008.0
500_250_100_10_0,23678.0,24055.0,23603.0,24335.0,24026.0
500_250_100_10_1,23678.0,24055.0,23603.0,24335.0,24026.0
500_250_100_10_2,23678.0,24055.0,23603.0,24335.0,24026.0
500_250_100_10_3,23678.0,24055.0,23603.0,24335.0,24026.0
500_250_100_10_4,23678.0,24055.0,23603.0,24335.0,24026.0
500_250_100_10_5,23678.0,24055.0,23603.0,24335.0,24026.0
500_250_100_10_6,23678.0,24055.0,23603.0,24335.0,24026.0
500_250_100_10_7,23678.0,24055.0,23603.0,24335.0,24026.0
500_250_100_10_8,23678.0,24055.0,23603.0,24335.0,24026.0
500_250_100_10_9,23678.0,24055.0,23603.0,24335.0,24026.0
100_75_50_10_0,3552.0,3552.0,3539.0,3563.0,3468.0
100_75_50_10_1,3552.0,3552.0,3539.0,3560.0,3468.0
100_75_50_10_2,3552.0,3552.0,3539.0,3578.0,3468.0
100_75_50_10_3,3552.0,3552.0,3539.0,3582.0,3468.0
100_75_50_10_4,3552.0,3552.0,3539.0,3561.0,3468.0
100_75_50_10_5,3552.0,3552.0,3539.0,3542.0,3468.0
100_75_50_10_6,3552.0,3552.0,3539.0,3525.0,3468.0
100_75_50_10_7,3552.0,3552.0,3539.0,3537.0,3468.0
100_75_50_10_8,3552.0,3552.0,3539.0,3550.0,3468.0
100_75_50_10_9,3552.0,3552.0,3539.0,3565.0,3468.0
10000_500_200_11_0,95379.0,95006.0,104938.0,68023.0,111182.0
10000_500_200_11_1,95379.0,95006.0,104938.0,70753.0,111182.0
10000_500_200_11_2,95379.0,95006.0,104938.0,67364.0,111182.0
10000_500_200_11_3,95379.0,95006.0,104938.0,66507.0,111182.0
10000_500_200_11_4,95379.0,95006.0,104938.0,67133.0,111182.0
10000_500_200_11_5,97104.0,95524.0,109025.0,66353.0,125478.0
10000_500_200_11_6,97104.0,95524.0,109025.0,68130.0,125478.0
10000_500_200_11_7,97104.0,95524.0,109025.0,65717.0,125478.0
10000_500_200_11_8,97104.0,95524.0,109025.0,70399.0,125478.0
10000_500_200_11_9,97104.0,95524.0,109025.0,69855.0,125478.0
1000_500_250_11_0,92722.0,96930.0,91585.0,67074.0,91412.0
1000_500_250_11_1,92722.0,96930.0,91585.0,65587.0,91412.0
1000_500_250_11_2,92722.0,96930.0,91585.0,67855.0,91412.0
1000_500_250_11_3,92722.0,96930.0,91585.0,67554.0,91412.0
1000_500_250_11_4,92722.0,96930.0,91585.0,71161.0,91412.0
1000_500_250_11_5,92722.0,96930.0,91585.0,67668.0,91412.0
1000_500_250_11_6,92722.0,96930.0,91585.0,67436.0,91412.0
1000_500_250_11_7,92722.0,96930.0,91585.0,70489.0,91412.0
1000_500_250_11_8,92722.0,96930.0,91585.0,66899.0,91412.0
1000_500_250_11_9,92722.0,96930.0,91585.0,68621.0,91412.0
500_250_100_11_0,50025.0,48210.0,47027.0,39216.0,49656.0
500_250_100_11_1,50025.0,48210.0,47027.0,38403.0,49656.0
500_250_100_11_2,50025.0,48210.0,47027.0,38240.0,49656.0
500_250_100_11_3,50025.0,48210.0,47027.0,38494.0,49656.0
500_250_100_11_4,50025.0,48210.0,47027.0,40256.0,49656.0
500_250_100_11_5,50025.0,48210.0,49355.0,37208.0,49656.0
500_250_100_11_6,50025.0,48210.0,47027.0,37123.0,49656.0
500_250_100_11_7,50025.0,48210.0,47027.0,38174.0,49656.0
500_250_100_11_8,50025.0,48210.0,47027.0,38673.0,49656.0
500_250_100_11_9,50025.0,48210.0,47027.0,38309.0,49656.0
100_75_50_11_0,15370.0,15492.0,15137.0,12736.0,15276.0
100_75_50_11_1,15370.0,15492.0,15137.0,13090.0,15276.0
100_75_50_11_2,15370.0,15492.0,15137.0,13431.0,15276.0
100_75_50_11_3,15370.0,15492.0,15137.0,12682.0,15276.0
100_75_50_11_4,15370.0,15492.0,15137.0,13052.0,15276.0
100_75_50_11_5,15370.0,15492.0,15137.0,13686.0,15276.0
100_75_50_11_6,15370.0,15492.0,15137.0,14095.0,15276.0
100_75_50_11_7,15370.0,15492.0,15137.0,13535.0,15276.0
100_75_50_11_8,15370.0,15492.0,15137.0,12628.0,15276.0
100_75_50_11_9,15370.0,15492.0,15137.0,12923.0,15276.0
10000_500_200_12_0,97090.0,97326.0,109925.0,67055.0,113992.0
10000_500_200_12_1,97090.0,97326.0,109925.0,66320.0,113992.0
10000_500_200_12_2,97090.0,97326.0,109925.0,69586.0,113992.0
10000_500_200_12_3,97090.0,97326.0,109925.0,65198.0,113992.0
10000_500_200_12_4,97090.0,97326.0,109925.0,69909.0,113992.0
10000_500_200_12_5,97090.0,97326.0,109925.0,66678.0,113992.0
10000_500_200_12_6,97090.0,97326.0,109925.0,65713.0,113992.0
10000_500_200_12_7,97090.0,97326.0,109925.0,66436.0,113992.0
10000_500_200_12_8,97090.0,97326.0,109925.0,67309.0,113992.0
10000_500_200_12_9,97090.0,97326.0,109925.0,66943.0,113992.0
1000_500_250_12_0,90146.0,90974.0,89838.0,62959.0,89635.0
1000_500_250_12_1,90146.0,90974.0,89838.0,63986.0,89635.0
1000_500_250_12_2,90146.0,90974.0,89838.0,65005.0,89635.0
1000_500_250_12_3,90146.0,90974.0,89838.0,66050.0,89635.0
1000_500_250_12_4,90146.0,90974.0,89838.0,66916.0,89635.0
1000_500_250_12_5,90146.0,90974.0,89838.0,66816.0,89635.0
1000_500_250_12_6,90146.0,90974.0,89838.0,65788.0,89635.0
1000_500_250_12_7,90146.0,90974.0,89838.0,64962.0,89635.0
1000_500_250_12_8,90146.0,90974.0,89838.0,64523.0,89635.0
1000_500_250_12_9,90146.0,90974.0,89838.0,63002.0,89635.0
500_250_100_12_0,43513.0,44771.0,43863.0,37087.0,44645.0
500_250_100_12_1,43513.0,44771.0,43863.0,33578.0,44645.0
500_250_100_12_2,43513.0,44771.0,43863.0,34163.0,44645.0
500_250_100_12_3,43513.0,44771.0,43863.0,35568.0,44645.0
500_250_100_12_4,43513.0,44771.0,43863.0,33284.0,44645.0
500_250_100_12_5,43513.0,44771.0,43863.0,34505.0,44645.0
500_250_100_12_6,43513.0,44771.0,43863.0,34792.0,44645.0
500_250_100_12_7,43513.0,44771.0,43863.0,35391.0,44645.0
500_250_100_12_8,43513.0,44771.0,43863.0,33575.0,44645.0
500_250_100_12_9,43513.0,44771.0,43863.0,33825.0,44645.0
100_75_50_12_0,12178.0,12549.0,12245.0,11462.0,11584.0
100_75_50_12_1,12178.0,12549.0,12245.0,11977.0,11584.0
100_75_50_12_2,12178.0,12549.0,12245.0,10995.0,11584.0
100_75_50_12_3,12178.0,12549.0,12245.0,11754.0,11584.0
100_75_50_12_4,12178.0,12549.0,12245.0,11606.0,11584.0
100_75_50_12_5,12178.0,12549.0,12245.0,11819.0,11584.0
100_75_50_12_6,12178.0,12549.0,12245.0,11294.0,11584.0
100_75_50_12_7,12178.0,12549.0,12245.0,11614.0,11584.0
100_75_50_12_8,12178.0,12549.0,12245.0,11228.0,11584.0
100_75_50_12_9,12178.0,12549.0,12245.0,11287.0,11584.0
10000_500_200_14_0,95717.0,92397.0,92397.0,99992.0,92397.0
10000_500_200_14_1,95717.0,92397.0,92397.0,99992.0,92397.0
10000_500_200_14_2,95717.0,92397.0,92397.0,99992.0,92397.0
10000_500_200_14_3,95717.0,92397.0,92397.0,99992.0,92397.0
10000_500_200_14_4,95717.0,92397.0,92397.0,99992.0,92397.0
10000_500_200_14_5,95717.0,92397.0,92397.0,99992.0,92397.0
10000_500_200_14_6,95717.0,92397.0,92397.0,99992.0,92397.0
10000_500_200_14_7,95717.0,92397.0,92397.0,99992.0,92397.0
10000_500_200_14_8,95717.0,92397.0,92397.0,99992.0,92397.0
10000_500_200_14_9,95975.0,93079.0,92978.0,99789.0,92978.0
1000_500_250_14_0,119903.0,118907.0,118874.0,122487.0,118919.0
1000_500_250_14_1,119903.0,118907.0,118874.0,122487.0,118919.0
1000_500_250_14_2,119903.0,118907.0,118874.0,122487.0,118919.0
1000_500_250_14_3,119903.0,118907.0,118874.0,122487.0,118919.0
1000_500_250_14_4,119903.0,118907.0,118874.0,122487.0,118919.0
1000_500_250_14_5,119903.0,118907.0,118874.0,122487.0,118919.0
1000_500_250_14_6,119903.0,118907.0,118874.0,122487.0,118919.0
1000_500_250_14_7,119903.0,118907.0,118874.0,122487.0,118919.0
1000_500_250_14_8,119903.0,118907.0,118874.0,122487.0,118919.0
1000_500_250_14_9,119903.0,118907.0,118874.0,122487.0,118919.0
500_250_100_14_0,24085.0,23730.0,23739.0,24014.0,23298.0
500_250_100_14_1,24085.0,23730.0,23739.0,24014.0,23298.0
500_250_100_14_2,24085.0,23730.0,23739.0,24039.0,23298.0
500_250_100_14_3,24085.0,23730.0,23739.0,24014.0,23298.0
500_250_100_14_4,24085.0,23730.0,23739.0,24014.0,23298.0
500_250_100_14_5,24085.0,23730.0,23739.0,24014.0,23298.0
500_250_100_14_6,24085.0,23730.0,23739.0,24189.0,23298.0
500_250_100_14_7,24085.0,23730.0,23739.0,24017.0,23298.0
500_250_100_14_8,24085.0,23730.0,23739.0,24260.0,23298.0
500_250_100_14_9,24085.0,23730.0,23739.0,24069.0,23298.0
100_75_50_14_0,3552.0,3610.0,3597.0,3574.0,3405.0
100_75_50_14_1,3552.0,3610.0,3597.0,3571.0,3405.0
100_75_50_14_2,3552.0,3610.0,3597.0,3566.0,3405.0
100_75_50_14_3,3552.0,3610.0,3597.0,3591.0,3405.0
100_75_50_14_4,3552.0,3610.0,3597.0,3564.0,3405.0
100_75_50_14_5,3552.0,3610.0,3597.0,3584.0,3405.0
100_75_50_14_6,3552.0,3610.0,3597.0,3567.0,3405.0
100_75_50_14_7,3552.0,3610.0,3597.0,3602.0,3405.0
100_75_50_14_8,3552.0,3610.0,3597.0,3588.0,3405.0
100_75_50_14_9,3552.0,3610.0,3597.0,3570.0,3405.0
10000_500_200_15_0,94728.0,96142.0,101656.0,61293.0,103081.0
10000_500_200_15_1,94728.0,96142.0,101656.0,60724.0,103081.0
10000_500_200_15_2,94728.0,96142.0,101656.0,58603.0,103081.0
10000_500_200_15_3,94728.0,96142.0,101656.0,60008.0,103081.0
10000_500_200_15_4,93966.0,96142.0,101656.0,59414.0,103081.0
10000_500_200_15_5,94728.0,96142.0,101656.0,58643.0,103081.0
10000_500_200_15_6,94728.0,96142.0,101656.0,59796.0,103081.0
10000_500_200_15_7,94728.0,96142.0,101656.0,59614.0,103081.0
10000_500_200_15_8,94728.0,96142.0,101656.0,60868.0,103081.0
10000_500_200_15_9,94728.0,96142.0,101656.0,60010.0,103081.0
1000_500_250_15_0,88407.0,87132.0,87410.0,59446.0,87716.0
1000_500_250_15_1,88407.0,87132.0,87410.0,59279.0,87716.0
1000_500_250_15_2,88407.0,87132.0,87410.0,59801.0,87716.0
1000_500_250_15_3,88407.0,87132.0,87410.0,58721.0,87716.0
1000_500_250_15_4,88407.0,87132.0,87410.0,59367.0,87716.0
1000_500_250_15_5,90112.0,88915.0,88333.0,59950.0,88845.0
1000_500_250_15_6,90112.0,88915.0,88333.0,59942.0,88845.0
1000_500_250_15_7,90112.0,88915.0,88333.0,60070.0,88845.0
1000_500_250_15_8,90112.0,88915.0,88333.0,59401.0,88845.0
1000_500_250_15_9,90112.0,88915.0,88333.0,60934.0,88845.0
500_250_100_15_0,45398.0,44417.0,45053.0,33466.0,44698.0
500_250_100_15_1,45398.0,44417.0,45053.0,32515.0,44698.0
500_250_100_15_2,45398.0,44417.0,45053.0,32124.0,44698.0
500_250_100_15_3,45398.0,44417.0,45053.0,31645.0,44698.0
500_250_100_15_4,45398.0,44417.0,45053.0,32148.0,44698.0
500_250_100_15_5,45398.0,44417.0,45053.0,31725.0,44698.0
500_250_100_15_6,45398.0,44417.0,45053.0,32650.0,44698.0
500_250_100_15_7,45398.0,44417.0,45053.0,32544.0,44698.0
500_250_100_15_8,45398.0,44417.0,45053.0,31509.0,44698.0
500_250_100_15_9,45398.0,44417.0,45053.0,31326.0,44698.0
100_75_50_15_0,13461.0,13526.0,13275.0,9898.0,13032.0
100_75_50_15_1,13461.0,13526.0,13275.0,10177.0,13032.0
100_75_50_15_2,13461.0,13526.0,13275.0,10201.0,13032.0
100_75_50_15_3,13461.0,13526.0,13275.0,10462.0,13032.0
100_75_50_15_4,13461.0,13526.0,13275.0,10263.0,13032.0
100_75_50_15_5,13461.0,13526.0,13275.0,10235.0,13032.0
100_75_50_15_6,13461.0,13526.0,13275.0,10872.0,13032.0
100_75_50_15_7,13461.0,13526.0,13275.0,10327.0,13032.0
100_75_50_15_8,13461.0,13526.0,13275.0,10102.0,13032.0
100_75_50_15_9,13461.0,13526.0,13275.0,10247.0,13032.0
10000_500_200_16_0,93195.0,95656.0,100337.0,59021.0,100128.0
10000_500_200_16_1,93195.0,95656.0,100337.0,59804.0,100128.0
10000_500_200_16_2,93195.0,95656.0,100337.0,59262.0,100128.0
10000_500_200_16_3,93195.0,95656.0,100337.0,59760.0,100128.0
10000_500_200_16_4,93195.0,95656.0,100337.0,61226.0,100128.0
10000_500_200_16_5,93195.0,95656.0,100337.0,60113.0,100128.0
10000_500_200_16_6,93195.0,95656.0,100337.0,60412.0,100128.0
10000_500_200_16_7,93195.0,95656.0,100337.0,59673.0,100128.0
10000_500_200_16_8,93195.0,95656.0,100337.0,60229.0,100128.0
10000_500_200_16_9,93195.0,95656.0,100337.0,60270.0,100128.0
1000_500_250_16_0,87601.0,87084.0,86737.0,57607.0,86547.0
1000_500_250_16_1,87601.0,87084.0,86737.0,59151.0,86547.0
1000_500_250_16_2,87601.0,87084.0,86812.0,58744.0,86547.0
1000_500_250_16_3,87601.0,87084.0,86737.0,57632.0,86547.0
1000_500_250_16_4,87601.0,87084.0,86737.0,58285.0,86547.0
1000_500_250_16_5,87601.0,87084.0,86737.0,58049.0,86547.0
1000_500_250_16_6,87601.0,87084.0,86737.0,58901.0,86547.0
1000_500_250_16_7,87601.0,87084.0,86737.0,58744.0,86547.0
1000_500_250_16_8,87601.0,87084.0,86737.0,57533.0,86547.0
1000_500_250_16_9,87601.0,87084.0,86737.0,58907.0,86547.0
500_250_100_16_0,44715.0,44172.0,44161.0,32323.0,44948.0
500_250_100_16_1,44715.0,44172.0,44161.0,33059.0,44948.0
500_250_100_16_2,44715.0,44172.0,44161.0,31799.0,44948.0
500_250_100_16_3,44715.0,44172.0,44161.0,32046.0,44948.0
500_250_100_16_4,44715.0,44172.0,44161.0,32511.0,44948.0
500_250_100_16_5,44715.0,44172.0,44161.0,30958.0,44948.0
500_250_100_16_6,44715.0,44172.0,44161.0,31855.0,44948.0
500_250_100_16_7,44715.0,44172.0,44161.0,30893.0,44948.0
500_250_100_16_8,44715.0,44172.0,44161.0,31632.0,44948.0
500_250_100_16_9,44715.0,44172.0,44161.0,31625.0,44948.0
100_75_50_16_0,11837.0,11953.0,11749.0,9941.0,11436.0
100_75_50_16_1,11837.0,11953.0,11749.0,9780.0,11436.0
100_75_50_16_2,11837.0,11953.0,11749.0,9640.0,11436.0
100_75_50_16_3,11837.0,11953.0,11749.0,9690.0,11436.0
100_75_50_16_4,11837.0,11953.0,11749.0,9623.0,11436.0
100_75_50_16_5,11837.0,11953.0,11749.0,10264.0,11436.0
100_75_50_16_6,11837.0,11953.0,11749.0,9885.0,11436.0
100_75_50_16_7,11837.0,11953.0,11749.0,9836.0,11436.0
100_75_50_16_8,11837.0,11953.0,11749.0,9431.0,11436.0
100_75_50_16_9,11837.0,11953.0,11749.0,9696.0,11436.0
10000_500_200_18_0,95540.0,90440.0,89661.0,99667.0,89661.0
10000_500_200_18_1,95540.0,90440.0,89661.0,99667.0,89661.0
10000_500_200_18_2,95540.0,90440.0,89661.0,99667.0,89661.0
10000_500_200_18_3,95540.0,90440.0,89661.0,99667.0,89661.0
10000_500_200_18_4,95540.0,90440.0,89661.0,99667.0,89661.0
10000_500_200_18_5,95540.0,90440.0,89661.0,99667.0,89661.0
10000_500_200_18_6,95540.0,90440.0,89661.0,99667.0,89661.0
10000_500_200_18_7,95580.0,94987.0,94831.0,99431.0,94831.0
10000_500_200_18_8,95580.0,94987.0,94831.0,99431.0,94831.0
10000_500_200_18_9,95580.0,94987.0,94831.0,99431.0,94831.0
1000_500_250_18_0,118573.0,118432.0,113641.0,122964.0,118812.0
1000_500_250_18_1,118573.0,118432.0,113641.0,122964.0,118812.0
1000_500_250_18_2,118573.0,118432.0,113641.0,122964.0,118812.0
1000_500_250_18_3,118573.0,118432.0,113641.0,122964.0,118812.0
1000_500_250_18_4,118573.0,118432.0,113641.0,122964.0,117903.0
1000_500_250_18_5,118573.0,118432.0,113641.0,122964.0,117903.0
1000_500_250_18_6,118573.0,118432.0,113641.0,122964.0,117903.0
1000_500_250_18_7,118573.0,118432.0,113641.0,122964.0,118812.0
1000_500_250_18_8,118573.0,118432.0,113641.0,122964.0,117903.0
1000_500_250_18_9,118573.0,118432.0,113641.0,122964.0,117903.0
500_250_100_18_0,23941.0,24132.0,23866.0,24366.0,24331.0
500_250_100_18_1,23941.0,24132.0,23866.0,24366.0,24331.0
500_250_100_18_2,23941.0,24132.0,23866.0,24366.0,24331.0
500_250_100_18_3,23941.0,24132.0,23866.0,24366.0,24331.0
500_250_100_18_4,23941.0,24132.0,23866.0,24366.0,24331.0
500_250_100_18_5,23941.0,24132.0,23866.0,24366.0,24331.0
500_250_100_18_6,23941.0,24132.0,23866.0,24366.0,24331.0
500_250_100_18_7,23941.0,24132.0,23866.0,24366.0,24331.0
500_250_100_18_8,23941.0,24132.0,23866.0,24366.0,24331.0
500_250_100_18_9,23941.0,24132.0,23866.0,24366.0,24331.0
100_75_50_18_0,3564.0,3594.0,3546.0,3466.0,3227.0
100_75_50_18_1,3564.0,3594.0,3546.0,3504.0,3227.0
100_75_50_18_2,3564.0,3594.0,3546.0,3501.0,3227.0
100_75_50_18_3,3564.0,3594.0,3546.0,3482.0,3227.0
100_75_50_18_4,3564.0,3594.0,3546.0,3482.0,3227.0
100_75_50_18_5,3564.0,3594.0,3546.0,3463.0,3227.0
100_75_50_18_6,3564.0,3594.0,3546.0,3510.0,3227.0
100_75_50_18_7,3564.0,3594.0,3546.0,3516.0,3227.0
100_75_50_18_8,3564.0,3594.0,3546.0,3519.0,3227.0
100_75_50_18_9,3564.0,3594.0,3546.0,3527.0,3227.0
10000_500_200_19_0,95874.0,95022.0,105509.0,64993.0,114251.0
10000_500_200_19_1,95874.0,95022.0,105509.0,65691.0,114251.0
10000_500_200_19_2,95874.0,95022.0,105509.0,66914.0,114251.0
10000_500_200_19_3,95874.0,95022.0,105509.0,64393.0,114251.0
10000_500_200_19_4,95874.0,95022.0,105509.0,66408.0,114251.0
10000_500_200_19_5,95874.0,95022.0,105509.0,63248.0,114251.0
10000_500_200_19_6,95874.0,95022.0,105509.0,65036.0,114251.0
10000_500_200_19_7,95874.0,95022.0,105509.0,65016.0,114251.0
10000_500_200_19_8,95874.0,95022.0,105509.0,64179.0,114251.0
10000_500_200_19_9,95874.0,95022.0,105509.0,62587.0,114251.0
1000_500_250_19_0,95088.0,93129.0,92080.0,66487.0,94077.0
1000_500_250_19_1,95088.0,93129.0,92080.0,67503.0,94077.0
1000_500_250_19_2,95088.0,93129.0,92080.0,67891.0,94077.0
1000_500_250_19_3,95088.0,93129.0,92080.0,67813.0,94077.0
1000_500_250_19_4,95088.0,93129.0,92080.0,67073.0,94077.0
1000_500_250_19_5,95088.0,93129.0,92080.0,66971.0,94077.0
1000_500_250_19_6,91705.0,89960.0,90895.0,64854.0,90411.0
1000_500_250_19_7,91705.0,89960.0,90895.0,62467.0,90411.0
1000_500_250_19_8,91705.0,89960.0,90895.0,64538.0,90411.0
1000_500_250_19_9,91705.0,89960.0,90895.0,64373.0,90411.0
500_250_100_19_0,46016.0,47410.0,45532.0,35351.0,46082.0
500_250_100_19_1,46016.0,47410.0,45532.0,35247.0,46082.0
500_250_100_19_2,46016.0,47410.0,45532.0,33810.0,46082.0
500_250_100_19_3,46016.0,47410.0,45532.0,34212.0,46082.0
500_250_100_19_4,46016.0,47410.0,45532.0,34416.0,46082.0
500_250_100_19_5,46016.0,47410.0,45532.0,34329.0,46082.0
500_250_100_19_6,46016.0,47410.0,45532.0,34013.0,46082.0
500_250_100_19_7,46016.0,47410.0,45532.0,34334.0,46082.0
500_250_100_19_8,46016.0,47410.0,45532.0,33751.0,46082.0
500_250_100_19_9,46016.0,47410.0,45532.0,34914.0,46082.0
100_75_50_19_0,14127.0,14316.0,14137.0,11492.0,14213.0
100_75_50_19_1,14127.0,14316.0,14137.0,12172.0,14213.0
100_75_50_19_2,14127.0,14316.0,14137.0,12169.0,14213.0
100_75_50_19_3,14127.0,14316.0,14137.0,11398.0,14213.0
100_75_50_19_4,14127.0,14316.0,14137.0,12163.0,14213.0
100_75_50_19_5,14127.0,14316.0,14137.0,11883.0,14213.0
100_75_50_19_6,14127.0,14316.0,14137.0,11288.0,14213.0
100_75_50_19_7,14127.0,14316.0,14137.0,11448.0,14213.0
100_75_50_19_8,14127.0,14316.0,14137.0,12132.0,14213.0
100_75_50_19_9,14127.0,14316.0,14137.0,11669.0,14213.0
10000_500_200_20_0,95288.0,97454.0,105052.0,63986.0,109895.0
10000_500_200_20_1,95288.0,97454.0,105052.0,64604.0,109895.0
10000_500_200_20_2,95288.0,97454.0,105052.0,64300.0,109895.0
10000_500_200_20_3,95288.0,97454.0,105052.0,62972.0,109895.0
10000_500_200_20_4,95288.0,97454.0,105052.0,64262.0,109895.0
10000_500_200_20_5,95288.0,97454.0,105052.0,63534.0,109895.0
10000_500_200_20_6,95288.0,97454.0,105052.0,64929.0,109895.0
10000_500_200_20_7,95288.0,97454.0,105052.0,64539.0,109895.0
10000_500_200_20_8,95288.0,97454.0,105052.0,64434.0,109895.0
10000_500_200_20_9,95288.0,97454.0,105052.0,63379.0,109895.0
1000_500_250_20_0,89911.0,91738.0,90336.0,62694.0,92405.0
1000_500_250_20_1,89911.0,91738.0,90336.0,60613.0,92405.0
1000_500_250_20_2,89911.0,91738.0,90336.0,61596.0,92405.0
1000_500_250_20_3,89911.0,91738.0,90336.0,61328.0,92405.0
1000_500_250_20_4,89911.0,91738.0,90336.0,61525.0,92405.0
1000_500_250_20_5,89911.0,91738.0,90336.0,61580.0,92405.0
1000_500_250_20_6,89911.0,91738.0,90336.0,62730.0,92405.0
1000_500_250_20_7,89911.0,91738.0,90336.0,62688.0,92405.0
1000_500_250_20_8,89911.0,91738.0,90336.0,63324.0,92405.0
1000_500_250_20_9,89911.0,91738.0,90336.0,64484.0,92405.0
500_250_100_20_0,45943.0,46671.0,46700.0,33371.0,46794.0
500_250_100_20_1,45943.0,46671.0,46700.0,32564.0,46794.0
500_250_100_20_2,45943.0,46671.0,46700.0,32344.0,46794.0
500_250_100_20_3,45943.0,46671.0,46700.0,32682.0,46794.0
500_250_100_20_4,45943.0,46671.0,46700.0,32976.0,46794.0
500_250_100_20_5,45943.0,46671.0,46700.0,34147.0,46794.0
500_250_100_20_6,45943.0,46671.0,46700.0,33052.0,46794.0
500_250_100_20_7,46302.0,46332.0,46001.0,33954.0,46368.0
500_250_100_20_8,46302.0,46332.0,46001.0,34766.0,46368.0
500_250_100_20_9,46302.0,46332.0,46001.0,33986.0,46368.0
100_75_50_20_0,11801.0,11575.0,11559.0,10444.0,11543.0
100_75_50_20_1,11801.0,11575.0,11559.0,10583.0,11543.0
100_75_50_20_2,11801.0,11575.0,11559.0,10366.0,11543.0
100_75_50_20_3,11801.0,11575.0,11559.0,10448.0,11543.0
100_75_50_20_4,11801.0,11575.0,11559.0,10137.0,11543.0
100_75_50_20_5,11801.0,11575.0,11559.0,10527.0,11543.0
100_75_50_20_6,11801.0,11575.0,11559.0,10018.0,11543.0
100_75_50_20_7,11801.0,11575.0,11559.0,10325.0,11543.0
100_75_50_20_8,11801.0,11575.0,11559.0,10217.0,11543.0
100_75_50_20_9,11801.0,11575.0,11559.0,10955.0,11543.0
10000_500_200_22_0,95004.0,93483.0,92534.0,98179.0,92534.0
10000_500_200_22_1,95004.0,93483.0,92534.0,98179.0,92534.0
10000_500_200_22_2,95004.0,93483.0,92534.0,98179.0,92534.0
10000_500_200_22_3,95004.0,93483.0,92534.0,98179.0,92534.0
10000_500_200_22_4,95092.0,91326.0,89878.0,98309.0,89878.0
10000_500_200_22_5,95092.0,91326.0,89878.0,98309.0,89878.0
10000_500_200_22_6,95092.0,91326.0,89878.0,98309.0,89878.0
10000_500_200_22_7,95092.0,91326.0,89878.0,98309.0,89878.0
10000_500_200_22_8,95092.0,91326.0,89878.0,98309.0,89878.0
10000_500_200_22_9,95092.0,91326.0,89878.0,98309.0,89878.0
1000_500_250_22_0,118099.0,120744.0,114100.0,119564.0,122746.0
1000_500_250_22_1,118099.0,120744.0,115912.0,119564.0,122746.0
1000_500_250_22_2,118099.0,120744.0,114100.0,119564.0,122746.0
1000_500_250_22_3,118099.0,120744.0,114100.0,119564.0,122746.0
1000_500_250_22_4,118099.0,120744.0,114100.0,119564.0,122746.0
1000_500_250_22_5,118099.0,120744.0,114100.0,119564.0,122746.0
1000_500_250_22_6,118099.0,120744.0,114100.0,119564.0,122746.0
1000_500_250_22_7,118099.0,120744.0,114100.0,119564.0,122746.0
1000_500_250_22_8,118099.0,120744.0,114100.0,119564.0,122746.0
1000_500_250_22_9,118099.0,120744.0,114100.0,119564.0,122746.0
500_250_100_22_0,23840.0,24104.0,23741.0,24178.0,24113.0
500_250_100_22_1,23840.0,24104.0,23741.0,24178.0,24113.0
500_250_100_22_2,23840.0,24104.0,23741.0,24178.0,24113.0
500_250_100_22_3,23840.0,24104.0,23741.0,24178.0,24113.0
500_250_100_22_4,23840.0,24104.0,23741.0,24178.0,24113.0
500_250_100_22_5,23840.0,24104.0,23741.0,24178.0,24113.0
500_250_100_22_6,23840.0,24104.0,23741.0,24178.0,24113.0
500_250_100_22_7,23840.0,24104.0,23741.0,24178.0,24113.0
500_250_100_22_8,23840.0,24104.0,23741.0,24178.0,24113.0
500_250_100_22_9,23840.0,24104.0,23741.0,24178.0,24113.0
100_75_50_22_0,3489.0,3512.0,3462.0,3546.0,3328.0
100_75_50_22_1,3489.0,3512.0,3462.0,3443.0,3328.0
100_75_50_22_2,3489.0,3512.0,3462.0,3482.0,3328.0
100_75_50_22_3,3489.0,3512.0,3462.0,3494.0,3328.0
100_75_50_22_4,3489.0,3512.0,3462.0,3495.0,3328.0
100_75_50_22_5,3489.0,3512.0,3462.0,3466.0,3328.0
100_75_50_22_6,3489.0,3512.0,3462.0,3436.0,3328.0
100_75_50_22_7,3489.0,3512.0,3462.0,3472.0,3328.0
100_75_50_22_8,3489.0,3512.0,3462.0,3513.0,3328.0
100_75_50_22_9,3489.0,3512.0,3462.0,3508.0,3328.0
10000_500_200_23_0,98139.0,93047.0,95484.0,68037.0,108311.0
10000_500_200_23_1,98139.0,93047.0,95484.0,68165.0,108311.0
10000_500_200_23_2,98139.0,93047.0,95484.0,65734.0,108311.0
10000_500_200_23_3,98139.0,93047.0,95484.0,66669.0,108311.0
10000_500_200_23_4,98139.0,93047.0,95484.0,66423.0,108311.0
10000_500_200_23_5,98139.0,93047.0,95484.0,67644.0,108311.0
10000_500_200_23_6,98139.0,93047.0,95484.0,66789.0,108311.0
10000_500_200_23_7,98139.0,93047.0,95484.0,66232.0,108311.0
10000_500_200_23_8,98139.0,93047.0,95484.0,69741.0,108311.0
10000_500_200_23_9,98139.0,93047.0,95484.0,67210.0,108311.0
1000_500_250_23_0,94956.0,93103.0,94125.0,70424.0,94346.0
1000_500_250_23_1,94956.0,93103.0,94125.0,67258.0,94346.0
1000_500_250_23_2,94956.0,93103.0,94125.0,67779.0,94346.0
1000_500_250_23_3,94956.0,93103.0,94125.0,66195.0,94346.0
1000_500_250_23_4,94956.0,93103.0,94125.0,66277.0,94346.0
1000_500_250_23_5,94956.0,93103.0,94125.0,68512.0,94346.0
1000_500_250_23_6,94956.0,93103.0,94125.0,64339.0,94346.0
1000_500_250_23_7,94956.0,93103.0,94125.0,69057.0,94346.0
1000_500_250_23_8,94956.0,93103.0,94125.0,67691.0,94346.0
1000_500_250_23_9,94956.0,93103.0,94125.0,66178.0,94346.0
500_250_100_23_0,46875.0,47053.0,45476.0,37734.0,45274.0
500_250_100_23_1,46875.0,47053.0,45476.0,36222.0,45274.0
500_250_100_23_2,46875.0,47053.0,45476.0,36539.0,45274.0
500_250_100_23_3,46875.0,47053.0,45476.0,36268.0,45274.0
500_250_100_23_4,46875.0,47053.0,45476.0,34468.0,45274.0
500_250_100_23_5,46875.0,47053.0,45476.0,35968.0,45274.0
500_250_100_23_6,46875.0,47053.0,45476.0,37832.0,45274.0
500_250_100_23_7,46875.0,47053.0,45476.0,34954.0,45274.0
500_250_100_23_8,46875.0,47053.0,45476.0,37377.0,45274.0
500_250_100_23_9,46875.0,47053.0,45476.0,36351.0,45274.0
100_75_50_23_0,14735.0,14761.0,14036.0,13487.0,14103.0
100_75_50_23_1,14735.0,14761.0,14036.0,13668.0,14103.0
100_75_50_23_2,14735.0,14761.0,14036.0,12647.0,14103.0
100_75_50_23_3,14735.0,14761.0,14036.0,13541.0,14103.0
100_75_50_23_4,14735.0,14761.0,14036.0,12363.0,14103.0
100_75_50_23_5,14735.0,14761.0,14036.0,13538.0,14103.0
100_75_50_23_6,14735.0,14761.0,14036.0,12686.0,14103.0
100_75_50_23_7,14735.0,14761.0,14036.0,12965.0,14103.0
100_75_50_23_8,14735.0,14761.0,14036.0,13052.0,14103.0
100_75_50_23_9,14735.0,14761.0,14036.0,13914.0,14103.0
10000_500_200_24_0,97483.0,94497.0,105432.0,66823.0,123422.0
10000_500_200_24_1,97483.0,94497.0,105432.0,66540.0,123422.0
10000_500_200_24_2,97483.0,94497.0,105432.0,65745.0,123422.0
10000_500_200_24_3,97483.0,94497.0,105432.0,67216.0,123422.0
10000_500_200_24_4,97483.0,94497.0,105432.0,65205.0,123422.0
10000_500_200_24_5,97483.0,94497.0,105432.0,67915.0,123422.0
10000_500_200_24_6,97483.0,94497.0,105432.0,68698.0,123422.0
10000_500_200_24_7,97483.0,94497.0,105432.0,68369.0,123422.0
10000_500_200_24_8,97483.0,94497.0,105432.0,68536.0,123422.0
10000_500_200_24_9,97483.0,94497.0,105432.0,66870.0,123422.0
1000_500_250_24_0,91958.0,94837.0,89075.0,67183.0,89715.0
1000_500_250_24_1,91958.0,94837.0,89075.0,67603.0,89715.0
1000_500_250_24_2,91958.0,94837.0,89075.0,68037.0,89715.0
1000_500_250_24_3,91958.0,94837.0,89075.0,67699.0,89715.0
1000_500_250_24_4,91958.0,94837.0,89075.0,66439.0,89715.0
1000_500_250_24_5,91958.0,94837.0,89075.0,67463.0,89715.0
1000_500_250_24_6,91958.0,94837.0,88963.0,69055.0,89715.0
1000_500_250_24_7,91958.0,94837.0,89075.0,66175.0,89715.0
1000_500_250_24_8,91958.0,94837.0,89075.0,70039.0,89715.0
1000_500_250_24_9,91958.0,94837.0,89075.0,68426.0,89715.0
500_250_100_24_0,45766.0,46783.0,43329.0,34524.0,45956.0
500_250_100_24_1,45766.0,46783.0,43329.0,34968.0,45956.0
500_250_100_24_2,45766.0,46783.0,43329.0,34335.0,45956.0
500_250_100_24_3,45766.0,46783.0,43329.0,35291.0,45956.0
500_250_100_24_4,45766.0,46783.0,43329.0,35329.0,45956.0
500_250_100_24_5,45766.0,46783.0,43329.0,35282.0,45956.0
500_250_100_24_6,45766.0,46783.0,43329.0,35166.0,45956.0
500_250_100_24_7,45263.0,45545.0,45505.0,34251.0,45394.0
500_250_100_24_8,45263.0,45545.0,45505.0,35029.0,45394.0
500_250_100_24_9,45263.0,45545.0,45505.0,35713.0,45394.0
100_75_50_24_0,15453.0,15453.0,15098.0,13537.0,13833.0
100_75_50_24_1,15453.0,15453.0,15098.0,12344.0,13833.0
100_75_50_24_2,15453.0,15453.0,15098.0,12936.0,13833.0
100_75_50_24_3,15453.0,15453.0,15098.0,12793.0,13833.0
100_75_50_24_4,15453.0,15453.0,15098.0,12251.0,13833.0
100_75_50_24_5,15453.0,15453.0,15098.0,13083.0,13833.0
100_75_50_24_6,15453.0,15453.0,15098.0,13153.0,13833.0
100_75_50_24_7,15453.0,15453.0,15098.0,12620.0,13833.0
100_75_50_24_8,15453.0,15453.0,15098.0,12512.0,13833.0
100_75_50_24_9,15453.0,15453.0,15098.0,12632.0,13833.0
10000_500_200_26_0,95652.0,94638.0,94363.0,99857.0,94363.0
10000_500_200_26_1,95652.0,94638.0,94363.0,99857.0,94363.0
10000_500_200_26_2,95652.0,94638.0,94363.0,99857.0,94363.0
10000_500_200_26_3,95652.0,94638.0,94363.0,99857.0,94363.0
10000_500_200_26_4,95652.0,94638.0,94363.0,99857.0,94363.0
10000_500_200_26_5,95652.0,94638.0,94363.0,99857.0,94363.0
10000_500_200_26_6,96044.0,94312.0,94312.0,99925.0,94312.0
10000_500_200_26_7,96044.0,94312.0,94312.0,99925.0,94312.0
10000_500_200_26_8,96044.0,94312.0,94312.0,99925.0,94312.0
10000_500_200_26_9,96044.0,94312.0,94312.0,99925.0,94312.0
1000_500_250_26_0,119894.0,117441.0,118330.0,119503.0,117441.0
1000_500_250_26_1,119894.0,117441.0,118330.0,119609.0,117441.0
1000_500_250_26_2,119894.0,117441.0,118330.0,119399.0,117441.0
1000_500_250_26_3,119894.0,117441.0,118330.0,119686.0,117441.0
1000_500_250_26_4,119894.0,117441.0,118330.0,120249.0,117441.0
1000_500_250_26_5,119894.0,117441.0,118330.0,119563.0,117441.0
1000_500_250_26_6,119894.0,117441.0,118330.0,119890.0,117441.0
1000_500_250_26_7,119894.0,117441.0,118330.0,119611.0,117441.0
1000_500_250_26_8,119894.0,117441.0,118330.0,119461.0,117441.0
1000_500_250_26_9,119894.0,117441.0,118330.0,119565.0,117441.0
500_250_100_26_0,24134.0,23607.0,23813.0,24123.0,23598.0
500_250_100_26_1,24134.0,23607.0,23813.0,24066.0,23598.0
500_250_100_26_2,24134.0,23607.0,23813.0,24083.0,23598.0
500_250_100_26_3,24134.0,23607.0,23813.0,24066.0,23598.0
500_250_100_26_4,24134.0,23607.0,23813.0,24123.0,23598.0
500_250_100_26_5,24134.0,23607.0,23813.0,24084.0,23598.0
500_250_100_26_6,24134.0,23607.0,23813.0,24066.0,23598.0
500_250_100_26_7,24134.0,23607.0,23813.0,24147.0,23598.0
500_250_100_26_8,24134.0,23607.0,23813.0,24126.0,23598.0
500_250_100_26_9,24134.0,23607.0,23813.0,24066.0,23598.0
100_75_50_26_0,3551.0,3549.0,3536.0,3634.0,3507.0
100_75_50_26_1,3551.0,3549.0,3536.0,3634.0,3507.0
100_75_50_26_2,3551.0,3549.0,3536.0,3634.0,3507.0
100_75_50_26_3,3551.0,3549.0,3536.0,3634.0,3507.0
100_75_50_26_4,3551.0,3549.0,3536.0,3634.0,3507.0
100_75_50_26_5,3551.0,3549.0,3536.0,3634.0,3507.0
100_75_50_26_6,3551.0,3549.0,3536.0,3634.0,3507.0
100_75_50_26_7,3551.0,3549.0,3536.0,3634.0,3507.0
100_75_50_26_8,3551.0,3549.0,3536.0,3634.0,3507.0
100_75_50_26_9,3551.0,3549.0,3536.0,3634.0,3507.0
10000_500_200_27_0,95162.0,97771.0,102508.0,59000.0,105280.0
10000_500_200_27_1,95162.0,97771.0,102508.0,61170.0,105280.0
10000_500_200_27_2,95162.0,97771.0,102508.0,61157.0,105280.0
10000_500_200_27_3,95162.0,97771.0,102508.0,59871.0,105280.0
10000_500_200_27_4,95162.0,97771.0,102508.0,61439.0,105280.0
10000_500_200_27_5,95162.0,97771.0,102508.0,59492.0,105280.0
10000_500_200_27_6,95162.0,97771.0,102508.0,60165.0,105280.0
10000_500_200_27_7,95162.0,97771.0,102508.0,59154.0,105280.0
10000_500_200_27_8,95162.0,97771.0,102508.0,61360.0,105280.0
10000_500_200_27_9,94385.0,95783.0,101382.0,60481.0,102434.0
1000_500_250_27_0,88213.0,86508.0,86620.0,60601.0,86097.0
1000_500_250_27_1,88213.0,86508.0,86620.0,61596.0,86097.0
1000_500_250_27_2,88213.0,86508.0,86620.0,60466.0,86097.0
1000_500_250_27_3,88213.0,86508.0,86620.0,59306.0,86097.0
1000_500_250_27_4,88213.0,86508.0,86620.0,59597.0,86097.0
1000_500_250_27_5,88213.0,86508.0,86620.0,59928.0,86097.0
1000_500_250_27_6,88213.0,86508.0,86620.0,59258.0,86097.0
1000_500_250_27_7,88213.0,86508.0,86620.0,59594.0,86097.0
1000_500_250_27_8,88213.0,86508.0,86620.0,59693.0,86097.0
1000_500_250_27_9,88213.0,86508.0,86620.0,59717.0,86097.0
500_250_100_27_0,43959.0,43108.0,42969.0,30947.0,43073.0
500_250_100_27_1,43959.0,43108.0,42969.0,32930.0,43073.0
500_250_100_27_2,43959.0,43108.0,42969.0,30992.0,43073.0
500_250_100_27_3,43959.0,43108.0,42969.0,31988.0,43073.0
500_250_100_27_4,43959.0,43108.0,42969.0,31419.0,43073.0
500_250_100_27_5,43959.0,43108.0,42969.0,31357.0,43073.0
500_250_100_27_6,43959.0,43108.0,42969.0,31046.0,43073.0
500_250_100_27_7,43959.0,43108.0,42969.0,32602.0,43073.0
500_250_100_27_8,43959.0,43108.0,42969.0,31425.0,43073.0
500_250_100_27_9,43959.0,43108.0,42969.0,32639.0,43073.0
100_75_50_27_0,12746.0,12801.0,12698.0,10127.0,12623.0
100_75_50_27_1,12746.0,12801.0,12698.0,9824.0,12623.0
100_75_50_27_2,12746.0,12801.0,12698.0,10357.0,12623.0
100_75_50_27_3,12746.0,12801.0,12698.0,10082.0,12623.0
100_75_50_27_4,12746.0,12801.0,12698.0,10548.0,12623.0
100_75_50_27_5,12746.0,12801.0,12698.0,10970.0,12623.0
100_75_50_27_6,12746.0,12801.0,12698.0,10004.0,12623.0
100_75_50_27_7,12746.0,12801.0,12698.0,10208.0,12623.0
100_75_50_27_8,12746.0,12801.0,12698.0,10024.0,12623.0
100_75_50_27_9,12746.0,12801.0,12698.0,10164.0,12623.0
10000_500_200_28_0,94176.0,94953.0,101977.0,58766.0,103209.0
10000_500_200_28_1,94176.0,94953.0,101977.0,59131.0,103209.0
10000_500_200_28_2,94176.0,94953.0,101977.0,59726.0,103209.0
10000_500_200_28_3,94176.0,94953.0,101977.0,60031.0,103209.0
10000_500_200_28_4,94176.0,94953.0,101977.0,58864.0,103209.0
10000_500_200_28_5,94176.0,94953.0,101977.0,60522.0,103209.0
10000_500_200_28_6,94176.0,94953.0,101977.0,60036.0,103209.0
10000_500_200_28_7,94176.0,94953.0,101977.0,58974.0,103209.0
10000_500_200_28_8,94176.0,94953.0,101977.0,59871.0,103209.0
10000_500_200_28_9,94176.0,94953.0,101977.0,58600.0,103209.0
1000_500_250_28_0,87295.0,86436.0,86553.0,57972.0,86860.0
1000_500_250_28_1,87295.0,86436.0,86553.0,58980.0,86860.0
1000_500_250_28_2,87295.0,86436.0,86553.0,58605.0,86860.0
1000_500_250_28_3,87295.0,86436.0,86553.0,59137.0,86860.0
1000_500_250_28_4,87327.0,85909.0,86228.0,58759.0,85869.0
1000_500_250_28_5,87327.0,85909.0,86228.0,59882.0,85869.0
1000_500_250_28_6,87327.0,85909.0,86228.0,58492.0,85869.0
1000_500_250_28_7,87327.0,85909.0,86228.0,58816.0,85869.0
1000_500_250_28_8,87327.0,85909.0,86228.0,58497.0,85869.0
1000_500_250_28_9,87327.0,85909.0,86228.0,59275.0,85869.0
500_250_100_28_0,43205.0,42854.0,42956.0,30618.0,42238.0
500_250_100_28_1,43205.0,42854.0,42956.0,29646.0,42238.0
500_250_100_28_2,43205.0,42854.0,42956.0,29129.0,42238.0
500_250_100_28_3,43205.0,42854.0,42956.0,29766.0,42238.0
500_250_100_28_4,43205.0,42854.0,42956.0,29593.0,42238.0
500_250_100_28_5,43205.0,42854.0,42956.0,29656.0,42238.0
500_250_100_28_6,43205.0,42854.0,42956.0,29455.0,42238.0
500_250_100_28_7,43205.0,42854.0,42956.0,29507.0,42238.0
500_250_100_28_8,43205.0,42854.0,42956.0,29788.0,42238.0
500_250_100_28_9,43205.0,42854.0,42956.0,29868.0,42238.0
100_75_50_28_0,12376.0,12336.0,12294.0,10154.0,12279.0
100_75_50_28_1,12376.0,12336.0,12294.0,9895.0,12279.0
100_75_50_28_2,12376.0,12336.0,12294.0,10145.0,12279.0
100_75_50_28_3,12376.0,12336.0,12294.0,10194.0,12279.0
100_75_50_28_4,12376.0,12336.0,12294.0,10364.0,12279.0
100_75_50_28_5,12376.0,12336.0,12294.0,10343.0,12279.0
100_75_50_28_6,12376.0,12336.0,12294.0,10013.0,12279.0
100_75_50_28_7,12376.0,12336.0,12294.0,10075.0,12279.0
100_75_50_28_8,12376.0,12336.0,12294.0,10494.0,12279.0
100_75_50_28_9,12376.0,12336.0,12294.0,10295.0,12279.0
10000_500_200_30_0,95275.0,90299.0,89414.0,99573.0,89414.0
10000_500_200_30_1,95275.0,90299.0,89414.0,99573.0,89414.0
10000_500_200_30_2,95431.0,94539.0,93832.0,98606.0,93832.0
10000_500_200_30_3,95431.0,94539.0,93832.0,98606.0,93832.0
10000_500_200_30_4,95431.0,94539.0,93832.0,98606.0,93832.0
10000_500_200_30_5,95431.0,94539.0,93832.0,98606.0,93832.0
10000_500_200_30_6,95431.0,94539.0,93832.0,98606.0,93832.0
10000_500_200_30_7,95431.0,94539.0,93832.0,98606.0,93832.0
10000_500_200_30_8,95431.0,94539.0,93832.0,98606.0,93832.0
10000_500_200_30_9,95431.0,94539.0,93832.0,98606.0,93832.0
1000_500_250_30_0,119403.0,117148.0,112670.0,122643.0,112394.0
1000_500_250_30_1,119403.0,117526.0,112840.0,122643.0,112394.0
1000_500_250_30_2,119403.0,116294.0,112840.0,122643.0,112394.0
1000_500_250_30_3,119403.0,117526.0,112384.0,122643.0,112394.0
1000_500_250_30_4,119403.0,117148.0,112840.0,122643.0,112394.0
1000_500_250_30_5,119403.0,116294.0,112840.0,122643.0,112394.0
1000_500_250_30_6,119403.0,117526.0,112384.0,122643.0,112394.0
1000_500_250_30_7,119403.0,117148.0,112840.0,122643.0,112394.0
1000_500_250_30_8,119403.0,117148.0,112840.0,122643.0,112394.0
1000_500_250_30_9,119403.0,116732.0,112840.0,122643.0,112394.0
500_250_100_30_0,23915.0,24293.0,23404.0,24192.0,24318.0
500_250_100_30_1,23915.0,24293.0,23404.0,24192.0,24318.0
500_250_100_30_2,23915.0,24293.0,23404.0,24192.0,24318.0
500_250_100_30_3,23915.0,24293.0,23404.0,24192.0,24318.0
500_250_100_30_4,23915.0,24293.0,23404.0,24192.0,24318.0
500_250_100_30_5,23915.0,24293.0,23404.0,24192.0,24323.0
500_250_100_30_6,23915.0,24293.0,23404.0,24192.0,24323.0
500_250_100_30_7,23915.0,24293.0,23404.0,24192.0,24323.0
500_250_100_30_8,23915.0,24293.0,23404.0,24192.0,24323.0
500_250_100_30_9,23915.0,24293.0,23404.0,24192.0,24318.0
100_75_50_30_0,3548.0,3600.0,3589.0,3602.0,3512.0
100_75_50_30_1,3548.0,3600.0,3589.0,3602.0,3512.0
100_75_50_30_2,3548.0,3600.0,3589.0,3605.0,3512.0
100_75_50_30_3,3548.0,3600.0,3589.0,3602.0,3512.0
100_75_50_30_4,3548.0,3600.0,3589.0,3602.0,3512.0
100_75_50_30_5,3548.0,3600.0,3589.0,3602.0,3512.0
100_75_50_30_6,3548.0,3600.0,3589.0,3602.0,3512.0
100_75_50_30_7,3548.0,3600.0,3589.0,3602.0,3512.0
100_75_50_30_8,3548.0,3600.0,3589.0,3602.0,3512.0
100_75_50_30_9,3548.0,3600.0,3589.0,3602.0,3512.0
10000_500_200_31_0,94936.0,95113.0,105925.0,64484.0,108638.0
10000_500_200_31_1,94936.0,95113.0,105925.0,66411.0,108638.0
10000_500_200_31_2,94936.0,95113.0,105925.0,63995.0,108638.0
10000_500_200_31_3,94936.0,95113.0,105925.0,63585.0,108638.0
10000_500_200_31_4,94936.0,95113.0,105925.0,64117.0,108638.0
10000_500_200_31_5,94936.0,95113.0,105925.0,64412.0,108638.0
10000_500_200_31_6,94936.0,95113.0,105925.0,63788.0,108638.0
10000_500_200_31_7,95789.0,97383.0,106165.0,64003.0,110977.0
10000_500_200_31_8,95789.0,97571.0,106165.0,64460.0,110977.0
10000_500_200_31_9,95789.0,97383.0,106165.0,65450.0,110977.0
1000_500_250_31_0,93281.0,89095.0,90725.0,62964.0,92185.0
1000_500_250_31_1,93281.0,89095.0,90725.0,63372.0,92185.0
1000_500_250_31_2,93281.0,89095.0,90725.0,62483.0,92185.0
1000_500_250_31_3,93281.0,89095.0,90725.0,62042.0,92185.0
1000_500_250_31_4,93281.0,89095.0,90725.0,61728.0,92185.0
1000_500_250_31_5,93281.0,89095.0,90725.0,63863.0,92185.0
1000_500_250_31_6,93281.0,89095.0,90725.0,64632.0,92185.0
1000_500_250_31_7,93281.0,89095.0,90725.0,63937.0,92185.0
1000_500_250_31_8,93281.0,89095.0,90725.0,63413.0,92185.0
1000_500_250_31_9,93281.0,89095.0,90725.0,62313.0,92185.0
500_250_100_31_0,47615.0,48756.0,45672.0,33673.0,44513.0
500_250_100_31_1,47615.0,48756.0,45672.0,33602.0,44513.0
500_250_100_31_2,47615.0,48756.0,45672.0,34185.0,44513.0
500_250_100_31_3,47615.0,48756.0,45672.0,34297.0,44513.0
500_250_100_31_4,47615.0,48756.0,45672.0,34260.0,44513.0
500_250_100_31_5,47615.0,48756.0,45672.0,35653.0,44513.0
500_250_100_31_6,47615.0,48822.0,45672.0,33195.0,44513.0
500_250_100_31_7,47615.0,48756.0,45672.0,34684.0,44513.0
500_250_100_31_8,47615.0,48756.0,45672.0,35976.0,44513.0
500_250_100_31_9,47615.0,48756.0,45672.0,33531.0,44513.0
100_75_50_31_0,15113.0,15474.0,14973.0,13147.0,14682.0
100_75_50_31_1,15113.0,15474.0,14973.0,12690.0,14682.0
100_75_50_31_2,15113.0,15474.0,14973.0,12562.0,14682.0
100_75_50_31_3,15113.0,15474.0,14973.0,12255.0,14682.0
100_75_50_31_4,15113.0,15474.0,14973.0,12646.0,14682.0
100_75_50_31_5,15113.0,15474.0,14973.0,13438.0,14682.0
100_75_50_31_6,15113.0,15474.0,14973.0,12572.0,14682.0
100_75_50_31_7,15113.0,15474.0,14973.0,12602.0,14682.0
100_75_50_31_8,15113.0,15474.0,14973.0,12670.0,14682.0
100_75_50_31_9,15113.0,15474.0,14973.0,12954.0,14682.0
10000_500_200_32_0,95025.0,93241.0,108778.0,67190.0,112244.0
10000_500_200_32_1,95025.0,93241.0,108778.0,64518.0,112244.0
10000_500_200_32_2,95025.0,93241.0,108778.0,65365.0,112244.0
10000_500_200_32_3,95025.0,93241.0,108778.0,62488.0,112244.0
10000_500_200_32_4,95025.0,93241.0,108778.0,63975.0,112244.0
10000_500_200_32_5,95025.0,93241.0,108778.0,64261.0,112244.0
10000_500_200_32_6,95025.0,93241.0,108778.0,63577.0,112244.0
10000_500_200_32_7,95025.0,93241.0,108778.0,63484.0,112244.0
10000_500_200_32_8,95025.0,93241.0,108778.0,65251.0,112244.0
10000_500_200_32_9,95025.0,93241.0,108778.0,65237.0,112244.0
1000_500_250_32_0,90408.0,90237.0,89091.0,62120.0,92538.0
1000_500_250_32_1,90408.0,90237.0,89091.0,60095.0,92538.0
1000_500_250_32_2,90408.0,90237.0,89091.0,60249.0,92538.0
1000_500_250_32_3,89546.0,92066.0,88361.0,62393.0,91167.0
1000_500_250_32_4,89546.0,92066.0,88499.0,62602.0,91167.0
1000_500_250_32_5,89546.0,92066.0,88361.0,62293.0,91167.0
1000_500_250_32_6,89546.0,92066.0,88361.0,61644.0,91167.0
1000_500_250_32_7,89546.0,92066.0,88361.0,63826.0,91167.0
1000_500_250_32_8,89546.0,92066.0,88499.0,65264.0,91167.0
1000_500_250_32_9,89546.0,92066.0,88361.0,64032.0,91167.0
500_250_100_32_0,43884.0,44585.0,43173.0,33753.0,44001.0
500_250_100_32_1,43884.0,44585.0,43173.0,32598.0,44001.0
500_250_100_32_2,43884.0,44585.0,43173.0,32634.0,44001.0
500_250_100_32_3,43884.0,44585.0,43173.0,32150.0,44001.0
500_250_100_32_4,43884.0,44585.0,43173.0,32478.0,44001.0
500_250_100_32_5,43884.0,44585.0,43173.0,34686.0,44001.0
500_250_100_32_6,43884.0,44585.0,43173.0,31618.0,44001.0
500_250_100_32_7,43884.0,44585.0,43173.0,32243.0,44001.0
500_250_100_32_8,43884.0,44585.0,43173.0,32042.0,44001.0
500_250_100_32_9,43884.0,44585.0,43173.0,32697.0,44001.0
100_75_50_32_0,11492.0,11414.0,11026.0,10043.0,11160.0
100_75_50_32_1,11492.0,11414.0,11026.0,9681.0,11160.0
100_75_50_32_2,11492.0,11414.0,11026.0,9514.0,11160.0
100_75_50_32_3,11492.0,11414.0,11026.0,9853.0,11160.0
100_75_50_32_4,11492.0,11414.0,11026.0,9928.0,11160.0
100_75_50_32_5,11492.0,11414.0,11026.0,10169.0,11160.0
100_75_50_32_6,11492.0,11414.0,11026.0,9825.0,11160.0
100_75_50_32_7,11492.0,11414.0,11026.0,9822.0,11160.0
100_75_50_32_8,11492.0,11414.0,11026.0,9470.0,11160.0
100_75_50_32_9,11492.0,11414.0,11026.0,10155.0,11160.0
10000_500_200_34_0,95163.0,90917.0,89885.0,98318.0,89885.0
10000_500_200_34_1,95119.0,91146.0,89723.0,98548.0,89723.0
10000_500_200_34_2,95119.0,91146.0,89723.0,98548.0,89723.0
10000_500_200_34_3,95119.0,91146.0,89723.0,98548.0,89723.0
10000_500_200_34_4,95119.0,91146.0,89723.0,98548.0,89723.0
10000_500_200_34_5,95119.0,91146.0,89723.0,98548.0,89723.0
10000_500_200_34_6,95119.0,91146.0,89723.0,98548.0,89723.0
10000_500_200_34_7,95119.0,91146.0,89723.0,98548.0,89723.0
10000_500_200_34_8,95119.0,91146.0,89723.0,98548.0,89723.0
10000_500_200_34_9,95119.0,91146.0,89723.0,98548.0,89723.0
1000_500_250_34_0,118645.0,120813.0,115440.0,119667.0,122539.0
1000_500_250_34_1,118645.0,120813.0,115440.0,119667.0,122539.0
1000_500_250_34_2,118645.0,120813.0,115440.0,119667.0,122539.0
1000_500_250_34_3,118645.0,120813.0,115440.0,119667.0,122539.0
1000_500_250_34_4,118645.0,120813.0,115440.0,119667.0,122539.0
1000_500_250_34_5,118645.0,120813.0,115440.0,119667.0,122539.0
1000_500_250_34_6,118645.0,120813.0,115440.0,119667.0,122539.0
1000_500_250_34_7,118645.0,120813.0,115440.0,119667.0,122539.0
1000_500_250_34_8,118645.0,120813.0,115440.0,119667.0,122539.0
1000_500_250_34_9,118645.0,120813.0,115440.0,119667.0,122539.0
500_250_100_34_0,23814.0,23866.0,23584.0,24758.0,23899.0
500_250_100_34_1,23814.0,23866.0,23584.0,24758.0,23899.0
500_250_100_34_2,23814.0,23866.0,23584.0,24758.0,23899.0
500_250_100_34_3,23814.0,23866.0,23584.0,24758.0,23899.0
500_250_100_34_4,23814.0,23866.0,23584.0,24758.0,23899.0
500_250_100_34_5,23814.0,23866.0,23584.0,24758.0,23899.0
500_250_100_34_6,23814.0,23866.0,23584.0,24758.0,23899.0
500_250_100_34_7,23814.0,23866.0,23584.0,24758.0,23899.0
500_250_100_34_8,23814.0,23866.0,23584.0,24758.0,23899.0
500_250_100_34_9,23814.0,23866.0,23584.0,24758.0,23899.0
100_75_50_34_0,3540.0,3598.0,3581.0,3544.0,3361.0
100_75_50_34_1,3540.0,3598.0,3581.0,3503.0,3361.0
100_75_50_34_2,3540.0,3598.0,3581.0,3563.0,3361.0
100_75_50_34_3,3540.0,3598.0,3581.0,3527.0,3361.0
100_75_50_34_4,3540.0,3598.0,3581.0,3506.0,3361.0
100_75_50_34_5,3540.0,3598.0,3581.0,3519.0,3361.0
100_75_50_34_6,3540.0,3598.0,3581.0,3471.0,3361.0
100_75_50_34_7,3540.0,3598.0,3581.0,3535.0,3361.0
100_75_50_34_8,3540.0,3598.0,3581.0,3497.0,3361.0
100_75_50_34_9,3540.0,3598.0,3581.0,3504.0,3361.0
10000_500_200_35_0,96199.0,95373.0,100806.0,71941.0,117855.0
10000_500_200_35_1,96199.0,95373.0,100806.0,67559.0,117855.0
10000_500_200_35_2,96199.0,95373.0,100806.0,66577.0,117855.0
10000_500_200_35_3,96199.0,95373.0,100806.0,68941.0,117855.0
10000_500_200_35_4,96199.0,95373.0,100806.0,69163.0,117855.0
10000_500_200_35_5,96199.0,95373.0,100806.0,67752.0,117855.0
10000_500_200_35_6,96199.0,95373.0,100806.0,67662.0,117855.0
10000_500_200_35_7,96179.0,92988.0,104886.0,66670.0,110868.0
10000_500_200_35_8,96179.0,92988.0,104886.0,66869.0,110868.0
10000_500_200_35_9,96179.0,92988.0,104886.0,69015.0,110868.0
1000_500_250_35_0,91754.0,92831.0,92624.0,66096.0,89776.0
1000_500_250_35_1,91754.0,92831.0,92624.0,64795.0,89776.0
1000_500_250_35_2,91754.0,92831.0,92624.0,66205.0,89776.0
1000_500_250_35_3,91754.0,92831.0,92624.0,66463.0,89776.0
1000_500_250_35_4,91754.0,92831.0,92624.0,66487.0,89776.0
1000_500_250_35_5,91754.0,92831.0,92624.0,65220.0,89776.0
1000_500_250_35_6,91754.0,92831.0,92624.0,65279.0,89776.0
1000_500_250_35_7,91754.0,92831.0,92624.0,67113.0,89776.0
1000_500_250_35_8,91754.0,92831.0,92624.0,66604.0,89776.0
1000_500_250_35_9,91754.0,92831.0,92624.0,65917.0,89776.0
500_250_100_35_0,49151.0,50011.0,45252.0,36042.0,47560.0
500_250_100_35_1,49151.0,50011.0,45252.0,36981.0,47560.0
500_250_100_35_2,49151.0,50011.0,45252.0,35413.0,47560.0
500_250_100_35_3,49151.0,50011.0,45252.0,38171.0,47560.0
500_250_100_35_4,49151.0,50011.0,45252.0,36986.0,47560.0
500_250_100_35_5,49151.0,50011.0,45252.0,38663.0,47560.0
500_250_100_35_6,49151.0,50011.0,45252.0,38503.0,47560.0
500_250_100_35_7,49151.0,50011.0,45252.0,36836.0,47560.0
500_250_100_35_8,49151.0,50011.0,45252.0,36449.0,47560.0
500_250_100_35_9,49151.0,50011.0,45252.0,37072.0,47560.0
100_75_50_35_0,15054.0,15724.0,14926.0,13213.0,15158.0
100_75_50_35_1,15054.0,15724.0,14926.0,12695.0,15158.0
100_75_50_35_2,15054.0,15724.0,14926.0,13956.0,15158.0
100_75_50_35_3,15054.0,15724.0,14926.0,14308.0,15158.0
100_75_50_35_4,15054.0,15724.0,14926.0,12670.0,15158.0
100_75_50_35_5,15054.0,15724.0,14926.0,12851.0,15158.0
100_75_50_35_6,15054.0,15724.0,14969.0,14764.0,15158.0
100_75_50_35_7,15054.0,15724.0,14926.0,12890.0,15158.0
100_75_50_35_8,15054.0,15724.0,14926.0,13184.0,15158.0
100_75_50_35_9,15054.0,15724.0,14926.0,12500.0,15158.0
10000_500_200_36_0,98056.0,94555.0,106454.0,67783.0,113335.0
10000_500_200_36_1,98056.0,94555.0,106454.0,66821.0,113335.0
10000_500_200_36_2,98056.0,94555.0,106454.0,64734.0,113335.0
10000_500_200_36_3,98056.0,94555.0,106454.0,65801.0,113335.0
10000_500_200_36_4,98056.0,94555.0,106454.0,65525.0,113335.0
10000_500_200_36_5,98056.0,94555.0,106454.0,65594.0,113335.0
10000_500_200_36_6,98056.0,94555.0,106454.0,65516.0,113335.0
10000_500_200_36_7,98056.0,94555.0,106454.0,65395.0,113335.0
10000_500_200_36_8,98056.0,94555.0,106454.0,65767.0,113335.0
10000_500_200_36_9,98056.0,94555.0,106454.0,67713.0,113335.0
1000_500_250_36_0,92443.0,92365.0,90395.0,65628.0,90829.0
1000_500_250_36_1,92443.0,92365.0,90395.0,64128.0,90829.0
1000_500_250_36_2,92443.0,92365.0,90395.0,66033.0,90829.0
1000_500_250_36_3,92443.0,92365.0,90395.0,65828.0,90829.0
1000_500_250_36_4,92443.0,92365.0,90395.0,68200.0,90829.0
1000_500_250_36_5,92443.0,92365.0,90395.0,64941.0,90829.0
1000_500_250_36_6,92443.0,92365.0,90395.0,66802.0,90829.0
1000_500_250_36_7,92443.0,92365.0,90395.0,66729.0,90829.0
1000_500_250_36_8,92443.0,92365.0,90395.0,64661.0,90829.0
1000_500_250_36_9,88989.0,93379.0,88940.0,65731.0,87466.0
500_250_100_36_0,47624.0,50081.0,49412.0,35558.0,49223.0
500_250_100_36_1,47624.0,50081.0,49412.0,36869.0,49223.0
500_250_100_36_2,47624.0,50081.0,49412.0,34720.0,49223.0
500_250_100_36_3,47624.0,50081.0,49412.0,35259.0,49223.0
500_250_100_36_4,47624.0,50081.0,49412.0,35622.0,49223.0
500_250_100_36_5,47624.0,50081.0,49412.0,37147.0,49223.0
500_250_100_36_6,47624.0,50081.0,49412.0,36814.0,49223.0
500_250_100_36_7,47624.0,50081.0,49412.0,34583.0,49223.0
500_250_100_36_8,47624.0,50081.0,49412.0,35614.0,49223.0
500_250_100_36_9,47624.0,50081.0,49412.0,39353.0,49223.0
100_75_50_36_0,12399.0,12289.0,11881.0,11092.0,11401.0
100_75_50_36_1,12399.0,12289.0,11881.0,11849.0,11401.0
100_75_50_36_2,12399.0,12337.0,11881.0,11626.0,11401.0
100_75_50_36_3,12399.0,12337.0,11881.0,11570.0,11401.0
100_75_50_36_4,12399.0,12289.0,11881.0,11642.0,11401.0
100_75_50_36_5,12399.0,12337.0,11881.0,11245.0,11401.0
100_75_50_36_6,12399.0,12289.0,11881.0,11527.0,11401.0
100_75_50_36_7,12399.0,12289.0,11881.0,12114.0,11401.0
100_75_50_36_8,12399.0,12289.0,11881.0,11400.0,11401.0
100_75_50_36_9,12399.0,12337.0,11881.0,11488.0,11401.0
Falkenauer_u120_03,3651.0,3641.0,3647.0,3683.0,3588.0
Falkenauer_t501_05,154897.0,152732.0,153476.0,155525.0,152119.0
Falkenauer_u120_07,3646.0,3645.0,3652.0,3690.0,3645.0
Falkenauer_u1000_03,30519.0,29931.0,29620.0,30379.0,29848.0
Falkenauer_u500_04,15321.0,15106.0,14916.0,15317.0,14995.0
Falkenauer_u500_09,14919.0,14726.0,14661.0,15008.0,14458.0
Falkenauer_u500_01,14931.0,14757.0,14567.0,15001.0,14592.0
Falkenauer_u500_05,15170.0,15054.0,14951.0,15295.0,14899.0
Falkenauer_u120_06,3523.0,3490.0,3508.0,3583.0,3348.0
Falkenauer_u1000_08,29515.0,29003.0,28851.0,29503.0,28675.0
Falkenauer_t120_06,37517.0,37378.0,37490.0,37658.0,36530.0
Falkenauer_u1000_01,29979.0,29550.0,29277.0,30188.0,29477.0
Falkenauer_u120_00,3512.0,3503.0,3485.0,3517.0,3334.0
Falkenauer_u120_04,3657.0,3655.0,3666.0,3668.0,3574.0
Falkenauer_t120_08,37474.0,37398.0,37356.0,37935.0,36608.0
Falkenauer_u120_01,3655.0,3645.0,3649.0,3676.0,3634.0
Falkenauer_t501_00,155030.0,153043.0,151843.0,154405.0,152404.0
Falkenauer_u1000_05,29556.0,29027.0,28663.0,29455.0,28657.0
Falkenauer_t501_01,154854.0,153758.0,150263.0,155849.0,151987.0
Falkenauer_t120_07,37255.0,37549.0,37517.0,38234.0,35858.0
Falkenauer_u500_03,15130.0,14873.0,14770.0,14977.0,14535.0
Falkenauer_t120_01,37530.0,37717.0,37384.0,37719.0,35607.0
Falkenauer_u500_02,14969.0,14732.0,14634.0,14997.0,14596.0
Falkenauer_t501_02,155185.0,153853.0,153853.0,158642.0,153853.0
Falkenauer_t120_05,37387.0,37274.0,37318.0,37516.0,36453.0
Falkenauer_t501_04,156215.0,152271.0,151400.0,156589.0,149048.0
Falkenauer_t501_09,154771.0,153048.0,151935.0,154298.0,151985.0
Falkenauer_u120_02,3379.0,3364.0,3369.0,3394.0,3257.0
Falkenauer_u1000_00,29512.0,29010.0,28764.0,29536.0,28632.0
Falkenauer_t120_03,37605.0,37810.0,37193.0,37702.0,35763.0
Falkenauer_t120_02,37488.0,37414.0,37095.0,37758.0,36287.0
Falkenauer_t501_06,154554.0,153828.0,150141.0,154739.0,150141.0
Falkenauer_u120_08,3667.0,3650.0,3652.0,3680.0,3507.0
Falkenauer_u1000_06,29355.0,28934.0,28462.0,29371.0,28836.0
Falkenauer_u1000_09,29601.0,29048.0,28175.0,29212.0,28597.0
Falkenauer_u500_07,15038.0,14903.0,14730.0,15073.0,14610.0
Falkenauer_u1000_07,29913.0,29432.0,29129.0,29957.0,28806.0
Falkenauer_t501_03,154333.0,154483.0,152095.0,155874.0,151055.0
Falkenauer_t120_00,37665.0,37397.0,38035.0,37555.0,36375.0
Falkenauer_u1000_02,30522.0,29997.0,29583.0,30597.0,29835.0
Falkenauer_t501_08,155508.0,152750.0,151443.0,157441.0,152349.0
Falkenauer_u500_06,15442.0,15131.0,15022.0,15390.0,15025.0
Falkenauer_u500_00,14595.0,14428.0,14393.0,14589.0,14179.0
Falkenauer_t501_07,155174.0,152699.0,150994.0,155092.0,147960.0
Falkenauer_u120_05,3530.0,3521.0,3525.0,3559.0,3482.0
Falkenauer_u120_09,3376.0,3354.0,3356.0,3374.0,3316.0
Falkenauer_t120_04,37374.0,37222.0,37068.0,37518.0,36328.0
Falkenauer_t120_09,37537.0,37536.0,37152.0,37703.0,35987.0
Falkenauer_u1000_04,29493.0,29156.0,28774.0,29497.0,28726.0
Falkenauer_u500_08,14454.0,14254.0,14186.0,14588.0,14172.0
