instances,Hybrid-GA,GRASP,GRASP+VNS,GRASP+Tabu,VNS,PLI-UB,PLI
10000_500_200_2_0,99788.0,97034.0,93043.0,93043.0,93043.0,99999.0,99999.0
10000_500_200_2_1,99962.0,96843.0,92755.0,92755.0,92755.0,100000.0,100000.0
10000_500_200_2_2,99925.0,96972.0,94054.0,94054.0,94054.0,100000.0,100000.0
10000_500_200_2_3,99999.0,97131.0,94440.0,94440.0,94440.0,99999.0,100000.0
10000_500_200_2_4,99927.0,96782.0,93644.0,93644.0,93644.0,100000.0,0.0
10000_500_200_2_5,99993.0,96729.0,94572.0,94572.0,94572.0,100000.0,100000.0
10000_500_200_2_6,99933.0,97111.0,94058.0,94058.0,94058.0,100000.0,99997.0
10000_500_200_2_7,100000.0,96400.0,93354.0,93354.0,93354.0,100000.0,99997.0
10000_500_200_2_8,99925.0,96852.0,93410.0,93410.0,93410.0,99999.0,99999.0
10000_500_200_2_9,99927.0,97359.0,92850.0,92850.0,92850.0,100000.0,99998.0
1000_500_250_2_0,123650.0,120985.0,117093.0,119261.0,117093.0,124979.0,123221.0
1000_500_250_2_1,119477.0,121316.0,115410.0,117637.0,115410.0,124905.887097,124549.0
1000_500_250_2_2,122088.0,120356.0,116438.0,118897.0,116438.0,125000.0,124710.0
1000_500_250_2_3,123626.0,119892.0,114420.0,117368.0,114420.0,124799.0,124859.0
1000_500_250_2_4,123548.0,120881.0,116741.0,119095.0,116741.0,124926.0,124741.0
1000_500_250_2_5,123836.0,120647.0,115947.0,117846.0,115947.0,124991.0,124725.0
1000_500_250_2_6,120002.0,120601.0,115759.0,117591.0,115759.0,124885.0,124727.0
1000_500_250_2_7,124558.0,120720.0,118125.0,120315.0,118125.0,124982.0,124627.0
1000_500_250_2_8,122557.0,120619.0,114934.0,116767.0,114934.0,124666.0,124626.0
1000_500_250_2_9,119622.0,120564.0,114713.0,117620.0,114713.0,124985.0,124494.0
500_250_100_2_0,24649.0,24361.0,24579.0,24664.0,24568.0,24986.0,24946.0
500_250_100_2_1,24909.0,24213.0,24704.0,24735.0,24667.0,24993.0,24961.0
500_250_100_2_2,24902.0,24398.0,24651.0,24677.0,24655.0,24991.0,24931.0
500_250_100_2_3,24112.0,24131.0,24460.0,24689.0,24531.0,24932.0,24848.0
500_250_100_2_4,24592.0,24195.0,24606.0,24610.0,24575.0,24918.0,24901.0
500_250_100_2_5,24731.0,24234.0,24592.0,24608.0,24609.0,24986.0,24920.0
500_250_100_2_6,24764.0,24379.0,24546.0,24679.0,24480.0,24992.0,24892.0
500_250_100_2_7,24634.0,24265.0,24728.0,24730.0,24787.0,24958.0,24831.0
500_250_100_2_8,24472.0,24084.0,24345.0,24448.0,24306.0,24751.0,24784.0
500_250_100_2_9,24769.0,24466.0,24683.0,24787.0,24683.0,24999.0,24850.0
100_75_50_2_0,3627.0,3687.0,3729.0,3716.0,3704.0,3743.0,3572.0
100_75_50_2_1,3614.0,3575.0,3640.0,3612.0,3626.0,3665.0,3648.0
100_75_50_2_2,3580.0,3644.0,3693.0,3673.0,3664.0,3711.0,3521.0
100_75_50_2_3,3698.0,3703.0,3724.0,3712.0,3622.0,3747.0,3486.0
100_75_50_2_4,3596.0,3654.0,3677.0,3661.0,3665.0,3697.0,3687.0
100_75_50_2_5,3627.0,3640.0,3694.0,3674.0,3645.0,3724.0,3568.0
100_75_50_2_6,3619.0,3627.0,3692.0,3645.0,3636.0,3709.0,3602.0
100_75_50_2_7,3559.0,3582.0,3636.0,3611.0,3532.0,3654.0,3679.0
100_75_50_2_8,3633.0,3676.0,3716.0,3700.0,3720.0,3744.0,3634.0
100_75_50_2_9,3549.0,3604.0,3663.0,3624.0,3631.0,3676.0,3649.0
10000_500_200_3_0,58904.0,85495.0,94639.0,94639.0,101206.0,0.0,985983.0
10000_500_200_3_1,59535.0,85693.0,95614.0,95614.0,103265.0,0.0,987354.0
10000_500_200_3_2,59886.0,84582.0,95668.0,95668.0,101826.0,0.0,0.0
10000_500_200_3_3,58901.0,85415.0,97609.0,97609.0,101163.0,0.0,0.0
10000_500_200_3_4,59673.0,85717.0,94562.0,94562.0,101047.0,0.0,0.0
10000_500_200_3_5,59710.0,85815.0,97136.0,97136.0,103661.0,0.0,0.0
10000_500_200_3_6,60375.0,84474.0,95528.0,95528.0,102250.0,0.0,981026.0
10000_500_200_3_7,58990.0,85291.0,96346.0,96346.0,102731.0,0.0,0.0
10000_500_200_3_8,60185.0,86459.0,97160.0,97160.0,104076.0,0.0,0.0
10000_500_200_3_9,60466.0,85578.0,95838.0,95838.0,102867.0,0.0,0.0
1000_500_250_3_0,58778.0,82965.0,87131.0,87131.0,87870.0,103179.0,330385.0
1000_500_250_3_1,58020.0,81968.0,87269.0,87269.0,87862.0,104034.0,321101.0
1000_500_250_3_2,60118.0,84010.0,88040.0,88040.0,88229.0,106553.0,325073.0
1000_500_250_3_3,58889.0,83719.0,87118.0,87118.0,88035.0,105511.0,321669.0
1000_500_250_3_4,60437.0,84035.0,87619.0,87619.0,89068.0,107001.0,328329.0
1000_500_250_3_5,58907.0,81827.0,87448.0,87448.0,87865.0,107545.0,324675.0
1000_500_250_3_6,58629.0,82090.0,86747.0,86747.0,87181.0,103974.0,318905.0
1000_500_250_3_7,57823.0,81858.0,86930.0,86930.0,87523.0,103333.0,323596.0
1000_500_250_3_8,57770.0,82201.0,86547.0,86547.0,87316.0,105451.0,325000.0
1000_500_250_3_9,60063.0,83066.0,87642.0,87642.0,88903.0,106138.0,335084.0
500_250_100_3_0,32096.0,42308.0,44014.0,44014.0,43602.0,53661.0,161540.0
500_250_100_3_1,30667.0,42247.0,42987.0,44885.0,43718.0,51462.0,157007.0
500_250_100_3_2,31095.0,41742.0,43295.0,43295.0,43700.0,52903.0,158475.0
500_250_100_3_3,31864.0,44113.0,44098.0,44098.0,43992.0,52611.0,158444.0
500_250_100_3_4,31389.0,43677.0,44201.0,44201.0,45099.0,53893.0,164689.0
500_250_100_3_5,31337.0,43389.0,42976.0,42976.0,43894.0,52501.960784,150605.0
500_250_100_3_6,30821.0,43183.0,44244.0,44244.0,44507.0,52674.0,0.0
500_250_100_3_7,30232.0,42959.0,43841.0,43841.0,44731.0,51327.0,0.0
500_250_100_3_8,30696.0,43364.0,43374.0,44508.0,42872.0,52139.0,0.0
500_250_100_3_9,31002.0,43743.0,44470.0,45664.0,45262.0,51919.0,0.0
100_75_50_3_0,10844.0,13314.0,14011.0,13955.0,13769.0,14532.0,0.0
100_75_50_3_1,10667.0,12875.0,13282.0,13252.0,13048.0,13678.0,0.0
100_75_50_3_2,9944.0,13736.0,14158.0,14135.0,14152.0,14416.0,0.0
100_75_50_3_3,11201.0,14058.0,14600.0,14553.0,14589.0,14955.0,0.0
100_75_50_3_4,11113.0,13995.0,14313.0,14263.0,14185.0,14513.0,0.0
100_75_50_3_5,11325.0,13686.0,14365.0,14278.0,14276.0,14467.0,0.0
100_75_50_3_6,10674.0,14218.0,14556.0,14519.0,14526.0,15000.0,0.0
100_75_50_3_7,10870.0,13744.0,14242.0,14150.0,14224.0,15279.0,39378.0
100_75_50_3_8,10023.0,12729.0,13260.0,13218.0,13204.0,13494.0,34030.0
100_75_50_3_9,11373.0,13594.0,14279.0,14139.0,14117.0,14842.0,35939.0
10000_500_200_4_0,59626.0,84774.0,96069.0,96069.0,101653.0,130707.0,0.0
10000_500_200_4_1,59686.0,84352.0,95217.0,95217.0,100831.0,129313.0,0.0
10000_500_200_4_2,59953.0,84188.0,96433.0,96433.0,103336.0,131381.0,0.0
10000_500_200_4_3,60085.0,84694.0,96338.0,96338.0,102958.0,132716.0,0.0
10000_500_200_4_4,60010.0,84952.0,97590.0,97590.0,105352.0,132661.0,0.0
10000_500_200_4_5,59020.0,83572.0,95803.0,95803.0,100374.0,128377.0,0.0
10000_500_200_4_6,59779.0,84310.0,94740.0,94740.0,99522.0,129919.0,0.0
10000_500_200_4_7,58984.0,83657.0,97451.0,97451.0,101821.0,128752.0,977913.0
10000_500_200_4_8,59490.0,84304.0,94665.0,94665.0,100816.0,130442.0,0.0
10000_500_200_4_9,58687.0,85101.0,94518.0,94518.0,100620.0,129512.0,964840.0
1000_500_250_4_0,55137.0,78246.0,84555.0,85681.0,84956.0,92893.0,324801.0
1000_500_250_4_1,59931.0,81035.0,86416.0,87333.0,87279.0,95611.0,308433.0
1000_500_250_4_2,62034.0,82056.0,86755.0,87572.0,86846.0,98012.0,317818.0
1000_500_250_4_3,61440.0,81554.0,86947.0,88280.0,86750.0,96859.0,309058.0
1000_500_250_4_4,58765.0,79659.0,85592.0,87027.0,85943.0,95009.984702,318553.0
1000_500_250_4_5,57826.0,79867.0,86712.0,87782.0,86119.0,94106.0,316200.0
1000_500_250_4_6,58642.0,81931.0,86378.0,87774.0,86831.0,95227.0,312303.0
1000_500_250_4_7,57746.0,81229.0,86636.0,87344.0,86820.0,95142.0,309111.0
1000_500_250_4_8,56216.0,78305.0,84492.0,84492.0,84543.0,93562.0,317031.0
1000_500_250_4_9,58515.0,80520.0,85664.0,87480.0,86422.0,96081.0,311140.0
500_250_100_4_0,30214.0,40473.0,44150.0,44817.0,44752.0,46582.0,145234.0
500_250_100_4_1,30332.0,40276.0,44658.0,44492.0,44125.0,46770.0,0.0
500_250_100_4_2,31485.0,41280.0,44425.0,45260.0,45409.0,47392.0,150038.0
500_250_100_4_3,29641.0,40503.0,44788.0,44273.0,44585.0,47370.0,159419.0
500_250_100_4_4,31182.0,41175.0,44400.0,45200.0,44265.0,47767.0,0.0
500_250_100_4_5,30370.0,39944.0,43701.0,43847.0,44148.0,46639.0,154903.0
500_250_100_4_6,30949.0,41913.0,44845.0,45476.0,45191.0,48465.0,158323.0
500_250_100_4_7,31171.0,41787.0,45646.0,45788.0,45253.0,48619.0,0.0
500_250_100_4_8,30194.0,40216.0,42436.0,42921.0,43390.0,46639.0,153654.0
500_250_100_4_9,29103.0,39845.0,43902.0,44146.0,44064.0,46507.0,157298.0
100_75_50_4_0,9348.0,11538.0,11863.0,11803.0,11520.0,12055.0,34674.0
100_75_50_4_1,10645.0,12520.0,12870.0,12882.0,12616.0,13259.0,28976.0
100_75_50_4_2,10070.0,12616.0,13036.0,12634.0,12681.0,13257.0,31486.0
100_75_50_4_3,10333.0,12216.0,12545.0,12304.0,12247.0,12825.0,31932.0
100_75_50_4_4,10028.0,11914.0,12167.0,12151.0,12023.0,12488.0,32112.0
100_75_50_4_5,11469.0,13978.0,14211.0,13949.0,13847.0,14679.0,32441.0
100_75_50_4_6,10229.0,12451.0,12771.0,12571.0,12543.0,12977.0,27611.0
100_75_50_4_7,10082.0,12362.0,12443.0,12364.0,12262.0,12816.0,30961.0
100_75_50_4_8,10058.0,12431.0,12464.0,12502.0,12232.0,13037.0,33335.0
100_75_50_4_9,10347.0,12562.0,12599.0,12647.0,12407.0,12945.0,32536.0
10000_500_200_6_0,99717.0,96251.0,92001.0,92001.0,92001.0,99999.0,99999.0
10000_500_200_6_1,99656.0,96190.0,91510.0,91510.0,91510.0,100000.0,99993.0
10000_500_200_6_2,99263.0,96159.0,92777.0,92777.0,92777.0,100000.0,100000.0
10000_500_200_6_3,98985.0,97216.0,93788.0,93788.0,93788.0,99999.0,100000.0
10000_500_200_6_4,98459.0,96088.0,92669.0,92669.0,92669.0,100000.0,99999.0
10000_500_200_6_5,99687.0,95986.0,93091.0,93091.0,93091.0,100000.0,0.0
10000_500_200_6_6,99632.0,96379.0,91624.0,91624.0,91624.0,100000.0,0.0
10000_500_200_6_7,99066.0,96377.0,93521.0,93521.0,93521.0,100000.0,0.0
10000_500_200_6_8,99386.0,96222.0,91938.0,91938.0,91938.0,99999.0,0.0
10000_500_200_6_9,99463.0,95794.0,92506.0,92506.0,92506.0,100000.0,0.0
1000_500_250_6_0,121985.0,121347.0,116833.0,123040.0,116833.0,124976.0,0.0
1000_500_250_6_1,118775.0,119267.0,112681.0,121291.0,112681.0,124957.0,0.0
1000_500_250_6_2,118965.0,119567.0,112022.0,117255.0,112022.0,125000.0,0.0
1000_500_250_6_3,123462.0,120807.0,111819.0,119299.0,111819.0,124798.0,0.0
1000_500_250_6_4,120767.0,120030.0,112991.0,119588.0,112991.0,124926.0,0.0
1000_500_250_6_5,122432.0,120079.0,116102.0,122027.0,116102.0,124991.0,0.0
1000_500_250_6_6,119311.0,119885.0,114324.0,121458.0,114324.0,124876.0,0.0
1000_500_250_6_7,123769.0,120572.0,113491.0,121393.0,113491.0,124982.0,0.0
1000_500_250_6_8,121910.0,119861.0,113829.0,121189.0,113829.0,124666.0,0.0
1000_500_250_6_9,119974.0,120356.0,110700.0,119243.0,110700.0,124985.0,0.0
500_250_100_6_0,24260.0,24108.0,24484.0,24660.0,24459.0,24978.0,0.0
500_250_100_6_1,24272.0,24352.0,24488.0,24592.0,24511.0,24993.0,0.0
500_250_100_6_2,24662.0,24285.0,24356.0,24352.0,24539.0,24991.0,0.0
500_250_100_6_3,23767.0,24016.0,24644.0,24374.0,24559.0,24922.0,24814.0
500_250_100_6_4,24014.0,24094.0,24563.0,24389.0,24523.0,24921.0,24871.0
500_250_100_6_5,24323.0,24399.0,24433.0,24354.0,24553.0,24982.0,24926.0
500_250_100_6_6,24022.0,24246.0,24474.0,24607.0,24656.0,24990.0,24888.0
500_250_100_6_7,24104.0,24231.0,24663.0,24665.0,24648.0,24958.0,24733.0
500_250_100_6_8,24057.0,23953.0,24277.0,24298.0,24136.0,24751.0,24715.0
500_250_100_6_9,24436.0,24196.0,24657.0,24505.0,24582.0,24999.0,24751.0
100_75_50_6_0,3649.0,3671.0,3704.0,3701.0,3560.0,3743.0,3601.0
100_75_50_6_1,3446.0,3575.0,3596.0,3591.0,3536.0,3645.0,3569.0
100_75_50_6_2,3538.0,3645.0,3685.0,3668.0,3589.0,3708.0,3634.0
100_75_50_6_3,3559.0,3676.0,3684.0,3674.0,3585.0,3747.0,3610.0
100_75_50_6_4,3585.0,3640.0,3652.0,3652.0,3495.0,3700.0,3536.0
100_75_50_6_5,3508.0,3601.0,3582.0,3590.0,3440.0,3702.0,3652.0
100_75_50_6_6,3527.0,3639.0,3652.0,3624.0,3522.0,3689.0,3516.0
100_75_50_6_7,3516.0,3561.0,3610.0,3592.0,3608.0,3654.0,3619.0
100_75_50_6_8,3620.0,3693.0,3690.0,3684.0,3650.0,3744.0,3570.0
100_75_50_6_9,3616.0,3603.0,3632.0,3604.0,3541.0,3675.0,3602.0
10000_500_200_7_0,65734.0,86891.0,95417.0,95417.0,107057.0,0.0,1491297.0
10000_500_200_7_1,65709.0,89566.0,93025.0,93025.0,111648.0,0.0,0.0
10000_500_200_7_2,65251.0,87182.0,94766.0,94766.0,107971.0,0.0,1444443.0
10000_500_200_7_3,62760.0,88271.0,97040.0,97040.0,111469.0,0.0,0.0
10000_500_200_7_4,62649.0,87661.0,93680.0,93680.0,107083.0,0.0,1459084.0
10000_500_200_7_5,63473.0,86301.0,96629.0,96629.0,109759.0,0.0,1464153.0
10000_500_200_7_6,64693.0,87219.0,97794.0,97794.0,106998.0,0.0,1477516.0
10000_500_200_7_7,64558.0,87292.0,96578.0,96578.0,111771.0,0.0,0.0
10000_500_200_7_8,66948.0,88603.0,98985.0,98985.0,113391.0,0.0,1453400.0
10000_500_200_7_9,63869.0,86828.0,97765.0,97765.0,109869.0,0.0,1472689.0
1000_500_250_7_0,62462.0,85783.0,90766.0,90766.0,91868.0,116728.0,500766.0
1000_500_250_7_1,63265.0,84801.0,90591.0,90591.0,93016.0,116939.0,503915.0
1000_500_250_7_2,64481.0,86317.0,92113.0,92113.0,91870.0,118750.0,469201.0
1000_500_250_7_3,67486.0,86376.0,90678.0,90678.0,92603.0,103526.0,479162.0
1000_500_250_7_4,64542.0,85821.0,90715.0,90715.0,92723.0,118723.96591,462602.0
1000_500_250_7_5,64268.0,84186.0,92713.0,92713.0,93288.0,104664.0,474069.0
1000_500_250_7_6,64218.0,83730.0,92207.0,92207.0,92339.0,116349.0,471512.0
1000_500_250_7_7,61618.0,84118.0,90021.0,90021.0,92452.0,103692.0,485630.0
1000_500_250_7_8,64770.0,85847.0,91566.0,91566.0,92206.0,118025.0,475693.0
1000_500_250_7_9,62649.0,86618.0,91294.0,91294.0,92153.0,119154.0,485717.0
500_250_100_7_0,36696.0,45275.0,45900.0,49560.0,46034.0,54821.0,245741.0
500_250_100_7_1,35622.0,43885.0,43899.0,43899.0,44625.0,51060.0,240874.0
500_250_100_7_2,35123.0,44377.0,44449.0,47681.0,45138.0,59712.0,236822.0
500_250_100_7_3,35010.0,46355.0,46145.0,46145.0,45468.0,58341.0,258387.0
500_250_100_7_4,35270.0,46316.0,50655.0,51642.0,46964.0,60304.0,234498.0
500_250_100_7_5,34326.0,45215.0,45080.0,45080.0,45403.0,58308.0,243285.0
500_250_100_7_6,33908.0,45247.0,49258.0,49204.0,49233.0,60435.0,238018.0
500_250_100_7_7,34786.0,45263.0,45675.0,45675.0,47806.0,57839.0,241421.0
500_250_100_7_8,33799.0,45646.0,46984.0,50382.0,45888.0,58468.0,222780.0
500_250_100_7_9,34793.0,45422.0,45192.0,48628.0,47158.0,57832.0,232485.0
100_75_50_7_0,12409.0,14812.0,15012.0,14837.0,14640.0,16003.0,62014.0
100_75_50_7_1,11567.0,14296.0,14578.0,14466.0,14505.0,14715.0,55140.0
100_75_50_7_2,11619.0,16146.0,16543.0,16581.0,16005.0,17205.0,61495.0
100_75_50_7_3,13007.0,16075.0,16412.0,16315.0,15650.0,17479.0,58191.0
100_75_50_7_4,12657.0,15493.0,15844.0,15844.0,15844.0,15998.0,56120.0
100_75_50_7_5,13254.0,15096.0,15614.0,15590.0,15121.0,15959.0,55523.0
100_75_50_7_6,12217.0,16062.0,16028.0,16278.0,15250.0,17307.0,60993.0
100_75_50_7_7,12790.0,15253.0,15729.0,15289.0,15268.0,15830.0,52015.0
100_75_50_7_8,13258.0,13985.0,14288.0,14234.0,14222.0,14418.0,57752.0
100_75_50_7_9,12153.0,15084.0,15281.0,15282.0,15281.0,16887.0,57794.0
10000_500_200_8_0,63380.0,84872.0,95740.0,95740.0,107379.0,136800.899213,0.0
10000_500_200_8_1,63443.0,84366.0,94574.0,94574.0,106828.0,135788.936968,0.0
10000_500_200_8_2,64360.0,85882.0,94090.0,94090.0,110990.0,137762.0,0.0
10000_500_200_8_3,62971.0,84886.0,93680.0,93680.0,112764.0,139347.0,0.0
10000_500_200_8_4,65784.0,84420.0,96936.0,96936.0,112994.0,138762.0,0.0
10000_500_200_8_5,63348.0,84248.0,93649.0,93649.0,107287.0,135716.0,0.0
10000_500_200_8_6,64816.0,85933.0,96254.0,96254.0,104909.0,137974.0,1404125.0
10000_500_200_8_7,64219.0,83148.0,94788.0,94788.0,107394.0,137701.0,0.0
10000_500_200_8_8,62992.0,83817.0,94007.0,94007.0,108612.0,136508.0,1443737.0
10000_500_200_8_9,63303.0,83680.0,95720.0,95720.0,108763.0,136703.0,0.0
1000_500_250_8_0,60567.0,79814.0,87376.0,88352.0,86714.0,96868.0,445036.0
1000_500_250_8_1,62040.0,82626.0,88628.0,93410.0,88807.0,100579.0,448032.0
1000_500_250_8_2,65270.0,83369.0,89107.0,89107.0,89475.0,104535.0,461623.0
1000_500_250_8_3,64895.0,84245.0,89390.0,89390.0,89693.0,102336.0,451429.0
1000_500_250_8_4,63585.0,81012.0,88121.0,89209.0,89872.0,99481.0,457626.0
1000_500_250_8_5,62308.0,81458.0,88049.0,92287.0,88886.0,97610.0,498082.0
1000_500_250_8_6,63837.0,83080.0,89468.0,93450.0,89490.0,101598.0,458711.0
1000_500_250_8_7,62440.0,83211.0,87450.0,90328.0,89139.0,99568.0,451717.0
1000_500_250_8_8,62425.0,80020.0,86247.0,90611.0,87265.0,97800.908465,496734.0
1000_500_250_8_9,62841.0,83201.0,88318.0,93025.0,88596.0,100950.0,442964.0
500_250_100_8_0,31659.0,41619.0,45633.0,45705.0,45553.0,47812.0,222156.0
500_250_100_8_1,32546.0,41277.0,46099.0,46212.0,46140.0,48158.0,226675.0
500_250_100_8_2,33796.0,42631.0,47293.0,47183.0,47156.0,49800.0,218649.0
500_250_100_8_3,32854.0,42794.0,45923.0,45519.0,46150.0,50326.0,215308.0
500_250_100_8_4,33554.0,42683.0,46588.0,46968.0,46773.0,49775.0,222717.0
500_250_100_8_5,35178.0,41249.0,45869.0,45764.0,45619.0,48128.0,219890.999991
500_250_100_8_6,33078.0,43582.0,47489.0,48051.0,48122.0,51614.0,212809.0
500_250_100_8_7,33789.0,43105.0,47762.0,47024.0,46388.0,51780.0,237920.0
500_250_100_8_8,31571.0,40267.0,44104.0,43973.0,43747.0,48130.0,0.0
500_250_100_8_9,31585.0,40608.0,45095.0,45144.0,45298.0,47925.0,204325.0
100_75_50_8_0,11161.0,12100.0,12297.0,12274.0,11934.0,12491.000035,42205.0
100_75_50_8_1,11171.0,12692.0,12926.0,12992.0,12142.0,13317.0,46456.0
100_75_50_8_2,10795.0,13404.0,13489.0,13555.0,13017.0,14229.0,45430.0
100_75_50_8_3,10851.0,12444.0,12660.0,12634.0,12267.0,13125.0,40068.0
100_75_50_8_4,11137.0,12309.0,12311.0,12365.0,11905.0,12728.0,43748.0
100_75_50_8_5,12395.0,14706.0,14979.0,14863.0,14749.0,15232.0,42163.0
100_75_50_8_6,11317.0,12872.0,13202.0,13192.0,12970.0,13394.0,43870.0
100_75_50_8_7,10890.0,13231.0,13445.0,12958.0,12516.0,13651.0,44626.0
100_75_50_8_8,11912.0,13325.0,13301.0,12552.0,12889.0,13849.0,0.0
100_75_50_8_9,11596.0,13247.0,13224.0,13281.0,13050.0,13579.0,46841.0
10000_500_200_10_0,98497.0,95128.0,90036.0,90036.0,90036.0,99999.0,99996.0
10000_500_200_10_1,98677.0,96008.0,91321.0,91321.0,91321.0,100000.0,99998.0
10000_500_200_10_2,98486.0,95843.0,91549.0,91549.0,91549.0,100000.0,99999.0
10000_500_200_10_3,98673.0,96266.0,93949.0,93949.0,93949.0,99999.0,100000.0
10000_500_200_10_4,97630.0,94620.0,92428.0,92428.0,92428.0,100000.0,0.0
10000_500_200_10_5,98038.0,95495.0,91152.0,91152.0,91152.0,100000.0,100000.0
10000_500_200_10_6,98054.0,96023.0,90838.0,90838.0,90838.0,100000.0,99999.0
10000_500_200_10_7,98979.0,95538.0,91434.0,91434.0,91434.0,100000.0,99999.0
10000_500_200_10_8,99369.0,95753.0,90271.0,90271.0,90271.0,99999.0,99996.0
10000_500_200_10_9,98796.0,96030.0,90937.0,90937.0,90937.0,100000.0,100000.0
1000_500_250_10_0,121171.0,121177.0,122620.0,121552.0,122170.0,124976.0,0.0
1000_500_250_10_1,118001.0,119572.0,109766.0,119704.0,109766.0,124957.0,124488.0
1000_500_250_10_2,119061.0,119878.0,109549.0,121337.0,109549.0,125000.0,0.0
1000_500_250_10_3,120687.0,119959.0,112708.0,119920.0,112708.0,124793.0,0.0
1000_500_250_10_4,119245.0,120486.0,109000.0,119970.0,109000.0,124926.0,124189.0
1000_500_250_10_5,123255.0,120333.0,122256.0,121312.0,123059.0,124991.0,123398.0
1000_500_250_10_6,119555.0,119935.0,113164.0,122133.0,113164.0,124866.0,124521.0
1000_500_250_10_7,119599.0,120163.0,123232.0,121617.0,123122.0,124982.0,124898.0
1000_500_250_10_8,122031.0,119776.0,121332.0,120894.0,122284.0,124666.0,124636.0
1000_500_250_10_9,122373.0,120144.0,109768.0,120926.0,109768.0,124985.0,124680.0
500_250_100_10_0,23916.0,23993.0,24385.0,24575.0,24372.0,24978.0,24901.0
500_250_100_10_1,23887.0,24206.0,24458.0,24405.0,24222.0,24993.0,0.0
500_250_100_10_2,23664.0,24303.0,24007.0,24494.0,24537.0,24991.0,0.0
500_250_100_10_3,23665.0,23971.0,24567.0,24467.0,24346.0,24922.0,0.0
500_250_100_10_4,23831.0,24071.0,24520.0,24136.0,24472.0,24921.0,24881.0
500_250_100_10_5,23642.0,24199.0,24206.0,24439.0,24414.0,24982.0,24752.0
500_250_100_10_6,24161.0,24125.0,24409.0,24469.0,24589.0,24984.0,24603.0
500_250_100_10_7,23720.0,24076.0,24304.0,24562.0,24443.0,24958.0,24979.0
500_250_100_10_8,23262.0,23883.0,23678.0,24002.0,24070.0,24751.0,24500.0
500_250_100_10_9,23888.0,24259.0,24530.0,24578.0,24357.0,24998.0,24926.0
100_75_50_10_0,3563.0,3645.0,3619.0,3671.0,3517.0,3743.0,3687.0
100_75_50_10_1,3432.0,3535.0,3564.0,3524.0,3423.0,3624.0,3647.0
100_75_50_10_2,3507.0,3617.0,3634.0,3613.0,3575.0,3705.0,3536.0
100_75_50_10_3,3529.0,3691.0,3603.0,3652.0,3382.0,3746.0,3596.0
100_75_50_10_4,3481.0,3602.0,3626.0,3619.0,3359.0,3700.0,3429.0
100_75_50_10_5,3453.0,3591.0,3535.0,3552.0,3264.0,3677.0,3602.0
100_75_50_10_6,3468.0,3618.0,3558.0,3534.0,3207.0,3672.0,3653.0
100_75_50_10_7,3419.0,3549.0,3481.0,3539.0,3194.0,3654.0,3668.0
100_75_50_10_8,3575.0,3630.0,3651.0,3635.0,3558.0,3744.0,3572.0
100_75_50_10_9,3541.0,3591.0,3592.0,3561.0,3439.0,3660.0,3473.0
10000_500_200_11_0,68038.0,88927.0,93692.0,93692.0,112473.0,0.0,0.0
10000_500_200_11_1,67119.0,89605.0,93354.0,93354.0,117300.0,0.0,1821170.0
10000_500_200_11_2,66887.0,88730.0,94655.0,94655.0,111627.0,0.0,0.0
10000_500_200_11_3,68221.0,88153.0,91559.0,91559.0,114806.0,0.0,0.0
10000_500_200_11_4,67708.0,88905.0,93552.0,93552.0,110534.0,0.0,0.0
10000_500_200_11_5,68305.0,89455.0,95762.0,95762.0,112977.0,0.0,0.0
10000_500_200_11_6,66536.0,90151.0,97727.0,97727.0,110469.0,0.0,0.0
10000_500_200_11_7,66876.0,88580.0,96900.0,96900.0,114143.0,0.0,1828772.0
10000_500_200_11_8,70205.0,94160.0,98534.0,98534.0,117019.0,0.0,0.0
10000_500_200_11_9,68644.0,89877.0,98504.0,98504.0,114010.0,0.0,1783492.0
1000_500_250_11_0,66424.0,87133.0,94880.0,94880.0,95386.0,122387.0,658393.0
1000_500_250_11_1,67211.0,89096.0,91573.0,91573.0,94686.0,107036.0,612759.0
1000_500_250_11_2,69119.0,88937.0,91880.0,91880.0,92742.0,116414.0,625189.0
1000_500_250_11_3,66716.0,87679.0,90592.0,90592.0,94515.0,107076.0,607773.0
1000_500_250_11_4,68329.0,89096.0,93569.0,93569.0,95904.0,124113.0,582329.0
1000_500_250_11_5,71086.0,86534.0,91625.0,91625.0,94000.0,107588.0,606445.0
1000_500_250_11_6,67445.0,85574.0,94060.0,94060.0,94759.0,110656.0,572305.0
1000_500_250_11_7,63442.0,86842.0,91337.0,91337.0,93092.0,107461.0,649746.0
1000_500_250_11_8,67130.0,87465.0,90706.0,90706.0,92457.0,124069.0,595137.0
1000_500_250_11_9,66397.0,88363.0,89976.0,89976.0,94444.0,124653.0,604626.0
500_250_100_11_0,37809.0,47167.0,48277.0,50747.0,46662.0,58243.0,311474.0
500_250_100_11_1,36932.0,44617.0,45949.0,48572.0,46125.0,52878.0,286212.0
500_250_100_11_2,37257.0,45529.0,44228.0,47960.0,45186.0,61906.0,282870.0
500_250_100_11_3,39080.0,49071.0,51353.0,51832.0,50828.0,61452.0,300464.0
500_250_100_11_4,37086.0,47853.0,52888.0,53354.0,48985.0,63355.0,295964.0
500_250_100_11_5,36643.0,46858.0,45466.0,48818.0,46200.0,61603.0,274225.0
500_250_100_11_6,36267.0,46579.0,50579.0,50527.0,50425.0,63388.0,315357.0
500_250_100_11_7,35863.0,46583.0,46942.0,46942.0,49675.0,59165.0,305794.0
500_250_100_11_8,36162.0,47434.0,52708.0,52874.0,47676.0,61367.0,290793.0
500_250_100_11_9,37037.0,47963.0,44994.0,49150.0,48047.0,60593.0,303204.0
100_75_50_11_0,13968.0,15077.0,14842.0,14842.0,14308.0,15498.0,86187.0
100_75_50_11_1,12511.0,14483.0,14506.0,14505.0,14505.0,15156.0,79752.0
100_75_50_11_2,12947.0,17587.0,17570.0,17587.0,17587.0,18034.0,79748.0
100_75_50_11_3,13997.0,17223.0,17238.0,17222.0,16009.0,17451.0,72098.0
100_75_50_11_4,14760.0,16786.0,16232.0,16921.0,16232.0,16974.0,66190.0
100_75_50_11_5,14202.0,16078.0,16365.0,16365.0,15959.0,17051.0,66334.0
100_75_50_11_6,13251.0,17192.0,17300.0,17170.0,17216.0,18238.0,72692.0
100_75_50_11_7,13634.0,15933.0,16017.0,16122.0,13784.0,16576.0,72620.0
100_75_50_11_8,12320.0,14172.0,14693.0,14653.0,14172.0,14799.0,73138.0
100_75_50_11_9,12996.0,15747.0,15746.0,15746.0,14227.0,16324.0,68199.0
10000_500_200_12_0,67407.0,85162.0,96050.0,96050.0,108134.0,138150.0,0.0
10000_500_200_12_1,67569.0,86434.0,96978.0,96978.0,113972.0,138216.0,0.0
10000_500_200_12_2,68743.0,85452.0,93428.0,93428.0,112256.0,139323.0,0.0
10000_500_200_12_3,67190.0,87592.0,93090.0,93090.0,118327.0,141442.0,0.0
10000_500_200_12_4,66850.0,85779.0,94409.0,95171.0,119932.0,140822.0,0.0
10000_500_200_12_5,64984.0,84221.0,92082.0,92082.0,112091.0,137288.0,0.0
10000_500_200_12_6,67628.0,85328.0,91414.0,91414.0,107377.0,139656.0,0.0
10000_500_200_12_7,64616.0,82808.0,92053.0,92053.0,110741.0,139206.0,0.0
10000_500_200_12_8,66760.0,83892.0,92148.0,92148.0,111111.0,138454.0,1646093.0
10000_500_200_12_9,65889.0,84924.0,92838.0,92838.0,114018.0,138648.0,0.0
1000_500_250_12_0,62422.0,81631.0,87511.0,87511.0,87158.0,98587.0,562557.0
1000_500_250_12_1,65111.0,83067.0,86775.0,93119.0,89607.0,102122.0,564221.0
1000_500_250_12_2,67907.0,87117.0,88867.0,95142.0,89778.0,107342.0,560712.0
1000_500_250_12_3,67131.0,83808.0,90235.0,95133.0,91216.0,104080.0,604302.0
1000_500_250_12_4,68186.0,82167.0,89085.0,92133.0,90344.0,101690.0,574782.0
1000_500_250_12_5,63414.0,82866.0,89014.0,93374.0,89475.0,97583.0,604121.0
1000_500_250_12_6,64607.0,84779.0,89897.0,94959.0,90985.0,104296.0,548275.0
1000_500_250_12_7,67775.0,84196.0,87666.0,88458.0,88758.0,101090.0,560013.0
1000_500_250_12_8,63593.0,81115.0,87133.0,90556.0,87732.0,98621.0,593785.0
1000_500_250_12_9,64673.0,83547.0,89832.0,95966.0,90092.0,103120.0,563543.0
500_250_100_12_0,34117.0,42275.0,46284.0,45517.0,45993.0,48309.0,249986.0
500_250_100_12_1,34325.0,41722.0,46246.0,46545.0,46876.0,47848.0,257732.0
500_250_100_12_2,35475.0,43658.0,47756.0,48017.0,48105.0,50241.0,266371.0
500_250_100_12_3,34068.0,43258.0,46403.0,46867.0,45285.0,51330.0,264159.0
500_250_100_12_4,34119.0,43391.0,46524.0,46644.0,46384.0,49779.0,242200.0
500_250_100_12_5,34539.0,42309.0,46499.0,46539.0,46198.0,48665.0,265349.0
500_250_100_12_6,34829.0,44393.0,48244.0,48398.0,47487.0,52666.981493,244764.0
500_250_100_12_7,35657.0,43949.0,46428.0,48025.0,46225.0,53577.0,244994.0
500_250_100_12_8,33416.0,40589.0,43443.0,43479.0,44064.0,47051.0,248285.0
500_250_100_12_9,32527.0,41557.0,44569.0,44562.0,44160.0,48466.0,250738.0
100_75_50_12_0,10712.0,12194.0,12215.0,12173.0,11778.0,12400.0,47231.0
100_75_50_12_1,11368.0,12813.0,12958.0,12973.0,12673.0,13154.0,49732.0
100_75_50_12_2,11055.0,13019.0,12954.0,12747.0,11986.0,13458.0,50504.0
100_75_50_12_3,10671.0,11789.0,11912.0,11412.0,11236.0,12281.0,0.0
100_75_50_12_4,11435.0,12320.0,12047.0,12114.0,10597.0,12653.0,47588.0
100_75_50_12_5,12017.0,14769.0,14990.0,14822.0,13783.0,15285.0,51399.0
100_75_50_12_6,11204.0,12696.0,12622.0,12712.0,11933.0,13088.0,51329.0
100_75_50_12_7,11779.0,13548.0,12788.0,12623.0,12216.0,13661.0,51570.0
100_75_50_12_8,11753.0,14122.0,13926.0,14057.0,13973.0,14428.0,49818.0
100_75_50_12_9,12379.0,13343.0,13214.0,13071.0,12401.0,13493.0,49988.0
10000_500_200_14_0,99788.0,97034.0,93043.0,93043.0,93043.0,99999.0,99996.0
10000_500_200_14_1,99962.0,96941.0,92755.0,92755.0,92755.0,100000.0,99999.0
10000_500_200_14_2,99925.0,96972.0,94054.0,94054.0,94054.0,100000.0,99996.0
10000_500_200_14_3,99999.0,97131.0,94440.0,94440.0,94440.0,99999.0,99993.0
10000_500_200_14_4,99927.0,96782.0,93644.0,93644.0,93644.0,100000.0,0.0
10000_500_200_14_5,99993.0,96729.0,94572.0,94572.0,94572.0,100000.0,99999.0
10000_500_200_14_6,99933.0,97111.0,94058.0,94058.0,94058.0,100000.0,99993.0
10000_500_200_14_7,100000.0,96400.0,93354.0,93354.0,93354.0,100000.0,99994.0
10000_500_200_14_8,99925.0,96852.0,93410.0,93410.0,93410.0,99999.0,99997.0
10000_500_200_14_9,99927.0,97359.0,92850.0,92850.0,92850.0,100000.0,99998.0
1000_500_250_14_0,123650.0,120985.0,117093.0,119414.0,117093.0,124979.0,124735.0
1000_500_250_14_1,119961.0,121316.0,115410.0,117637.0,115410.0,124905.887097,124765.0
1000_500_250_14_2,122088.0,120356.0,116438.0,118558.0,116438.0,125000.0,124920.0
1000_500_250_14_3,123626.0,119892.0,114420.0,117368.0,114420.0,124799.0,124990.0
1000_500_250_14_4,123548.0,120881.0,116741.0,119249.0,116741.0,124926.0,124517.0
1000_500_250_14_5,123836.0,120647.0,115947.0,118017.0,115947.0,124991.0,124529.0
1000_500_250_14_6,120002.0,120601.0,115759.0,117591.0,115759.0,124885.0,124926.0
1000_500_250_14_7,124558.0,120720.0,118125.0,120189.0,118125.0,124982.0,124840.0
1000_500_250_14_8,122557.0,120619.0,114934.0,116767.0,114934.0,124666.0,124767.0
1000_500_250_14_9,119514.0,120564.0,114713.0,117620.0,114713.0,124985.0,0.0
500_250_100_14_0,24649.0,24361.0,24602.0,24664.0,24576.0,24986.0,0.0
500_250_100_14_1,24909.0,24213.0,24704.0,24735.0,24667.0,24993.0,0.0
500_250_100_14_2,24902.0,24398.0,24651.0,24677.0,24655.0,24991.0,0.0
500_250_100_14_3,24112.0,24131.0,24460.0,24689.0,24531.0,24932.0,24898.0
500_250_100_14_4,24592.0,24195.0,24606.0,24610.0,24575.0,24918.0,24829.0
500_250_100_14_5,24731.0,24234.0,24592.0,24608.0,24609.0,24986.0,24750.0
500_250_100_14_6,24764.0,24379.0,24546.0,24679.0,24480.0,24992.0,24981.0
500_250_100_14_7,24634.0,24265.0,24728.0,24730.0,24787.0,24958.0,24873.0
500_250_100_14_8,24472.0,24084.0,24345.0,24448.0,24306.0,24751.0,24939.0
500_250_100_14_9,24769.0,24466.0,24683.0,24787.0,24683.0,24999.0,24999.0
100_75_50_14_0,3626.0,3687.0,3729.0,3716.0,3704.0,3743.0,3728.0
100_75_50_14_1,3614.0,3575.0,3640.0,3612.0,3626.0,3665.0,3700.0
100_75_50_14_2,3582.0,3644.0,3683.0,3673.0,3664.0,3711.0,3717.0
100_75_50_14_3,3698.0,3703.0,3724.0,3712.0,3622.0,3747.0,0.0
100_75_50_14_4,3604.0,3654.0,3673.0,3661.0,3665.0,3697.0,0.0
100_75_50_14_5,3627.0,3640.0,3694.0,3674.0,3645.0,3724.0,0.0
100_75_50_14_6,3619.0,3627.0,3692.0,3645.0,3636.0,3709.0,0.0
100_75_50_14_7,3559.0,3582.0,3636.0,3611.0,3532.0,3654.0,0.0
100_75_50_14_8,3635.0,3676.0,3716.0,3700.0,3720.0,3744.0,0.0
100_75_50_14_9,3567.0,3604.0,3663.0,3624.0,3631.0,3676.0,0.0
10000_500_200_15_0,58653.0,85495.0,94639.0,94639.0,101206.0,0.0,0.0
10000_500_200_15_1,58827.0,85693.0,95614.0,95614.0,103265.0,0.0,0.0
10000_500_200_15_2,62475.0,84582.0,95668.0,95668.0,101826.0,0.0,0.0
10000_500_200_15_3,59640.0,85415.0,97609.0,97609.0,101163.0,0.0,0.0
10000_500_200_15_4,60168.0,85717.0,94562.0,94562.0,101047.0,0.0,0.0
10000_500_200_15_5,61049.0,85815.0,97136.0,97136.0,103661.0,0.0,0.0
10000_500_200_15_6,60598.0,84474.0,95528.0,95528.0,102250.0,0.0,0.0
10000_500_200_15_7,59482.0,85291.0,96346.0,96346.0,102731.0,0.0,0.0
10000_500_200_15_8,59704.0,86459.0,97160.0,97160.0,104076.0,0.0,0.0
10000_500_200_15_9,59997.0,85578.0,95838.0,95838.0,102867.0,0.0,0.0
1000_500_250_15_0,59292.0,82965.0,87131.0,87131.0,87870.0,103179.0,0.0
1000_500_250_15_1,60066.0,81968.0,87269.0,87269.0,87862.0,104034.0,0.0
1000_500_250_15_2,59385.0,84010.0,88040.0,88040.0,88229.0,106553.0,0.0
1000_500_250_15_3,59061.0,83719.0,87118.0,87118.0,88035.0,105511.0,0.0
1000_500_250_15_4,60122.0,84035.0,87619.0,87619.0,89068.0,107001.0,0.0
1000_500_250_15_5,60466.0,81827.0,87448.0,87448.0,87865.0,107545.0,0.0
1000_500_250_15_6,58205.0,82090.0,86747.0,86747.0,87181.0,103974.0,0.0
1000_500_250_15_7,56884.0,81955.0,86930.0,86930.0,87523.0,103333.0,0.0
1000_500_250_15_8,59271.0,82201.0,86547.0,86547.0,87316.0,105451.0,0.0
1000_500_250_15_9,59427.0,83219.0,87642.0,87642.0,88903.0,106138.0,0.0
500_250_100_15_0,31146.0,42308.0,44014.0,44270.0,43602.0,53661.0,0.0
500_250_100_15_1,31331.0,42247.0,42987.0,44160.0,43718.0,51462.0,0.0
500_250_100_15_2,31208.0,41742.0,43295.0,43295.0,43700.0,52903.0,0.0
500_250_100_15_3,32088.0,44113.0,44098.0,44098.0,43992.0,52611.0,0.0
500_250_100_15_4,31964.0,43677.0,44201.0,44201.0,45099.0,53893.0,0.0
500_250_100_15_5,31703.0,43389.0,42976.0,42976.0,43894.0,52501.960784,0.0
500_250_100_15_6,30777.0,43183.0,44244.0,44244.0,44507.0,52674.0,117538.0
500_250_100_15_7,30016.0,42959.0,43841.0,43841.0,44731.0,51327.0,111906.0
500_250_100_15_8,31174.0,43364.0,43374.0,43907.0,42872.0,52139.0,115233.0
500_250_100_15_9,31162.0,43743.0,44470.0,44884.0,45262.0,51919.0,117911.0
100_75_50_15_0,10683.0,13314.0,14011.0,13955.0,13769.0,14532.0,28236.0
100_75_50_15_1,10800.0,12875.0,13282.0,13252.0,13048.0,13678.0,26638.0
100_75_50_15_2,10031.0,13736.0,14158.0,14135.0,14152.0,14416.0,27231.0
100_75_50_15_3,11718.0,14058.0,14600.0,14553.0,14589.0,14955.0,28289.0
100_75_50_15_4,11031.0,13995.0,14313.0,14263.0,14185.0,14513.0,28465.0
100_75_50_15_5,10861.0,13686.0,14365.0,14278.0,14276.0,14467.0,29048.0
100_75_50_15_6,10976.0,14218.0,14556.0,14519.0,14526.0,15000.0,25764.0
100_75_50_15_7,10914.0,13744.0,14242.0,14150.0,14224.0,15279.0,28425.0
100_75_50_15_8,9590.0,12729.0,13260.0,13218.0,13204.0,13494.0,29515.0
100_75_50_15_9,10833.0,13594.0,14279.0,14139.0,14117.0,14842.0,26947.0
10000_500_200_16_0,60716.0,84774.0,96069.0,96069.0,101653.0,130707.0,0.0
10000_500_200_16_1,60226.0,84352.0,95217.0,95217.0,100831.0,129313.0,0.0
10000_500_200_16_2,59691.0,84188.0,96433.0,96433.0,103336.0,131381.0,0.0
10000_500_200_16_3,59677.0,84694.0,96338.0,96338.0,102958.0,132716.0,0.0
10000_500_200_16_4,61161.0,84952.0,97590.0,97590.0,105352.0,132661.0,0.0
10000_500_200_16_5,59687.0,83572.0,95803.0,95803.0,100374.0,128377.0,678267.0
10000_500_200_16_6,59412.0,84310.0,94740.0,94740.0,99522.0,129919.0,0.0
10000_500_200_16_7,58836.0,83657.0,97451.0,97451.0,101821.0,128752.0,707898.0
10000_500_200_16_8,59492.0,84304.0,94665.0,94665.0,100816.0,130442.0,0.0
10000_500_200_16_9,61537.0,85101.0,94518.0,94518.0,100620.0,129512.0,0.0
1000_500_250_16_0,56416.0,78246.0,84555.0,85807.0,84956.0,92893.0,223572.0
1000_500_250_16_1,59066.0,81035.0,86416.0,87333.0,87279.0,95611.0,222822.0
1000_500_250_16_2,62909.0,82056.0,86755.0,87794.0,86846.0,98012.0,218831.0
1000_500_250_16_3,61775.0,81554.0,86947.0,88280.0,86750.0,96859.0,222602.0
1000_500_250_16_4,58814.0,79659.0,85592.0,87027.0,85943.0,95009.984702,215371.0
1000_500_250_16_5,57875.0,79867.0,86712.0,87872.0,86119.0,94106.0,226748.0
1000_500_250_16_6,59602.0,81931.0,86378.0,87774.0,86831.0,95227.0,227047.0
1000_500_250_16_7,58088.0,81229.0,86636.0,87344.0,86820.0,95142.0,227635.0
1000_500_250_16_8,56604.0,78305.0,84492.0,84492.0,84543.0,93562.0,219000.0
1000_500_250_16_9,58602.0,80520.0,85664.0,87171.0,86422.0,96081.0,237130.0
500_250_100_16_0,30475.0,40593.0,44150.0,44817.0,44752.0,46582.0,118008.0
500_250_100_16_1,30028.0,40276.0,44658.0,44492.0,44125.0,46770.0,112339.0
500_250_100_16_2,30454.0,41280.0,44425.0,45260.0,45409.0,47392.0,108751.0
500_250_100_16_3,30294.0,40503.0,44802.0,44273.0,44585.0,47370.0,114260.0
500_250_100_16_4,31495.0,41175.0,44400.0,45200.0,44745.0,47767.0,101759.0
500_250_100_16_5,31049.0,39944.0,43701.0,43847.0,44148.0,46639.0,106697.0
500_250_100_16_6,30839.0,41913.0,44845.0,45476.0,45191.0,48465.0,101846.0
500_250_100_16_7,30759.0,41787.0,45646.0,45788.0,45253.0,48619.0,111888.0
500_250_100_16_8,29933.0,40216.0,42436.0,42921.0,43390.0,46639.0,109783.0
500_250_100_16_9,31370.0,40005.0,43902.0,44146.0,44064.0,46507.0,106973.0
100_75_50_16_0,9686.0,11538.0,11863.0,11803.0,11520.0,12055.0,25228.999999
100_75_50_16_1,10488.0,12520.0,12870.0,12882.0,12616.0,13259.0,23490.0
100_75_50_16_2,10221.0,12616.0,13036.0,12634.0,12681.0,13257.0,21968.0
100_75_50_16_3,9907.0,12216.0,12545.0,12304.0,12247.0,12825.0,23290.0
100_75_50_16_4,10468.0,11939.0,12167.0,12151.0,12023.0,12488.0,25965.0
100_75_50_16_5,11374.0,13978.0,14211.0,13949.0,13847.0,14679.0,23835.0
100_75_50_16_6,10072.0,12451.0,12771.0,12571.0,12543.0,12977.0,26266.0
100_75_50_16_7,10039.0,12362.0,12443.0,12364.0,12262.0,12816.0,24325.0
100_75_50_16_8,9824.0,12431.0,12464.0,12502.0,12232.0,13037.0,24359.0
100_75_50_16_9,9940.0,12562.0,12599.0,12647.0,12407.0,12945.0,27955.0
10000_500_200_18_0,99717.0,96251.0,92001.0,92001.0,92001.0,99999.0,99998.0
10000_500_200_18_1,99656.0,96190.0,91510.0,91510.0,91510.0,100000.0,99991.0
10000_500_200_18_2,99263.0,96159.0,92777.0,92777.0,92777.0,100000.0,99999.0
10000_500_200_18_3,98985.0,97216.0,93788.0,93788.0,93788.0,99999.0,99998.0
10000_500_200_18_4,98459.0,96088.0,92669.0,92669.0,92669.0,100000.0,100000.0
10000_500_200_18_5,99687.0,95986.0,93091.0,93091.0,93091.0,100000.0,99996.0
10000_500_200_18_6,99632.0,96379.0,91624.0,91624.0,91624.0,100000.0,99993.0
10000_500_200_18_7,99066.0,96377.0,93521.0,93521.0,93521.0,100000.0,99993.0
10000_500_200_18_8,99386.0,96222.0,91938.0,91938.0,91938.0,99999.0,99992.0
10000_500_200_18_9,99463.0,95794.0,92506.0,92506.0,92506.0,100000.0,99991.0
1000_500_250_18_0,121985.0,121347.0,116833.0,123040.0,116833.0,124976.0,0.0
1000_500_250_18_1,118814.0,119262.0,112681.0,121291.0,112681.0,124957.0,0.0
1000_500_250_18_2,119690.0,119567.0,112022.0,116841.0,112022.0,125000.0,0.0
1000_500_250_18_3,123462.0,120807.0,111819.0,119071.0,111819.0,124798.0,0.0
1000_500_250_18_4,120767.0,120030.0,112991.0,119728.0,112991.0,124926.0,0.0
1000_500_250_18_5,122432.0,120154.0,116102.0,122115.0,116102.0,124991.0,124933.0
1000_500_250_18_6,119311.0,119885.0,114324.0,121560.0,114324.0,124876.0,0.0
1000_500_250_18_7,123769.0,120572.0,113491.0,121329.0,113491.0,124982.0,0.0
1000_500_250_18_8,121910.0,119861.0,113829.0,121189.0,113829.0,124666.0,0.0
1000_500_250_18_9,119031.0,120356.0,110700.0,119893.0,110700.0,124985.0,124771.0
500_250_100_18_0,24260.0,24108.0,24484.0,24660.0,24459.0,24978.0,24891.0
500_250_100_18_1,24272.0,24352.0,24488.0,24592.0,24521.0,24993.0,24928.0
500_250_100_18_2,24662.0,24285.0,24374.0,24352.0,24501.0,24991.0,24874.0
500_250_100_18_3,23758.0,24016.0,24644.0,24374.0,24514.0,24922.0,24827.0
500_250_100_18_4,24014.0,24094.0,24590.0,24389.0,24615.0,24921.0,24613.0
500_250_100_18_5,24323.0,24399.0,24433.0,24354.0,24553.0,24982.0,24880.0
500_250_100_18_6,24022.0,24246.0,24474.0,24607.0,24650.0,24990.0,0.0
500_250_100_18_7,24104.0,24231.0,24664.0,24665.0,24648.0,24958.0,24872.0
500_250_100_18_8,24057.0,23953.0,24293.0,24298.0,24136.0,24751.0,24933.0
500_250_100_18_9,24436.0,24196.0,24663.0,24505.0,24582.0,24999.0,25000.0
100_75_50_18_0,3571.0,3671.0,3704.0,3701.0,3560.0,3743.0,3634.0
100_75_50_18_1,3491.0,3575.0,3596.0,3591.0,3536.0,3645.0,3683.0
100_75_50_18_2,3589.0,3645.0,3685.0,3668.0,3589.0,3708.0,3680.0
100_75_50_18_3,3595.0,3676.0,3684.0,3674.0,3585.0,3747.0,3638.0
100_75_50_18_4,3513.0,3640.0,3652.0,3652.0,3495.0,3700.0,3605.0
100_75_50_18_5,3521.0,3601.0,3582.0,3590.0,3440.0,3702.0,3712.0
100_75_50_18_6,3584.0,3639.0,3652.0,3624.0,3522.0,3689.0,3553.0
100_75_50_18_7,3551.0,3561.0,3610.0,3592.0,3608.0,3654.0,3737.0
100_75_50_18_8,3606.0,3693.0,3690.0,3684.0,3650.0,3744.0,3684.0
100_75_50_18_9,3531.0,3602.0,3632.0,3604.0,3541.0,3675.0,3732.0
10000_500_200_19_0,61809.0,86891.0,95417.0,95417.0,107057.0,0.0,1001024.0
10000_500_200_19_1,65256.0,88937.0,93025.0,93025.0,111648.0,0.0,0.0
10000_500_200_19_2,62412.0,87182.0,94766.0,94766.0,107971.0,0.0,0.0
10000_500_200_19_3,62878.0,88271.0,97040.0,97040.0,111469.0,0.0,1061361.0
10000_500_200_19_4,65945.0,87661.0,93680.0,93680.0,107083.0,0.0,0.0
10000_500_200_19_5,66027.0,86301.0,96629.0,96629.0,109759.0,0.0,0.0
10000_500_200_19_6,63864.0,87219.0,97794.0,97794.0,106998.0,0.0,1054141.0
10000_500_200_19_7,66364.0,87292.0,96578.0,96578.0,111771.0,0.0,1051329.0
10000_500_200_19_8,64103.0,88603.0,98985.0,98985.0,113391.0,0.0,1057706.0
10000_500_200_19_9,64035.0,86828.0,97765.0,97765.0,109869.0,0.0,0.0
1000_500_250_19_0,64582.0,85783.0,90766.0,90766.0,91868.0,116728.0,338371.0
1000_500_250_19_1,64010.0,84801.0,90591.0,90591.0,93016.0,116939.0,351199.0
1000_500_250_19_2,64758.0,86317.0,92113.0,92113.0,91870.0,118750.0,340115.0
1000_500_250_19_3,63869.0,86376.0,90678.0,90678.0,92603.0,103526.0,346029.0
1000_500_250_19_4,63541.0,85821.0,90715.0,90715.0,92723.0,118723.96591,341146.0
1000_500_250_19_5,62009.0,84186.0,92713.0,92713.0,93288.0,104664.0,350063.0
1000_500_250_19_6,64543.0,83730.0,92207.0,92207.0,92339.0,116349.0,336760.0
1000_500_250_19_7,63608.0,84118.0,90021.0,90021.0,92452.0,103692.0,341692.0
1000_500_250_19_8,62608.0,85847.0,91566.0,91566.0,92206.0,118025.0,361828.0
1000_500_250_19_9,63698.0,86618.0,91294.0,91294.0,92153.0,119154.0,354499.0
500_250_100_19_0,34695.0,45275.0,45900.0,49684.0,46034.0,54821.0,165628.0
500_250_100_19_1,34213.0,44117.0,43899.0,43899.0,44625.0,51060.0,165349.0
500_250_100_19_2,34808.0,44377.0,44449.0,47681.0,45138.0,59712.0,157538.0
500_250_100_19_3,34563.0,46355.0,46145.0,46145.0,45468.0,58341.0,161457.0
500_250_100_19_4,34911.0,46316.0,50655.0,51642.0,46964.0,60304.0,164274.0
500_250_100_19_5,35421.0,45215.0,45080.0,45080.0,45403.0,58308.0,166184.0
500_250_100_19_6,34002.0,45247.0,49258.0,49204.0,49233.0,60435.0,160173.0
500_250_100_19_7,34475.0,44630.0,45675.0,45675.0,50081.0,57839.0,162968.0
500_250_100_19_8,33722.0,45646.0,46984.0,50382.0,45888.0,58468.0,173492.0
500_250_100_19_9,33858.0,45422.0,45192.0,48309.0,47158.0,57832.0,166184.0
100_75_50_19_0,12755.0,14812.0,15012.0,14837.0,14640.0,16003.0,44558.0
100_75_50_19_1,12498.0,14296.0,14578.0,14466.0,14505.0,14715.0,37549.0
100_75_50_19_2,11523.0,16146.0,16543.0,16581.0,16005.0,17205.0,45562.0
100_75_50_19_3,12379.0,16075.0,16412.0,16315.0,15650.0,17479.0,45053.0
100_75_50_19_4,12644.0,15493.0,15844.0,15844.0,15844.0,15998.0,41128.0
100_75_50_19_5,12770.0,15096.0,15614.0,15590.0,15121.0,15959.0,40302.0
100_75_50_19_6,12609.0,16062.0,16028.0,16278.0,15250.0,17307.0,46330.0
100_75_50_19_7,12169.0,15253.0,15729.0,15289.0,15268.0,15830.0,41122.0
100_75_50_19_8,12579.0,13985.0,14288.0,14234.0,14222.0,14418.0,42139.0
100_75_50_19_9,12398.0,15084.0,15281.0,15282.0,15281.0,16887.0,41128.0
10000_500_200_20_0,63806.0,84872.0,95740.0,95740.0,107379.0,136800.899213,0.0
10000_500_200_20_1,64849.0,84366.0,94574.0,94574.0,106828.0,135788.936968,1005290.0
10000_500_200_20_2,62504.0,85882.0,94090.0,94090.0,110990.0,137762.0,0.0
10000_500_200_20_3,65259.0,85501.0,93680.0,93680.0,112764.0,139347.0,1006860.0
10000_500_200_20_4,64399.0,84420.0,96936.0,96936.0,112994.0,138762.0,0.0
10000_500_200_20_5,63326.0,84248.0,93649.0,93649.0,107287.0,135716.0,0.0
10000_500_200_20_6,65149.0,85933.0,96254.0,96254.0,104909.0,137974.0,970314.0
10000_500_200_20_7,62729.0,83603.0,94788.0,94788.0,107394.0,137701.0,0.0
10000_500_200_20_8,63124.0,83817.0,94007.0,94007.0,108612.0,136508.0,1006673.0
10000_500_200_20_9,62923.0,83680.0,95720.0,95720.0,108763.0,136703.0,0.0
1000_500_250_20_0,59257.0,79814.0,87376.0,87819.0,86714.0,96868.0,332591.0
1000_500_250_20_1,62767.0,82626.0,88628.0,93332.0,88807.0,100579.0,334188.0
1000_500_250_20_2,64135.0,83369.0,89107.0,89107.0,89475.0,104535.0,341975.0
1000_500_250_20_3,66153.0,84245.0,89390.0,89390.0,89693.0,102336.0,314267.0
1000_500_250_20_4,63611.0,81012.0,88121.0,89600.0,89872.0,99481.0,336237.0
1000_500_250_20_5,64203.0,81458.0,88049.0,92481.0,88886.0,97610.0,332600.0
1000_500_250_20_6,61720.0,83080.0,89468.0,93322.0,89490.0,101598.0,338259.0
1000_500_250_20_7,59872.0,83211.0,87450.0,90497.0,89139.0,99568.0,345551.0
1000_500_250_20_8,60986.0,80020.0,86247.0,90442.0,87265.0,97800.908465,332811.0
1000_500_250_20_9,62460.0,83201.0,88318.0,93346.0,88596.0,100950.0,338687.0
500_250_100_20_0,32685.0,41619.0,45633.0,45705.0,45553.0,47812.0,158730.0
500_250_100_20_1,32272.0,41277.0,46099.0,46212.0,46140.0,48158.0,171167.0
500_250_100_20_2,33977.0,42631.0,47267.0,47183.0,47156.0,49800.0,0.0
500_250_100_20_3,31991.0,42794.0,45923.0,45519.0,46150.0,50326.0,140563.0
500_250_100_20_4,33693.0,42683.0,46588.0,46968.0,46773.0,49775.0,0.0
500_250_100_20_5,33129.0,41249.0,45869.0,45764.0,45619.0,48128.0,0.0
500_250_100_20_6,33323.0,43582.0,47489.0,48051.0,48122.0,51614.0,170503.0
500_250_100_20_7,33842.0,43105.0,47749.0,47024.0,46570.0,51780.0,151270.0
500_250_100_20_8,33210.0,40267.0,44104.0,43973.0,43747.0,48130.0,0.0
500_250_100_20_9,32358.0,40608.0,45095.0,45144.0,45298.0,47925.0,161540.0
100_75_50_20_0,10376.0,12100.0,12297.0,12274.0,11934.0,12491.000035,31215.0
100_75_50_20_1,11659.0,12692.0,12926.0,12992.0,12142.0,13317.0,30455.0
100_75_50_20_2,10453.0,13404.0,13489.0,13555.0,13017.0,14229.0,37070.0
100_75_50_20_3,10881.0,12444.0,12660.0,12634.0,12267.0,13125.0,33452.0
100_75_50_20_4,11290.0,12309.0,12311.0,12365.0,11905.0,12728.0,35285.0
100_75_50_20_5,12333.0,14706.0,14979.0,14863.0,14749.0,15232.0,27219.0
100_75_50_20_6,10846.0,12872.0,13202.0,13210.0,12970.0,13394.0,32983.0
100_75_50_20_7,11735.0,13231.0,13445.0,12958.0,12516.0,13651.0,39111.0
100_75_50_20_8,12188.0,13325.0,13301.0,12552.0,12889.0,13849.0,31651.0
100_75_50_20_9,11164.0,13247.0,13224.0,13281.0,13050.0,13579.0,29424.0
10000_500_200_22_0,98497.0,95128.0,90036.0,90036.0,90036.0,99999.0,0.0
10000_500_200_22_1,98677.0,96008.0,91321.0,91321.0,91321.0,100000.0,99991.0
10000_500_200_22_2,98486.0,95843.0,91549.0,91549.0,91549.0,100000.0,99995.0
10000_500_200_22_3,98673.0,96266.0,93949.0,93949.0,93949.0,99999.0,99992.0
10000_500_200_22_4,97630.0,94620.0,92428.0,92428.0,92428.0,100000.0,99997.0
10000_500_200_22_5,98038.0,95495.0,91152.0,91152.0,91152.0,100000.0,0.0
10000_500_200_22_6,98054.0,96023.0,90838.0,90838.0,90838.0,100000.0,0.0
10000_500_200_22_7,98979.0,95538.0,91434.0,91434.0,91434.0,100000.0,0.0
10000_500_200_22_8,99369.0,95753.0,90271.0,90271.0,90271.0,99999.0,99998.0
10000_500_200_22_9,98796.0,96030.0,90937.0,90937.0,90937.0,100000.0,99991.0
1000_500_250_22_0,121171.0,121177.0,122620.0,121552.0,122170.0,124976.0,0.0
1000_500_250_22_1,118060.0,119207.0,109766.0,119811.0,109766.0,124957.0,0.0
1000_500_250_22_2,118328.0,119878.0,109549.0,121337.0,109549.0,125000.0,0.0
1000_500_250_22_3,120687.0,119959.0,112708.0,119920.0,112708.0,124793.0,124700.0
1000_500_250_22_4,119443.0,120486.0,109000.0,119939.0,109000.0,124926.0,124721.0
1000_500_250_22_5,123255.0,120333.0,122256.0,121312.0,123059.0,124991.0,0.0
1000_500_250_22_6,118853.0,119935.0,113164.0,122133.0,113164.0,124866.0,0.0
1000_500_250_22_7,119599.0,120163.0,123232.0,121617.0,123122.0,124982.0,0.0
1000_500_250_22_8,122031.0,119776.0,121332.0,120894.0,122284.0,124666.0,0.0
1000_500_250_22_9,122373.0,120144.0,109768.0,120926.0,109768.0,124985.0,124917.0
500_250_100_22_0,23961.0,23993.0,24385.0,24575.0,24372.0,24978.0,24887.0
500_250_100_22_1,23782.0,24206.0,24428.0,24405.0,24222.0,24993.0,24908.0
500_250_100_22_2,24036.0,24303.0,24007.0,24494.0,24545.0,24991.0,24978.0
500_250_100_22_3,23540.0,23971.0,24567.0,24467.0,24346.0,24922.0,0.0
500_250_100_22_4,23831.0,24071.0,24520.0,24136.0,24472.0,24921.0,24885.0
500_250_100_22_5,23515.0,24199.0,24206.0,24439.0,24414.0,24982.0,24875.0
500_250_100_22_6,24161.0,24125.0,24409.0,24469.0,24589.0,24984.0,24741.0
500_250_100_22_7,23825.0,24076.0,24304.0,24562.0,24443.0,24958.0,24960.0
500_250_100_22_8,23465.0,23883.0,23678.0,24002.0,24053.0,24751.0,0.0
500_250_100_22_9,23903.0,24259.0,24530.0,24578.0,24357.0,24998.0,24884.0
100_75_50_22_0,3584.0,3645.0,3619.0,3671.0,3517.0,3743.0,3603.0
100_75_50_22_1,3396.0,3535.0,3564.0,3524.0,3423.0,3624.0,3645.0
100_75_50_22_2,3558.0,3617.0,3634.0,3613.0,3575.0,3705.0,3688.0
100_75_50_22_3,3529.0,3691.0,3603.0,3652.0,3382.0,3746.0,3566.0
100_75_50_22_4,3532.0,3602.0,3626.0,3619.0,3359.0,3700.0,3697.0
100_75_50_22_5,3457.0,3591.0,3535.0,3552.0,3264.0,3677.0,3563.0
100_75_50_22_6,3423.0,3618.0,3558.0,3534.0,3207.0,3672.0,3631.0
100_75_50_22_7,3413.0,3549.0,3481.0,3539.0,3194.0,3654.0,3677.0
100_75_50_22_8,3533.0,3630.0,3651.0,3635.0,3558.0,3744.0,3747.0
100_75_50_22_9,3534.0,3591.0,3592.0,3561.0,3439.0,3660.0,3555.0
10000_500_200_23_0,67751.0,88927.0,93692.0,93692.0,112473.0,0.0,1330238.0
10000_500_200_23_1,68894.0,89605.0,93354.0,93354.0,117300.0,0.0,1321691.0
10000_500_200_23_2,67318.0,88730.0,94655.0,94655.0,111627.0,0.0,1322292.0
10000_500_200_23_3,67155.0,90083.0,91559.0,91559.0,114806.0,0.0,1331117.0
10000_500_200_23_4,68027.0,88905.0,93552.0,93552.0,110534.0,0.0,1269831.0
10000_500_200_23_5,66832.0,89455.0,95762.0,95762.0,112977.0,0.0,1282631.0
10000_500_200_23_6,68591.0,90151.0,97727.0,97727.0,110469.0,0.0,1292860.0
10000_500_200_23_7,69858.0,88580.0,96900.0,96900.0,114143.0,0.0,0.0
10000_500_200_23_8,66937.0,94160.0,98534.0,98534.0,117019.0,0.0,1289197.0
10000_500_200_23_9,66980.0,89877.0,98504.0,98504.0,114010.0,0.0,1324994.0
1000_500_250_23_0,65402.0,87133.0,94880.0,94880.0,95386.0,122387.0,433618.0
1000_500_250_23_1,67209.0,89096.0,91573.0,91573.0,94686.0,107036.0,437400.0
1000_500_250_23_2,71852.0,88937.0,91880.0,91880.0,92742.0,116414.0,424366.0
1000_500_250_23_3,65793.0,87679.0,90592.0,90592.0,94515.0,107076.0,433885.0
1000_500_250_23_4,68229.0,89096.0,93569.0,93569.0,95904.0,124113.0,438889.0
1000_500_250_23_5,66893.0,86534.0,91625.0,91625.0,94000.0,107588.0,447528.0
1000_500_250_23_6,67976.0,85574.0,94060.0,94060.0,94759.0,110656.0,413740.0
1000_500_250_23_7,64455.0,86842.0,91337.0,91337.0,93092.0,107461.0,413604.0
1000_500_250_23_8,64295.0,87465.0,90706.0,90706.0,92457.0,124069.0,429741.0
1000_500_250_23_9,67284.0,88363.0,89976.0,89976.0,94444.0,124653.0,428014.0
500_250_100_23_0,38060.0,47167.0,48277.0,50747.0,46662.0,58243.0,208781.0
500_250_100_23_1,36190.0,44617.0,45949.0,48572.0,46125.0,52878.0,191281.0
500_250_100_23_2,35536.0,45529.0,44228.0,48267.0,45186.0,61906.0,217042.0
500_250_100_23_3,36859.0,49071.0,51353.0,51832.0,50828.0,61452.0,207257.0
500_250_100_23_4,38534.0,47853.0,52888.0,53354.0,48985.0,63355.0,199751.0
500_250_100_23_5,36780.0,46858.0,45466.0,48818.0,48920.0,61603.0,215678.0
500_250_100_23_6,36743.0,46579.0,50579.0,50527.0,50425.0,63388.0,220892.0
500_250_100_23_7,35818.0,46583.0,46942.0,46942.0,49675.0,59165.0,232363.0
500_250_100_23_8,37338.0,47434.0,52708.0,52874.0,47676.0,61367.0,204269.0
500_250_100_23_9,39114.0,47963.0,44994.0,49150.0,48047.0,60593.0,200279.0
100_75_50_23_0,12872.0,15077.0,14842.0,14842.0,14308.0,15498.0,50787.0
100_75_50_23_1,12604.0,14483.0,14506.0,14505.0,14505.0,15156.0,51498.0
100_75_50_23_2,13166.0,17587.0,17570.0,17587.0,17587.0,18034.0,47806.0
100_75_50_23_3,14921.0,17223.0,17238.0,17222.0,16009.0,17451.0,45817.0
100_75_50_23_4,14094.0,16786.0,16232.0,16921.0,16232.0,16974.0,0.0
100_75_50_23_5,13882.0,16078.0,16365.0,16365.0,15959.0,17051.0,52518.0
100_75_50_23_6,12826.0,17192.0,17300.0,17170.0,17216.0,18238.0,51794.0
100_75_50_23_7,13508.0,15933.0,16017.0,16122.0,13784.0,16576.0,45199.0
100_75_50_23_8,13033.0,14172.0,14693.0,14653.0,14172.0,14799.0,52920.0
100_75_50_23_9,13006.0,15747.0,15746.0,15746.0,14227.0,16324.0,50506.0
10000_500_200_24_0,70520.0,85162.0,96050.0,96050.0,108134.0,138150.0,1220011.0
10000_500_200_24_1,71348.0,86434.0,96978.0,96978.0,113972.0,138216.0,0.0
10000_500_200_24_2,69490.0,85452.0,93428.0,93428.0,112256.0,139323.0,1243779.0
10000_500_200_24_3,65254.0,87592.0,93090.0,93090.0,118327.0,141442.0,0.0
10000_500_200_24_4,67340.0,85637.0,94409.0,95171.0,119932.0,140822.0,1260436.0
10000_500_200_24_5,68020.0,84221.0,92082.0,92082.0,112091.0,137288.0,0.0
10000_500_200_24_6,64847.0,85328.0,91414.0,91414.0,107377.0,139656.0,1241783.0
10000_500_200_24_7,64068.0,82808.0,92053.0,92053.0,110741.0,139206.0,0.0
10000_500_200_24_8,65079.0,83892.0,92148.0,92148.0,111111.0,138454.0,1221706.0
10000_500_200_24_9,66632.0,84924.0,92838.0,92838.0,114018.0,138648.0,1221660.0
1000_500_250_24_0,63346.0,81631.0,87511.0,87511.0,87158.0,98587.0,381567.0
1000_500_250_24_1,67003.0,83067.0,86775.0,93119.0,89607.0,102122.0,388551.0
1000_500_250_24_2,68475.0,87117.0,88867.0,95142.0,89778.0,107342.0,398750.0
1000_500_250_24_3,66621.0,83808.0,90235.0,95133.0,91216.0,104080.0,399159.0
1000_500_250_24_4,65536.0,82167.0,89085.0,92515.0,90344.0,101690.0,408714.0
1000_500_250_24_5,63632.0,82866.0,89014.0,93374.0,89475.0,97583.0,403162.0
1000_500_250_24_6,66636.0,84779.0,89897.0,94959.0,90985.0,104296.0,406148.0
1000_500_250_24_7,66565.0,84196.0,87666.0,88458.0,88758.0,101090.0,410630.0
1000_500_250_24_8,64813.0,81115.0,87133.0,90556.0,87732.0,98621.0,394879.0
1000_500_250_24_9,65331.0,83547.0,89832.0,95966.0,90092.0,103120.0,411197.0
500_250_100_24_0,35172.0,42275.0,46284.0,45517.0,45993.0,48309.0,181336.0
500_250_100_24_1,34772.0,41722.0,46246.0,46545.0,46876.0,47848.0,179696.0
500_250_100_24_2,35799.0,43658.0,47756.0,48017.0,48105.0,50241.0,191382.0
500_250_100_24_3,33941.0,43258.0,46403.0,46867.0,45285.0,51330.0,173525.0
500_250_100_24_4,38398.0,43391.0,46769.0,46644.0,46384.0,49779.0,187489.0
500_250_100_24_5,34996.0,42309.0,46499.0,46539.0,46198.0,48665.0,189858.0
500_250_100_24_6,34038.0,44393.0,48244.0,48398.0,47487.0,52666.981493,0.0
500_250_100_24_7,38390.0,43949.0,46428.0,48025.0,46225.0,53577.0,190133.0
500_250_100_24_8,35563.0,40589.0,43443.0,43479.0,44064.0,47051.0,175301.0
500_250_100_24_9,32614.0,41557.0,44569.0,44562.0,44160.0,48466.0,0.0
100_75_50_24_0,10867.0,12194.0,12215.0,12173.0,11778.0,12400.0,39441.0
100_75_50_24_1,11692.0,12813.0,12958.0,12973.0,12673.0,13154.0,35382.0
100_75_50_24_2,11267.0,13019.0,12954.0,12747.0,11986.0,13458.0,32496.0
100_75_50_24_3,10670.0,11789.0,11912.0,11412.0,11236.0,12281.0,37193.0
100_75_50_24_4,11172.0,12320.0,12047.0,12114.0,10597.0,12653.0,27987.0
100_75_50_24_5,11603.0,14769.0,14990.0,14822.0,13783.0,15285.0,35992.0
100_75_50_24_6,11609.0,12720.0,12622.0,12712.0,11933.0,13088.0,35222.000005
100_75_50_24_7,11710.0,13548.0,12788.0,12623.0,12216.0,13661.0,31659.0
100_75_50_24_8,11115.0,14122.0,13926.0,14057.0,13973.0,14428.0,41770.0
100_75_50_24_9,11872.0,13343.0,13214.0,13071.0,12401.0,13493.0,36117.0
10000_500_200_26_0,99788.0,97034.0,93043.0,93043.0,93043.0,99999.0,99994.0
10000_500_200_26_1,99962.0,96941.0,92755.0,92755.0,92755.0,100000.0,99986.0
10000_500_200_26_2,99925.0,96972.0,94054.0,94054.0,94054.0,100000.0,99997.0
10000_500_200_26_3,99999.0,97131.0,94440.0,94440.0,94440.0,99999.0,99991.0
10000_500_200_26_4,99927.0,96782.0,93644.0,93644.0,93644.0,100000.0,99988.0
10000_500_200_26_5,99993.0,96729.0,94572.0,94572.0,94572.0,100000.0,99984.0
10000_500_200_26_6,99933.0,97111.0,94058.0,94058.0,94058.0,100000.0,99966.0
10000_500_200_26_7,100000.0,96400.0,93354.0,93354.0,93354.0,100000.0,99988.0
10000_500_200_26_8,99925.0,96852.0,93410.0,93410.0,93410.0,99999.0,99974.0
10000_500_200_26_9,99927.0,97359.0,92850.0,92850.0,92850.0,100000.0,99991.0
1000_500_250_26_0,123650.0,120985.0,117093.0,119414.0,117093.0,124979.0,122133.0
1000_500_250_26_1,119493.0,121316.0,115410.0,117637.0,115410.0,124905.887097,123218.0
1000_500_250_26_2,122088.0,120356.0,116438.0,118558.0,116438.0,125000.0,122865.0
1000_500_250_26_3,123626.0,119892.0,114420.0,117368.0,114420.0,124799.0,123238.0
1000_500_250_26_4,123548.0,120881.0,116741.0,119249.0,116741.0,124926.0,123188.0
1000_500_250_26_5,123836.0,120647.0,115947.0,118178.0,115947.0,124991.0,122779.0
1000_500_250_26_6,120002.0,120601.0,115759.0,117591.0,115759.0,124885.0,123269.0
1000_500_250_26_7,124558.0,120720.0,118125.0,120063.0,118125.0,124982.0,122542.0
1000_500_250_26_8,122557.0,120619.0,114934.0,116767.0,114934.0,124666.0,122879.0
1000_500_250_26_9,120358.0,120564.0,114713.0,117410.0,114713.0,124985.0,122905.0
500_250_100_26_0,24649.0,24361.0,24602.0,24664.0,24576.0,24986.0,24411.0
500_250_100_26_1,24909.0,24213.0,24704.0,24735.0,24667.0,24993.0,24667.0
500_250_100_26_2,24902.0,24398.0,24651.0,24677.0,24655.0,24991.0,24549.0
500_250_100_26_3,24112.0,24131.0,24460.0,24689.0,24531.0,24932.0,24761.0
500_250_100_26_4,24592.0,24195.0,24606.0,24610.0,24575.0,24918.0,24503.0
500_250_100_26_5,24731.0,24234.0,24592.0,24608.0,24609.0,24986.0,24726.0
500_250_100_26_6,24764.0,24379.0,24546.0,24679.0,24480.0,24992.0,24480.0
500_250_100_26_7,24634.0,24265.0,24728.0,24730.0,24787.0,24958.0,24529.0
500_250_100_26_8,24472.0,24084.0,24345.0,24448.0,24306.0,24751.0,24613.0
500_250_100_26_9,24769.0,24466.0,24683.0,24787.0,24683.0,24999.0,24473.0
100_75_50_26_0,3642.0,3687.0,3729.0,3716.0,3704.0,3743.0,3618.0
100_75_50_26_1,3614.0,3575.0,3640.0,3612.0,3626.0,3665.0,3712.0
100_75_50_26_2,3605.0,3644.0,3693.0,3673.0,3664.0,3711.0,3666.0
100_75_50_26_3,3698.0,3703.0,3724.0,3712.0,3622.0,3747.0,3555.0
100_75_50_26_4,3596.0,3654.0,3677.0,3659.0,3665.0,3697.0,3614.0
100_75_50_26_5,3627.0,3640.0,3694.0,3674.0,3645.0,3724.0,3529.0
100_75_50_26_6,3619.0,3627.0,3692.0,3645.0,3636.0,3709.0,3641.0
100_75_50_26_7,3559.0,3582.0,3636.0,3611.0,3532.0,3654.0,3434.0
100_75_50_26_8,3626.0,3676.0,3716.0,3700.0,3720.0,3744.0,3680.0
100_75_50_26_9,3540.0,3604.0,3663.0,3624.0,3631.0,3676.0,3699.0
10000_500_200_27_0,58913.0,85495.0,94639.0,94639.0,101206.0,0.0,0.0
10000_500_200_27_1,59739.0,85693.0,95614.0,95614.0,103265.0,0.0,50000.0
10000_500_200_27_2,60045.0,84582.0,95668.0,95668.0,101826.0,0.0,0.0
10000_500_200_27_3,58421.0,85415.0,97609.0,97609.0,101163.0,0.0,50000.0
10000_500_200_27_4,61534.0,85717.0,94562.0,94562.0,101047.0,0.0,50000.0
10000_500_200_27_5,59994.0,85815.0,97136.0,97136.0,103661.0,0.0,50000.0
10000_500_200_27_6,59171.0,84474.0,95528.0,95528.0,102250.0,0.0,0.0
10000_500_200_27_7,58987.0,85291.0,96346.0,96346.0,102731.0,0.0,50000.0
10000_500_200_27_8,60474.0,86459.0,97160.0,97160.0,104076.0,0.0,50000.0
10000_500_200_27_9,59242.0,85578.0,95838.0,95838.0,102867.0,0.0,50000.0
1000_500_250_27_0,58310.0,82965.0,87131.0,87131.0,87870.0,103179.0,48684.0
1000_500_250_27_1,59479.0,81968.0,87269.0,87269.0,87862.0,104034.0,48528.0
1000_500_250_27_2,60604.0,84010.0,88040.0,88040.0,88229.0,106553.0,48223.0
1000_500_250_27_3,60492.0,83719.0,87118.0,87118.0,88035.0,105511.0,48947.0
1000_500_250_27_4,60917.0,84035.0,87619.0,87619.0,89068.0,107001.0,48340.0
1000_500_250_27_5,59721.0,81827.0,87448.0,87448.0,87865.0,107545.0,48652.0
1000_500_250_27_6,58830.0,82090.0,86747.0,86747.0,87181.0,103974.0,48805.0
1000_500_250_27_7,56969.0,81955.0,86930.0,86930.0,87523.0,103333.0,48586.0
1000_500_250_27_8,58086.0,82201.0,86547.0,86547.0,87316.0,105451.0,48685.0
1000_500_250_27_9,60103.0,83066.0,87642.0,87642.0,88903.0,106138.0,48474.0
500_250_100_27_0,31936.0,42308.0,44014.0,44715.0,43602.0,53661.0,24451.0
500_250_100_27_1,31019.0,42247.0,42987.0,44885.0,43718.0,51462.0,24139.0
500_250_100_27_2,31506.0,41742.0,43295.0,43295.0,43700.0,52903.0,24430.0
500_250_100_27_3,31799.0,44113.0,44098.0,44098.0,43992.0,52611.0,24312.0
500_250_100_27_4,31946.0,43677.0,44201.0,44201.0,45099.0,53893.0,24289.0
500_250_100_27_5,31443.0,43389.0,42976.0,42976.0,43894.0,52501.960784,24343.0
500_250_100_27_6,31049.0,43183.0,44244.0,44244.0,44507.0,52674.0,24294.0
500_250_100_27_7,30212.0,42959.0,43841.0,43841.0,44731.0,51327.0,24192.0
500_250_100_27_8,31001.0,43364.0,43374.0,44115.0,42872.0,52139.0,24261.0
500_250_100_27_9,31242.0,43743.0,44470.0,45772.0,45262.0,51919.0,24350.0
100_75_50_27_0,10903.0,13314.0,14011.0,13955.0,13769.0,14532.0,6798.0
100_75_50_27_1,10416.0,12875.0,13282.0,13252.0,13048.0,13678.0,7150.0
100_75_50_27_2,9707.0,13736.0,14158.0,14135.0,14152.0,14416.0,7180.0
100_75_50_27_3,11037.0,14058.0,14600.0,14553.0,14589.0,14955.0,7336.0
100_75_50_27_4,11037.0,13995.0,14313.0,14263.0,14185.0,14513.0,7056.0
100_75_50_27_5,11269.0,13686.0,14365.0,14278.0,14276.0,14467.0,7149.0
100_75_50_27_6,10518.0,14218.0,14556.0,14519.0,14526.0,15000.0,7169.0
100_75_50_27_7,11183.0,13744.0,14242.0,14150.0,14224.0,15279.0,7108.0
100_75_50_27_8,9746.0,12729.0,13260.0,13218.0,13204.0,13494.0,7203.0
100_75_50_27_9,10707.0,13594.0,14279.0,14139.0,14117.0,14842.0,7351.0
10000_500_200_28_0,59638.0,84774.0,96069.0,96069.0,101653.0,130707.0,0.0
10000_500_200_28_1,58870.0,84352.0,95217.0,95217.0,100831.0,129313.0,0.0
10000_500_200_28_2,59405.0,83923.0,96433.0,96433.0,103336.0,131381.0,49967.0
10000_500_200_28_3,59032.0,84694.0,96338.0,96338.0,102958.0,132716.0,49998.0
10000_500_200_28_4,61317.0,84952.0,97590.0,97590.0,105352.0,132661.0,49965.0
10000_500_200_28_5,59388.0,83943.0,95803.0,95803.0,100374.0,128377.0,49994.0
10000_500_200_28_6,59625.0,84310.0,94740.0,94740.0,99522.0,129919.0,0.0
10000_500_200_28_7,58541.0,83657.0,97451.0,97451.0,101821.0,128752.0,50000.0
10000_500_200_28_8,60462.0,84304.0,94665.0,94665.0,100816.0,130442.0,49970.0
10000_500_200_28_9,58783.0,85101.0,94518.0,94518.0,100620.0,129512.0,49977.0
1000_500_250_28_0,55852.0,78246.0,84555.0,85681.0,84956.0,92893.0,48118.0
1000_500_250_28_1,60253.0,81035.0,86416.0,87480.0,87279.0,95611.0,48294.0
1000_500_250_28_2,61398.0,82056.0,86755.0,87794.0,86846.0,98012.0,47688.0
1000_500_250_28_3,61647.0,81554.0,86947.0,88136.0,86750.0,96859.0,48251.0
1000_500_250_28_4,59718.0,79659.0,85592.0,87027.0,85943.0,95009.984702,48612.0
1000_500_250_28_5,55674.0,79867.0,86712.0,87782.0,86119.0,94106.0,48070.0
1000_500_250_28_6,58657.0,81931.0,86378.0,87774.0,86831.0,95227.0,48299.0
1000_500_250_28_7,59111.0,81229.0,86636.0,87344.0,86820.0,95142.0,48457.0
1000_500_250_28_8,56167.0,78305.0,84492.0,84492.0,84543.0,93562.0,48776.0
1000_500_250_28_9,57882.0,80520.0,85664.0,87171.0,86422.0,96081.0,48363.0
500_250_100_28_0,30720.0,40473.0,44150.0,44817.0,44752.0,46582.0,24171.0
500_250_100_28_1,30706.0,40276.0,44658.0,44492.0,44125.0,46770.0,23725.0
500_250_100_28_2,30502.0,41280.0,44425.0,45260.0,45409.0,47392.0,24002.0
500_250_100_28_3,29603.0,40503.0,44788.0,44351.0,44585.0,47370.0,23899.0
500_250_100_28_4,31017.0,41175.0,44400.0,45200.0,44745.0,47767.0,24077.0
500_250_100_28_5,30305.0,39944.0,43701.0,43847.0,44148.0,46639.0,24131.0
500_250_100_28_6,30658.0,41913.0,44845.0,45467.0,45191.0,48465.0,24116.0
500_250_100_28_7,30520.0,41787.0,45646.0,45788.0,45253.0,48619.0,24330.0
500_250_100_28_8,30777.0,40216.0,42436.0,42921.0,43390.0,46639.0,23734.0
500_250_100_28_9,29052.0,39845.0,43902.0,44146.0,44064.0,46507.0,23608.0
100_75_50_28_0,9381.0,11538.0,11863.0,11803.0,11520.0,12055.0,6690.0
100_75_50_28_1,10268.0,12520.0,12870.0,12882.0,12616.0,13259.0,7013.0
100_75_50_28_2,10016.0,12616.0,13036.0,12634.0,12681.0,13257.0,6875.0
100_75_50_28_3,9828.0,12216.0,12545.0,12304.0,12247.0,12825.0,6506.0
100_75_50_28_4,10556.0,11939.0,12167.0,12151.0,12023.0,12488.0,6936.0
100_75_50_28_5,10927.0,13978.0,14211.0,13949.0,13847.0,14679.0,6931.0
100_75_50_28_6,9954.0,12451.0,12771.0,12571.0,12543.0,12977.0,7146.0
100_75_50_28_7,10111.0,12362.0,12443.0,12364.0,12262.0,12816.0,6850.0
100_75_50_28_8,10030.0,12431.0,12464.0,12502.0,12232.0,13037.0,6999.0
100_75_50_28_9,10052.0,12562.0,12599.0,12647.0,12407.0,12945.0,6964.0
10000_500_200_30_0,99717.0,96251.0,92001.0,92001.0,92001.0,99999.0,0.0
10000_500_200_30_1,99656.0,96190.0,91510.0,91510.0,91510.0,100000.0,99952.0
10000_500_200_30_2,99263.0,96159.0,92777.0,92777.0,92777.0,100000.0,99967.0
10000_500_200_30_3,98985.0,97216.0,93788.0,93788.0,93788.0,99999.0,99948.0
10000_500_200_30_4,98459.0,96088.0,92669.0,92669.0,92669.0,100000.0,99832.0
10000_500_200_30_5,99687.0,95986.0,93091.0,93091.0,93091.0,100000.0,100000.0
10000_500_200_30_6,99632.0,96379.0,91624.0,91624.0,91624.0,100000.0,99769.0
10000_500_200_30_7,99066.0,96377.0,93521.0,93521.0,93521.0,100000.0,99951.0
10000_500_200_30_8,99386.0,96222.0,91938.0,91938.0,91938.0,99999.0,99934.0
10000_500_200_30_9,99463.0,95794.0,92506.0,92506.0,92506.0,100000.0,99964.0
1000_500_250_30_0,121985.0,121347.0,116833.0,123110.0,116833.0,124976.0,123604.0
1000_500_250_30_1,119969.0,119267.0,112681.0,121115.0,112681.0,124957.0,123816.0
1000_500_250_30_2,119037.0,119567.0,112022.0,116841.0,112022.0,125000.0,123980.0
1000_500_250_30_3,123462.0,120807.0,111819.0,119071.0,111819.0,124798.0,123992.0
1000_500_250_30_4,120767.0,120030.0,112991.0,119412.0,112991.0,124926.0,124235.0
1000_500_250_30_5,122432.0,120154.0,116102.0,122027.0,116102.0,124991.0,124006.0
1000_500_250_30_6,119311.0,119885.0,114324.0,121150.0,114324.0,124876.0,123899.0
1000_500_250_30_7,123769.0,120572.0,113491.0,121453.0,113491.0,124982.0,123897.0
1000_500_250_30_8,121910.0,119861.0,113829.0,121189.0,113829.0,124666.0,123444.0
1000_500_250_30_9,119103.0,120356.0,110700.0,119243.0,110700.0,124985.0,123682.0
500_250_100_30_0,24260.0,24108.0,24484.0,24660.0,24459.0,24978.0,24564.0
500_250_100_30_1,24272.0,24352.0,24488.0,24592.0,24525.0,24993.0,24890.0
500_250_100_30_2,24662.0,24285.0,24356.0,24352.0,24539.0,24991.0,24301.0
500_250_100_30_3,23656.0,24016.0,24644.0,24511.0,24514.0,24922.0,24761.0
500_250_100_30_4,24014.0,24063.0,24590.0,24389.0,24615.0,24921.0,24818.0
500_250_100_30_5,24323.0,24399.0,24433.0,24354.0,24553.0,24982.0,24855.0
500_250_100_30_6,24022.0,24246.0,24474.0,24607.0,24656.0,24990.0,24612.0
500_250_100_30_7,24104.0,24231.0,24663.0,24665.0,24648.0,24958.0,24713.0
500_250_100_30_8,24057.0,23953.0,24277.0,24298.0,24136.0,24751.0,24792.0
500_250_100_30_9,24436.0,24196.0,24663.0,24505.0,24582.0,24999.0,24794.0
100_75_50_30_0,3629.0,3671.0,3704.0,3701.0,3560.0,3743.0,3540.0
100_75_50_30_1,3490.0,3575.0,3596.0,3591.0,3536.0,3645.0,3632.0
100_75_50_30_2,3592.0,3645.0,3685.0,3668.0,3589.0,3708.0,3513.0
100_75_50_30_3,3611.0,3676.0,3684.0,3674.0,3585.0,3747.0,3614.0
100_75_50_30_4,3589.0,3640.0,3652.0,3652.0,3495.0,3700.0,3667.0
100_75_50_30_5,3584.0,3601.0,3582.0,3590.0,3440.0,3702.0,3733.0
100_75_50_30_6,3535.0,3639.0,3652.0,3624.0,3522.0,3689.0,3640.0
100_75_50_30_7,3486.0,3561.0,3610.0,3592.0,3608.0,3654.0,3662.0
100_75_50_30_8,3663.0,3693.0,3690.0,3684.0,3650.0,3744.0,3310.0
100_75_50_30_9,3576.0,3602.0,3632.0,3604.0,3541.0,3675.0,3615.0
10000_500_200_31_0,64722.0,86891.0,95417.0,95417.0,107057.0,0.0,0.0
10000_500_200_31_1,66571.0,89566.0,93025.0,93025.0,111648.0,0.0,50000.0
10000_500_200_31_2,64549.0,87182.0,94766.0,94766.0,107971.0,0.0,50000.0
10000_500_200_31_3,64306.0,88271.0,97040.0,97040.0,111469.0,0.0,50000.0
10000_500_200_31_4,64460.0,87661.0,93680.0,93680.0,107083.0,0.0,50000.0
10000_500_200_31_5,64187.0,86301.0,96629.0,96629.0,109759.0,0.0,0.0
10000_500_200_31_6,66277.0,87219.0,97794.0,97794.0,106998.0,0.0,50000.0
10000_500_200_31_7,63594.0,87292.0,96578.0,96578.0,111771.0,0.0,50000.0
10000_500_200_31_8,65697.0,88603.0,98985.0,98985.0,113391.0,0.0,50000.0
10000_500_200_31_9,64738.0,86828.0,97765.0,97765.0,109869.0,0.0,50000.0
1000_500_250_31_0,63457.0,85783.0,90766.0,90766.0,91868.0,116728.0,49756.0
1000_500_250_31_1,63383.0,84801.0,90591.0,90591.0,93016.0,116939.0,49416.0
1000_500_250_31_2,64599.0,86317.0,92113.0,92113.0,91870.0,118750.0,49466.0
1000_500_250_31_3,64413.0,86376.0,90678.0,90678.0,92603.0,103526.0,49804.0
1000_500_250_31_4,65167.0,85821.0,90715.0,90715.0,92723.0,118723.96591,49444.0
1000_500_250_31_5,63001.0,84186.0,92713.0,92713.0,93288.0,104664.0,49471.0
1000_500_250_31_6,63041.0,83730.0,92207.0,92207.0,92339.0,116349.0,49489.0
1000_500_250_31_7,63995.0,84659.0,90021.0,90021.0,92452.0,103692.0,49703.0
1000_500_250_31_8,63567.0,85847.0,91566.0,91566.0,92206.0,118025.0,49476.0
1000_500_250_31_9,63085.0,86618.0,91294.0,91294.0,92153.0,119154.0,49352.0
500_250_100_31_0,34105.0,45275.0,45900.0,48446.0,46034.0,54821.0,24605.0
500_250_100_31_1,34516.0,43885.0,43899.0,43899.0,44625.0,51060.0,24423.0
500_250_100_31_2,35666.0,44377.0,44449.0,47681.0,45138.0,59712.0,24661.0
500_250_100_31_3,36156.0,46355.0,46145.0,46145.0,45468.0,58341.0,24913.0
500_250_100_31_4,35261.0,46316.0,50655.0,51642.0,46964.0,60304.0,24752.0
500_250_100_31_5,34585.0,45215.0,45080.0,45080.0,45403.0,58308.0,24785.0
500_250_100_31_6,34981.0,45247.0,49258.0,49204.0,49233.0,60435.0,24746.0
500_250_100_31_7,34689.0,45263.0,45675.0,45675.0,47806.0,57839.0,24742.0
500_250_100_31_8,34471.0,45646.0,46984.0,50382.0,45888.0,58468.0,24558.0
500_250_100_31_9,33942.0,45422.0,45192.0,48644.0,47158.0,57832.0,24898.0
100_75_50_31_0,11923.0,14812.0,15012.0,14837.0,14640.0,16003.0,7474.0
100_75_50_31_1,11845.0,14296.0,14578.0,14466.0,14505.0,14715.0,7338.0
100_75_50_31_2,11704.0,16146.0,16543.0,16581.0,16005.0,17205.0,7355.0
100_75_50_31_3,12869.0,16075.0,16412.0,16315.0,15650.0,17479.0,7102.0
100_75_50_31_4,13053.0,15493.0,15844.0,15844.0,15844.0,15998.0,7362.0
100_75_50_31_5,12404.0,15096.0,15614.0,15590.0,15121.0,15959.0,7350.0
100_75_50_31_6,11821.0,16070.0,16028.0,16278.0,15250.0,17307.0,7358.0
100_75_50_31_7,13267.0,15253.0,15729.0,15289.0,15268.0,15830.0,7407.0
100_75_50_31_8,11404.0,13985.0,14288.0,14234.0,14222.0,14418.0,7024.0
100_75_50_31_9,12352.0,15084.0,15281.0,15282.0,15281.0,16887.0,7355.0
10000_500_200_32_0,63063.0,84872.0,95740.0,95740.0,107379.0,136800.899213,49925.0
10000_500_200_32_1,63322.0,84366.0,94574.0,94574.0,106828.0,135788.936968,49959.0
10000_500_200_32_2,63562.0,85882.0,94090.0,94090.0,110990.0,137762.0,49902.0
10000_500_200_32_3,65841.0,84886.0,93680.0,93680.0,112764.0,139347.0,0.0
10000_500_200_32_4,63697.0,84890.0,96936.0,96936.0,112994.0,138762.0,49916.0
10000_500_200_32_5,65970.0,84248.0,93649.0,93649.0,107287.0,135716.0,49888.0
10000_500_200_32_6,63531.0,85933.0,96254.0,96254.0,104909.0,137974.0,50000.0
10000_500_200_32_7,62187.0,83603.0,94788.0,94788.0,107394.0,137701.0,0.0
10000_500_200_32_8,65103.0,83817.0,94007.0,94007.0,108612.0,136508.0,0.0
10000_500_200_32_9,67534.0,83680.0,95720.0,95720.0,108763.0,136703.0,49890.0
1000_500_250_32_0,59165.0,79814.0,87376.0,88694.0,86714.0,96868.0,48678.0
1000_500_250_32_1,62272.0,82626.0,88628.0,93332.0,88807.0,100579.0,48919.0
1000_500_250_32_2,66550.0,83369.0,89107.0,89107.0,89475.0,104535.0,49146.0
1000_500_250_32_3,66074.0,84245.0,89390.0,89390.0,89693.0,102336.0,49337.0
1000_500_250_32_4,64195.0,81012.0,88121.0,88797.0,89872.0,99481.0,49527.0
1000_500_250_32_5,59873.0,81458.0,88049.0,92401.0,88886.0,97610.0,49244.0
1000_500_250_32_6,60801.0,83080.0,89468.0,93733.0,89490.0,101598.0,49185.0
1000_500_250_32_7,62265.0,83211.0,87450.0,90875.0,89139.0,99568.0,49444.0
1000_500_250_32_8,61187.0,80020.0,86247.0,90611.0,87265.0,97800.908465,49445.0
1000_500_250_32_9,63396.0,83201.0,88318.0,93025.0,88596.0,100950.0,49396.0
500_250_100_32_0,32163.0,41619.0,45633.0,45705.0,45553.0,47812.0,24379.0
500_250_100_32_1,33424.0,41277.0,46099.0,46212.0,46140.0,48158.0,24573.0
500_250_100_32_2,34715.0,42631.0,47293.0,47183.0,47156.0,49800.0,23980.0
500_250_100_32_3,32029.0,42794.0,45923.0,45519.0,46150.0,50326.0,24624.0
500_250_100_32_4,33946.0,42683.0,46588.0,46968.0,46773.0,49775.0,24623.0
500_250_100_32_5,32878.0,41249.0,45869.0,45764.0,45619.0,48128.0,24741.0
500_250_100_32_6,33561.0,43582.0,47489.0,48051.0,48122.0,51614.0,24663.0
500_250_100_32_7,34827.0,43105.0,47749.0,47024.0,46570.0,51780.0,24381.0
500_250_100_32_8,31921.0,40267.0,44104.0,43973.0,43747.0,48130.0,24060.0
500_250_100_32_9,31976.0,40608.0,45095.0,45144.0,45298.0,47925.0,23940.0
100_75_50_32_0,10148.0,12100.0,12297.0,12274.0,11934.0,12491.000035,7043.0
100_75_50_32_1,11117.0,12692.0,12926.0,12992.0,12142.0,13317.0,6981.0
100_75_50_32_2,10479.0,13404.0,13489.0,13555.0,13017.0,14229.0,6640.0
100_75_50_32_3,11298.0,12444.0,12660.0,12634.0,12267.0,13125.0,7125.0
100_75_50_32_4,11348.0,12309.0,12311.0,12365.0,11905.0,12728.0,7204.0
100_75_50_32_5,11847.0,14706.0,14979.0,14863.0,14749.0,15232.0,7047.0
100_75_50_32_6,11094.0,12872.0,13202.0,13210.0,12970.0,13394.0,6788.0
100_75_50_32_7,11560.0,13231.0,13445.0,12958.0,12516.0,13651.0,6973.0
100_75_50_32_8,11194.0,13325.0,13301.0,12552.0,12889.0,13849.0,6690.0
100_75_50_32_9,10892.0,13247.0,13224.0,13281.0,13050.0,13579.0,6848.0
10000_500_200_34_0,98497.0,95128.0,90036.0,90036.0,90036.0,99999.0,99776.0
10000_500_200_34_1,98677.0,96008.0,91321.0,91321.0,91321.0,100000.0,0.0
10000_500_200_34_2,98486.0,95843.0,91549.0,91549.0,91549.0,100000.0,99977.0
10000_500_200_34_3,98673.0,96266.0,93949.0,93949.0,93949.0,99999.0,99748.0
10000_500_200_34_4,97630.0,94620.0,92428.0,92428.0,92428.0,100000.0,99998.0
10000_500_200_34_5,98038.0,95495.0,91152.0,91152.0,91152.0,100000.0,99950.0
10000_500_200_34_6,98054.0,96023.0,90838.0,90838.0,90838.0,100000.0,100000.0
10000_500_200_34_7,98979.0,95538.0,91434.0,91434.0,91434.0,100000.0,100000.0
10000_500_200_34_8,99369.0,95753.0,90271.0,90271.0,90271.0,99999.0,99950.0
10000_500_200_34_9,98796.0,96030.0,90937.0,90937.0,90937.0,100000.0,99978.0
1000_500_250_34_0,121171.0,121177.0,122620.0,121521.0,122170.0,124976.0,124088.0
1000_500_250_34_1,119092.0,119572.0,109766.0,119811.0,109766.0,124957.0,123931.0
1000_500_250_34_2,120144.0,119878.0,109549.0,121523.0,109549.0,125000.0,124007.0
1000_500_250_34_3,120687.0,119959.0,112708.0,119920.0,112708.0,124793.0,123917.0
1000_500_250_34_4,119649.0,120486.0,109000.0,119966.0,109000.0,124926.0,123788.0
1000_500_250_34_5,123255.0,120333.0,122256.0,121312.0,123059.0,124991.0,123430.0
1000_500_250_34_6,119216.0,119935.0,113164.0,122133.0,113164.0,124866.0,123882.0
1000_500_250_34_7,119599.0,120163.0,123232.0,121617.0,123122.0,124982.0,124064.0
1000_500_250_34_8,122031.0,119776.0,121332.0,120894.0,122284.0,124666.0,123966.0
1000_500_250_34_9,122373.0,120144.0,109768.0,120926.0,109768.0,124985.0,124092.0
500_250_100_34_0,23921.0,23993.0,24385.0,24575.0,24372.0,24978.0,24722.0
500_250_100_34_1,23883.0,24206.0,24458.0,24405.0,24222.0,24993.0,24785.0
500_250_100_34_2,23656.0,24303.0,24173.0,24494.0,24567.0,24991.0,24695.0
500_250_100_34_3,23605.0,23971.0,24562.0,24467.0,24346.0,24922.0,24729.0
500_250_100_34_4,23831.0,24071.0,24520.0,24136.0,24472.0,24921.0,24628.0
500_250_100_34_5,23743.0,24199.0,24206.0,24439.0,24414.0,24982.0,24544.0
500_250_100_34_6,24161.0,24125.0,24409.0,24469.0,24589.0,24984.0,24659.0
500_250_100_34_7,23620.0,24076.0,24304.0,24562.0,24443.0,24958.0,24638.0
500_250_100_34_8,23546.0,23883.0,23678.0,24002.0,24070.0,24751.0,24799.0
500_250_100_34_9,24250.0,24259.0,24530.0,24578.0,24357.0,24998.0,24578.0
100_75_50_34_0,3515.0,3645.0,3619.0,3671.0,3517.0,3743.0,3509.0
100_75_50_34_1,3492.0,3535.0,3564.0,3550.0,3423.0,3624.0,3589.000106
100_75_50_34_2,3512.0,3617.0,3634.0,3613.0,3575.0,3705.0,3644.0
100_75_50_34_3,3529.0,3691.0,3603.0,3652.0,3382.0,3746.0,3679.0
100_75_50_34_4,3479.0,3602.0,3626.0,3619.0,3359.0,3700.0,3567.0
100_75_50_34_5,3520.0,3591.0,3535.0,3552.0,3264.0,3677.0,3622.0
100_75_50_34_6,3480.0,3618.0,3558.0,3534.0,3207.0,3672.0,3580.0
100_75_50_34_7,3503.0,3549.0,3481.0,3539.0,3194.0,3654.0,3650.0
100_75_50_34_8,3594.0,3630.0,3651.0,3635.0,3558.0,3744.0,3609.0
100_75_50_34_9,3522.0,3591.0,3592.0,3559.0,3439.0,3660.0,3675.0
10000_500_200_35_0,66311.0,88927.0,93692.0,93692.0,112473.0,0.0,50000.0
10000_500_200_35_1,65988.0,89605.0,93354.0,93354.0,117300.0,0.0,0.0
10000_500_200_35_2,66998.0,88730.0,94655.0,94655.0,111627.0,0.0,50000.0
10000_500_200_35_3,65674.0,90083.0,91559.0,91559.0,114806.0,0.0,0.0
10000_500_200_35_4,65944.0,88905.0,93552.0,93552.0,110534.0,0.0,0.0
10000_500_200_35_5,66769.0,89455.0,95762.0,95762.0,112977.0,0.0,0.0
10000_500_200_35_6,65738.0,90151.0,97727.0,97727.0,110469.0,0.0,50000.0
10000_500_200_35_7,68015.0,88580.0,96900.0,96900.0,114143.0,0.0,0.0
10000_500_200_35_8,68550.0,94160.0,98534.0,98534.0,117019.0,0.0,0.0
10000_500_200_35_9,66005.0,89877.0,98504.0,98504.0,114010.0,0.0,0.0
1000_500_250_35_0,63729.0,87133.0,94880.0,94880.0,95386.0,122387.0,49726.0
1000_500_250_35_1,66603.0,89096.0,91573.0,91573.0,94686.0,107036.0,49806.0
1000_500_250_35_2,67302.0,88937.0,91880.0,91880.0,92742.0,116414.0,49642.0
1000_500_250_35_3,66808.0,87679.0,90592.0,90592.0,94515.0,107076.0,49952.0
1000_500_250_35_4,67543.0,89096.0,93569.0,93569.0,95904.0,124113.0,49896.0
1000_500_250_35_5,65321.0,86534.0,91625.0,91625.0,94000.0,107588.0,49724.0
1000_500_250_35_6,66075.0,85574.0,94060.0,94060.0,94759.0,110656.0,49839.0
1000_500_250_35_7,67560.0,86842.0,91337.0,91337.0,93092.0,107461.0,49695.0
1000_500_250_35_8,65495.0,87465.0,90706.0,90706.0,92457.0,124069.0,49906.0
1000_500_250_35_9,65090.0,88363.0,89976.0,89976.0,94444.0,124653.0,49772.0
500_250_100_35_0,36265.0,47167.0,48277.0,50747.0,46662.0,58243.0,24845.0
500_250_100_35_1,36589.0,44617.0,45949.0,48572.0,46125.0,52878.0,24974.0
500_250_100_35_2,34965.0,45529.0,44228.0,48267.0,45186.0,61906.0,24957.0
500_250_100_35_3,36618.0,49071.0,51353.0,51804.0,50828.0,61452.0,24842.0
500_250_100_35_4,36335.0,47853.0,52888.0,53296.0,48985.0,63355.0,24946.0
500_250_100_35_5,35846.0,46858.0,45466.0,48818.0,46200.0,61603.0,25000.0
500_250_100_35_6,36601.0,46579.0,50579.0,50527.0,50425.0,63388.0,24836.0
500_250_100_35_7,35198.0,46583.0,46942.0,46942.0,49675.0,59165.0,24778.0
500_250_100_35_8,37240.0,47434.0,52708.0,52874.0,47676.0,61367.0,24921.0
500_250_100_35_9,37582.0,47963.0,44994.0,49150.0,48047.0,60593.0,24809.0
100_75_50_35_0,12783.0,15077.0,14842.0,14842.0,14308.0,15498.0,7406.0
100_75_50_35_1,12862.0,14483.0,14506.0,14505.0,14505.0,15156.0,7410.0
100_75_50_35_2,13713.0,17587.0,17570.0,17587.0,17587.0,18034.0,6891.0
100_75_50_35_3,14490.0,17223.0,17238.0,17222.0,16009.0,17451.0,7379.0
100_75_50_35_4,14263.0,16786.0,16232.0,16921.0,16232.0,16974.0,7425.0
100_75_50_35_5,12864.0,16078.0,16365.0,16365.0,15959.0,17051.0,7428.0
100_75_50_35_6,13604.0,17192.0,17300.0,17170.0,17216.0,18238.0,7383.0
100_75_50_35_7,13362.0,15933.0,16017.0,16122.0,13784.0,16576.0,7477.0
100_75_50_35_8,12674.0,14172.0,14693.0,14653.0,14172.0,14799.0,7380.0
100_75_50_35_9,12348.0,15747.0,15746.0,15746.0,14227.0,16324.0,7376.0
10000_500_200_36_0,69219.0,85162.0,96050.0,96050.0,108134.0,138150.0,49929.0
10000_500_200_36_1,66292.0,86434.0,96978.0,96978.0,113972.0,138216.0,50000.0
10000_500_200_36_2,67640.0,85452.0,93428.0,93428.0,112256.0,139323.0,49976.0
10000_500_200_36_3,64806.0,87592.0,93090.0,93090.0,118327.0,141442.0,49868.0
10000_500_200_36_4,65665.0,85779.0,94409.0,95171.0,119932.0,140822.0,50000.0
10000_500_200_36_5,66935.0,84221.0,92082.0,92082.0,112091.0,137288.0,50000.0
10000_500_200_36_6,66492.0,85328.0,91414.0,91414.0,107377.0,139656.0,49900.0
10000_500_200_36_7,65049.0,82808.0,92053.0,92053.0,110741.0,139206.0,49912.0
10000_500_200_36_8,64330.0,83892.0,92148.0,92148.0,111111.0,138454.0,50000.0
10000_500_200_36_9,67762.0,84924.0,92838.0,92838.0,114018.0,138648.0,49974.0
1000_500_250_36_0,60703.0,81631.0,87511.0,87511.0,87158.0,98587.0,49273.0
1000_500_250_36_1,64908.0,83067.0,86775.0,93119.0,89607.0,102122.0,48916.0
1000_500_250_36_2,71256.0,87117.0,88867.0,95142.0,89778.0,107342.0,49388.0
1000_500_250_36_3,66440.0,83808.0,90235.0,95133.0,91216.0,104080.0,49152.0
1000_500_250_36_4,66998.0,82167.0,89085.0,92341.0,90344.0,101690.0,49204.0
1000_500_250_36_5,64384.0,82866.0,93001.0,93374.0,89475.0,97583.0,49108.0
1000_500_250_36_6,63801.0,84779.0,89897.0,94959.0,90985.0,104296.0,49646.0
1000_500_250_36_7,65735.0,84196.0,87666.0,88922.0,88758.0,101090.0,49413.0
1000_500_250_36_8,64691.0,81115.0,87133.0,91299.0,87732.0,98621.0,48823.0
1000_500_250_36_9,67455.0,83547.0,89832.0,95966.0,90092.0,103120.0,48847.0
500_250_100_36_0,35249.0,42275.0,46284.0,45517.0,45993.0,48309.0,24170.0
500_250_100_36_1,35777.0,41722.0,46246.0,46545.0,46876.0,47848.0,24325.0
500_250_100_36_2,35091.0,43658.0,47756.0,48017.0,48105.0,50241.0,24371.0
500_250_100_36_3,33429.0,43258.0,46403.0,46867.0,45285.0,51330.0,24422.0
500_250_100_36_4,36756.0,43391.0,46575.0,46644.0,46384.0,49779.0,24472.0
500_250_100_36_5,34337.0,42309.0,46499.0,46539.0,46198.0,48665.0,24427.0
500_250_100_36_6,35054.0,44393.0,48244.0,48398.0,47487.0,52666.981493,24090.0
500_250_100_36_7,36031.0,43949.0,46428.0,48025.0,46225.0,53577.0,24132.0
500_250_100_36_8,32794.0,40589.0,43443.0,43479.0,44064.0,47051.0,24553.0
500_250_100_36_9,33193.0,41557.0,44569.0,44562.0,44160.0,48466.0,24451.0
100_75_50_36_0,11841.0,12194.0,12215.0,12173.0,11778.0,12400.0,7416.0
100_75_50_36_1,11940.0,12813.0,12958.0,12973.0,12673.0,13154.0,6978.0
100_75_50_36_2,11293.0,13019.0,12954.0,12747.0,11986.0,13458.0,6570.0
100_75_50_36_3,10584.0,11789.0,11912.0,11412.0,11236.0,12281.0,6819.0
100_75_50_36_4,11040.0,12320.0,12047.0,12114.0,10597.0,12653.0,7146.0
100_75_50_36_5,12423.0,14769.0,14990.0,14822.0,13783.0,15285.0,7231.0
100_75_50_36_6,11228.0,12696.0,12622.0,12712.0,11933.0,13088.0,6883.0
100_75_50_36_7,11801.0,13548.0,12788.0,12623.0,12216.0,13661.0,6636.0
100_75_50_36_8,12049.0,14122.0,13926.0,14057.0,13973.0,14428.0,7006.0
100_75_50_36_9,11773.0,13343.0,13214.0,13071.0,12401.0,13493.0,6834.0
