TIMEOUT
TIMEOUT
TIMEOUT
Calls to change | Calls removed by BIT 
2449016 | 1237881
Calls to add | Calls removed by BIT 
28638 | 2710

Time used by neighbor in VND | Times each neighbor was used in VND | Improvements
N_1 = 39.64 | 420 | 180
N_2 = 26.75 | 240 | 226
N_3 = 0.00 | 14 | 1
N_4 = 0.01 | 13 | 3
N_5 = 562.67 | 10 | 10

Time used by local search = 629.28
Time used by neighbor | Times each neighbor was used | Improvements
N_1 = 0.93 | 1 | 0
N_2 = 0.00 | 0 | 0
N_3 = 0.00 | 0 | 0
N_4 = 0.00 | 0 | 0
N_5 = 0.00 | 0 | 0

Time to find the best solution = 630.22
Solution = 123330.00
Time = 629.49
