TIMEOUT
TIMEOUT
TIMEOUT
Calls to change | Calls removed by BIT 
6103591 | 3106068
Calls to add | Calls removed by BIT 
20910 | 18209

Time used by neighbor in VND | Times each neighbor was used in VND | Improvements
N_1 = 0.01 | 1 | 0
N_2 = 0.06 | 1 | 0
N_3 = 0.00 | 1 | 0
N_4 = 0.01 | 1 | 0
N_5 = 8617.92 | 1 | 1

Time used by local search = 8618.02
Time used by neighbor | Times each neighbor was used | Improvements
N_1 = 0.01 | 1 | 0
N_2 = 0.00 | 0 | 0
N_3 = 0.00 | 0 | 0
N_4 = 0.00 | 0 | 0
N_5 = 0.00 | 0 | 0

Time to find the best solution = 8618.37
Solution = 99991.00
Time = 8609.90
