TIMEOUT
TIMEOUT
TIMEOUT
Calls to change | Calls removed by BIT 
675376 | 345716
Calls to add | Calls removed by BIT 
19932 | 1134

Time used by neighbor in VND | Times each neighbor was used in VND | Improvements
N_1 = 0.00 | 1 | 0
N_2 = 0.00 | 1 | 0
N_3 = 0.00 | 1 | 0
N_4 = 0.01 | 1 | 0
N_5 = 1546.65 | 1 | 0

Time used by local search = 1546.67
Time used by neighbor | Times each neighbor was used | Improvements
N_1 = 0.00 | 1 | 0
N_2 = 0.00 | 0 | 0
N_3 = 0.00 | 0 | 0
N_4 = 0.00 | 0 | 0
N_5 = 0.00 | 0 | 0

Time to find the best solution = 0.26
Solution = 48411.00
Time = 1545.42
