TIMEOUT
TIMEOUT
TIMEOUT
Calls to change | Calls removed by BIT 
0 | 0
Calls to add | Calls removed by BIT 
1000 | 391

Time used by neighbor in VND | Times each neighbor was used in VND | Improvements
N_1 = 592.87 | 135 | 135
N_2 = 0.00 | 0 | 0
N_3 = 0.00 | 0 | 0
N_4 = 0.00 | 0 | 0
N_5 = 0.00 | 0 | 0

Time used by local search = 592.95
Time used by neighbor | Times each neighbor was used | Improvements
N_1 = 7.10 | 1 | 0
N_2 = 0.00 | 0 | 0
N_3 = 0.00 | 0 | 0
N_4 = 0.00 | 0 | 0
N_5 = 0.00 | 0 | 0

Time to find the best solution = 0.00
Solution = 328768.00
Time = 599.38
