TIMEOUT
TIMEOUT
TIMEOUT
Calls to change | Calls removed by BIT 
3172416 | 1560076
Calls to add | Calls removed by BIT 
67735 | 37227

Time used by neighbor in VND | Times each neighbor was used in VND | Improvements
N_1 = 13.58 | 23 | 18
N_2 = 0.12 | 5 | 0
N_3 = 0.01 | 5 | 2
N_4 = 0.01 | 3 | 2
N_5 = 2701.82 | 1 | 1

Time used by local search = 2715.58
Time used by neighbor | Times each neighbor was used | Improvements
N_1 = 0.58 | 1 | 0
N_2 = 0.00 | 0 | 0
N_3 = 0.00 | 0 | 0
N_4 = 0.00 | 0 | 0
N_5 = 0.00 | 0 | 0

Time to find the best solution = 2716.35
Solution = 99114.00
Time = 2715.14
