solucao atual 123362.00
solucao atual 123362.00
solucao atual 123362.00
solucao atual 123362.00
solucao atual 123362.00
solucao atual 123362.00
TIMEOUT
TIMEOUT
TIMEOUT
Calls to change | Calls removed by BIT 
2495856 | 1266883
Calls to add | Calls removed by BIT 
21339 | 3797

Time used by neighbor in VND | Times each neighbor was used in VND | Improvements
N_1 = 70.79 | 460 | 234
N_2 = 14.36 | 226 | 214
N_3 = 0.00 | 12 | 1
N_4 = 0.01 | 11 | 1
N_5 = 516.03 | 10 | 4

Time used by local search = 601.40
Time used by neighbor | Times each neighbor was used | Improvements
N_1 = 1.50 | 2 | 1
N_2 = 0.01 | 1 | 0
N_3 = 0.00 | 1 | 0
N_4 = 0.00 | 1 | 0
N_5 = 46.83 | 1 | 0

Time to find the best solution = 649.75
Solution = 123362.00
Time = 649.11
