TIMEOUT
TIMEOUT
TIMEOUT
Calls to change | Calls removed by BIT 
538542 | 218156
Calls to add | Calls removed by BIT 
72446 | 6544

Time used by neighbor in VND | Times each neighbor was used in VND | Improvements
N_1 = 0.01 | 2 | 0
N_2 = 0.01 | 2 | 0
N_3 = 0.00 | 2 | 0
N_4 = 0.02 | 2 | 0
N_5 = 915.92 | 2 | 1

Time used by local search = 915.98
Time used by neighbor | Times each neighbor was used | Improvements
N_1 = 0.00 | 1 | 0
N_2 = 0.00 | 0 | 0
N_3 = 0.00 | 0 | 0
N_4 = 0.00 | 0 | 0
N_5 = 0.00 | 0 | 0

Time to find the best solution = 517.50
Solution = 48485.00
Time = 915.38
