solucao atual 39208.00
solucao atual 39208.00
solucao atual 39208.00
solucao atual 39208.00
solucao atual 39208.00
solucao atual 39208.00
solucao atual 39208.00
solucao atual 39208.00
solucao atual 39208.00
solucao atual 39208.00
solucao atual 39262.00
solucao atual 39262.00
solucao atual 39262.00
solucao atual 39262.00
solucao atual 39262.00
solucao atual 39262.00
solucao atual 39262.00
solucao atual 39262.00
solucao atual 39262.00
solucao atual 39262.00
solucao atual 39262.00
solucao atual 39262.00
solucao atual 39262.00
solucao atual 39262.00
solucao atual 39262.00
solucao atual 39262.00
solucao atual 39262.00
solucao atual 39262.00
solucao atual 39262.00
solucao atual 39262.00
solucao atual 39262.00
solucao atual 39262.00
solucao atual 39262.00
solucao atual 39262.00
solucao atual 39262.00
solucao atual 39262.00
solucao atual 39262.00
solucao atual 39262.00
Calls to change | Calls removed by BIT 
75777 | 57855
Calls to add | Calls removed by BIT 
25056 | 297

Time used by neighbor in VND | Times each neighbor was used in VND | Improvements
N_1 = 4.19 | 675 | 323
N_2 = 12.36 | 352 | 228
N_3 = 0.01 | 124 | 61
N_4 = 0.00 | 63 | 0
N_5 = 1.68 | 63 | 25

Time used by local search = 18.27
Time used by neighbor | Times each neighbor was used | Improvements
N_1 = 0.02 | 6 | 2
N_2 = 0.01 | 4 | 0
N_3 = 0.00 | 4 | 0
N_4 = 0.00 | 4 | 0
N_5 = 0.10 | 4 | 0

Time to find the best solution = 18.38
Solution = 39262.00
Time = 18.40
