solucao atual 3541.00
solucao atual 3541.00
solucao atual 3541.00
solucao atual 3541.00
solucao atual 3541.00
solucao atual 3541.00
solucao atual 3547.00
solucao atual 3547.00
solucao atual 3547.00
solucao atual 3547.00
solucao atual 3547.00
solucao atual 3562.00
solucao atual 3562.00
solucao atual 3562.00
solucao atual 3562.00
solucao atual 3562.00
solucao atual 3562.00
solucao atual 3597.00
solucao atual 3597.00
solucao atual 3597.00
solucao atual 3597.00
solucao atual 3597.00
solucao atual 3597.00
solucao atual 3603.00
solucao atual 3603.00
solucao atual 3603.00
solucao atual 3603.00
solucao atual 3603.00
solucao atual 3603.00
solucao atual 3603.00
solucao atual 3603.00
solucao atual 3603.00
solucao atual 3603.00
solucao atual 3603.00
solucao atual 3603.00
Calls to change | Calls removed by BIT 
125346 | 60248
Calls to add | Calls removed by BIT 
8774 | 1724

Time used by neighbor in VND | Times each neighbor was used in VND | Improvements
N_1 = 0.66 | 340 | 128
N_2 = 0.23 | 212 | 137
N_3 = 0.01 | 75 | 25
N_4 = 0.00 | 50 | 4
N_5 = 3.58 | 46 | 11

Time used by local search = 4.51
Time used by neighbor | Times each neighbor was used | Improvements
N_1 = 0.01 | 10 | 4
N_2 = 0.00 | 6 | 0
N_3 = 0.00 | 6 | 0
N_4 = 0.00 | 6 | 0
N_5 = 0.46 | 6 | 2

Time to find the best solution = 3.98
Solution = 3603.00
Time = 4.97
