solucao atual 57086.00
solucao atual 57086.00
solucao atual 57086.00
solucao atual 57086.00
solucao atual 57086.00
solucao atual 57086.00
solucao atual 57529.00
solucao atual 57529.00
solucao atual 57529.00
solucao atual 57529.00
solucao atual 57529.00
solucao atual 57529.00
solucao atual 57529.00
solucao atual 57529.00
solucao atual 57529.00
solucao atual 57529.00
solucao atual 57529.00
solucao atual 57529.00
solucao atual 57529.00
solucao atual 57529.00
solucao atual 57529.00
solucao atual 57529.00
solucao atual 57529.00
solucao atual 57529.00
solucao atual 57529.00
solucao atual 57529.00
solucao atual 57529.00
solucao atual 57529.00
solucao atual 57529.00
solucao atual 57529.00
solucao atual 57529.00
solucao atual 57529.00
solucao atual 57529.00
solucao atual 57529.00
solucao atual 57545.00
solucao atual 57545.00
solucao atual 57545.00
solucao atual 57545.00
solucao atual 57545.00
solucao atual 57545.00
solucao atual 57545.00
solucao atual 57545.00
solucao atual 57545.00
solucao atual 57545.00
solucao atual 57545.00
solucao atual 57545.00
solucao atual 57545.00
solucao atual 57545.00
solucao atual 57545.00
solucao atual 57545.00
solucao atual 57545.00
solucao atual 57545.00
solucao atual 57545.00
solucao atual 57545.00
solucao atual 57545.00
solucao atual 57545.00
solucao atual 57545.00
solucao atual 57545.00
solucao atual 57545.00
solucao atual 57545.00
solucao atual 57545.00
solucao atual 57545.00
solucao atual 57545.00
solucao atual 57545.00
solucao atual 57545.00
solucao atual 57545.00
solucao atual 57545.00
solucao atual 57545.00
solucao atual 57545.00
solucao atual 57545.00
Calls to change | Calls removed by BIT 
274010 | 126207
Calls to add | Calls removed by BIT 
183111 | 2684

Time used by neighbor in VND | Times each neighbor was used in VND | Improvements
N_1 = 20.83 | 1227 | 877
N_2 = 10.30 | 350 | 219
N_3 = 0.01 | 131 | 28
N_4 = 0.01 | 103 | 1
N_5 = 9.97 | 102 | 32

Time used by local search = 41.21
Time used by neighbor | Times each neighbor was used | Improvements
N_1 = 0.41 | 14 | 6
N_2 = 0.05 | 8 | 0
N_3 = 0.00 | 8 | 0
N_4 = 0.00 | 8 | 0
N_5 = 0.76 | 8 | 2

Time to find the best solution = 42.32
Solution = 57545.00
Time = 42.40
