solucao atual 24629.00
solucao atual 24629.00
solucao atual 24629.00
solucao atual 24629.00
solucao atual 24629.00
solucao atual 24629.00
solucao atual 24701.00
solucao atual 24701.00
solucao atual 24701.00
solucao atual 24701.00
solucao atual 24701.00
solucao atual 24701.00
solucao atual 24701.00
solucao atual 24701.00
solucao atual 24701.00
solucao atual 24701.00
solucao atual 24701.00
solucao atual 24701.00
solucao atual 24723.00
solucao atual 24723.00
solucao atual 24723.00
solucao atual 24723.00
solucao atual 24723.00
solucao atual 24723.00
solucao atual 24723.00
solucao atual 24723.00
solucao atual 24723.00
solucao atual 24723.00
solucao atual 24723.00
solucao atual 24723.00
solucao atual 24723.00
solucao atual 24723.00
solucao atual 24723.00
solucao atual 24723.00
solucao atual 24723.00
solucao atual 24723.00
Calls to change | Calls removed by BIT 
2596836 | 1247247
Calls to add | Calls removed by BIT 
9821 | 6320

Time used by neighbor in VND | Times each neighbor was used in VND | Improvements
N_1 = 23.25 | 309 | 223
N_2 = 0.84 | 86 | 44
N_3 = 0.01 | 42 | 4
N_4 = 0.01 | 38 | 0
N_5 = 269.23 | 38 | 2

Time used by local search = 293.43
Time used by neighbor | Times each neighbor was used | Improvements
N_1 = 0.57 | 12 | 6
N_2 = 0.05 | 6 | 0
N_3 = 0.00 | 6 | 0
N_4 = 0.00 | 6 | 0
N_5 = 41.01 | 6 | 0

Time to find the best solution = 190.72
Solution = 24723.00
Time = 334.48
