solucao atual 183159.00
solucao atual 183159.00
solucao atual 183159.00
solucao atual 183159.00
solucao atual 183159.00
solucao atual 183159.00
solucao atual 183206.00
solucao atual 183206.00
solucao atual 183206.00
solucao atual 183206.00
solucao atual 183206.00
solucao atual 183206.00
solucao atual 183206.00
solucao atual 183206.00
solucao atual 183206.00
solucao atual 183206.00
solucao atual 183206.00
solucao atual 183206.00
solucao atual 183206.00
solucao atual 183206.00
solucao atual 183206.00
solucao atual 183206.00
solucao atual 183206.00
solucao atual 183206.00
TIMEOUT
TIMEOUT
TIMEOUT
Calls to change | Calls removed by BIT 
1957644 | 807520
Calls to add | Calls removed by BIT 
152842 | 13714

Time used by neighbor in VND | Times each neighbor was used in VND | Improvements
N_1 = 227.68 | 1991 | 1033
N_2 = 98.71 | 958 | 920
N_3 = 0.01 | 38 | 0
N_4 = 0.01 | 38 | 2
N_5 = 248.44 | 36 | 12

Time used by local search = 575.50
Time used by neighbor | Times each neighbor was used | Improvements
N_1 = 5.12 | 5 | 1
N_2 = 0.03 | 3 | 0
N_3 = 0.00 | 3 | 0
N_4 = 0.00 | 3 | 0
N_5 = 19.98 | 3 | 2

Time to find the best solution = 571.15
Solution = 183206.00
Time = 600.07
