TIMEOUT
TIMEOUT
TIMEOUT
Calls to change | Calls removed by BIT 
0 | 0
Calls to add | Calls removed by BIT 
500 | 0

Time used by neighbor in VND | Times each neighbor was used in VND | Improvements
N_1 = 373.05 | 112 | 107
N_2 = 225.41 | 5 | 5
N_3 = 0.00 | 0 | 0
N_4 = 0.00 | 0 | 0
N_5 = 0.00 | 0 | 0

Time used by local search = 598.49
Time used by neighbor | Times each neighbor was used | Improvements
N_1 = 4.11 | 1 | 0
N_2 = 0.00 | 0 | 0
N_3 = 0.00 | 0 | 0
N_4 = 0.00 | 0 | 0
N_5 = 0.00 | 0 | 0

Time to find the best solution = 0.00
Solution = 234880.00
Time = 602.21
