solucao atual 24671.00
solucao atual 24671.00
solucao atual 24671.00
solucao atual 24671.00
solucao atual 24671.00
solucao atual 24671.00
solucao atual 24671.00
TIMEOUT
TIMEOUT
TIMEOUT
Calls to change | Calls removed by BIT 
2224716 | 814415
Calls to add | Calls removed by BIT 
383435 | 18908

Time used by neighbor in VND | Times each neighbor was used in VND | Improvements
N_1 = 254.98 | 1084 | 591
N_2 = 19.93 | 493 | 417
N_3 = 0.19 | 76 | 27
N_4 = 0.02 | 49 | 10
N_5 = 321.58 | 39 | 31

Time used by local search = 597.06
Time used by neighbor | Times each neighbor was used | Improvements
N_1 = 0.04 | 2 | 1
N_2 = 0.01 | 1 | 0
N_3 = 0.00 | 1 | 0
N_4 = 0.00 | 1 | 0
N_5 = 7.48 | 1 | 0

Time to find the best solution = 596.41
Solution = 24671.00
Time = 604.03
