instances,GRASP,GRASP+Tabu,GRASP+VNS,GRASP+VNS-RPCK,Hybrid-GA,VNS,VNS-CHG,VNS-MV,VNS-RPCK
10000_500_200_1_0,99999.0,100000.0,100000.0,100000.0,99911.0,100000.0,100000.0,100000.0,100000.0
10000_500_200_1_1,99997.0,100000.0,100000.0,100000.0,99998.0,100000.0,100000.0,100000.0,100000.0
10000_500_200_1_2,99998.0,100000.0,100000.0,100000.0,99999.0,100000.0,100000.0,100000.0,100000.0
10000_500_200_1_3,99999.0,100000.0,100000.0,100000.0,99898.0,100000.0,100000.0,100000.0,100000.0
10000_500_200_1_4,100000.0,100000.0,100000.0,100000.0,100000.0,100000.0,100000.0,100000.0,100000.0
10000_500_200_1_5,100000.0,100000.0,100000.0,100000.0,100000.0,100000.0,100000.0,100000.0,100000.0
10000_500_200_1_6,100000.0,100000.0,100000.0,100000.0,99998.0,100000.0,100000.0,100000.0,100000.0
10000_500_200_1_7,100000.0,100000.0,100000.0,100000.0,99913.0,100000.0,100000.0,100000.0,100000.0
10000_500_200_1_8,100000.0,100000.0,100000.0,100000.0,99973.0,100000.0,100000.0,100000.0,100000.0
10000_500_200_1_9,99999.0,100000.0,100000.0,100000.0,100000.0,100000.0,100000.0,100000.0,100000.0
1000_500_250_1_0,124947.0,123849.0,123947.0,124281.0,123372.0,123849.0,123847.0,123849.0,124006.0
1000_500_250_1_1,124953.0,124936.0,124948.0,124949.0,124846.0,124936.0,124832.0,124936.0,124936.0
1000_500_250_1_2,124940.0,124872.0,124882.0,124887.0,124855.0,124870.0,124870.0,124870.0,124870.0
1000_500_250_1_3,124937.0,124896.0,124909.0,124910.0,124774.0,124872.0,124865.0,124872.0,124872.0
1000_500_250_1_4,124928.0,124431.0,124436.0,124441.0,124431.0,124349.0,124330.0,124349.0,124706.0
1000_500_250_1_5,124943.0,124742.0,124742.0,124766.0,124730.0,124742.0,124742.0,124742.0,124742.0
1000_500_250_1_6,124944.0,124963.0,124965.0,124967.0,124962.0,124961.0,124958.0,124961.0,124963.0
1000_500_250_1_7,124947.0,124896.0,124897.0,124899.0,124873.0,124896.0,124896.0,124896.0,124896.0
1000_500_250_1_8,124931.0,124927.0,124953.0,124951.0,124851.0,124889.0,124875.0,124889.0,124894.0
1000_500_250_1_9,124949.0,124769.0,124969.0,124966.0,124769.0,124769.0,124769.0,124769.0,124775.0
500_250_100_1_0,24998.0,24986.0,24986.0,24986.0,24972.0,24983.0,24983.0,24983.0,24983.0
500_250_100_1_1,24999.0,24985.0,24989.0,24989.0,24948.0,24976.0,24976.0,24976.0,24980.0
500_250_100_1_2,24999.0,24915.0,24934.0,24953.0,24862.0,24910.0,24877.0,24910.0,24912.0
500_250_100_1_3,24990.0,24918.0,24922.0,24928.0,24644.0,24890.0,24890.0,24890.0,24893.0
500_250_100_1_4,24995.0,24888.0,24888.0,24907.0,24636.0,24705.0,24703.0,24705.0,24759.0
500_250_100_1_5,24995.0,24932.0,24943.0,24941.0,24886.0,24932.0,24932.0,24932.0,24937.0
500_250_100_1_6,25000.0,24948.0,24948.0,24961.0,24702.0,24948.0,24948.0,24948.0,24948.0
500_250_100_1_7,24998.0,24741.0,24921.0,24939.0,24741.0,24741.0,24741.0,24741.0,24839.0
500_250_100_1_8,24999.0,24980.0,24989.0,24989.0,24955.0,24970.0,24970.0,24970.0,24970.0
500_250_100_1_9,25000.0,24993.0,24994.0,24995.0,24977.0,24990.0,24990.0,24990.0,24990.0
100_75_50_1_0,3740.0,3529.0,3529.0,3527.0,3689.0,3488.0,3487.0,3488.0,3663.0
100_75_50_1_1,3743.0,3740.0,3740.0,3740.0,3733.0,3733.0,3733.0,3733.0,3733.0
100_75_50_1_2,3749.0,3721.0,3721.0,3721.0,3720.0,3720.0,3720.0,3720.0,3720.0
100_75_50_1_3,3748.0,3745.0,3745.0,3745.0,3745.0,3742.0,3725.0,3742.0,3742.0
100_75_50_1_4,3744.0,3710.0,3710.0,3712.0,3677.0,3689.0,3660.0,3689.0,3723.0
100_75_50_1_5,3748.0,3746.0,3746.0,3746.0,3741.0,3741.0,3741.0,3741.0,3741.0
100_75_50_1_6,3749.0,3749.0,3749.0,3749.0,3745.0,3740.0,3740.0,3740.0,3740.0
100_75_50_1_7,3749.0,3749.0,3749.0,3749.0,3744.0,3743.0,3727.0,3743.0,3745.0
100_75_50_1_8,3749.0,3747.0,3747.0,3747.0,3732.0,3744.0,3744.0,3744.0,3744.0
100_75_50_1_9,3741.0,3728.0,3728.0,3728.0,3713.0,3718.0,3718.0,3718.0,3728.0
10000_500_200_5_0,99944.0,99692.0,99913.0,99838.0,99934.0,99692.0,99692.0,99692.0,99692.0
10000_500_200_5_1,99894.0,99974.0,99840.0,99920.0,99998.0,99840.0,99840.0,99974.0,99974.0
10000_500_200_5_2,99943.0,99682.0,99922.0,99925.0,99736.0,99615.0,99615.0,99615.0,99682.0
10000_500_200_5_3,99950.0,99597.0,99913.0,99780.0,99666.0,99083.0,99083.0,99083.0,99664.0
10000_500_200_5_4,99934.0,99685.0,99685.0,99727.0,99670.0,99685.0,99685.0,99685.0,99685.0
10000_500_200_5_5,99914.0,99874.0,99845.0,99850.0,99994.0,99781.0,99580.0,99580.0,99874.0
10000_500_200_5_6,99962.0,99943.0,99986.0,99913.0,99927.0,99943.0,99876.0,99943.0,99943.0
10000_500_200_5_7,99922.0,99462.0,99761.0,99974.0,99338.0,99060.0,99060.0,99060.0,99060.0
10000_500_200_5_8,99925.0,99909.0,99574.0,99792.0,99736.0,99574.0,99574.0,99574.0,99574.0
10000_500_200_5_9,99944.0,99820.0,99855.0,99792.0,99595.0,99351.0,99351.0,99351.0,99351.0
1000_500_250_5_0,124883.0,124637.0,124897.0,124978.0,124317.0,124628.0,124628.0,124721.0,124679.0
1000_500_250_5_1,124876.0,124953.0,124719.0,124975.0,124814.0,124901.0,124085.0,124904.0,124309.0
1000_500_250_5_2,124887.0,124896.0,124822.0,124967.0,124298.0,124814.0,124646.0,124896.0,124814.0
1000_500_250_5_3,124902.0,124945.0,124896.0,124980.0,123696.0,124889.0,124303.0,124556.0,124471.0
1000_500_250_5_4,124871.0,124696.0,124959.0,124987.0,123748.0,124947.0,124384.0,124877.0,124896.0
1000_500_250_5_5,124900.0,124891.0,124964.0,124979.0,124693.0,124891.0,124807.0,124891.0,124892.0
1000_500_250_5_6,124881.0,124964.0,124977.0,124966.0,123670.0,124903.0,124814.0,124898.0,124898.0
1000_500_250_5_7,124862.0,124619.0,124980.0,124980.0,123738.0,124803.0,124367.0,124784.0,124619.0
1000_500_250_5_8,124853.0,124957.0,124953.0,124987.0,124224.0,124789.0,124098.0,124789.0,124675.0
1000_500_250_5_9,124877.0,124888.0,124770.0,124983.0,124719.0,124748.0,124664.0,124748.0,124748.0
500_250_100_5_0,24992.0,24999.0,24995.0,24997.0,24581.0,24970.0,24445.0,24948.0,24730.0
500_250_100_5_1,24997.0,24990.0,24988.0,24996.0,24514.0,24947.0,24679.0,24966.0,24849.0
500_250_100_5_2,24993.0,24995.0,24990.0,25000.0,24624.0,24975.0,24904.0,24975.0,24949.0
500_250_100_5_3,24986.0,24998.0,24996.0,24992.0,24473.0,24989.0,24955.0,24989.0,24989.0
500_250_100_5_4,24988.0,24998.0,24996.0,24997.0,24701.0,24944.0,24463.0,24944.0,24926.0
500_250_100_5_5,24983.0,24992.0,24998.0,25000.0,24446.0,24961.0,24713.0,24967.0,24797.0
500_250_100_5_6,24980.0,24997.0,25000.0,24996.0,24614.0,24974.0,24813.0,24949.0,24938.0
500_250_100_5_7,24985.0,24993.0,24998.0,24995.0,24708.0,24949.0,24638.0,24911.0,24976.0
500_250_100_5_8,24980.0,24979.0,24994.0,24998.0,24732.0,24950.0,24655.0,24950.0,24710.0
500_250_100_5_9,24987.0,24993.0,24997.0,24996.0,24780.0,24884.0,24777.0,24912.0,24868.0
100_75_50_5_0,3750.0,3750.0,3750.0,3750.0,3697.0,3664.0,3620.0,3717.0,3620.0
100_75_50_5_1,3750.0,3739.0,3737.0,3739.0,3723.0,3671.0,3638.0,3728.0,3652.0
100_75_50_5_2,3750.0,3750.0,3750.0,3750.0,3688.0,3730.0,3467.0,3669.0,3720.0
100_75_50_5_3,3750.0,3750.0,3750.0,3750.0,3661.0,3702.0,3462.0,3692.0,3629.0
100_75_50_5_4,3750.0,3750.0,3750.0,3750.0,3715.0,3710.0,3604.0,3708.0,3692.0
100_75_50_5_5,3750.0,3746.0,3741.0,3741.0,3674.0,3722.0,3640.0,3678.0,3697.0
100_75_50_5_6,3750.0,3750.0,3718.0,3726.0,3647.0,3733.0,3623.0,3682.0,3656.0
100_75_50_5_7,3750.0,3750.0,3750.0,3750.0,3717.0,3723.0,3565.0,3735.0,3720.0
100_75_50_5_8,3750.0,3750.0,3750.0,3750.0,3677.0,3711.0,3541.0,3708.0,3706.0
100_75_50_5_9,3750.0,3742.0,3678.0,3741.0,3666.0,3728.0,3499.0,3728.0,3739.0
10000_500_200_9_0,99913.0,99257.0,98989.0,98989.0,99790.0,98989.0,98989.0,98989.0,98989.0
10000_500_200_9_1,99967.0,98414.0,98735.0,99626.0,98660.0,97708.0,97708.0,97708.0,97708.0
10000_500_200_9_2,99941.0,98897.0,98944.0,99958.0,99328.0,98163.0,98163.0,98163.0,98163.0
10000_500_200_9_3,99927.0,99681.0,99413.0,99562.0,99270.0,99413.0,99413.0,99413.0,99681.0
10000_500_200_9_4,99941.0,99249.0,98465.0,99990.0,99073.0,98465.0,98465.0,98465.0,98465.0
10000_500_200_9_5,99969.0,98698.0,97785.0,99237.0,98680.0,97785.0,97785.0,97785.0,97785.0
10000_500_200_9_6,99968.0,99897.0,99194.0,99752.0,99453.0,99194.0,99194.0,99194.0,99194.0
10000_500_200_9_7,99928.0,98137.0,97236.0,98643.0,99205.0,97236.0,97236.0,97236.0,97236.0
10000_500_200_9_8,99968.0,99359.0,98681.0,98701.0,98793.0,98681.0,98681.0,98681.0,98681.0
10000_500_200_9_9,99934.0,98356.0,97572.0,99668.0,98997.0,97572.0,97572.0,97572.0,97572.0
1000_500_250_9_0,124925.0,124963.0,124905.0,124905.0,122959.0,124905.0,124905.0,124910.0,124905.0
1000_500_250_9_1,124903.0,124760.0,124080.0,124734.0,122952.0,124706.0,124026.0,124363.0,124244.0
1000_500_250_9_2,124895.0,124610.0,122897.0,124574.0,123609.0,120822.0,122922.0,124860.0,123685.0
1000_500_250_9_3,124893.0,124563.0,124657.0,124819.0,124082.0,124544.0,123372.0,124258.0,123942.0
1000_500_250_9_4,124903.0,124994.0,124910.0,124910.0,122791.0,124994.0,124910.0,124994.0,124994.0
1000_500_250_9_5,124897.0,124949.0,124402.0,124751.0,124038.0,124229.0,123596.0,124431.0,124023.0
1000_500_250_9_6,124878.0,124959.0,124419.0,124811.0,122711.0,124522.0,123466.0,124522.0,124096.0
1000_500_250_9_7,124819.0,124851.0,123638.0,124972.0,123138.0,124015.0,122815.0,124015.0,123851.0
1000_500_250_9_8,124926.0,124489.0,123793.0,124764.0,123574.0,124037.0,123923.0,124465.0,124085.0
1000_500_250_9_9,124913.0,124947.0,123677.0,124895.0,123355.0,124256.0,123134.0,124256.0,124163.0
500_250_100_9_0,24999.0,24947.0,24997.0,25000.0,24676.0,24889.0,24787.0,24889.0,24889.0
500_250_100_9_1,24999.0,25000.0,24996.0,24997.0,24900.0,24928.0,24644.0,24997.0,24848.0
500_250_100_9_2,24997.0,24999.0,24998.0,24999.0,24608.0,24393.0,23936.0,24395.0,24409.0
500_250_100_9_3,24996.0,24990.0,24972.0,24995.0,24540.0,24821.0,24541.0,24854.0,24541.0
500_250_100_9_4,24992.0,25000.0,24995.0,24997.0,24484.0,25000.0,24877.0,25000.0,25000.0
500_250_100_9_5,24995.0,24949.0,24994.0,24997.0,24524.0,24722.0,24341.0,24447.0,24432.0
500_250_100_9_6,24995.0,24994.0,24936.0,24998.0,24454.0,24725.0,24343.0,24725.0,24711.0
500_250_100_9_7,24991.0,24982.0,24708.0,24943.0,24524.0,24692.0,23760.0,24864.0,24424.0
500_250_100_9_8,25000.0,24974.0,24900.0,24977.0,24469.0,24971.0,24820.0,24965.0,24965.0
500_250_100_9_9,24999.0,25000.0,24932.0,25000.0,24935.0,24587.0,23863.0,24397.0,24155.0
100_75_50_9_0,3733.0,3733.0,3715.0,3715.0,3640.0,3595.0,3529.0,3691.0,3595.0
100_75_50_9_1,3672.0,3675.0,3736.0,3736.0,3720.0,3657.0,3628.0,3682.0,3675.0
100_75_50_9_2,3736.0,3736.0,3737.0,3736.0,3736.0,3564.0,3481.0,3647.0,3581.0
100_75_50_9_3,3700.0,3750.0,3717.0,3750.0,3650.0,3604.0,3462.0,3686.0,3674.0
100_75_50_9_4,3733.0,3714.0,3697.0,3690.0,3657.0,3619.0,3531.0,3619.0,3699.0
100_75_50_9_5,3715.0,3750.0,3750.0,3733.0,3670.0,3750.0,3585.0,3675.0,3700.0
100_75_50_9_6,3722.0,3750.0,3750.0,3750.0,3700.0,3625.0,3566.0,3750.0,3674.0
100_75_50_9_7,3735.0,3686.0,3738.0,3738.0,3716.0,3626.0,3433.0,3646.0,3629.0
100_75_50_9_8,3722.0,3718.0,3734.0,3734.0,3700.0,3643.0,3533.0,3750.0,3587.0
100_75_50_9_9,3731.0,3750.0,3661.0,3661.0,3666.0,3730.0,3453.0,3730.0,3640.0
10000_500_200_13_0,99999.0,100000.0,100000.0,100000.0,99911.0,100000.0,100000.0,100000.0,100000.0
10000_500_200_13_1,99997.0,100000.0,100000.0,100000.0,99998.0,100000.0,100000.0,100000.0,100000.0
10000_500_200_13_2,99998.0,100000.0,100000.0,100000.0,99999.0,100000.0,100000.0,100000.0,100000.0
10000_500_200_13_3,99999.0,100000.0,100000.0,100000.0,99898.0,100000.0,100000.0,100000.0,100000.0
10000_500_200_13_4,100000.0,100000.0,100000.0,100000.0,100000.0,100000.0,100000.0,100000.0,100000.0
10000_500_200_13_5,100000.0,100000.0,100000.0,100000.0,100000.0,100000.0,100000.0,100000.0,100000.0
10000_500_200_13_6,100000.0,100000.0,100000.0,100000.0,99998.0,100000.0,100000.0,100000.0,100000.0
10000_500_200_13_7,100000.0,100000.0,100000.0,100000.0,99913.0,100000.0,100000.0,100000.0,100000.0
10000_500_200_13_8,100000.0,100000.0,100000.0,100000.0,99973.0,100000.0,100000.0,100000.0,100000.0
10000_500_200_13_9,99999.0,100000.0,100000.0,100000.0,100000.0,100000.0,100000.0,100000.0,100000.0
1000_500_250_13_0,124947.0,123849.0,123947.0,124281.0,123372.0,123849.0,123847.0,123849.0,124006.0
1000_500_250_13_1,124953.0,124936.0,124948.0,124949.0,124846.0,124936.0,124832.0,124936.0,124936.0
1000_500_250_13_2,124940.0,124872.0,124882.0,124887.0,124855.0,124870.0,124870.0,124870.0,124870.0
1000_500_250_13_3,124937.0,124897.0,124909.0,124910.0,124774.0,124872.0,124865.0,124872.0,124872.0
1000_500_250_13_4,124928.0,124432.0,124436.0,124441.0,124431.0,124349.0,124330.0,124349.0,124706.0
1000_500_250_13_5,124943.0,124742.0,124742.0,124766.0,124730.0,124742.0,124742.0,124742.0,124742.0
1000_500_250_13_6,124944.0,124963.0,124969.0,124967.0,124962.0,124961.0,124958.0,124961.0,124963.0
1000_500_250_13_7,124947.0,124896.0,124899.0,124899.0,124873.0,124896.0,124896.0,124896.0,124896.0
1000_500_250_13_8,124931.0,124935.0,124953.0,124951.0,124851.0,124889.0,124875.0,124889.0,124894.0
1000_500_250_13_9,124949.0,124936.0,124969.0,124966.0,124769.0,124769.0,124769.0,124769.0,124775.0
500_250_100_13_0,24998.0,24986.0,24986.0,24986.0,24972.0,24983.0,24983.0,24983.0,24983.0
500_250_100_13_1,24999.0,24989.0,24989.0,24989.0,24948.0,24976.0,24976.0,24976.0,24980.0
500_250_100_13_2,24999.0,24915.0,24934.0,24953.0,24862.0,24910.0,24877.0,24910.0,24912.0
500_250_100_13_3,24990.0,24918.0,24922.0,24928.0,24623.0,24890.0,24890.0,24890.0,24893.0
500_250_100_13_4,24995.0,24888.0,24888.0,24907.0,24659.0,24705.0,24703.0,24705.0,24759.0
500_250_100_13_5,24995.0,24932.0,24943.0,24941.0,24886.0,24932.0,24932.0,24932.0,24937.0
500_250_100_13_6,25000.0,24948.0,24948.0,24961.0,24702.0,24948.0,24948.0,24948.0,24948.0
500_250_100_13_7,24998.0,24741.0,24921.0,24939.0,24741.0,24741.0,24741.0,24741.0,24839.0
500_250_100_13_8,24999.0,24980.0,24989.0,24989.0,24955.0,24970.0,24970.0,24970.0,24970.0
500_250_100_13_9,25000.0,24993.0,24994.0,24995.0,24977.0,24990.0,24990.0,24990.0,24990.0
100_75_50_13_0,3740.0,3529.0,3529.0,3527.0,3695.0,3488.0,3487.0,3488.0,3663.0
100_75_50_13_1,3743.0,3740.0,3740.0,3740.0,3733.0,3733.0,3733.0,3733.0,3733.0
100_75_50_13_2,3749.0,3721.0,3721.0,3721.0,3720.0,3720.0,3720.0,3720.0,3720.0
100_75_50_13_3,3748.0,3745.0,3745.0,3745.0,3745.0,3742.0,3725.0,3742.0,3742.0
100_75_50_13_4,3744.0,3710.0,3710.0,3712.0,3695.0,3689.0,3660.0,3689.0,3723.0
100_75_50_13_5,3748.0,3746.0,3746.0,3746.0,3741.0,3741.0,3741.0,3741.0,3741.0
100_75_50_13_6,3749.0,3749.0,3749.0,3749.0,3745.0,3740.0,3740.0,3740.0,3740.0
100_75_50_13_7,3749.0,3749.0,3749.0,3749.0,3744.0,3743.0,3727.0,3743.0,3745.0
100_75_50_13_8,3749.0,3747.0,3747.0,3747.0,3732.0,3744.0,3744.0,3744.0,3744.0
100_75_50_13_9,3741.0,3728.0,3728.0,3728.0,3713.0,3718.0,3718.0,3718.0,3728.0
10000_500_200_17_0,99944.0,99692.0,99913.0,99838.0,99934.0,99703.0,99692.0,99703.0,99692.0
10000_500_200_17_1,99894.0,99974.0,99840.0,99981.0,99998.0,99974.0,99840.0,99974.0,99974.0
10000_500_200_17_2,99943.0,99682.0,99922.0,99925.0,99736.0,99716.0,99615.0,99705.0,99682.0
10000_500_200_17_3,99950.0,99597.0,99913.0,99883.0,99666.0,99664.0,99083.0,99664.0,99664.0
10000_500_200_17_4,99934.0,99685.0,99685.0,99727.0,99670.0,99685.0,99685.0,99685.0,99685.0
10000_500_200_17_5,99914.0,99874.0,99845.0,99850.0,99994.0,99781.0,99580.0,99781.0,99874.0
10000_500_200_17_6,99962.0,99943.0,99986.0,99913.0,99927.0,99943.0,99876.0,99943.0,99943.0
10000_500_200_17_7,99922.0,99462.0,99761.0,99974.0,99338.0,99473.0,99060.0,99473.0,99462.0
10000_500_200_17_8,99925.0,99909.0,99574.0,99904.0,99736.0,99909.0,99574.0,99909.0,99909.0
10000_500_200_17_9,99944.0,99820.0,99855.0,99792.0,99595.0,99820.0,99351.0,99820.0,99820.0
1000_500_250_17_0,124883.0,124637.0,124920.0,124978.0,124317.0,124628.0,124628.0,124721.0,124679.0
1000_500_250_17_1,124876.0,124953.0,124719.0,124975.0,124814.0,124901.0,124085.0,124904.0,124309.0
1000_500_250_17_2,124887.0,124896.0,124876.0,124967.0,124298.0,124814.0,124646.0,124896.0,124814.0
1000_500_250_17_3,124902.0,124945.0,124896.0,124980.0,123696.0,124889.0,124303.0,124556.0,124471.0
1000_500_250_17_4,124871.0,124828.0,124959.0,124987.0,123748.0,124947.0,124384.0,124877.0,124896.0
1000_500_250_17_5,124900.0,124891.0,124967.0,124979.0,124693.0,124891.0,124807.0,124891.0,124892.0
1000_500_250_17_6,124881.0,124964.0,124977.0,124966.0,123670.0,124903.0,124814.0,124898.0,124898.0
1000_500_250_17_7,124862.0,124619.0,124980.0,124980.0,123738.0,124803.0,124367.0,124784.0,124619.0
1000_500_250_17_8,124853.0,124957.0,124969.0,124987.0,124224.0,124789.0,124098.0,124789.0,124675.0
1000_500_250_17_9,124877.0,124955.0,124890.0,124983.0,124719.0,124748.0,124664.0,124748.0,124748.0
500_250_100_17_0,24992.0,24999.0,24995.0,24997.0,24581.0,24970.0,24445.0,24948.0,24730.0
500_250_100_17_1,24997.0,24990.0,24988.0,24996.0,24511.0,24947.0,24679.0,24966.0,24849.0
500_250_100_17_2,24993.0,24995.0,24990.0,25000.0,24624.0,24975.0,24904.0,24975.0,24949.0
500_250_100_17_3,24986.0,24998.0,24996.0,24992.0,24572.0,24989.0,24955.0,24989.0,24989.0
500_250_100_17_4,24988.0,24998.0,24996.0,24997.0,24701.0,24944.0,24463.0,24944.0,24926.0
500_250_100_17_5,24983.0,24992.0,24998.0,25000.0,24481.0,24961.0,24713.0,24967.0,24797.0
500_250_100_17_6,24980.0,24997.0,25000.0,24996.0,24614.0,24974.0,24813.0,24949.0,24938.0
500_250_100_17_7,24985.0,24993.0,24998.0,24995.0,24708.0,24949.0,24638.0,24911.0,24976.0
500_250_100_17_8,24980.0,24979.0,24984.0,24998.0,24732.0,24950.0,24655.0,24950.0,24710.0
500_250_100_17_9,24987.0,24993.0,24997.0,24996.0,24780.0,24884.0,24777.0,24912.0,24868.0
100_75_50_17_0,3750.0,3750.0,3750.0,3750.0,3700.0,3664.0,3620.0,3717.0,3620.0
100_75_50_17_1,3750.0,3739.0,3737.0,3739.0,3723.0,3671.0,3638.0,3728.0,3652.0
100_75_50_17_2,3750.0,3750.0,3750.0,3750.0,3661.0,3730.0,3467.0,3669.0,3720.0
100_75_50_17_3,3750.0,3750.0,3750.0,3750.0,3683.0,3702.0,3462.0,3692.0,3629.0
100_75_50_17_4,3750.0,3750.0,3750.0,3750.0,3707.0,3710.0,3604.0,3708.0,3692.0
100_75_50_17_5,3750.0,3746.0,3741.0,3741.0,3693.0,3722.0,3640.0,3678.0,3697.0
100_75_50_17_6,3750.0,3750.0,3718.0,3726.0,3639.0,3733.0,3623.0,3682.0,3656.0
100_75_50_17_7,3750.0,3750.0,3750.0,3750.0,3717.0,3723.0,3565.0,3735.0,3720.0
100_75_50_17_8,3750.0,3750.0,3750.0,3750.0,3696.0,3711.0,3541.0,3708.0,3706.0
100_75_50_17_9,3750.0,3742.0,3678.0,3741.0,3646.0,3728.0,3499.0,3728.0,3739.0
10000_500_200_21_0,99913.0,99257.0,98989.0,98989.0,99790.0,98989.0,98989.0,98989.0,99257.0
10000_500_200_21_1,99967.0,98414.0,98735.0,99626.0,98660.0,97708.0,97708.0,97708.0,97708.0
10000_500_200_21_2,99941.0,98897.0,98944.0,99958.0,99328.0,98163.0,98163.0,98163.0,98751.0
10000_500_200_21_3,99927.0,99681.0,99413.0,99562.0,99270.0,99681.0,99413.0,99681.0,99681.0
10000_500_200_21_4,99941.0,99249.0,98521.0,99990.0,99073.0,98465.0,98465.0,98465.0,98465.0
10000_500_200_21_5,99969.0,98698.0,97785.0,99237.0,98680.0,97785.0,97785.0,97785.0,99326.0
10000_500_200_21_6,99968.0,99897.0,99194.0,99752.0,99453.0,99888.0,99194.0,99194.0,99888.0
10000_500_200_21_7,99928.0,98137.0,97236.0,98710.0,99205.0,97236.0,97236.0,97236.0,99045.0
10000_500_200_21_8,99968.0,99359.0,98681.0,99103.0,98793.0,98681.0,98681.0,99900.0,99817.0
10000_500_200_21_9,99934.0,98356.0,97572.0,99668.0,98997.0,97572.0,97572.0,97572.0,99111.0
1000_500_250_21_0,124925.0,124963.0,124905.0,124905.0,122959.0,124911.0,124905.0,124910.0,124905.0
1000_500_250_21_1,124903.0,124760.0,124080.0,124734.0,122952.0,124706.0,124026.0,124363.0,124244.0
1000_500_250_21_2,124895.0,124610.0,123646.0,124574.0,123609.0,120822.0,122922.0,124860.0,123685.0
1000_500_250_21_3,124893.0,124563.0,124783.0,124819.0,124082.0,124544.0,123372.0,124258.0,123942.0
1000_500_250_21_4,124903.0,124994.0,124910.0,124910.0,122791.0,124994.0,124910.0,124994.0,124994.0
1000_500_250_21_5,124897.0,124949.0,124402.0,124751.0,124038.0,124229.0,123596.0,124431.0,124023.0
1000_500_250_21_6,124878.0,124959.0,124419.0,124811.0,122711.0,124522.0,123466.0,124522.0,124096.0
1000_500_250_21_7,124819.0,124851.0,123638.0,124972.0,123138.0,124015.0,122815.0,124015.0,123851.0
1000_500_250_21_8,124926.0,124489.0,123793.0,124764.0,123574.0,124037.0,123923.0,124465.0,124085.0
1000_500_250_21_9,124913.0,124508.0,123837.0,124895.0,123355.0,124256.0,123134.0,124256.0,124163.0
500_250_100_21_0,24999.0,24947.0,24997.0,25000.0,24676.0,24889.0,24787.0,24889.0,24889.0
500_250_100_21_1,24999.0,24998.0,24992.0,24997.0,24900.0,24928.0,24644.0,24997.0,24848.0
500_250_100_21_2,24997.0,24999.0,24998.0,24999.0,24592.0,24393.0,23936.0,24395.0,24409.0
500_250_100_21_3,24996.0,24990.0,24972.0,24995.0,24552.0,24821.0,24541.0,24854.0,24541.0
500_250_100_21_4,24992.0,25000.0,24995.0,24997.0,24465.0,25000.0,24877.0,25000.0,25000.0
500_250_100_21_5,24995.0,24949.0,24994.0,24997.0,24505.0,24722.0,24341.0,24447.0,24432.0
500_250_100_21_6,24995.0,24994.0,24936.0,24998.0,24522.0,24725.0,24343.0,24725.0,24711.0
500_250_100_21_7,24991.0,24982.0,24708.0,24943.0,24377.0,24692.0,23760.0,24864.0,24424.0
500_250_100_21_8,25000.0,24974.0,24900.0,24977.0,24469.0,24971.0,24820.0,24965.0,24965.0
500_250_100_21_9,24999.0,25000.0,24932.0,25000.0,24935.0,24587.0,23863.0,24397.0,24155.0
100_75_50_21_0,3733.0,3733.0,3715.0,3715.0,3628.0,3595.0,3529.0,3691.0,3595.0
100_75_50_21_1,3672.0,3675.0,3736.0,3736.0,3720.0,3657.0,3628.0,3682.0,3675.0
100_75_50_21_2,3736.0,3736.0,3737.0,3736.0,3736.0,3564.0,3481.0,3647.0,3581.0
100_75_50_21_3,3700.0,3750.0,3717.0,3750.0,3677.0,3604.0,3462.0,3686.0,3674.0
100_75_50_21_4,3733.0,3714.0,3697.0,3690.0,3657.0,3619.0,3531.0,3619.0,3699.0
100_75_50_21_5,3715.0,3750.0,3750.0,3733.0,3674.0,3750.0,3585.0,3675.0,3700.0
100_75_50_21_6,3722.0,3750.0,3750.0,3750.0,3689.0,3625.0,3566.0,3750.0,3674.0
100_75_50_21_7,3735.0,3686.0,3738.0,3738.0,3692.0,3626.0,3433.0,3646.0,3629.0
100_75_50_21_8,3722.0,3718.0,3734.0,3734.0,3700.0,3643.0,3533.0,3750.0,3587.0
100_75_50_21_9,3731.0,3750.0,3661.0,3661.0,3704.0,3730.0,3453.0,3730.0,3640.0
10000_500_200_25_0,99999.0,100000.0,100000.0,100000.0,99911.0,100000.0,100000.0,100000.0,100000.0
10000_500_200_25_1,99997.0,100000.0,100000.0,100000.0,99998.0,100000.0,100000.0,100000.0,100000.0
10000_500_200_25_2,99998.0,100000.0,100000.0,100000.0,99999.0,100000.0,100000.0,100000.0,100000.0
10000_500_200_25_3,99999.0,100000.0,100000.0,100000.0,99898.0,100000.0,100000.0,100000.0,100000.0
10000_500_200_25_4,100000.0,100000.0,100000.0,100000.0,100000.0,100000.0,100000.0,100000.0,100000.0
10000_500_200_25_5,100000.0,100000.0,100000.0,100000.0,100000.0,100000.0,100000.0,100000.0,100000.0
10000_500_200_25_6,100000.0,100000.0,100000.0,100000.0,99998.0,100000.0,100000.0,100000.0,100000.0
10000_500_200_25_7,100000.0,100000.0,100000.0,100000.0,99913.0,100000.0,100000.0,100000.0,100000.0
10000_500_200_25_8,100000.0,100000.0,100000.0,100000.0,99973.0,100000.0,100000.0,100000.0,100000.0
10000_500_200_25_9,99999.0,100000.0,100000.0,100000.0,100000.0,100000.0,100000.0,100000.0,100000.0
1000_500_250_25_0,124947.0,123849.0,123947.0,124281.0,123372.0,123849.0,123847.0,123849.0,124006.0
1000_500_250_25_1,124953.0,124936.0,124948.0,124949.0,124846.0,124936.0,124832.0,124936.0,124936.0
1000_500_250_25_2,124940.0,124872.0,124882.0,124887.0,124855.0,124870.0,124870.0,124870.0,124870.0
1000_500_250_25_3,124937.0,124897.0,124909.0,124910.0,124774.0,124872.0,124865.0,124872.0,124872.0
1000_500_250_25_4,124928.0,124432.0,124436.0,124441.0,124431.0,124349.0,124330.0,124349.0,124706.0
1000_500_250_25_5,124943.0,124742.0,124748.0,124766.0,124730.0,124742.0,124742.0,124742.0,124742.0
1000_500_250_25_6,124944.0,124963.0,124969.0,124967.0,124962.0,124961.0,124958.0,124961.0,124963.0
1000_500_250_25_7,124947.0,124896.0,124899.0,124899.0,124873.0,124896.0,124896.0,124896.0,124896.0
1000_500_250_25_8,124931.0,124930.0,124953.0,124951.0,124851.0,124889.0,124875.0,124889.0,124894.0
1000_500_250_25_9,124949.0,124769.0,124969.0,124966.0,124769.0,124769.0,124769.0,124769.0,124775.0
500_250_100_25_0,24998.0,24986.0,24986.0,24986.0,24972.0,24983.0,24983.0,24983.0,24983.0
500_250_100_25_1,24999.0,24985.0,24989.0,24989.0,24948.0,24976.0,24976.0,24976.0,24980.0
500_250_100_25_2,24999.0,24915.0,24934.0,24953.0,24862.0,24910.0,24877.0,24910.0,24912.0
500_250_100_25_3,24990.0,24918.0,24922.0,24928.0,24630.0,24890.0,24890.0,24890.0,24893.0
500_250_100_25_4,24995.0,24888.0,24888.0,24907.0,24688.0,24705.0,24703.0,24705.0,24759.0
500_250_100_25_5,24995.0,24932.0,24943.0,24941.0,24886.0,24932.0,24932.0,24932.0,24937.0
500_250_100_25_6,25000.0,24948.0,24948.0,24961.0,24702.0,24948.0,24948.0,24948.0,24948.0
500_250_100_25_7,24998.0,24741.0,24921.0,24939.0,24741.0,24741.0,24741.0,24741.0,24839.0
500_250_100_25_8,24999.0,24980.0,24989.0,24989.0,24955.0,24970.0,24970.0,24970.0,24970.0
500_250_100_25_9,25000.0,24993.0,24997.0,24995.0,24977.0,24990.0,24990.0,24990.0,24990.0
100_75_50_25_0,3740.0,3529.0,3529.0,3527.0,3700.0,3488.0,3487.0,3488.0,3663.0
100_75_50_25_1,3743.0,3740.0,3740.0,3740.0,3733.0,3733.0,3733.0,3733.0,3733.0
100_75_50_25_2,3749.0,3721.0,3721.0,3721.0,3720.0,3720.0,3720.0,3720.0,3720.0
100_75_50_25_3,3748.0,3745.0,3745.0,3745.0,3745.0,3742.0,3725.0,3742.0,3742.0
100_75_50_25_4,3744.0,3710.0,3710.0,3712.0,3667.0,3689.0,3660.0,3689.0,3723.0
100_75_50_25_5,3748.0,3746.0,3746.0,3746.0,3741.0,3741.0,3741.0,3741.0,3741.0
100_75_50_25_6,3749.0,3749.0,3749.0,3749.0,3745.0,3740.0,3740.0,3740.0,3740.0
100_75_50_25_7,3749.0,3749.0,3749.0,3749.0,3744.0,3743.0,3727.0,3743.0,3745.0
100_75_50_25_8,3749.0,3747.0,3747.0,3747.0,3732.0,3744.0,3744.0,3744.0,3744.0
100_75_50_25_9,3741.0,3728.0,3728.0,3728.0,3713.0,3718.0,3718.0,3718.0,3728.0
10000_500_200_29_0,99944.0,99692.0,99913.0,99838.0,99934.0,99703.0,99692.0,99703.0,99692.0
10000_500_200_29_1,99894.0,99974.0,99840.0,99920.0,99998.0,99974.0,99840.0,99974.0,99974.0
10000_500_200_29_2,99943.0,99682.0,99922.0,99925.0,99736.0,99716.0,99615.0,99705.0,99682.0
10000_500_200_29_3,99950.0,99597.0,99913.0,99883.0,99666.0,99664.0,99083.0,99664.0,99664.0
10000_500_200_29_4,99934.0,99685.0,99840.0,99727.0,99670.0,99685.0,99685.0,99685.0,99685.0
10000_500_200_29_5,99914.0,99874.0,99845.0,99850.0,99994.0,99781.0,99580.0,99781.0,99874.0
10000_500_200_29_6,99962.0,99943.0,99986.0,99913.0,99927.0,99943.0,99876.0,99943.0,99943.0
10000_500_200_29_7,99922.0,99462.0,99761.0,99974.0,99338.0,99473.0,99060.0,99473.0,99462.0
10000_500_200_29_8,99925.0,99909.0,99955.0,99792.0,99736.0,99909.0,99574.0,99909.0,99909.0
10000_500_200_29_9,99944.0,99820.0,99942.0,99792.0,99595.0,99820.0,99351.0,99820.0,99820.0
1000_500_250_29_0,124883.0,124768.0,124920.0,124978.0,124317.0,124725.0,124628.0,124726.0,124679.0
1000_500_250_29_1,124876.0,124953.0,124843.0,124975.0,124814.0,124901.0,124085.0,124904.0,124309.0
1000_500_250_29_2,124887.0,124896.0,124890.0,124967.0,124298.0,124814.0,124646.0,124896.0,124814.0
1000_500_250_29_3,124902.0,124945.0,124896.0,124980.0,123696.0,124889.0,124303.0,124578.0,124471.0
1000_500_250_29_4,124871.0,124887.0,124959.0,124987.0,123748.0,124947.0,124384.0,124877.0,124896.0
1000_500_250_29_5,124900.0,124891.0,124967.0,124979.0,124693.0,124891.0,124807.0,124891.0,124892.0
1000_500_250_29_6,124881.0,124964.0,124977.0,124966.0,123670.0,124903.0,124814.0,124898.0,124898.0
1000_500_250_29_7,124862.0,124619.0,124980.0,124980.0,123738.0,124803.0,124367.0,124784.0,124619.0
1000_500_250_29_8,124853.0,124957.0,124953.0,124987.0,124224.0,124832.0,124098.0,124832.0,124675.0
1000_500_250_29_9,124877.0,124888.0,124770.0,124983.0,124719.0,124748.0,124664.0,124748.0,124748.0
500_250_100_29_0,24992.0,24999.0,24995.0,24997.0,24581.0,24970.0,24445.0,24948.0,24730.0
500_250_100_29_1,24997.0,24990.0,24988.0,24996.0,24596.0,24947.0,24679.0,24966.0,24849.0
500_250_100_29_2,24993.0,24995.0,24990.0,25000.0,24624.0,24975.0,24904.0,24975.0,24949.0
500_250_100_29_3,24986.0,24998.0,24996.0,24992.0,24537.0,24989.0,24955.0,24989.0,24989.0
500_250_100_29_4,24988.0,24998.0,24996.0,24997.0,24701.0,24944.0,24463.0,24944.0,24926.0
500_250_100_29_5,24983.0,24997.0,24998.0,25000.0,24474.0,24961.0,24713.0,24967.0,24797.0
500_250_100_29_6,24980.0,24997.0,25000.0,24996.0,24614.0,24974.0,24813.0,24949.0,24938.0
500_250_100_29_7,24985.0,24993.0,24998.0,24995.0,24708.0,24949.0,24638.0,24911.0,24976.0
500_250_100_29_8,24980.0,24979.0,24994.0,24998.0,24732.0,24950.0,24655.0,24950.0,24710.0
500_250_100_29_9,24987.0,24993.0,25000.0,24996.0,24780.0,24884.0,24777.0,24912.0,24868.0
100_75_50_29_0,3750.0,3750.0,3750.0,3750.0,3671.0,3664.0,3620.0,3717.0,3620.0
100_75_50_29_1,3750.0,3739.0,3737.0,3739.0,3723.0,3671.0,3638.0,3728.0,3652.0
100_75_50_29_2,3750.0,3750.0,3750.0,3750.0,3661.0,3730.0,3467.0,3669.0,3720.0
100_75_50_29_3,3750.0,3750.0,3750.0,3750.0,3698.0,3702.0,3462.0,3692.0,3629.0
100_75_50_29_4,3750.0,3750.0,3750.0,3750.0,3664.0,3710.0,3604.0,3708.0,3692.0
100_75_50_29_5,3750.0,3746.0,3741.0,3741.0,3647.0,3722.0,3640.0,3678.0,3697.0
100_75_50_29_6,3750.0,3750.0,3718.0,3726.0,3642.0,3733.0,3623.0,3682.0,3656.0
100_75_50_29_7,3750.0,3750.0,3750.0,3750.0,3717.0,3723.0,3565.0,3735.0,3720.0
100_75_50_29_8,3750.0,3750.0,3750.0,3750.0,3676.0,3711.0,3541.0,3708.0,3706.0
100_75_50_29_9,3750.0,3742.0,3678.0,3741.0,3648.0,3728.0,3499.0,3728.0,3739.0
10000_500_200_33_0,99913.0,99257.0,98989.0,98989.0,99790.0,98989.0,98989.0,98989.0,99257.0
10000_500_200_33_1,99967.0,98414.0,98735.0,99626.0,98660.0,97708.0,97708.0,97708.0,98728.0
10000_500_200_33_2,99941.0,99009.0,98944.0,99958.0,99328.0,98163.0,98163.0,98163.0,98751.0
10000_500_200_33_3,99932.0,99681.0,99413.0,99562.0,99270.0,99681.0,99413.0,99681.0,99681.0
10000_500_200_33_4,99941.0,99496.0,98521.0,99990.0,99073.0,98465.0,98465.0,99398.0,99672.0
10000_500_200_33_5,99969.0,98970.0,99867.0,99237.0,98680.0,99395.0,99326.0,99863.0,99347.0
10000_500_200_33_6,99968.0,99918.0,99194.0,99752.0,99453.0,99888.0,99194.0,99888.0,99888.0
10000_500_200_33_7,99928.0,98405.0,97236.0,98710.0,99205.0,97236.0,97236.0,97236.0,99083.0
10000_500_200_33_8,99968.0,99721.0,98681.0,98852.0,98793.0,99904.0,98681.0,99900.0,99817.0
10000_500_200_33_9,99934.0,98624.0,97572.0,99668.0,98997.0,97572.0,97572.0,97572.0,99111.0
1000_500_250_33_0,124925.0,124963.0,124905.0,124905.0,122959.0,124911.0,124905.0,124910.0,124905.0
1000_500_250_33_1,124903.0,124760.0,124080.0,124734.0,122952.0,124751.0,124026.0,124507.0,124244.0
1000_500_250_33_2,124895.0,124610.0,123646.0,124574.0,123609.0,123831.0,122922.0,124860.0,123685.0
1000_500_250_33_3,124893.0,124563.0,124783.0,124819.0,124082.0,124544.0,123372.0,124299.0,123942.0
1000_500_250_33_4,124903.0,124994.0,124910.0,124910.0,122791.0,124994.0,124910.0,124994.0,124994.0
1000_500_250_33_5,124897.0,124949.0,124402.0,124751.0,124038.0,124229.0,123596.0,124431.0,124023.0
1000_500_250_33_6,124878.0,124959.0,124419.0,124811.0,122711.0,124522.0,123466.0,124522.0,124096.0
1000_500_250_33_7,124819.0,124556.0,123638.0,124972.0,123138.0,124406.0,122815.0,124015.0,123851.0
1000_500_250_33_8,124926.0,124489.0,123793.0,124764.0,123574.0,124037.0,123923.0,124465.0,124085.0
1000_500_250_33_9,124913.0,124947.0,123134.0,124895.0,123355.0,124256.0,123134.0,124256.0,124163.0
500_250_100_33_0,24999.0,24947.0,24997.0,25000.0,24676.0,24889.0,24787.0,24889.0,24889.0
500_250_100_33_1,24999.0,25000.0,24992.0,24997.0,24900.0,24928.0,24644.0,24997.0,24848.0
500_250_100_33_2,24997.0,24999.0,24998.0,24999.0,24518.0,24393.0,23936.0,24395.0,24409.0
500_250_100_33_3,24996.0,24997.0,24983.0,24995.0,24515.0,24821.0,24541.0,24854.0,24541.0
500_250_100_33_4,24992.0,25000.0,24995.0,24997.0,24491.0,25000.0,24877.0,25000.0,25000.0
500_250_100_33_5,24995.0,24949.0,24997.0,24997.0,24541.0,24722.0,24341.0,24447.0,24432.0
500_250_100_33_6,24995.0,24994.0,24936.0,24998.0,24495.0,24725.0,24343.0,24725.0,24711.0
500_250_100_33_7,24991.0,24982.0,24708.0,24943.0,24518.0,24692.0,23760.0,24864.0,24424.0
500_250_100_33_8,25000.0,24974.0,24969.0,24977.0,24469.0,24971.0,24820.0,24965.0,24965.0
500_250_100_33_9,24999.0,25000.0,24998.0,25000.0,24935.0,24587.0,23863.0,24397.0,24155.0
100_75_50_33_0,3733.0,3733.0,3715.0,3715.0,3675.0,3595.0,3529.0,3691.0,3595.0
100_75_50_33_1,3672.0,3675.0,3736.0,3736.0,3720.0,3657.0,3628.0,3682.0,3675.0
100_75_50_33_2,3736.0,3736.0,3737.0,3736.0,3736.0,3564.0,3481.0,3647.0,3581.0
100_75_50_33_3,3700.0,3750.0,3717.0,3750.0,3649.0,3604.0,3462.0,3686.0,3674.0
100_75_50_33_4,3733.0,3714.0,3697.0,3690.0,3662.0,3619.0,3531.0,3619.0,3699.0
100_75_50_33_5,3715.0,3750.0,3750.0,3733.0,3676.0,3750.0,3585.0,3675.0,3700.0
100_75_50_33_6,3722.0,3750.0,3750.0,3750.0,3670.0,3625.0,3566.0,3750.0,3674.0
100_75_50_33_7,3735.0,3686.0,3738.0,3738.0,3696.0,3626.0,3433.0,3646.0,3629.0
100_75_50_33_8,3722.0,3718.0,3734.0,3734.0,3700.0,3643.0,3533.0,3750.0,3587.0
100_75_50_33_9,3731.0,3750.0,3661.0,3661.0,3660.0,3730.0,3453.0,3730.0,3640.0
Falkenauer_u120_03,3727.0,3703.0,3701.0,3701.0,3683.0,3690.0,3690.0,3690.0,3690.0
Falkenauer_t501_05,150043.0,149111.0,148237.0,150675.0,154627.0,148489.0,148217.0,148489.0,151627.0
Falkenauer_u120_07,3737.0,3734.0,3734.0,3733.0,3690.0,3699.0,3686.0,3699.0,3718.0
Falkenauer_u1000_03,30748.0,30581.0,30556.0,30703.0,30379.0,30377.0,30350.0,30481.0,30459.0
Falkenauer_u500_04,15388.0,15347.0,15358.0,15358.0,15317.0,15310.0,15302.0,15310.0,15310.0
Falkenauer_u500_09,15065.0,15036.0,15046.0,15042.0,15008.0,15008.0,14993.0,15008.0,15008.0
Falkenauer_u500_01,15086.0,15093.0,15093.0,15064.0,15001.0,14962.0,14950.0,14962.0,14974.0
Falkenauer_u500_05,15383.0,15365.0,15351.0,15348.0,15295.0,15281.0,15245.0,15281.0,15324.0
Falkenauer_u120_06,3586.0,3587.0,3584.0,3584.0,3583.0,3571.0,3559.0,3575.0,3575.0
Falkenauer_u1000_08,29867.0,29720.0,29673.0,29759.0,29503.0,29691.0,29673.0,29691.0,29738.0
Falkenauer_t120_06,36959.0,36694.0,36676.0,37073.0,37838.0,35914.0,35898.0,36163.0,37176.0
Falkenauer_u1000_01,30329.0,30232.0,30169.0,30291.0,30188.0,30158.0,30058.0,30158.0,30154.0
Falkenauer_u120_00,3564.0,3563.0,3561.0,3563.0,3517.0,3526.0,3524.0,3534.0,3533.0
Falkenauer_u120_04,3724.0,3727.0,3721.0,3721.0,3693.0,3674.0,3645.0,3692.0,3730.0
Falkenauer_t120_08,36200.0,35941.0,35924.0,36246.0,37956.0,35410.0,35404.0,35410.0,37109.0
Falkenauer_u120_01,3724.0,3713.0,3713.0,3713.0,3676.0,3691.0,3687.0,3697.0,3703.0
Falkenauer_t501_00,150015.0,149244.0,147994.0,150153.0,154463.0,147994.0,147994.0,148285.0,148759.0
Falkenauer_u1000_05,29863.0,29705.0,29599.0,29769.0,29455.0,29431.0,29312.0,29476.0,29617.0
Falkenauer_t501_01,149210.0,148583.0,147220.0,150392.0,155849.0,147107.0,147107.0,147595.0,148144.0
Falkenauer_t120_07,36217.0,36208.0,35961.0,36671.0,37710.0,35443.0,35443.0,35443.0,35657.0
Falkenauer_u500_03,15218.0,15172.0,15172.0,15212.0,14977.0,15151.0,15115.0,15151.0,15151.0
Falkenauer_t120_01,36218.0,36218.0,36201.0,36551.0,37737.0,35438.0,35438.0,35438.0,37238.0
Falkenauer_u500_02,15088.0,15057.0,15067.0,15057.0,14997.0,14998.0,14945.0,14950.0,15001.0
Falkenauer_t501_02,150951.0,149806.0,149812.0,150475.0,158642.0,149872.0,149800.0,149872.0,149806.0
Falkenauer_t120_05,36200.0,35941.0,35679.0,36139.0,37463.0,35426.0,35426.0,35426.0,36712.0
Falkenauer_t501_04,150214.0,149163.0,147558.0,150458.0,156589.0,147650.0,147359.0,148177.0,150213.0
Falkenauer_t501_09,150514.0,149577.0,149373.0,150997.0,154178.0,148919.0,148919.0,149373.0,149577.0
Falkenauer_u120_02,3423.0,3394.0,3394.0,3394.0,3394.0,3394.0,3391.0,3407.0,3394.0
Falkenauer_u1000_00,29850.0,29757.0,29732.0,29820.0,29536.0,29580.0,29536.0,29634.0,29585.0
Falkenauer_t120_03,35954.0,35954.0,35668.0,36513.0,37544.0,35154.0,35154.0,35154.0,38183.0
Falkenauer_t120_02,36475.0,36220.0,36219.0,36663.0,37489.0,35967.0,35967.0,35967.0,36981.0
Falkenauer_t501_06,150289.0,149400.0,148462.0,150195.0,154673.0,148462.0,148462.0,148462.0,149357.0
Falkenauer_u120_08,3737.0,3715.0,3713.0,3716.0,3678.0,3697.0,3694.0,3704.0,3697.0
Falkenauer_u1000_06,29558.0,29438.0,29393.0,29480.0,29371.0,29266.0,29178.0,29252.0,29365.0
Falkenauer_u1000_09,29727.0,29629.0,29511.0,29659.0,29212.0,29405.0,29329.0,29405.0,29470.0
Falkenauer_u500_07,15224.0,15171.0,15171.0,15171.0,15073.0,15051.0,15047.0,15047.0,15081.0
Falkenauer_u1000_07,30109.0,30039.0,30042.0,30072.0,29957.0,29936.0,29873.0,29936.0,29948.0
Falkenauer_t501_03,151231.0,149848.0,148364.0,151053.0,155874.0,147872.0,147633.0,147872.0,149858.0
Falkenauer_t120_00,36463.0,36467.0,36216.0,36945.0,37504.0,35439.0,35439.0,35961.0,36703.0
Falkenauer_u1000_02,30775.0,30677.0,30627.0,30705.0,30597.0,30463.0,30435.0,30463.0,30585.0
Falkenauer_t501_08,150286.0,148720.0,147679.0,149740.0,157441.0,147679.0,147679.0,147679.0,149938.0
Falkenauer_u500_06,15545.0,15492.0,15490.0,15492.0,15390.0,15380.0,15368.0,15380.0,15406.0
Falkenauer_u500_00,14745.0,14707.0,14707.0,14707.0,14589.0,14694.0,14694.0,14694.0,14726.0
Falkenauer_t501_07,150284.0,149646.0,148989.0,150216.0,154981.0,148989.0,148989.0,149265.0,153239.0
Falkenauer_u120_05,3583.0,3575.0,3574.0,3575.0,3559.0,3560.0,3558.0,3560.0,3573.0
Falkenauer_u120_09,3426.0,3396.0,3393.0,3393.0,3374.0,3390.0,3370.0,3392.0,3411.0
Falkenauer_t120_04,35957.0,35698.0,35698.0,35698.0,37636.0,35431.0,35431.0,35431.0,36981.0
Falkenauer_t120_09,36488.0,36213.0,35981.0,36669.0,37702.0,35976.0,35976.0,35976.0,38048.0
Falkenauer_u1000_04,29688.0,29614.0,29575.0,29630.0,29497.0,29414.0,29225.0,29414.0,29473.0
Falkenauer_u500_08,14635.0,14611.0,14607.0,14590.0,14588.0,14579.0,14540.0,14579.0,14564.0
