LB = 9619 UB = 61411
Solução atual = 1969
Solução atual = 1969
Solução atual = 1969
Solução atual = 1969
Solução atual = 1969
Solução atual = 1969
Solução atual = 1969
Solução atual = 1969
Solução atual = 1969
Solução atual = 1969
Solução atual = 1969
Solução atual = 1969
Solução atual = 1969
Solução atual = 1969
Solução atual = 1969
Solution = 1969
Time = 1.68
