LB = 514 UB = 2446
Solução atual = 527
Solução atual = 527
Solução atual = 527
Solução atual = 527
Solução atual = 527
Solução atual = 527
Solução atual = 527
Solução atual = 527
Solução atual = 527
Solução atual = 527
Solução atual = 527
Solution = 527
Time = 0.07
