LB = 535 UB = 1902
Solução atual = 316
Solução atual = 316
Solução atual = 316
Solução atual = 316
Solução atual = 316
Solução atual = 316
Solução atual = 316
Solução atual = 316
Solução atual = 316
Solução atual = 316
Solution = 316
Time = 0.03
