instances,MFAP2,PLI
10000_500_200_1,3.8885,0.2104
10000_500_200_2,0.006,0.013
10000_500_200_3,0.028,2.0044
1000_250_125_1,0.0256,0.0352
1000_250_125_2,0.0064,0.0096
1000_250_125_3,0.0064,0.064
100_50_40_1,0.0,0.0
100_50_40_2,0.0,0.0
100_50_40_3,0.0,0.0
100_75_50_1,0.0267,0.0
100_75_50_2,0.0268,0.0
100_75_50_3,0.0,0.4285
200_100_50_1,0.0,0.0
200_100_50_2,0.0,0.1001
200_100_50_3,0.7252,0.5834
200_50_40_1,0.0,0.0
200_50_40_2,0.0,0.0
200_50_40_3,0.0,0.0
400_100_50_1,0.0,0.0
400_100_50_2,0.02,0.2205
400_100_50_3,0.8268,0.3412
400_150_75_1,0.0089,0.0089
400_150_75_2,0.0,0.0178
400_150_75_3,0.0623,0.2495
400_200_100_1,0.1252,0.005
400_200_100_2,0.005,0.01
400_200_100_3,0.0,0.2657
500_125_50_1,0.016,0.0
500_125_50_2,0.016,0.016
500_125_50_3,0.2245,0.3694
500_250_100_1,0.1964,0.028
500_250_100_2,0.0,0.008
500_250_100_3,0.012,0.1683
