instances,MFAP2,PLI
10000_500_200_1,3.8885,0.2104
10000_500_200_2,0.006,0.013
10000_500_200_3,0.028,2.0044
1000_250_125_1,0.0256,0.0352
1000_250_125_2,0.0064,0.0096
1000_250_125_3,0.0064,0.064
1000_500_250_1,0.7098,0.0096
1000_500_250_2,0.0088,0.0072
1000_500_250_3,0.0064,0.8829
100_50_40_1,0.0,0.0
100_50_40_2,0.0,0.0
100_50_40_3,0.0,0.0
100_75_50_1,0.0267,0.0
100_75_50_2,0.0268,0.0
100_75_50_3,0.0,0.4285
200_100_50_1,0.0,0.0
200_100_50_2,0.0,0.1001
200_100_50_3,0.7252,0.5834
200_50_40_1,0.0,0.0
200_50_40_2,0.0,0.0
200_50_40_3,0.0,0.0
400_100_50_1,0.0,0.0
400_100_50_2,0.02,0.2205
400_100_50_3,0.8268,0.3412
400_150_75_1,0.0089,0.0089
400_150_75_2,0.0,0.0178
400_150_75_3,0.0623,0.2495
400_200_100_1,0.1252,0.005
400_200_100_2,0.005,0.01
400_200_100_3,0.0,0.2657
500_125_50_1,0.016,0.0
500_125_50_2,0.016,0.016
500_125_50_3,0.2245,0.3694
500_250_100_1,0.1964,0.028
500_250_100_2,0.0,0.008
500_250_100_3,0.012,0.1683
10000_500_200_4,0.0083,0.0077
1000_500_250_4,0.0069,0.0094
1000_250_125_4,0.0241,0.008
500_250_100_4,0.006,0.0098
500_125_50_4,0.0,0.0092
400_200_100_4,0.0,0.0039
400_150_75_4,0.0531,0.0243
400_100_50_4,0.0,0.0089
200_100_50_4,0.0,0.0059
200_50_40_4,0.0,0.0071
100_75_50_4,0.0,0.2483
100_50_40_4,0.0,0.0085
10000_500_200_5,0.0094,0.0096
1000_500_250_5,0.0022,0.0013
1000_250_125_5,0.0086,0.0094
500_250_100_5,0.0039,0.0032
500_125_50_5,0.0063,0.0095
400_200_100_5,0.0058,0.0018
400_150_75_5,0.0062,0.0071
400_100_50_5,0.0066,0.0066
200_100_50_5,0.0056,0.0
200_50_40_5,0.0016,0.0079
100_75_50_5,0.0029,0.0087
100_50_40_5,0.0059,0.0
10000_500_200_6,4.4223,0.8004
1000_500_250_6,0.1876,0.0328
1000_250_125_6,0.0448,0.0672
500_250_100_6,0.1161,0.0
500_125_50_6,0.0,0.0
400_200_100_6,0.1201,0.0
400_150_75_6,0.0534,0.0
400_100_50_6,0.02,0.0
200_100_50_6,0.0,0.0
200_50_40_6,0.0,0.0
100_75_50_6,0.0,0.0
100_50_40_6,0.0,0.0
10000_500_200_7,2.6525,0.9072
1000_500_250_7,0.5373,0.0296
1000_250_125_7,0.1185,0.0128
500_250_100_7,0.0921,0.02
500_125_50_7,0.016,0.0
400_200_100_7,0.2908,0.005
400_150_75_7,0.0089,0.0
400_100_50_7,0.0,0.0
200_100_50_7,0.2004,0.02
200_50_40_7,0.05,0.0
100_75_50_7,0.0536,0.0
100_50_40_7,0.0,0.0
10000_500_200_8,0.0,0.002
1000_500_250_8,0.6879,1.1114
1000_250_125_8,0.2792,0.1763
500_250_100_8,0.2647,0.7861
500_125_50_8,0.0,0.4662
400_200_100_8,0.6695,0.7709
400_150_75_8,0.0,0.3389
400_100_50_8,0.02,0.2205
200_100_50_8,0.02,0.1201
200_50_40_8,0.0,0.2004
100_75_50_8,0.0,0.4285
100_50_40_8,0.0,0.1001
10000_500_200_9,18.4405,12.5109
1000_500_250_9,19.0874,7.1247
1000_250_125_9,14.2491,13.3367
500_250_100_9,19.9754,19.0967
500_125_50_9,0.0,0.0
400_200_100_9,0.0049,4.4997
400_150_75_9,15.295,0.0231
400_100_50_9,0.0,0.0317
200_100_50_9,0.0,0.0091
200_50_40_9,0.0082,0.0
100_75_50_9,0.0,0.0066
100_50_40_9,0.0,0.0
10000_500_200_10,17.546,9.5619
1000_500_250_10,8.1447,8.2148
1000_250_125_10,7.5556,12.4204
500_250_100_10,7.6433,0.0472
500_125_50_10,0.003,0.0
400_200_100_10,0.0236,0.0236
400_150_75_10,0.0323,0.0355
400_100_50_10,0.0082,0.0082
200_100_50_10,0.0087,0.0087
200_50_40_10,0.0,0.0
100_75_50_10,0.0,0.0
100_50_40_10,0.0089,0.0089
